,filename,experiment,sam_id,hour_time,aligned_x,aligned_y,aligned_z,mean_curvature,gaussian_curvature
0,qDII-DR5-CLV3-LD_E25_170811_sam04_t05,E25,4,5,-78.7055190093,-22.9168063433,-42.2033638702,0.0308873293878,0.0009541651687010001
1,qDII-DR5-CLV3-LD_E25_170811_sam04_t05,E25,4,5,-79.557506776,-18.8545784784,-38.9208101967,0.0319000079536,0.000899080042768
2,qDII-DR5-CLV3-LD_E25_170811_sam04_t05,E25,4,5,-75.5340153845,-27.0419696079,-38.3938723295,0.0333466125899,0.0011257456308800002
3,qDII-DR5-CLV3-LD_E25_170811_sam04_t05,E25,4,5,-76.2358998283,-22.7269731067,-35.1215660446,0.0303762642552,0.0008615128369670001
4,qDII-DR5-CLV3-LD_E25_170811_sam04_t05,E25,4,5,-78.7584376358,-11.935957886199999,-38.100969595900004,0.0338350047003,0.0009641360860060002
5,qDII-DR5-CLV3-LD_E25_170811_sam04_t05,E25,4,5,-77.3653588891,-13.3009993876,-34.4783812526,0.0342936921197,0.000994616202571
6,qDII-DR5-CLV3-LD_E25_170811_sam04_t05,E25,4,5,-75.197345673,-18.4644402471,-32.9812111937,0.0327394575401,0.000930535802003
7,qDII-DR5-CLV3-LD_E25_170811_sam04_t05,E25,4,5,-71.5784103627,-31.4508335217,-42.7626987052,0.0325981812869,0.00106581540122
8,qDII-DR5-CLV3-LD_E25_170811_sam04_t05,E25,4,5,-72.138118382,-25.3981548131,-32.542601230900004,0.0291528667375,0.0007784477160539999
9,qDII-DR5-CLV3-LD_E25_170811_sam04_t05,E25,4,5,-76.6612333219,-7.38895814393,-42.9903850425,0.021317611923700002,0.000377961824684
10,qDII-DR5-CLV3-LD_E25_170811_sam04_t05,E25,4,5,-75.43450991979999,-5.65725249793,-37.1914311497,0.0236271997753,0.000452979302333
11,qDII-DR5-CLV3-LD_E25_170811_sam04_t05,E25,4,5,-66.9491030889,-34.559838932199995,-38.975651237600005,0.027047085155599997,0.000682501393765
12,qDII-DR5-CLV3-LD_E25_170811_sam04_t05,E25,4,5,-67.6252500036,-30.3834104188,-34.5223955497,0.028926229490799996,0.0007849472216799999
13,qDII-DR5-CLV3-LD_E25_170811_sam04_t05,E25,4,5,-71.9206508085,-12.9168377178,-29.687619546100002,0.034240343363099994,0.000976315827052
14,qDII-DR5-CLV3-LD_E25_170811_sam04_t05,E25,4,5,-68.6097693974,-24.999792422,-30.1405819038,0.027726880340700002,0.00066694813454
15,qDII-DR5-CLV3-LD_E25_170811_sam04_t05,E25,4,5,-69.9541363285,-18.1318489663,-28.1921091058,0.0295022185795,0.000763428714362
16,qDII-DR5-CLV3-LD_E25_170811_sam04_t05,E25,4,5,-70.77005925430001,-5.6179403720200005,-31.2263585142,0.029384881468199998,0.000656997657647
17,qDII-DR5-CLV3-LD_E25_170811_sam04_t05,E25,4,5,-64.65808800229999,-28.7041684144,-29.8553930911,0.026386476579200003,0.0006009114698430001
18,qDII-DR5-CLV3-LD_E25_170811_sam04_t05,E25,4,5,-62.0142662234,-33.0200581681,-34.2579911916,0.0232540417305,0.000458299036511
19,qDII-DR5-CLV3-LD_E25_170811_sam04_t05,E25,4,5,-65.50891538479999,-19.5663905412,-28.017692270599998,0.026105446304900002,0.000593962604117
20,qDII-DR5-CLV3-LD_E25_170811_sam04_t05,E25,4,5,-70.5972205798,0.5041113910130001,-33.8964695612,0.0248822542691,0.00037775792018300005
21,qDII-DR5-CLV3-LD_E25_170811_sam04_t05,E25,4,5,-67.39297397680001,-10.5478966255,-27.3692389456,0.031273941644099995,0.000806062202391
22,qDII-DR5-CLV3-LD_E25_170811_sam04_t05,E25,4,5,-63.1610580451,-25.3960564019,-27.653843586799997,0.025236797119,0.000534466748518
23,qDII-DR5-CLV3-LD_E25_170811_sam04_t05,E25,4,5,-59.7044748076,-36.0661281789,-37.5629889382,0.0197844191292,0.00028231595282
24,qDII-DR5-CLV3-LD_E25_170811_sam04_t05,E25,4,5,-67.249876103,-3.50685122499,-28.916276006100002,0.0279688925082,0.000518940763447
25,qDII-DR5-CLV3-LD_E25_170811_sam04_t05,E25,4,5,-59.27842340390001,-30.397455187,-30.8195661639,0.0220061223635,0.00037483360673700003
26,qDII-DR5-CLV3-LD_E25_170811_sam04_t05,E25,4,5,-67.6682041475,5.042886973530001,-35.248305332,0.022905071839900003,0.000234730242927
27,qDII-DR5-CLV3-LD_E25_170811_sam04_t05,E25,4,5,-62.5826621951,-9.24757702887,-26.160365706,0.0242210035451,0.00046135921083099996
28,qDII-DR5-CLV3-LD_E25_170811_sam04_t05,E25,4,5,-55.532403306599996,-33.2211004622,-32.9319971781,0.016105967744899998,8.25326040419e-05
29,qDII-DR5-CLV3-LD_E25_170811_sam04_t05,E25,4,5,-57.9477487912,-23.992596027199998,-26.4416511102,0.018540779188299997,0.00018730631905500002
30,qDII-DR5-CLV3-LD_E25_170811_sam04_t05,E25,4,5,-59.2109795083,-18.2448444562,-25.6043452917,0.0175519765442,0.00020016629468200001
31,qDII-DR5-CLV3-LD_E25_170811_sam04_t05,E25,4,5,-64.1316096846,3.65258488047,-30.4043573869,0.0230969109947,0.00019308329998099998
32,qDII-DR5-CLV3-LD_E25_170811_sam04_t05,E25,4,5,-62.3922518248,-1.55136649764,-27.741464169,0.0226173389574,0.00022834579333099998
33,qDII-DR5-CLV3-LD_E25_170811_sam04_t05,E25,4,5,-64.9407660963,9.60602989525,-38.9517925201,0.0170854242962,-4.17266724185e-05
34,qDII-DR5-CLV3-LD_E25_170811_sam04_t05,E25,4,5,-52.2070320221,-37.6461075555,-38.4867518122,0.011855778147400001,-7.26520266826e-05
35,qDII-DR5-CLV3-LD_E25_170811_sam04_t05,E25,4,5,-54.5316761404,-26.4027849375,-27.4105133609,0.015070732946999999,-2.77419262137e-05
36,qDII-DR5-CLV3-LD_E25_170811_sam04_t05,E25,4,5,-62.9297023623,10.8262217072,-34.2811811469,0.0176315283656,-7.06233118717e-05
37,qDII-DR5-CLV3-LD_E25_170811_sam04_t05,E25,4,5,-50.60713159350001,-34.816329765700004,-33.911396495,0.0103172213135,-0.00018680759982900002
38,qDII-DR5-CLV3-LD_E25_170811_sam04_t05,E25,4,5,-60.885975295,5.19550649545,-29.2428224977,0.0197278638718,1.46376796169e-05
39,qDII-DR5-CLV3-LD_E25_170811_sam04_t05,E25,4,5,-51.1548297978,-31.1049280063,-30.603369189099997,0.012409030954200002,-0.00013091675294299999
40,qDII-DR5-CLV3-LD_E25_170811_sam04_t05,E25,4,5,-57.8780637722,-1.6129475515399998,-26.4661277429,0.0170481131586,2.48127998928e-05
41,qDII-DR5-CLV3-LD_E25_170811_sam04_t05,E25,4,5,-46.8273674237,-39.3393943282,-39.4509248851,0.006991734266,-0.000275296312097
42,qDII-DR5-CLV3-LD_E25_170811_sam04_t05,E25,4,5,-50.60449224520001,-24.9689806621,-27.4011350052,0.009591221610440001,-0.00029494628766100003
43,qDII-DR5-CLV3-LD_E25_170811_sam04_t05,E25,4,5,-59.0497513187,11.528923123599998,-31.8877495898,0.0157993660913,-0.000156112825091
44,qDII-DR5-CLV3-LD_E25_170811_sam04_t05,E25,4,5,-46.3674923026,-35.4460783517,-33.784607687800005,0.00659897505245,-0.000363336385925
45,qDII-DR5-CLV3-LD_E25_170811_sam04_t05,E25,4,5,-56.3933622099,4.34019232308,-26.752475266100003,0.0149100841744,-0.000151021191019
46,qDII-DR5-CLV3-LD_E25_170811_sam04_t05,E25,4,5,-51.8611599874,-10.078367908999999,-24.707582885300003,0.00391273894806,-0.00022230738352400003
47,qDII-DR5-CLV3-LD_E25_170811_sam04_t05,E25,4,5,-53.454417796,-3.84122224487,-25.0767001023,0.008662345718549999,-0.00016630477307799996
48,qDII-DR5-CLV3-LD_E25_170811_sam04_t05,E25,4,5,-46.057800149399995,-31.729593283200003,-30.458034900999998,0.00672399337845,-0.000413682884378
49,qDII-DR5-CLV3-LD_E25_170811_sam04_t05,E25,4,5,-57.93430315609999,15.679502933,-35.6045137258,0.010683982652700002,-0.000266666513348
50,qDII-DR5-CLV3-LD_E25_170811_sam04_t05,E25,4,5,-55.578041048100005,7.90929713163,-28.0987528261,0.014069816503700002,-0.000211934387835
51,qDII-DR5-CLV3-LD_E25_170811_sam04_t05,E25,4,5,-46.8706412529,-25.299473531700002,-27.301479449000002,0.00601733420098,-0.000471499140018
52,qDII-DR5-CLV3-LD_E25_170811_sam04_t05,E25,4,5,-58.053744228999996,19.8111038522,-45.212168573599996,0.00734028553015,-0.00020741059324999998
53,qDII-DR5-CLV3-LD_E25_170811_sam04_t05,E25,4,5,-52.7243157648,1.70443782633,-25.357779092399998,0.011080565531899999,-0.00020894004519799998
54,qDII-DR5-CLV3-LD_E25_170811_sam04_t05,E25,4,5,-42.0940292943,-37.8511839531,-34.7349244576,0.00502612028299,-0.000414419635326
55,qDII-DR5-CLV3-LD_E25_170811_sam04_t05,E25,4,5,-54.942643654899996,12.2205646696,-30.6617008101,0.0114547815971,-0.000280879672104
56,qDII-DR5-CLV3-LD_E25_170811_sam04_t05,E25,4,5,-56.973120878,20.5096152122,-41.7069906818,0.007428324278130001,-0.00019041271386
57,qDII-DR5-CLV3-LD_E25_170811_sam04_t05,E25,4,5,-41.1217586505,-40.665711816,-39.254643332,0.004238114030070001,-0.000380463482315
58,qDII-DR5-CLV3-LD_E25_170811_sam04_t05,E25,4,5,-47.0316736516,-18.059477482200002,-24.1740065442,-0.00065480497023,-0.0004744609435959999
59,qDII-DR5-CLV3-LD_E25_170811_sam04_t05,E25,4,5,-42.0588062578,-34.7788041449,-30.2069074908,0.00539720196853,-0.00046132224587999997
60,qDII-DR5-CLV3-LD_E25_170811_sam04_t05,E25,4,5,-47.5957831674,-10.8466844827,-23.3998446752,-0.0031183291155300005,-0.000342124335728
61,qDII-DR5-CLV3-LD_E25_170811_sam04_t05,E25,4,5,-48.8374389171,-4.30519979323,-23.7775496622,0.0020664774187900002,-0.00030903488664499996
62,qDII-DR5-CLV3-LD_E25_170811_sam04_t05,E25,4,5,-43.3977705981,-23.8435495154,-24.957335538400002,0.00309630084126,-0.000548711455161
63,qDII-DR5-CLV3-LD_E25_170811_sam04_t05,E25,4,5,-50.57147383109999,5.042000486969999,-25.4893355246,0.00933064725916,-0.000275774013806
64,qDII-DR5-CLV3-LD_E25_170811_sam04_t05,E25,4,5,-53.196961755,16.3872876583,-33.1925366877,0.00851580191198,-0.000293809980186
65,qDII-DR5-CLV3-LD_E25_170811_sam04_t05,E25,4,5,-53.8651817713,19.0788026006,-35.6973195777,0.00798051710512,-0.000236059823696
66,qDII-DR5-CLV3-LD_E25_170811_sam04_t05,E25,4,5,-51.7618138126,11.4582246574,-28.205125303400003,0.00899733966241,-0.000311428841573
67,qDII-DR5-CLV3-LD_E25_170811_sam04_t05,E25,4,5,-41.1013883165,-29.396079400599998,-26.955385660500003,0.00461734161491,-0.0005306497500649999
68,qDII-DR5-CLV3-LD_E25_170811_sam04_t05,E25,4,5,-54.798703976800006,24.6409109913,-43.0535579194,0.00820905608819,-5.82870008048e-05
69,qDII-DR5-CLV3-LD_E25_170811_sam04_t05,E25,4,5,-43.8292688418,-18.028084376,-22.9324418429,-0.0037479646415100004,-0.0004997049070869999
70,qDII-DR5-CLV3-LD_E25_170811_sam04_t05,E25,4,5,-53.3839706177,23.9936648802,-38.2959885827,0.008103609170649999,-0.00010976395844299999
71,qDII-DR5-CLV3-LD_E25_170811_sam04_t05,E25,4,5,-35.7081906897,-44.2102933323,-38.9459301829,0.00432563995419,-0.00035239657488
72,qDII-DR5-CLV3-LD_E25_170811_sam04_t05,E25,4,5,-44.346065861099994,-10.1601262457,-22.1923413765,-0.0061493404390299995,-0.000360724302021
73,qDII-DR5-CLV3-LD_E25_170811_sam04_t05,E25,4,5,-54.060515757299996,28.5497820348,-45.592691889499996,0.011648107478,5.66985683976e-05
74,qDII-DR5-CLV3-LD_E25_170811_sam04_t05,E25,4,5,-36.902215363,-37.317394425100005,-29.9577293766,0.006702160692949999,-0.000379635432726
75,qDII-DR5-CLV3-LD_E25_170811_sam04_t05,E25,4,5,-45.75007368359999,-1.3023200585999999,-22.6977042034,0.00117582180855,-0.00031991874130199996
76,qDII-DR5-CLV3-LD_E25_170811_sam04_t05,E25,4,5,-49.090855185500004,11.8515037396,-25.821651457199998,0.007176119364699999,-0.00030534880964300004
77,qDII-DR5-CLV3-LD_E25_170811_sam04_t05,E25,4,5,-39.8694216135,-23.4451871243,-22.555316211199997,0.00134396782474,-0.000494486938206
78,qDII-DR5-CLV3-LD_E25_170811_sam04_t05,E25,4,5,-50.3542451925,17.751130767,-29.6843292366,0.007641777387569999,-0.000253243504246
79,qDII-DR5-CLV3-LD_E25_170811_sam04_t05,E25,4,5,-46.8673636395,5.63050125485,-24.2666059819,0.00559953294107,-0.000308231539914
80,qDII-DR5-CLV3-LD_E25_170811_sam04_t05,E25,4,5,-40.7296548584,-17.594294775199998,-21.714691155700002,-0.00478249743129,-0.000452621453457
81,qDII-DR5-CLV3-LD_E25_170811_sam04_t05,E25,4,5,-34.4679785084,-40.048065540100005,-32.1039321158,0.006573533292439999,-0.000324327983547
82,qDII-DR5-CLV3-LD_E25_170811_sam04_t05,E25,4,5,-50.280194072700006,23.4951533748,-34.682277686999996,0.00945925472035,-8.38649446448e-05
83,qDII-DR5-CLV3-LD_E25_170811_sam04_t05,E25,4,5,-35.9961131898,-31.809409161799998,-24.3681227544,0.006878334855760001,-0.00036618324266100003
84,qDII-DR5-CLV3-LD_E25_170811_sam04_t05,E25,4,5,-36.719652246,-28.212208050799997,-22.2307974629,0.00530944516347,-0.000371327307797
85,qDII-DR5-CLV3-LD_E25_170811_sam04_t05,E25,4,5,-34.1365520978,-35.6897228097,-25.2923865365,0.00898184886139,-0.000271418720393
86,qDII-DR5-CLV3-LD_E25_170811_sam04_t05,E25,4,5,-51.405888796800006,32.3685146288,-43.3930916813,0.0197432751814,0.000156881048438
87,qDII-DR5-CLV3-LD_E25_170811_sam04_t05,E25,4,5,-50.510432515299996,29.5900020879,-39.7056997699,0.015326623769600001,9.743050846600001e-05
88,qDII-DR5-CLV3-LD_E25_170811_sam04_t05,E25,4,5,-41.5968139075,-5.03106339018,-20.0608639733,-0.004296805558189999,-0.00028559340063700003
89,qDII-DR5-CLV3-LD_E25_170811_sam04_t05,E25,4,5,-36.821123398299996,-22.886137004600002,-18.9994807321,0.0019790597559400003,-0.000318084750309
90,qDII-DR5-CLV3-LD_E25_170811_sam04_t05,E25,4,5,-48.158173678999994,22.600221936300002,-29.8959154808,0.011105945570000001,-4.39415262168e-05
91,qDII-DR5-CLV3-LD_E25_170811_sam04_t05,E25,4,5,-42.101362176900004,0.26780460624200003,-19.1828582783,-0.000418894099368,-0.000246739034632
92,qDII-DR5-CLV3-LD_E25_170811_sam04_t05,E25,4,5,-46.3416828768,17.0565043233,-26.040165853,0.00817333380306,-0.00017231858420099997
93,qDII-DR5-CLV3-LD_E25_170811_sam04_t05,E25,4,5,-44.2424774797,10.3682274863,-20.9439317872,0.0050201624867,-0.000253713074257
94,qDII-DR5-CLV3-LD_E25_170811_sam04_t05,E25,4,5,-50.873202585,37.006240933,-43.6298618803,0.0282270046233,0.00022839358344
95,qDII-DR5-CLV3-LD_E25_170811_sam04_t05,E25,4,5,-31.4236835649,-38.7085897707,-26.2440732472,0.0106004923661,-0.000164743601854
96,qDII-DR5-CLV3-LD_E25_170811_sam04_t05,E25,4,5,-42.635730892,6.56160396836,-19.5317703958,0.00313679370342,-0.000249465863797
97,qDII-DR5-CLV3-LD_E25_170811_sam04_t05,E25,4,5,-29.842833796199997,-42.2247698444,-30.712844856599997,0.00858931008102,-0.000196128087393
98,qDII-DR5-CLV3-LD_E25_170811_sam04_t05,E25,4,5,-33.139907848200004,-28.015043907,-19.816871128800003,0.008093222540300002,-0.000144102173831
99,qDII-DR5-CLV3-LD_E25_170811_sam04_t05,E25,4,5,-37.3325974718,-10.8749299722,-17.3082729102,-0.00318743106831,-0.000195465490407
100,qDII-DR5-CLV3-LD_E25_170811_sam04_t05,E25,4,5,-44.0912137726,15.6965461309,-22.3990320287,0.00758802736149,-0.00014553730635
101,qDII-DR5-CLV3-LD_E25_170811_sam04_t05,E25,4,5,-47.0981242012,27.732425642600003,-31.3205632344,0.0173628729535,0.00017882942309499999
102,qDII-DR5-CLV3-LD_E25_170811_sam04_t05,E25,4,5,-47.509446796599995,29.493887076900002,-36.1158028882,0.0176933522882,0.000153515889149
103,qDII-DR5-CLV3-LD_E25_170811_sam04_t05,E25,4,5,-35.9490042325,-15.4509192694,-17.0327521307,-0.0014909295378399997,-0.000215373291882
104,qDII-DR5-CLV3-LD_E25_170811_sam04_t05,E25,4,5,-33.854041042,-21.1309572719,-16.6824700724,0.00431305987734,-0.000142508462875
105,qDII-DR5-CLV3-LD_E25_170811_sam04_t05,E25,4,5,-38.0683852779,-4.70863872732,-15.3088528472,0.00044177303477300003,-0.00011237678222600002
106,qDII-DR5-CLV3-LD_E25_170811_sam04_t05,E25,4,5,-39.4817989629,0.862281935614,-16.8112914391,0.00095548534067,-0.00016930092958899998
107,qDII-DR5-CLV3-LD_E25_170811_sam04_t05,E25,4,5,-30.8813525557,-31.011791127,-18.4337922845,0.0110124926942,-3.44706868797e-05
108,qDII-DR5-CLV3-LD_E25_170811_sam04_t05,E25,4,5,-47.41374106439999,35.955705074899996,-39.9787703452,0.0322061138173,0.000266340933056
109,qDII-DR5-CLV3-LD_E25_170811_sam04_t05,E25,4,5,-26.3753657322,-44.836157002,-31.6698001004,0.00899653183449,-0.00012056220950099999
110,qDII-DR5-CLV3-LD_E25_170811_sam04_t05,E25,4,5,-41.202424742800005,12.7159420902,-19.830024926,0.00645958949627,-0.00014298486724399997
111,qDII-DR5-CLV3-LD_E25_170811_sam04_t05,E25,4,5,-27.252931738,-40.7872366058,-24.868212231999998,0.012660132731899998,-3.86828333061e-05
112,qDII-DR5-CLV3-LD_E25_170811_sam04_t05,E25,4,5,-28.640448603899998,-35.5067593871,-20.489717823,0.0134349921402,2.27474038382e-06
113,qDII-DR5-CLV3-LD_E25_170811_sam04_t05,E25,4,5,-42.3751930285,20.7063250289,-21.4568021209,0.0134143845566,9.990877670899999e-05
114,qDII-DR5-CLV3-LD_E25_170811_sam04_t05,E25,4,5,-43.403180937100004,24.8062277017,-24.0449340598,0.0187979485164,0.00027376657397000005
115,qDII-DR5-CLV3-LD_E25_170811_sam04_t05,E25,4,5,-29.8427984004,-26.7492582675,-16.293437433599998,0.010566696920399998,2.35337892636e-05
116,qDII-DR5-CLV3-LD_E25_170811_sam04_t05,E25,4,5,-38.176941524200004,7.481646811419999,-15.9643175873,0.0055257355923300005,-9.99486423689e-05
117,qDII-DR5-CLV3-LD_E25_170811_sam04_t05,E25,4,5,-44.5505302737,32.9617935655,-33.8907290475,0.026763589081099996,0.000272239451682
118,qDII-DR5-CLV3-LD_E25_170811_sam04_t05,E25,4,5,-32.660060618,-12.4724068739,-13.6012552546,0.006129643028729999,1.40522844242e-05
119,qDII-DR5-CLV3-LD_E25_170811_sam04_t05,E25,4,5,-40.0909002069,17.571009821,-18.8927738736,0.010267104091700001,2.34244653371e-05
120,qDII-DR5-CLV3-LD_E25_170811_sam04_t05,E25,4,5,-24.034274906599997,-44.10535928310001,-25.7927656917,0.0131937183895,8.0433020335e-06
121,qDII-DR5-CLV3-LD_E25_170811_sam04_t05,E25,4,5,-43.050418494,30.1861167353,-25.4983746829,0.0250737425935,0.000400231871386
122,qDII-DR5-CLV3-LD_E25_170811_sam04_t05,E25,4,5,-33.1605259707,-8.02990225548,-12.6772811501,0.00625618795896,2.67841066765e-05
123,qDII-DR5-CLV3-LD_E25_170811_sam04_t05,E25,4,5,-38.5571239998,13.1718514318,-16.2775086838,0.00825942248785,-2.6911594443000002e-05
124,qDII-DR5-CLV3-LD_E25_170811_sam04_t05,E25,4,5,-23.0407478752,-45.8224031147,-40.9274625674,0.00812327571207,-2.89143930294e-05
125,qDII-DR5-CLV3-LD_E25_170811_sam04_t05,E25,4,5,-24.354736845700003,-40.4809551223,-21.3021293643,0.0149932374395,7.95453217939e-05
126,qDII-DR5-CLV3-LD_E25_170811_sam04_t05,E25,4,5,-28.3889980231,-24.9526747637,-14.011858117300001,0.0111495600361,8.11856619153e-05
127,qDII-DR5-CLV3-LD_E25_170811_sam04_t05,E25,4,5,-30.2905486658,-17.5842773444,-12.1024255773,0.0102604828366,8.77200606199e-05
128,qDII-DR5-CLV3-LD_E25_170811_sam04_t05,E25,4,5,-24.928172579,-36.6309853751,-19.175051461400002,0.015278749828700002,0.00011637632859499999
129,qDII-DR5-CLV3-LD_E25_170811_sam04_t05,E25,4,5,-34.9581254029,4.01164867761,-12.188887449100001,0.00832973171087,3.19548353895e-05
130,qDII-DR5-CLV3-LD_E25_170811_sam04_t05,E25,4,5,-25.7369307658,-31.0572290015,-15.9725275999,0.0143262346731,0.000136293085049
131,qDII-DR5-CLV3-LD_E25_170811_sam04_t05,E25,4,5,-35.968541615700005,9.68571011863,-13.688006804,0.00854798651463,3.4710015323699996e-06
132,qDII-DR5-CLV3-LD_E25_170811_sam04_t05,E25,4,5,-20.7088239772,-48.6063041047,-28.9975285268,0.0133085339836,6.80189709587e-05
133,qDII-DR5-CLV3-LD_E25_170811_sam04_t05,E25,4,5,-32.8374246833,-1.8069573126400003,-10.6576559878,0.00976971896384,9.56211841216e-05
134,qDII-DR5-CLV3-LD_E25_170811_sam04_t05,E25,4,5,-20.147716638800002,-49.81124598979999,-33.6125034572,0.011998817854299999,6.41379985124e-05
135,qDII-DR5-CLV3-LD_E25_170811_sam04_t05,E25,4,5,-42.5302996121,37.6966840863,-35.273017306199996,0.0311574290632,0.000265082637771
136,qDII-DR5-CLV3-LD_E25_170811_sam04_t05,E25,4,5,-37.2184428437,18.015859292200002,-16.507640408900002,0.0117575209834,9.11600159707e-05
137,qDII-DR5-CLV3-LD_E25_170811_sam04_t05,E25,4,5,-41.5402183375,36.2285018069,-31.653748199899997,0.0288019119217,0.00026038306319599996
138,qDII-DR5-CLV3-LD_E25_170811_sam04_t05,E25,4,5,-26.214421832,-20.973254440999998,-10.6584417571,0.012215223085,0.000130325598592
139,qDII-DR5-CLV3-LD_E25_170811_sam04_t05,E25,4,5,-19.2549439548,-46.885658329099996,-24.3659574116,0.0165742304953,0.000146778817132
140,qDII-DR5-CLV3-LD_E25_170811_sam04_t05,E25,4,5,-34.8827546089,14.6793458372,-13.9317051547,0.011633603313500001,9.43486135035e-05
141,qDII-DR5-CLV3-LD_E25_170811_sam04_t05,E25,4,5,-39.919903325599996,34.7764627069,-26.848550835100003,0.0272369869368,0.000311178500276
142,qDII-DR5-CLV3-LD_E25_170811_sam04_t05,E25,4,5,-28.5907799433,-9.22498266281,-8.99407750857,0.011305426907,0.00012281630589700002
143,qDII-DR5-CLV3-LD_E25_170811_sam04_t05,E25,4,5,-23.797677028200003,-25.3540220525,-11.5436652812,0.012930147718799998,0.000143295177616
144,qDII-DR5-CLV3-LD_E25_170811_sam04_t05,E25,4,5,-20.101529130699998,-38.7561192904,-17.782304583800002,0.0160952083947,0.000161083232787
145,qDII-DR5-CLV3-LD_E25_170811_sam04_t05,E25,4,5,-18.5638292969,-43.859765601099994,-19.8210545823,0.017248402752900002,0.000166924825107
146,qDII-DR5-CLV3-LD_E25_170811_sam04_t05,E25,4,5,-37.9912158347,32.1172341235,-21.971911428400002,0.0267948946245,0.000450229225602
147,qDII-DR5-CLV3-LD_E25_170811_sam04_t05,E25,4,5,-35.7337412814,23.9689991669,-16.793987932100002,0.0172210578236,0.00026607687516999997
148,qDII-DR5-CLV3-LD_E25_170811_sam04_t05,E25,4,5,-15.8483568114,-52.506795035299994,-28.681887226199997,0.0187102242963,0.000267494976667
149,qDII-DR5-CLV3-LD_E25_170811_sam04_t05,E25,4,5,-31.707168067399998,9.697819194680001,-10.076245204500001,0.012200517325600001,0.000123076569476
150,qDII-DR5-CLV3-LD_E25_170811_sam04_t05,E25,4,5,-21.2267459849,-30.3383844057,-12.393167784400001,0.0145862614287,0.00017896888893900002
151,qDII-DR5-CLV3-LD_E25_170811_sam04_t05,E25,4,5,-24.887909780900003,-13.636094175,-8.67648691183,0.013105383196399999,0.000151845557598
152,qDII-DR5-CLV3-LD_E25_170811_sam04_t05,E25,4,5,-37.3049008982,36.6829297836,-38.622903199,0.029950815994500002,0.00019956840503400003
153,qDII-DR5-CLV3-LD_E25_170811_sam04_t05,E25,4,5,-14.7204209639,-51.1531185446,-25.2107707369,0.0201429025924,0.00030947829199900003
154,qDII-DR5-CLV3-LD_E25_170811_sam04_t05,E25,4,5,-27.5428995705,-1.59962655086,-8.206638691739998,0.012884286031299999,0.00016889323415499998
155,qDII-DR5-CLV3-LD_E25_170811_sam04_t05,E25,4,5,-31.350322707600004,14.2213448503,-11.483717418,0.0134372878251,0.000149260248896
156,qDII-DR5-CLV3-LD_E25_170811_sam04_t05,E25,4,5,-21.9531279286,-20.885207636700002,-9.39667195648,0.012702065116700002,0.000139840258666
157,qDII-DR5-CLV3-LD_E25_170811_sam04_t05,E25,4,5,-17.974265436099998,-35.4318640985,-14.394826820999999,0.0154964473096,0.000182641576155
158,qDII-DR5-CLV3-LD_E25_170811_sam04_t05,E25,4,5,-32.2661139274,21.2057365528,-13.0509595779,0.0159813896947,0.00022790776833099996
159,qDII-DR5-CLV3-LD_E25_170811_sam04_t05,E25,4,5,-12.3810480374,-54.9663067364,-34.3388260678,0.019532778047599998,0.000310427083892
160,qDII-DR5-CLV3-LD_E25_170811_sam04_t05,E25,4,5,-27.8581978538,6.319901968509999,-7.464878606799999,0.014229873899299998,0.000189775140985
161,qDII-DR5-CLV3-LD_E25_170811_sam04_t05,E25,4,5,-15.0909586421,-42.4038415848,-17.476910671600002,0.0172442830415,0.000183599395044
162,qDII-DR5-CLV3-LD_E25_170811_sam04_t05,E25,4,5,-18.7654519272,-28.2839489567,-10.103290375599999,0.013471683783799999,0.000155892932919
163,qDII-DR5-CLV3-LD_E25_170811_sam04_t05,E25,4,5,-35.752153676199995,38.7056669862,-29.313502881399998,0.025955515106900005,0.00017360417132599996
164,qDII-DR5-CLV3-LD_E25_170811_sam04_t05,E25,4,5,-13.3477568005,-48.2363431561,-21.8180244411,0.0206594961273,0.000320648546785
165,qDII-DR5-CLV3-LD_E25_170811_sam04_t05,E25,4,5,-21.2661758323,-16.9270138025,-7.247729335619999,0.013226176857300001,0.00015241216410200002
166,qDII-DR5-CLV3-LD_E25_170811_sam04_t05,E25,4,5,-11.017789736400001,-55.3364168721,-31.943155537,0.0217350522968,0.000408133302162
167,qDII-DR5-CLV3-LD_E25_170811_sam04_t05,E25,4,5,-17.9973636169,-25.4459470071,-9.06551473425,0.0126734617096,0.00013778409416
168,qDII-DR5-CLV3-LD_E25_170811_sam04_t05,E25,4,5,-28.045047426500002,13.774403733900002,-7.868346903839999,0.0151385677054,0.000194868715024
169,qDII-DR5-CLV3-LD_E25_170811_sam04_t05,E25,4,5,-29.0987728642,18.0128743945,-11.637428245699999,0.0151928996342,0.00019821487213599997
170,qDII-DR5-CLV3-LD_E25_170811_sam04_t05,E25,4,5,-32.8251394324,32.7895916392,-18.3756657504,0.026499977686400004,0.000497627443256
171,qDII-DR5-CLV3-LD_E25_170811_sam04_t05,E25,4,5,-22.061524885,-8.84679755448,-5.35215309867,0.0140078372801,0.00018514709303700001
172,qDII-DR5-CLV3-LD_E25_170811_sam04_t05,E25,4,5,-9.93708674048,-54.713843240299994,-26.0879858462,0.024678654121,0.00053750375838
173,qDII-DR5-CLV3-LD_E25_170811_sam04_t05,E25,4,5,-13.392429948699998,-39.0441591832,-15.273701548800002,0.0157065906726,0.00015957040828799997
174,qDII-DR5-CLV3-LD_E25_170811_sam04_t05,E25,4,5,-33.4628564887,40.0173515934,-35.1983344744,0.024561007604299998,6.45878920273e-05
175,qDII-DR5-CLV3-LD_E25_170811_sam04_t05,E25,4,5,-24.013310556799997,3.7983481202999996,-4.8994804186400005,0.0151190143004,0.000217044793947
176,qDII-DR5-CLV3-LD_E25_170811_sam04_t05,E25,4,5,-30.3609228421,28.912113702,-14.594967079100002,0.0228293139673,0.000456985163337
177,qDII-DR5-CLV3-LD_E25_170811_sam04_t05,E25,4,5,-32.2113966516,36.3830637869,-22.073594727800003,0.0268042879427,0.000334546680686
178,qDII-DR5-CLV3-LD_E25_170811_sam04_t05,E25,4,5,-14.535218498699999,-32.2005830668,-10.9735773334,0.0139310614715,0.000155780034007
179,qDII-DR5-CLV3-LD_E25_170811_sam04_t05,E25,4,5,-17.9271564788,-19.0733742061,-7.05945619737,0.012606359685200002,0.0001387529055
180,qDII-DR5-CLV3-LD_E25_170811_sam04_t05,E25,4,5,-9.73418868528,-49.81453602770001,-20.481203683900002,0.0219578895535,0.00040401773550899996
181,qDII-DR5-CLV3-LD_E25_170811_sam04_t05,E25,4,5,-21.6140578038,-2.23251598763,-4.52372472779,0.015229382441399998,0.00023102302363299998
182,qDII-DR5-CLV3-LD_E25_170811_sam04_t05,E25,4,5,-24.140598883000003,9.33892488255,-5.199104889669999,0.0155942077616,0.00021560260016500001
183,qDII-DR5-CLV3-LD_E25_170811_sam04_t05,E25,4,5,-15.3818833196,-23.9951062998,-6.73991630453,0.0123114319213,0.000129899478093
184,qDII-DR5-CLV3-LD_E25_170811_sam04_t05,E25,4,5,-5.24869608998,-59.2811472845,-36.2970453463,0.0196137031361,0.00038354142536800004
185,qDII-DR5-CLV3-LD_E25_170811_sam04_t05,E25,4,5,-9.07697738973,-44.937348556,-17.2091870766,0.017269389514,0.00021811630206999998
186,qDII-DR5-CLV3-LD_E25_170811_sam04_t05,E25,4,5,-27.579007555300002,27.1902695337,-12.0957423999,0.0194242204148,0.00034709633852699997
187,qDII-DR5-CLV3-LD_E25_170811_sam04_t05,E25,4,5,-26.375258439699998,23.280505237699998,-10.6869002455,0.0159390837108,0.000227123383308
188,qDII-DR5-CLV3-LD_E25_170811_sam04_t05,E25,4,5,-4.69943927666,-58.29668767689999,-29.299966510500003,0.024642414669,0.0005773217993280001
189,qDII-DR5-CLV3-LD_E25_170811_sam04_t05,E25,4,5,-5.70145072126,-54.5631661765,-23.6571736496,0.025956483556499998,0.0006199206265809999
190,qDII-DR5-CLV3-LD_E25_170811_sam04_t05,E25,4,5,-12.3822969201,-28.938958134299998,-8.75514196667,0.012972272324600001,0.000140269347556
191,qDII-DR5-CLV3-LD_E25_170811_sam04_t05,E25,4,5,-25.0254889179,20.4798729559,-9.33427388909,0.0150625064383,0.000193961376935
192,qDII-DR5-CLV3-LD_E25_170811_sam04_t05,E25,4,5,-9.277156451669999,-40.065244393200004,-13.9557159502,0.0147238530052,0.00014198931576100003
193,qDII-DR5-CLV3-LD_E25_170811_sam04_t05,E25,4,5,-10.6133575494,-34.910027693400004,-11.9153063332,0.0134619998626,0.000129380988964
194,qDII-DR5-CLV3-LD_E25_170811_sam04_t05,E25,4,5,-20.0778811833,3.4434879115300006,-2.4481734450099997,0.0163057419394,0.000249206703528
195,qDII-DR5-CLV3-LD_E25_170811_sam04_t05,E25,4,5,-13.7645704852,-19.4392942853,-5.77553200122,0.012432508266200001,0.00013747582702599998
196,qDII-DR5-CLV3-LD_E25_170811_sam04_t05,E25,4,5,-28.2073983941,37.780852740300006,-30.271327158000002,0.0251521498565,0.000126989358467
197,qDII-DR5-CLV3-LD_E25_170811_sam04_t05,E25,4,5,-18.192582562200002,-0.575393724105,-2.1914878241299998,0.0163845833172,0.00026107383429499996
198,qDII-DR5-CLV3-LD_E25_170811_sam04_t05,E25,4,5,-22.488301946999997,17.1949298899,-6.756679016330001,0.015226522400299999,0.00019880532691999997
199,qDII-DR5-CLV3-LD_E25_170811_sam04_t05,E25,4,5,-27.9411747557,40.2136224848,-33.9146999559,0.024164033581,5.14640537028e-05
200,qDII-DR5-CLV3-LD_E25_170811_sam04_t05,E25,4,5,-4.0975470209900005,-52.513814036499994,-21.385841721800002,0.0242261873726,0.000545931814759
201,qDII-DR5-CLV3-LD_E25_170811_sam04_t05,E25,4,5,-26.6341569439,35.4458353248,-18.382092993900002,0.0254658943186,0.00041781938701
202,qDII-DR5-CLV3-LD_E25_170811_sam04_t05,E25,4,5,-20.9843461856,13.7907028664,-5.36833163895,0.0155116362362,0.000212509305427
203,qDII-DR5-CLV3-LD_E25_170811_sam04_t05,E25,4,5,-5.133461827980001,-46.9289977924,-17.0159350829,0.0178576245906,0.000275839626852
204,qDII-DR5-CLV3-LD_E25_170811_sam04_t05,E25,4,5,-27.182094083000003,39.385050269000004,-22.1240410848,0.0263956741108,0.000296551704081
205,qDII-DR5-CLV3-LD_E25_170811_sam04_t05,E25,4,5,-19.2963837389,8.7879497355,-2.71734542811,0.0160792683256,0.000232918934319
206,qDII-DR5-CLV3-LD_E25_170811_sam04_t05,E25,4,5,-24.8514898591,31.677474727199996,-13.449237789100001,0.020616829995799998,0.00036766626071499994
207,qDII-DR5-CLV3-LD_E25_170811_sam04_t05,E25,4,5,-5.56087715506,-41.969896031,-14.945072977899999,0.014897713081100002,0.00016766778763499998
208,qDII-DR5-CLV3-LD_E25_170811_sam04_t05,E25,4,5,-12.473122180699999,-15.326389283900001,-3.62161052491,0.0130185252709,0.000155049088286
209,qDII-DR5-CLV3-LD_E25_170811_sam04_t05,E25,4,5,-14.7385236323,-5.69324075606,-1.84149544336,0.0158992624159,0.00024828874636099996
210,qDII-DR5-CLV3-LD_E25_170811_sam04_t05,E25,4,5,-0.044872343564599994,-61.088634705699995,-38.4319204336,0.0163182949689,0.000274874535425
211,qDII-DR5-CLV3-LD_E25_170811_sam04_t05,E25,4,5,-6.63878151277,-32.8969960156,-9.58999758106,0.012457014014999998,0.000113081095301
212,qDII-DR5-CLV3-LD_E25_170811_sam04_t05,E25,4,5,-8.56599003962,-25.4659683368,-6.51152264505,0.012643243597600001,0.000139038692794
213,qDII-DR5-CLV3-LD_E25_170811_sam04_t05,E25,4,5,-5.22961003438,-37.459677844,-12.833510996500001,0.0129013728631,0.00011340479159500001
214,qDII-DR5-CLV3-LD_E25_170811_sam04_t05,E25,4,5,0.41524171247100006,-57.4231319139,-25.715627839499998,0.0254822067193,0.000634118030526
215,qDII-DR5-CLV3-LD_E25_170811_sam04_t05,E25,4,5,-1.7214720938099999,-48.482823324799995,-18.030765743099998,0.0199619343805,0.000384333357817
216,qDII-DR5-CLV3-LD_E25_170811_sam04_t05,E25,4,5,-21.3068092079,28.6503836064,-10.8633448239,0.0170392654379,0.00026326970373099996
217,qDII-DR5-CLV3-LD_E25_170811_sam04_t05,E25,4,5,-10.3973335443,-11.7249981165,-2.59603156813,0.014345809695399999,0.000190814838685
218,qDII-DR5-CLV3-LD_E25_170811_sam04_t05,E25,4,5,-19.8542488597,25.4473548302,-9.48690445354,0.0151019103637,0.00020461169378099999
219,qDII-DR5-CLV3-LD_E25_170811_sam04_t05,E25,4,5,2.57485016035,-60.646032832799996,-31.3603699965,0.0205411282195,0.000438406790936
220,qDII-DR5-CLV3-LD_E25_170811_sam04_t05,E25,4,5,-18.6761576282,21.600220793600002,-6.909019903160001,0.0143381920914,0.00018347166776199998
221,qDII-DR5-CLV3-LD_E25_170811_sam04_t05,E25,4,5,-13.0265858049,0.172901519872,-0.945233945071,0.0166882533093,0.000268459647209
222,qDII-DR5-CLV3-LD_E25_170811_sam04_t05,E25,4,5,-14.4305936274,9.03070770693,-1.4505967720200001,0.0159554336475,0.00023956720269900002
223,qDII-DR5-CLV3-LD_E25_170811_sam04_t05,E25,4,5,1.6256334480399999,-52.2659727561,-20.1005475848,0.024218917543000002,0.000578791004252
224,qDII-DR5-CLV3-LD_E25_170811_sam04_t05,E25,4,5,-6.9865838392600015,-18.278435928900002,-4.51600117429,0.0125677247086,0.00014519077397900001
225,qDII-DR5-CLV3-LD_E25_170811_sam04_t05,E25,4,5,-10.6868942984,-3.9440375849000002,-0.673322080225,0.0163289166434,0.000255300594031
226,qDII-DR5-CLV3-LD_E25_170811_sam04_t05,E25,4,5,-15.646591492999999,15.509562136900001,-2.99734415495,0.015018494652499999,0.00021126945792500002
227,qDII-DR5-CLV3-LD_E25_170811_sam04_t05,E25,4,5,-9.45748729869,-7.9164321404399995,-0.43352232179300004,0.01576970253,0.00023280613760599998
228,qDII-DR5-CLV3-LD_E25_170811_sam04_t05,E25,4,5,-20.9191423081,37.4064033612,-17.1887356759,0.0227706146069,0.00031910527348100003
229,qDII-DR5-CLV3-LD_E25_170811_sam04_t05,E25,4,5,-21.7971065388,41.8350123985,-22.137106802199998,0.025092075697499997,0.000236634678967
230,qDII-DR5-CLV3-LD_E25_170811_sam04_t05,E25,4,5,0.478761981385,-44.5660332616,-15.846391778900001,0.0172447391157,0.00028709583627700003
231,qDII-DR5-CLV3-LD_E25_170811_sam04_t05,E25,4,5,-19.6166056378,33.8746682204,-13.452056118,0.0198015409163,0.00030947807560100004
232,qDII-DR5-CLV3-LD_E25_170811_sam04_t05,E25,4,5,5.42941724788,-61.471591216899995,-39.4642163115,0.0175053656033,0.0003146871677759999
233,qDII-DR5-CLV3-LD_E25_170811_sam04_t05,E25,4,5,-13.919562028,12.9506386209,-2.8223479645599996,0.0154196615549,0.000224708897698
234,qDII-DR5-CLV3-LD_E25_170811_sam04_t05,E25,4,5,-4.26554947308,-23.0100296459,-5.375751065939999,0.0128890926938,0.00014540932135299997
235,qDII-DR5-CLV3-LD_E25_170811_sam04_t05,E25,4,5,-20.1221096469,40.0847889556,-40.7739520103,0.0223554300759,2.47976128058e-05
236,qDII-DR5-CLV3-LD_E25_170811_sam04_t05,E25,4,5,0.814112018722,-40.9121784527,-13.688861388,0.0144831869841,0.000177263918896
237,qDII-DR5-CLV3-LD_E25_170811_sam04_t05,E25,4,5,0.141968375681,-37.516175589,-11.5396290895,0.0129128116065,0.000115611954221
238,qDII-DR5-CLV3-LD_E25_170811_sam04_t05,E25,4,5,-0.38007194446599996,-33.867404089000004,-9.400644179550001,0.0125081175798,0.00010161300641700002
239,qDII-DR5-CLV3-LD_E25_170811_sam04_t05,E25,4,5,6.81040653459,-60.4194180408,-31.279549598800003,0.020617974037799996,0.000429439274861
240,qDII-DR5-CLV3-LD_E25_170811_sam04_t05,E25,4,5,3.44452466352,-47.7345280808,-16.784511864000002,0.0206184491388,0.00042855135110400004
241,qDII-DR5-CLV3-LD_E25_170811_sam04_t05,E25,4,5,-1.12934852977,-30.131634990300004,-8.44426829105,0.0126051210243,0.00011264369510399999
242,qDII-DR5-CLV3-LD_E25_170811_sam04_t05,E25,4,5,-18.527452519100002,38.6953801151,-34.7997122496,0.0223402392813,4.94556957413e-05
243,qDII-DR5-CLV3-LD_E25_170811_sam04_t05,E25,4,5,6.39531960243,-58.1053441415,-26.7207904664,0.023668946407800002,0.000550608537173
244,qDII-DR5-CLV3-LD_E25_170811_sam04_t05,E25,4,5,-10.850928874600001,9.30380957903,-1.38666223681,0.0157950884244,0.000238231954917
245,qDII-DR5-CLV3-LD_E25_170811_sam04_t05,E25,4,5,6.173565573049999,-54.026973097200006,-22.2523085346,0.0250262075063,0.000610677788049
246,qDII-DR5-CLV3-LD_E25_170811_sam04_t05,E25,4,5,-15.5661366881,30.5483213833,-10.8390299019,0.0163827406691,0.000236960131978
247,qDII-DR5-CLV3-LD_E25_170811_sam04_t05,E25,4,5,-8.68291565844,4.14036871952,0.110507822029,0.0158838096467,0.00024124767673400002
248,qDII-DR5-CLV3-LD_E25_170811_sam04_t05,E25,4,5,-4.07373978365,-10.466082291000001,-1.3517269851700002,0.0141965647447,0.00018697056761400003
249,qDII-DR5-CLV3-LD_E25_170811_sam04_t05,E25,4,5,-5.41402379806,-4.45450221334,0.642714222334,0.0156984113791,0.00023027563722400002
250,qDII-DR5-CLV3-LD_E25_170811_sam04_t05,E25,4,5,-12.532487636199999,23.6012993485,-6.88138574416,0.014830073978,0.000205739042716
251,qDII-DR5-CLV3-LD_E25_170811_sam04_t05,E25,4,5,-0.8224992640209999,-20.5591742639,-4.25852496776,0.0128738918376,0.000146510330392
252,qDII-DR5-CLV3-LD_E25_170811_sam04_t05,E25,4,5,-10.3562289418,16.6491940049,-2.9422870673699997,0.015363082501,0.00022602012263599997
253,qDII-DR5-CLV3-LD_E25_170811_sam04_t05,E25,4,5,-16.8665915249,44.458969725299994,-24.5153905625,0.0217064690868,8.82777111857e-05
254,qDII-DR5-CLV3-LD_E25_170811_sam04_t05,E25,4,5,10.4927028238,-60.3968372067,-35.8917846475,0.0190608307532,0.000363155204427
255,qDII-DR5-CLV3-LD_E25_170811_sam04_t05,E25,4,5,-15.3409015061,41.6966003638,-19.6420703928,0.022172266519499998,0.00018922123741599997
256,qDII-DR5-CLV3-LD_E25_170811_sam04_t05,E25,4,5,2.14734633477,-24.584032461,-5.150676643430001,0.012740971181,0.000122673159196
257,qDII-DR5-CLV3-LD_E25_170811_sam04_t05,E25,4,5,-7.2321174585,11.9448033378,-1.4487259231099998,0.0157905563709,0.000239052410843
258,qDII-DR5-CLV3-LD_E25_170811_sam04_t05,E25,4,5,-13.536659454,38.7219728846,-15.924225993499999,0.0200391611374,0.00024033100708800001
259,qDII-DR5-CLV3-LD_E25_170811_sam04_t05,E25,4,5,6.05848174748,-35.5040371636,-10.344612153,0.0130017473648,0.00010031819337899998
260,qDII-DR5-CLV3-LD_E25_170811_sam04_t05,E25,4,5,12.0926828974,-57.642997145100004,-28.966437531300002,0.021588638330099996,0.000431494098843
261,qDII-DR5-CLV3-LD_E25_170811_sam04_t05,E25,4,5,-2.50249941659,-1.5658231272499998,0.551857666585,0.0154734250761,0.000224446560813
262,qDII-DR5-CLV3-LD_E25_170811_sam04_t05,E25,4,5,-13.9646322959,44.2126387438,-30.3033064811,0.019506856528099997,-1.14764881625e-05
263,qDII-DR5-CLV3-LD_E25_170811_sam04_t05,E25,4,5,8.46165812712,-42.2393891931,-14.622871650499999,0.0166470029146,0.00024480100235400003
264,qDII-DR5-CLV3-LD_E25_170811_sam04_t05,E25,4,5,10.6416811583,-49.7441070017,-20.03777176,0.0216701940111,0.000444689287936
265,qDII-DR5-CLV3-LD_E25_170811_sam04_t05,E25,4,5,-0.407536226091,-7.24586112977,0.9021397249609999,0.0141733293885,0.00018720018153099997
266,qDII-DR5-CLV3-LD_E25_170811_sam04_t05,E25,4,5,-10.7640703847,33.637305464,-12.0720852803,0.016634375203499998,0.000248631238181
267,qDII-DR5-CLV3-LD_E25_170811_sam04_t05,E25,4,5,5.1131090169,-27.7525272801,-6.088796728609999,0.0123929190298,9.68740153707e-05
268,qDII-DR5-CLV3-LD_E25_170811_sam04_t05,E25,4,5,-5.923256748150001,17.783742563900002,-2.90577546073,0.015332069639700002,0.000225140381993
269,qDII-DR5-CLV3-LD_E25_170811_sam04_t05,E25,4,5,10.5956883359,-45.4755975807,-16.7485796126,0.0188536543112,0.00033361190173400007
270,qDII-DR5-CLV3-LD_E25_170811_sam04_t05,E25,4,5,9.34602604285,-37.373261591799995,-12.5182378207,0.013881221069,0.00013072629462799998
271,qDII-DR5-CLV3-LD_E25_170811_sam04_t05,E25,4,5,-6.667369677590001,25.8146360211,-5.69827581467,0.015196640947,0.00022529316326500002
272,qDII-DR5-CLV3-LD_E25_170811_sam04_t05,E25,4,5,-11.679019800199999,46.0009980878,-24.484147489,0.020790760112299998,1.87850494434e-05
273,qDII-DR5-CLV3-LD_E25_170811_sam04_t05,E25,4,5,-3.4077243897200002,13.7810041077,-1.46316158143,0.0157418151549,0.000236722177784
274,qDII-DR5-CLV3-LD_E25_170811_sam04_t05,E25,4,5,-5.6692022147,22.709664714000002,-4.3370616882499995,0.014986653136,0.00021686103546000003
275,qDII-DR5-CLV3-LD_E25_170811_sam04_t05,E25,4,5,-7.2707851466,30.8114125905,-9.498099322060002,0.015684282844200002,0.000242072526389
276,qDII-DR5-CLV3-LD_E25_170811_sam04_t05,E25,4,5,-10.3548285174,43.1870583372,-19.612486937699998,0.021021799277900002,0.00012914681558
277,qDII-DR5-CLV3-LD_E25_170811_sam04_t05,E25,4,5,15.7235837735,-57.4192180638,-33.590579587,0.0198653464833,0.00034059270376499997
278,qDII-DR5-CLV3-LD_E25_170811_sam04_t05,E25,4,5,-1.49668823951,9.623554484289999,-0.0255265575757,0.0158900868587,0.000240167234942
279,qDII-DR5-CLV3-LD_E25_170811_sam04_t05,E25,4,5,4.10124923569,-11.3747533575,-1.1236230033,0.012691712405700002,0.000149171007356
280,qDII-DR5-CLV3-LD_E25_170811_sam04_t05,E25,4,5,8.9117645566,-25.777758522600003,-7.2841817899,0.0116102242506,8.30630497419e-05
281,qDII-DR5-CLV3-LD_E25_170811_sam04_t05,E25,4,5,2.9502152074000003,-2.74251275689,0.734572594164,0.014328661101299999,0.000194430606568
282,qDII-DR5-CLV3-LD_E25_170811_sam04_t05,E25,4,5,-6.59632073518,37.566509743400005,-14.5370373265,0.0163057117687,0.000195920468423
283,qDII-DR5-CLV3-LD_E25_170811_sam04_t05,E25,4,5,15.9577015935,-48.6671053933,-21.1517570684,0.0157109743352,0.000151275844087
284,qDII-DR5-CLV3-LD_E25_170811_sam04_t05,E25,4,5,13.7222002325,-40.1048259594,-15.794732375399999,0.0145295478871,0.00016791332326600002
285,qDII-DR5-CLV3-LD_E25_170811_sam04_t05,E25,4,5,8.660190081489999,-20.7044561126,-4.0426176705,0.0120254509145,0.000120691298386
286,qDII-DR5-CLV3-LD_E25_170811_sam04_t05,E25,4,5,5.4697508375099995,-7.525676862839999,-0.12683691596899999,0.0131132396549,0.00016123213371799997
287,qDII-DR5-CLV3-LD_E25_170811_sam04_t05,E25,4,5,-1.34018123159,19.171059759200002,-2.8795112426,0.0147214188171,0.00020922154909299999
288,qDII-DR5-CLV3-LD_E25_170811_sam04_t05,E25,4,5,15.4573158858,-44.300538503,-17.877791165,0.014646635995700001,0.000172436516032
289,qDII-DR5-CLV3-LD_E25_170811_sam04_t05,E25,4,5,17.7617047107,-51.4139196877,-24.4838880659,0.0139795222772,-1.58310445765e-05
290,qDII-DR5-CLV3-LD_E25_170811_sam04_t05,E25,4,5,18.5283937019,-53.4236545617,-29.051234968400003,0.0145028905097,-3.76743152883e-05
291,qDII-DR5-CLV3-LD_E25_170811_sam04_t05,E25,4,5,14.464630658699999,-37.2041937503,-13.5879143381,0.013027358320799999,0.000116293432428
292,qDII-DR5-CLV3-LD_E25_170811_sam04_t05,E25,4,5,12.6145550741,-30.1129323065,-9.3165829921,0.010873605348399998,5.8839940478e-05
293,qDII-DR5-CLV3-LD_E25_170811_sam04_t05,E25,4,5,1.07664321713,14.714354419500001,-1.4147429677799999,0.015156151222399999,0.00022035349378400003
294,qDII-DR5-CLV3-LD_E25_170811_sam04_t05,E25,4,5,-2.82964711963,30.2332343936,-9.36965089641,0.014751649542200002,0.000213017011117
295,qDII-DR5-CLV3-LD_E25_170811_sam04_t05,E25,4,5,19.4708439,-55.243251058999995,-34.7978716553,0.015833539044000002,4.29889029949e-05
296,qDII-DR5-CLV3-LD_E25_170811_sam04_t05,E25,4,5,3.35153017626,8.292153687519999,0.152209514553,0.0161936349752,0.000248424258882
297,qDII-DR5-CLV3-LD_E25_170811_sam04_t05,E25,4,5,-6.440610177030001,47.8733923006,-40.890940001,0.0175300573405,-0.000359928752113
298,qDII-DR5-CLV3-LD_E25_170811_sam04_t05,E25,4,5,-6.64979687655,49.078922298100004,-26.8845856448,0.0195311408707,-0.00010008957336799998
299,qDII-DR5-CLV3-LD_E25_170811_sam04_t05,E25,4,5,14.4956911336,-33.1995128359,-11.4558575797,0.0112884940798,6.55679406593e-05
300,qDII-DR5-CLV3-LD_E25_170811_sam04_t05,E25,4,5,-0.545354298034,27.0979191858,-6.80562264913,0.014538536670299999,0.000206889394505
301,qDII-DR5-CLV3-LD_E25_170811_sam04_t05,E25,4,5,12.6591043281,-23.677729246,-6.14148205924,0.0112026726456,9.28618163559e-05
302,qDII-DR5-CLV3-LD_E25_170811_sam04_t05,E25,4,5,-4.86712979183,45.3105617005,-21.951730440100004,0.020024173914700003,2.76242566517e-05
303,qDII-DR5-CLV3-LD_E25_170811_sam04_t05,E25,4,5,-5.381163568630001,47.398481901000004,-24.420792309,0.020577254904700002,-3.72863872634e-05
304,qDII-DR5-CLV3-LD_E25_170811_sam04_t05,E25,4,5,-1.99275099039,34.5960723206,-11.9309392619,0.0135617876996,0.000159298223522
305,qDII-DR5-CLV3-LD_E25_170811_sam04_t05,E25,4,5,1.3955022979,21.9455381967,-4.1410698128,0.0139116537422,0.000188401062914
306,qDII-DR5-CLV3-LD_E25_170811_sam04_t05,E25,4,5,21.7940444499,-55.7828611954,-39.409817026300004,0.0106998468206,-0.00034124284629499996
307,qDII-DR5-CLV3-LD_E25_170811_sam04_t05,E25,4,5,10.2449192277,-9.373674802610001,-1.0959888443,0.0133220720626,0.000167890883365
308,qDII-DR5-CLV3-LD_E25_170811_sam04_t05,E25,4,5,-2.68146523497,41.6453418809,-17.015555998299998,0.0160515392396,7.44838976887e-05
309,qDII-DR5-CLV3-LD_E25_170811_sam04_t05,E25,4,5,-1.3018752673799998,37.8497782334,-14.4360118295,0.013063190330299998,8.61402101697e-05
310,qDII-DR5-CLV3-LD_E25_170811_sam04_t05,E25,4,5,19.894291351099998,-43.946415593699996,-20.1453029478,0.00631327541201,-9.68802938277e-05
311,qDII-DR5-CLV3-LD_E25_170811_sam04_t05,E25,4,5,8.22832900859,0.966209244995,0.651724453223,0.0159089512366,0.000244715085792
312,qDII-DR5-CLV3-LD_E25_170811_sam04_t05,E25,4,5,4.4682183680300005,17.4423457769,-2.65941567554,0.0139289966821,0.00018711808261900003
313,qDII-DR5-CLV3-LD_E25_170811_sam04_t05,E25,4,5,12.8929035682,-14.6218656625,-3.1026267364099995,0.0132459759672,0.00016454111534299997
314,qDII-DR5-CLV3-LD_E25_170811_sam04_t05,E25,4,5,22.8801500366,-51.09297638979999,-30.2535481812,0.00731394369792,-0.00045072540998600003
315,qDII-DR5-CLV3-LD_E25_170811_sam04_t05,E25,4,5,19.6683747601,-38.9357434432,-18.0727812243,0.007223505049319999,1.03403194261e-05
316,qDII-DR5-CLV3-LD_E25_170811_sam04_t05,E25,4,5,8.002332772599999,6.052819123740001,0.374254377703,0.0163681429942,0.000255078681422
317,qDII-DR5-CLV3-LD_E25_170811_sam04_t05,E25,4,5,18.8163869934,-34.8735155783,-14.7902275509,0.008347521053350002,3.66291506333e-05
318,qDII-DR5-CLV3-LD_E25_170811_sam04_t05,E25,4,5,-2.33326357832,48.3372206619,-32.614915824499995,0.0168034398483,-0.000251040471902
319,qDII-DR5-CLV3-LD_E25_170811_sam04_t05,E25,4,5,6.86338820432,12.267845047,-2.3296283941900002,0.0150890404214,0.000216498306015
320,qDII-DR5-CLV3-LD_E25_170811_sam04_t05,E25,4,5,17.0014548004,-24.633936598200002,-8.34087103701,0.010671233991300001,8.74100420658e-05
321,qDII-DR5-CLV3-LD_E25_170811_sam04_t05,E25,4,5,-2.5039407744299997,52.51814437189999,-37.5344940814,0.018883074267099998,-0.000319940613116
322,qDII-DR5-CLV3-LD_E25_170811_sam04_t05,E25,4,5,2.94076620095,31.212178533000003,-10.4684099608,0.012688832926100001,0.000135466853678
323,qDII-DR5-CLV3-LD_E25_170811_sam04_t05,E25,4,5,23.1601013891,-46.4574976839,-25.8039014079,-0.0008092780926839999,-0.0005711238416
324,qDII-DR5-CLV3-LD_E25_170811_sam04_t05,E25,4,5,13.7515339549,-9.617170073510001,-2.1789423095400005,0.014103688627,0.00018961716198099998
325,qDII-DR5-CLV3-LD_E25_170811_sam04_t05,E25,4,5,12.2097512044,-3.65716038486,-0.18616072052700003,0.0151034503263,0.000219531705953
326,qDII-DR5-CLV3-LD_E25_170811_sam04_t05,E25,4,5,19.190963339,-28.927706610999998,-10.4087035826,0.008632546207799999,4.17589478673e-05
327,qDII-DR5-CLV3-LD_E25_170811_sam04_t05,E25,4,5,-0.5709314318959999,48.7747392258,-25.5619108683,0.0193717737354,-8.96950885799e-05
328,qDII-DR5-CLV3-LD_E25_170811_sam04_t05,E25,4,5,22.835556533400002,-41.9767301451,-21.35923349,-0.0006695684400870001,-0.00027189873949799996
329,qDII-DR5-CLV3-LD_E25_170811_sam04_t05,E25,4,5,3.35308989059,34.6781425634,-11.8180067579,0.0112942492161,6.97255925319e-05
330,qDII-DR5-CLV3-LD_E25_170811_sam04_t05,E25,4,5,6.326017311799999,24.5694955236,-6.519353573150001,0.0134069374563,0.000170096477232
331,qDII-DR5-CLV3-LD_E25_170811_sam04_t05,E25,4,5,7.3499223037600006,21.325956228699997,-3.97719004377,0.0132289072472,0.000167771854056
332,qDII-DR5-CLV3-LD_E25_170811_sam04_t05,E25,4,5,21.1450697791,-31.421752269200002,-13.7510819686,0.0058876846653,-4.01688773223e-06
333,qDII-DR5-CLV3-LD_E25_170811_sam04_t05,E25,4,5,10.6608833598,9.167063796239999,-2.08016060247,0.0153143480291,0.00022340005011599998
334,qDII-DR5-CLV3-LD_E25_170811_sam04_t05,E25,4,5,27.127716225900002,-53.20763854689999,-37.0847979518,0.00722008356743,-0.000769949446843
335,qDII-DR5-CLV3-LD_E25_170811_sam04_t05,E25,4,5,2.81856188556,41.123817382,-16.866902473299998,0.012996285049299998,-3.70451131513e-05
336,qDII-DR5-CLV3-LD_E25_170811_sam04_t05,E25,4,5,2.2192293332,45.2642305734,-20.6207575711,0.0164013309431,-4.86886867214e-05
337,qDII-DR5-CLV3-LD_E25_170811_sam04_t05,E25,4,5,4.4510460024,37.1786258763,-14.2737916789,0.0102356926956,-1.10140708211e-05
338,qDII-DR5-CLV3-LD_E25_170811_sam04_t05,E25,4,5,13.1074486093,3.7913648190499996,-1.73846631412,0.0157074307041,0.00023715290110900002
339,qDII-DR5-CLV3-LD_E25_170811_sam04_t05,E25,4,5,26.1568449012,-45.5453738604,-26.9599565336,-0.00402251237284,-0.0007119256173469999
340,qDII-DR5-CLV3-LD_E25_170811_sam04_t05,E25,4,5,23.356153285100003,-34.9217891635,-17.0339253197,0.00106248927385,-8.60038243127e-05
341,qDII-DR5-CLV3-LD_E25_170811_sam04_t05,E25,4,5,27.411750495,-49.428523219,-32.589182769000004,0.00274112749609,-0.000829189415645
342,qDII-DR5-CLV3-LD_E25_170811_sam04_t05,E25,4,5,16.2303200635,-5.912638128049999,-1.1500441157999999,0.0154861853859,0.000228258902848
343,qDII-DR5-CLV3-LD_E25_170811_sam04_t05,E25,4,5,15.0955380568,-0.6299133110390001,-1.4579666792500001,0.015585099141899999,0.00023244611942800002
344,qDII-DR5-CLV3-LD_E25_170811_sam04_t05,E25,4,5,10.799898317,17.0644725747,-3.67316607251,0.0132457722274,0.00016654361514799998
345,qDII-DR5-CLV3-LD_E25_170811_sam04_t05,E25,4,5,26.158164575300002,-40.6216993086,-23.7048257887,-0.00902177788669,-0.000516495927055
346,qDII-DR5-CLV3-LD_E25_170811_sam04_t05,E25,4,5,25.310259725300003,-37.4158348217,-20.3763037057,-0.006316492102899999,-0.000313321654262
347,qDII-DR5-CLV3-LD_E25_170811_sam04_t05,E25,4,5,21.9361323759,-22.9422803775,-8.32319458891,0.011151857247799999,0.00011455761991500001
348,qDII-DR5-CLV3-LD_E25_170811_sam04_t05,E25,4,5,12.7365923513,12.844392691800001,-3.40457344463,0.013430088253,0.000171984665051
349,qDII-DR5-CLV3-LD_E25_170811_sam04_t05,E25,4,5,2.5766775623599996,55.394870335,-39.9230252303,0.018333886353099998,-0.000269149083827
350,qDII-DR5-CLV3-LD_E25_170811_sam04_t05,E25,4,5,8.53133539788,32.8573476735,-10.433847650299999,0.0101524989682,4.97866353778e-05
351,qDII-DR5-CLV3-LD_E25_170811_sam04_t05,E25,4,5,28.643717198,-43.4776309427,-28.1891133197,-0.00603805272326,-0.000786114667481
352,qDII-DR5-CLV3-LD_E25_170811_sam04_t05,E25,4,5,20.5755134232,-12.7248211382,-4.20860363,0.0168103696261,0.00027759442847500004
353,qDII-DR5-CLV3-LD_E25_170811_sam04_t05,E25,4,5,24.708402865300002,-27.7231968852,-13.871021071400001,0.00280810484805,-7.80426347269e-05
354,qDII-DR5-CLV3-LD_E25_170811_sam04_t05,E25,4,5,15.8904446353,7.22100838733,-3.0340862868299996,0.013715154521800001,0.00018207632512599997
355,qDII-DR5-CLV3-LD_E25_170811_sam04_t05,E25,4,5,10.5965577876,28.096303308400003,-8.960491605449999,0.011742619987299998,0.00011533080544299998
356,qDII-DR5-CLV3-LD_E25_170811_sam04_t05,E25,4,5,4.99390023596,50.5584763541,-26.7082979608,0.017505177422,-0.000113430527131
357,qDII-DR5-CLV3-LD_E25_170811_sam04_t05,E25,4,5,8.96931697163,36.2606814445,-12.952486843299999,0.00780209922871,-5.96233573299e-05
358,qDII-DR5-CLV3-LD_E25_170811_sam04_t05,E25,4,5,4.42014592272,54.7121970143,-33.9811872536,0.017193685631200002,-0.00015471403110100003
359,qDII-DR5-CLV3-LD_E25_170811_sam04_t05,E25,4,5,26.567884312399997,-31.527572804899997,-17.1452766525,-0.00462431489367,-0.00024925609643400005
360,qDII-DR5-CLV3-LD_E25_170811_sam04_t05,E25,4,5,32.0583905297,-50.7355566766,-34.7630981143,0.00845921486569,-0.0008367244476199999
361,qDII-DR5-CLV3-LD_E25_170811_sam04_t05,E25,4,5,20.5685876191,-6.01248210226,-3.3954015030799996,0.016986285724,0.000278239598263
362,qDII-DR5-CLV3-LD_E25_170811_sam04_t05,E25,4,5,13.296096831300002,22.4950387448,-6.25523889268,0.012192935878899998,0.000137139024897
363,qDII-DR5-CLV3-LD_E25_170811_sam04_t05,E25,4,5,19.451377308199998,0.844401482952,-2.61431148257,0.015157985854799999,0.000223749718312
364,qDII-DR5-CLV3-LD_E25_170811_sam04_t05,E25,4,5,9.094763504660001,41.803505805,-17.938528286700002,0.0117378146557,-0.00010649906520700001
365,qDII-DR5-CLV3-LD_E25_170811_sam04_t05,E25,4,5,7.501346406060001,48.192526925600006,-23.0076291015,0.0168992624747,-7.69438016119e-05
366,qDII-DR5-CLV3-LD_E25_170811_sam04_t05,E25,4,5,31.6013140469,-44.9333990059,-29.219170223899997,-0.00184911061854,-0.0008524567095630001
367,qDII-DR5-CLV3-LD_E25_170811_sam04_t05,E25,4,5,16.5948091375,12.905236446300002,-4.4961146799,0.011930688755999999,0.00013596884178299998
368,qDII-DR5-CLV3-LD_E25_170811_sam04_t05,E25,4,5,34.2911286482,-53.5177981807,-36.9109604719,0.013945556904200001,-0.0006658926406250001
369,qDII-DR5-CLV3-LD_E25_170811_sam04_t05,E25,4,5,15.687183751,18.1769013928,-5.97142002084,0.011673031882100001,0.000126651709507
370,qDII-DR5-CLV3-LD_E25_170811_sam04_t05,E25,4,5,8.82545804381,45.4545249033,-20.4859603492,0.0152315860068,-8.07327814988e-05
371,qDII-DR5-CLV3-LD_E25_170811_sam04_t05,E25,4,5,29.559225233600003,-34.6827601553,-21.6024309326,-0.012472783679599999,-0.000574040306595
372,qDII-DR5-CLV3-LD_E25_170811_sam04_t05,E25,4,5,6.9964795568,53.7951458349,-31.5295906023,0.0167889848639,-6.18341595808e-05
373,qDII-DR5-CLV3-LD_E25_170811_sam04_t05,E25,4,5,14.7929674986,25.9550262138,-8.75367298626,0.011151275034100001,0.00010657497583
374,qDII-DR5-CLV3-LD_E25_170811_sam04_t05,E25,4,5,12.9940483923,33.072902595100004,-11.5204100301,0.00720009977657,-3.17712696005e-05
375,qDII-DR5-CLV3-LD_E25_170811_sam04_t05,E25,4,5,6.69727400525,58.517034027200005,-37.653932276199995,0.0164213648887,-7.0909836803e-05
376,qDII-DR5-CLV3-LD_E25_170811_sam04_t05,E25,4,5,34.0098930173,-47.6014398615,-30.1963305671,0.0045596359831,-0.000836969510622
377,qDII-DR5-CLV3-LD_E25_170811_sam04_t05,E25,4,5,32.130076632,-39.5911847802,-24.8019252346,-0.0106401474678,-0.00066515238159
378,qDII-DR5-CLV3-LD_E25_170811_sam04_t05,E25,4,5,29.0939829175,-27.1678757287,-16.1504398612,-0.00409268108261,-0.00033456281022199995
379,qDII-DR5-CLV3-LD_E25_170811_sam04_t05,E25,4,5,20.0447851507,8.64375279228,-4.19209070864,0.012326124327,0.000148415311487
380,qDII-DR5-CLV3-LD_E25_170811_sam04_t05,E25,4,5,30.850673538200002,-30.569855153899997,-19.448509456300002,-0.0100005082315,-0.0005599811104600001
381,qDII-DR5-CLV3-LD_E25_170811_sam04_t05,E25,4,5,36.3968173753,-50.9872761073,-32.308471903699996,0.0119083171627,-0.000646439822805
382,qDII-DR5-CLV3-LD_E25_170811_sam04_t05,E25,4,5,26.2687938015,-11.406110763900001,-6.5002191044,0.0170582292296,0.000289643247861
383,qDII-DR5-CLV3-LD_E25_170811_sam04_t05,E25,4,5,24.1616615061,-3.2329203557499997,-4.63841459235,0.017664717482499998,0.00030533746501599997
384,qDII-DR5-CLV3-LD_E25_170811_sam04_t05,E25,4,5,29.116957204000002,-21.526405786599998,-11.760328122899999,0.00531439328588,-0.000106355421676
385,qDII-DR5-CLV3-LD_E25_170811_sam04_t05,E25,4,5,14.3922111499,36.0789231805,-13.9966897282,0.004594511304810001,-0.00013337128177200001
386,qDII-DR5-CLV3-LD_E25_170811_sam04_t05,E25,4,5,32.7872082825,-34.6380595803,-23.8799004263,-0.0130897381854,-0.0006835866165630001
387,qDII-DR5-CLV3-LD_E25_170811_sam04_t05,E25,4,5,25.5154342996,-6.813978287289999,-5.589811625399999,0.0180853033529,0.000320563548726
388,qDII-DR5-CLV3-LD_E25_170811_sam04_t05,E25,4,5,35.3270788509,-43.627102847799996,-26.861459687800004,0.000312354830257,-0.0007155575465589999
389,qDII-DR5-CLV3-LD_E25_170811_sam04_t05,E25,4,5,10.991549821700001,51.45042289479999,-26.6244480037,0.0184621383935,7.08849770214e-05
390,qDII-DR5-CLV3-LD_E25_170811_sam04_t05,E25,4,5,20.4448600903,14.6788069566,-5.67959273419,0.0107847735142,0.000109079601358
391,qDII-DR5-CLV3-LD_E25_170811_sam04_t05,E25,4,5,23.7814790305,2.45728426468,-4.95160568886,0.0151004041161,0.000230986094292
392,qDII-DR5-CLV3-LD_E25_170811_sam04_t05,E25,4,5,28.608405663000003,-15.4471121405,-8.57829903849,0.012680783794499998,0.000137345226203
393,qDII-DR5-CLV3-LD_E25_170811_sam04_t05,E25,4,5,23.298505728600002,8.549885379560001,-5.28861079937,0.0123660462757,0.000153537128991
394,qDII-DR5-CLV3-LD_E25_170811_sam04_t05,E25,4,5,20.317492119100002,20.2953214471,-8.32920900416,0.0103297312392,9.20176160691e-05
395,qDII-DR5-CLV3-LD_E25_170811_sam04_t05,E25,4,5,35.7529709647,-37.8065543994,-24.8180205114,-0.00843359722418,-0.0006359538352359999
396,qDII-DR5-CLV3-LD_E25_170811_sam04_t05,E25,4,5,15.8119488749,39.8786768844,-17.6879802317,0.00638891555057,-0.00014252209439399998
397,qDII-DR5-CLV3-LD_E25_170811_sam04_t05,E25,4,5,14.963884735,43.2364168278,-19.0594417467,0.0123595471144,-6.45653349258e-05
398,qDII-DR5-CLV3-LD_E25_170811_sam04_t05,E25,4,5,32.0230789947,-22.705037874400002,-15.152283833,-0.00237779691824,-0.00040901027876100003
399,qDII-DR5-CLV3-LD_E25_170811_sam04_t05,E25,4,5,14.1373955624,47.387889889700006,-21.6459140671,0.0184912829009,7.73602381396e-05
400,qDII-DR5-CLV3-LD_E25_170811_sam04_t05,E25,4,5,33.0724825808,-25.8593319723,-18.4791462975,-0.008383388716479999,-0.0006482193105519999
401,qDII-DR5-CLV3-LD_E25_170811_sam04_t05,E25,4,5,39.107002310700004,-48.3020428667,-27.70100448,0.0145722579069,-0.00036207649398599997
402,qDII-DR5-CLV3-LD_E25_170811_sam04_t05,E25,4,5,20.3227354199,24.5145080774,-9.728093447660001,0.00956242531622,7.09682545032e-05
403,qDII-DR5-CLV3-LD_E25_170811_sam04_t05,E25,4,5,19.0850829419,30.2755671171,-12.409821824000002,0.00560983442021,-4.03958253057e-05
404,qDII-DR5-CLV3-LD_E25_170811_sam04_t05,E25,4,5,12.835859986300001,56.1470504953,-31.527430075799998,0.0191209175676,0.000246184724143
405,qDII-DR5-CLV3-LD_E25_170811_sam04_t05,E25,4,5,41.4288831864,-53.765327555,-35.568080596,0.020781045978000002,-3.6094738732e-05
406,qDII-DR5-CLV3-LD_E25_170811_sam04_t05,E25,4,5,12.4933452099,59.433347907,-39.9217337366,0.017618177926099998,0.00019679697360099998
407,qDII-DR5-CLV3-LD_E25_170811_sam04_t05,E25,4,5,38.697158679299996,-41.768782337,-24.5411297911,0.0044431135577799995,-0.00039134041062999995
408,qDII-DR5-CLV3-LD_E25_170811_sam04_t05,E25,4,5,30.5515830273,-10.4483931129,-8.803451908180001,0.0143071540469,0.000194821039824
409,qDII-DR5-CLV3-LD_E25_170811_sam04_t05,E25,4,5,24.024445198200002,15.027846557,-7.96564999791,0.010915949491099999,0.000109887725756
410,qDII-DR5-CLV3-LD_E25_170811_sam04_t05,E25,4,5,27.8750182702,0.7943413927230001,-7.118592882610001,0.0165703108141,0.00027476204571
411,qDII-DR5-CLV3-LD_E25_170811_sam04_t05,E25,4,5,35.9826872881,-27.894327438,-21.8251335981,-0.010075116999100001,-0.000827313702911
412,qDII-DR5-CLV3-LD_E25_170811_sam04_t05,E25,4,5,27.0877554059,7.237768613019999,-7.481071625599999,0.013725246647600001,0.000191130603328
413,qDII-DR5-CLV3-LD_E25_170811_sam04_t05,E25,4,5,15.1377245037,54.5858940556,-27.874389244499998,0.021533287968099998,0.000331950201494
414,qDII-DR5-CLV3-LD_E25_170811_sam04_t05,E25,4,5,14.135235189300001,58.7750419254,-36.3315471773,0.018813508307,0.00026658529259
415,qDII-DR5-CLV3-LD_E25_170811_sam04_t05,E25,4,5,42.3986295227,-51.0276306728,-29.8286617382,0.021106712872099996,-1.12289804938e-05
416,qDII-DR5-CLV3-LD_E25_170811_sam04_t05,E25,4,5,37.2336692553,-31.072988875100002,-22.8003446452,-0.0089069672962,-0.0007924534387270001
417,qDII-DR5-CLV3-LD_E25_170811_sam04_t05,E25,4,5,34.1894097075,-16.9369530676,-14.2407960908,0.000347237005296,-0.00036437676562400004
418,qDII-DR5-CLV3-LD_E25_170811_sam04_t05,E25,4,5,33.3333390242,-12.0183618247,-11.004210826800001,0.00931582736582,1.74240984672e-06
419,qDII-DR5-CLV3-LD_E25_170811_sam04_t05,E25,4,5,14.9759753002,62.5093296592,-45.8968425301,0.021086825150399998,0.00038285149299800003
420,qDII-DR5-CLV3-LD_E25_170811_sam04_t05,E25,4,5,36.5330248407,-21.7583800938,-18.6228994143,-0.008048053145299999,-0.0007712148968160001
421,qDII-DR5-CLV3-LD_E25_170811_sam04_t05,E25,4,5,19.4440897802,45.1020682458,-21.406983341500002,0.017246673778799997,0.000129127787989
422,qDII-DR5-CLV3-LD_E25_170811_sam04_t05,E25,4,5,40.6404156886,-36.8460010378,-22.416290861900002,0.00492964565094,-0.000357956018734
423,qDII-DR5-CLV3-LD_E25_170811_sam04_t05,E25,4,5,24.322810050700003,26.6167849523,-13.2718106894,0.00621646223781,-3.3483932494000003e-05
424,qDII-DR5-CLV3-LD_E25_170811_sam04_t05,E25,4,5,43.2830770834,-46.2374407998,-25.374036109400002,0.0223916608997,0.000259521687352
425,qDII-DR5-CLV3-LD_E25_170811_sam04_t05,E25,4,5,27.9422232309,13.1747653082,-8.95334740718,0.0119896788836,0.00013225502916900002
426,qDII-DR5-CLV3-LD_E25_170811_sam04_t05,E25,4,5,23.059499688600003,32.4404742515,-14.7844966698,0.00324189886143,-0.00011830822671799998
427,qDII-DR5-CLV3-LD_E25_170811_sam04_t05,E25,4,5,22.233010516100002,36.5919473134,-17.3709689902,0.00309482955955,-0.00014633936445600002
428,qDII-DR5-CLV3-LD_E25_170811_sam04_t05,E25,4,5,21.406521343599998,40.743420375300005,-19.9574413106,0.00785610875792,-6.13919075606e-05
429,qDII-DR5-CLV3-LD_E25_170811_sam04_t05,E25,4,5,45.7374895863,-53.0221156199,-34.3403721978,0.025239944971400002,0.000310627534537
430,qDII-DR5-CLV3-LD_E25_170811_sam04_t05,E25,4,5,26.54221868,21.2521458456,-11.762733623599999,0.00915935768575,3.67228350636e-05
431,qDII-DR5-CLV3-LD_E25_170811_sam04_t05,E25,4,5,18.678322238299998,52.4151663129,-25.3344646889,0.024624078755200004,0.000419867853442
432,qDII-DR5-CLV3-LD_E25_170811_sam04_t05,E25,4,5,30.598453049699998,6.13790996416,-8.51805668133,0.0145704477822,0.000209173305533
433,qDII-DR5-CLV3-LD_E25_170811_sam04_t05,E25,4,5,43.5846034033,-40.8082289754,-22.1394001416,0.0170355866412,0.00013800224993599998
434,qDII-DR5-CLV3-LD_E25_170811_sam04_t05,E25,4,5,20.6583254975,49.630677210500004,-22.7959100741,0.022702471549800003,0.00032284964900499997
435,qDII-DR5-CLV3-LD_E25_170811_sam04_t05,E25,4,5,41.0797169365,-28.518992715,-21.67979931,-0.00444614108475,-0.0007824145664730001
436,qDII-DR5-CLV3-LD_E25_170811_sam04_t05,E25,4,5,39.8462270202,-23.690234781500003,-21.965567478,-0.00729123914283,-0.0008453538282220001
437,qDII-DR5-CLV3-LD_E25_170811_sam04_t05,E25,4,5,38.6479601403,-15.7890970398,-17.723318679000002,-0.00600857565164,-0.000729849161323
438,qDII-DR5-CLV3-LD_E25_170811_sam04_t05,E25,4,5,48.100155379300006,-51.4975847827,-29.678348594699997,0.0293436566272,0.00061016112448
439,qDII-DR5-CLV3-LD_E25_170811_sam04_t05,E25,4,5,34.5582206331,0.796744944075,-10.4909228485,0.0158026341139,0.00023125380195500002
440,qDII-DR5-CLV3-LD_E25_170811_sam04_t05,E25,4,5,36.8113733348,-6.26731344986,-12.4089431586,0.0115070760941,5.14579696999e-05
441,qDII-DR5-CLV3-LD_E25_170811_sam04_t05,E25,4,5,31.1579575298,15.7885560172,-11.3687221294,0.0120478678307,0.00010133725930700001
442,qDII-DR5-CLV3-LD_E25_170811_sam04_t05,E25,4,5,43.5911663783,-31.6653677932,-20.2831538402,0.00495132501315,-0.0004227203808680001
443,qDII-DR5-CLV3-LD_E25_170811_sam04_t05,E25,4,5,40.4560461742,-19.3922747122,-21.0094812671,-0.00798779981498,-0.000873438974417
444,qDII-DR5-CLV3-LD_E25_170811_sam04_t05,E25,4,5,38.344990251999995,-10.5145963826,-14.4936615666,0.00398381226495,-0.00027417038775800004
445,qDII-DR5-CLV3-LD_E25_170811_sam04_t05,E25,4,5,32.6659962079,11.5279656157,-9.9344063425,0.013218041327400001,0.0001499256752
446,qDII-DR5-CLV3-LD_E25_170811_sam04_t05,E25,4,5,20.6902277766,59.014659046000006,-31.5086733644,0.026014652295,0.000604719707233
447,qDII-DR5-CLV3-LD_E25_170811_sam04_t05,E25,4,5,20.5317196855,60.7024303504,-38.6403381917,0.0241134186903,0.0005069161172570001
448,qDII-DR5-CLV3-LD_E25_170811_sam04_t05,E25,4,5,28.54603803,29.4884276065,-15.678887319200001,0.0047638663023900005,-0.000125014174826
449,qDII-DR5-CLV3-LD_E25_170811_sam04_t05,E25,4,5,26.258822675999998,38.5556562005,-19.733736829,0.00672997225111,-5.01364628917e-05
450,qDII-DR5-CLV3-LD_E25_170811_sam04_t05,E25,4,5,48.8683233345,-48.7355205613,-26.2905811543,0.031400284364200004,0.000804216678681
451,qDII-DR5-CLV3-LD_E25_170811_sam04_t05,E25,4,5,30.9277987322,21.8074670021,-14.042152413399998,0.00889541713118,-3.06400074554e-05
452,qDII-DR5-CLV3-LD_E25_170811_sam04_t05,E25,4,5,24.6573193891,46.5814663488,-22.544782663899998,0.018364688487599996,0.00024117595048599996
453,qDII-DR5-CLV3-LD_E25_170811_sam04_t05,E25,4,5,25.7582776783,43.0740985472,-21.1597545234,0.012411917792,9.36916753384e-05
454,qDII-DR5-CLV3-LD_E25_170811_sam04_t05,E25,4,5,30.277150411599997,26.0731407125,-15.4579227193,0.006859018232,-9.40078203142e-05
455,qDII-DR5-CLV3-LD_E25_170811_sam04_t05,E25,4,5,48.338196826,-43.4499600336,-21.8935412644,0.029785788124199998,0.000791023331463
456,qDII-DR5-CLV3-LD_E25_170811_sam04_t05,E25,4,5,46.535354093,-35.627595730900005,-20.0062631199,0.0170479782137,0.00012040159729100001
457,qDII-DR5-CLV3-LD_E25_170811_sam04_t05,E25,4,5,28.778437951100003,33.6965543663,-18.2451545402,0.00473638087749,-0.00011844715719700002
458,qDII-DR5-CLV3-LD_E25_170811_sam04_t05,E25,4,5,24.290466402699998,54.854068571899994,-26.5149131838,0.029074269286700004,0.000699193043367
459,qDII-DR5-CLV3-LD_E25_170811_sam04_t05,E25,4,5,52.0137708503,-52.4183649252,-33.0620062124,0.0319352364159,0.000673518295146
460,qDII-DR5-CLV3-LD_E25_170811_sam04_t05,E25,4,5,44.4806979499,-22.5041158334,-21.9273962528,-0.00290198499448,-0.000751103190242
461,qDII-DR5-CLV3-LD_E25_170811_sam04_t05,E25,4,5,36.8231796107,7.09473436262,-11.9515813007,0.014879562319399998,0.000187339201187
462,qDII-DR5-CLV3-LD_E25_170811_sam04_t05,E25,4,5,39.774213484499995,-3.5038948827599996,-14.837884506300002,0.012066758744399999,6.2339792434e-05
463,qDII-DR5-CLV3-LD_E25_170811_sam04_t05,E25,4,5,43.6338738391,-14.1467636099,-22.393718821799997,-0.006784124259609999,-0.0008459572131
464,qDII-DR5-CLV3-LD_E25_170811_sam04_t05,E25,4,5,35.153949244,18.74719627,-14.9584077806,0.011896790186000001,2.11121744147e-05
465,qDII-DR5-CLV3-LD_E25_170811_sam04_t05,E25,4,5,43.313332255,-10.4464217209,-20.253074293399997,-0.0018802466078000001,-0.0006004976642309999
466,qDII-DR5-CLV3-LD_E25_170811_sam04_t05,E25,4,5,50.9670862575,-39.4926594519,-20.8748904592,0.0296026324975,0.000803016103354
467,qDII-DR5-CLV3-LD_E25_170811_sam04_t05,E25,4,5,45.2364578652,-17.0210860217,-23.3775176389,-0.00648586449866,-0.000855364489741
468,qDII-DR5-CLV3-LD_E25_170811_sam04_t05,E25,4,5,37.450411170500004,13.1187286565,-14.6064661038,0.013703093514799999,0.000113881796194
469,qDII-DR5-CLV3-LD_E25_170811_sam04_t05,E25,4,5,42.842687348000005,-6.9988484681399985,-18.102182376400002,0.0052388555317099995,-0.000259068046117
470,qDII-DR5-CLV3-LD_E25_170811_sam04_t05,E25,4,5,34.9968404719,25.282704397899998,-16.4849500641,0.00966463229842,-9.04852638585e-05
471,qDII-DR5-CLV3-LD_E25_170811_sam04_t05,E25,4,5,30.216907756100003,44.1460168467,-22.2922853128,0.0162813459367,0.00023298071597599999
472,qDII-DR5-CLV3-LD_E25_170811_sam04_t05,E25,4,5,48.458116874,-26.3470598135,-20.461258037100002,0.00820331943265,-0.000277890831486
473,qDII-DR5-CLV3-LD_E25_170811_sam04_t05,E25,4,5,40.0295080471,6.4216395474,-15.3640317879,0.014236596430200001,0.00015579279558200002
474,qDII-DR5-CLV3-LD_E25_170811_sam04_t05,E25,4,5,34.144693415300004,29.496807719299998,-17.9023799886,0.00874195209251,-9.95610306641e-05
475,qDII-DR5-CLV3-LD_E25_170811_sam04_t05,E25,4,5,31.523447698000002,39.8338560562,-20.8596291444,0.0140587928229,0.000158564949708
476,qDII-DR5-CLV3-LD_E25_170811_sam04_t05,E25,4,5,29.15509613,50.021276535,-23.803311674699998,0.022366308285500004,0.000440540969195
477,qDII-DR5-CLV3-LD_E25_170811_sam04_t05,E25,4,5,42.642428641100004,-2.0508065771400004,-17.198703049000002,0.00998048016874,-3.55348652932e-05
478,qDII-DR5-CLV3-LD_E25_170811_sam04_t05,E25,4,5,33.258642996300004,35.5622057843,-20.592696135,0.0126011334629,8.03869184601e-05
479,qDII-DR5-CLV3-LD_E25_170811_sam04_t05,E25,4,5,27.497875578400002,59.3324614932,-33.7222083229,0.0292336077742,0.0007573761729550001
480,qDII-DR5-CLV3-LD_E25_170811_sam04_t05,E25,4,5,54.343932600100004,-44.194802520699994,-24.0677462874,0.034719998220800005,0.0010590211685
481,qDII-DR5-CLV3-LD_E25_170811_sam04_t05,E25,4,5,52.280109529499995,-34.586021332,-19.935979788399997,0.025525298594,0.0006139861174539999
482,qDII-DR5-CLV3-LD_E25_170811_sam04_t05,E25,4,5,56.1303640216,-48.5157755833,-28.4888898688,0.0356996281376,0.000994345176399
483,qDII-DR5-CLV3-LD_E25_170811_sam04_t05,E25,4,5,49.5736446816,-22.272417732399997,-21.8280303742,0.0035955005579499997,-0.00043309969051599995
484,qDII-DR5-CLV3-LD_E25_170811_sam04_t05,E25,4,5,40.9137166729,11.4396426052,-17.9593815559,0.0133177471095,0.000112092063233
485,qDII-DR5-CLV3-LD_E25_170811_sam04_t05,E25,4,5,39.3677713608,18.3319534,-18.3625601754,0.0129302754901,1.2286828740000001e-05
486,qDII-DR5-CLV3-LD_E25_170811_sam04_t05,E25,4,5,36.1555182144,30.944812715999998,-20.2817440122,0.012702068304000001,-6.45592255134e-06
487,qDII-DR5-CLV3-LD_E25_170811_sam04_t05,E25,4,5,52.032538326,-30.2931445717,-18.9984390584,0.0204345222399,0.00034689084643199994
488,qDII-DR5-CLV3-LD_E25_170811_sam04_t05,E25,4,5,38.3316972638,24.068645100500003,-18.6926371343,0.012492900029500001,-6.634840348599999e-05
489,qDII-DR5-CLV3-LD_E25_170811_sam04_t05,E25,4,5,48.1140788843,-12.2811121919,-24.7412604166,-0.004706341875790001,-0.0008046424909430001
490,qDII-DR5-CLV3-LD_E25_170811_sam04_t05,E25,4,5,46.8467652505,-5.67699724301,-23.949923007600002,-0.00301692446953,-0.000770025251443
491,qDII-DR5-CLV3-LD_E25_170811_sam04_t05,E25,4,5,46.0245182846,-2.53376301557,-21.790443320599998,0.0009608217939980001,-0.000519019045575
492,qDII-DR5-CLV3-LD_E25_170811_sam04_t05,E25,4,5,30.0658044442,60.3559502545,-38.4125238875,0.025955239372099998,0.000585785501846
493,qDII-DR5-CLV3-LD_E25_170811_sam04_t05,E25,4,5,49.64369252979999,-15.7479694749,-24.5219554352,-0.00248703581492,-0.0006854458388190001
494,qDII-DR5-CLV3-LD_E25_170811_sam04_t05,E25,4,5,45.0440021624,2.0694293315200003,-19.7126530641,0.00738306559914,-0.00013240636021
495,qDII-DR5-CLV3-LD_E25_170811_sam04_t05,E25,4,5,43.8362497752,6.75961927729,-18.8174718291,0.0108462955135,3.39113243597e-05
496,qDII-DR5-CLV3-LD_E25_170811_sam04_t05,E25,4,5,55.7002650969,-37.8525736203,-20.8588736296,0.0295275380314,0.0008471745948799999
497,qDII-DR5-CLV3-LD_E25_170811_sam04_t05,E25,4,5,59.4219115886,-51.1654256612,-32.966538926,0.0365575519638,0.000913717923615
498,qDII-DR5-CLV3-LD_E25_170811_sam04_t05,E25,4,5,43.3234560275,13.847151757899999,-20.3813947521,0.012310527588299999,7.33318386636e-05
499,qDII-DR5-CLV3-LD_E25_170811_sam04_t05,E25,4,5,36.303859389,42.2050447468,-23.2276655162,0.0228484938794,0.00046914972334500003
500,qDII-DR5-CLV3-LD_E25_170811_sam04_t05,E25,4,5,34.4238040688,50.4431130127,-24.8832355806,0.0271861482957,0.000693130064572
501,qDII-DR5-CLV3-LD_E25_170811_sam04_t05,E25,4,5,39.3023650494,32.1097051757,-21.448046526400002,0.0177745679065,0.00013058608069399998
502,qDII-DR5-CLV3-LD_E25_170811_sam04_t05,E25,4,5,42.8661406097,19.8771226133,-21.8874422586,0.0131913370774,-3.9911586079599995e-06
503,qDII-DR5-CLV3-LD_E25_170811_sam04_t05,E25,4,5,45.9200449549,8.8001591452,-22.3999396512,0.009172786632549999,-3.36643901708e-05
504,qDII-DR5-CLV3-LD_E25_170811_sam04_t05,E25,4,5,41.0118228185,27.9766228915,-22.36206292,0.0162563500156,2.25159237631e-05
505,qDII-DR5-CLV3-LD_E25_170811_sam04_t05,E25,4,5,33.9149339478,56.8261575718,-31.101173692,0.0321245812926,0.0009403526487989999
506,qDII-DR5-CLV3-LD_E25_170811_sam04_t05,E25,4,5,38.7422588052,38.542072525500004,-22.9779080469,0.0228550715843,0.00041856303781000003
507,qDII-DR5-CLV3-LD_E25_170811_sam04_t05,E25,4,5,51.5353948359,-10.472114471900001,-27.1090071108,-0.00212366411646,-0.00084597047109
508,qDII-DR5-CLV3-LD_E25_170811_sam04_t05,E25,4,5,55.694499676999996,-26.064684575999998,-21.490524355700003,0.018793138567400003,0.000312040776251
509,qDII-DR5-CLV3-LD_E25_170811_sam04_t05,E25,4,5,53.3816264388,-16.9348257225,-24.3763314695,0.00428758967022,-0.000373606045459
510,qDII-DR5-CLV3-LD_E25_170811_sam04_t05,E25,4,5,59.288016038100004,-39.216260775900004,-23.0529940743,0.0289973307613,0.0008039071663580002
511,qDII-DR5-CLV3-LD_E25_170811_sam04_t05,E25,4,5,48.3151351462,3.7015961434699993,-24.4201441688,0.0041772261958,-0.000296542272756
512,qDII-DR5-CLV3-LD_E25_170811_sam04_t05,E25,4,5,58.1492307598,-33.1531103092,-21.0568932483,0.024651665301099995,0.0006083201250090001
513,qDII-DR5-CLV3-LD_E25_170811_sam04_t05,E25,4,5,49.9001474766,-0.7468850364740001,-26.4929555698,-0.000300165713017,-0.000673680325331
514,qDII-DR5-CLV3-LD_E25_170811_sam04_t05,E25,4,5,55.4982442417,-21.8970683348,-22.8910684177,0.0139816271537,0.00010296269764899998
515,qDII-DR5-CLV3-LD_E25_170811_sam04_t05,E25,4,5,51.2836610709,-5.24693660547,-28.5674265893,-0.0014255606479000001,-0.000897767292977
516,qDII-DR5-CLV3-LD_E25_170811_sam04_t05,E25,4,5,46.1957541008,14.4438766855,-22.6962448853,0.011178651263700002,2.92538536733e-05
517,qDII-DR5-CLV3-LD_E25_170811_sam04_t05,E25,4,5,37.741168809899996,47.5789572189,-25.8299434358,0.030544503258700003,0.0008690861245239999
518,qDII-DR5-CLV3-LD_E25_170811_sam04_t05,E25,4,5,48.671980506000004,8.22512179912,-25.8276163823,0.0071494493805699996,-0.00015239689123600002
519,qDII-DR5-CLV3-LD_E25_170811_sam04_t05,E25,4,5,46.681048171099995,18.5023755872,-25.2489454808,0.011635169621700001,-1.03643106794e-05
520,qDII-DR5-CLV3-LD_E25_170811_sam04_t05,E25,4,5,54.643095007700005,-11.675113898900001,-28.149311403600002,0.00256019252211,-0.0007058996403649999
521,qDII-DR5-CLV3-LD_E25_170811_sam04_t05,E25,4,5,45.3623391241,25.307688783400003,-24.4695150787,0.015509236533,8.99626223458e-06
522,qDII-DR5-CLV3-LD_E25_170811_sam04_t05,E25,4,5,64.6270550092,-48.04923853060001,-31.8462832684,0.0373462303203,0.000998740114989
523,qDII-DR5-CLV3-LD_E25_170811_sam04_t05,E25,4,5,41.448121889,42.311482328800004,-25.4663844296,0.029819317804099996,0.000766252571591
524,qDII-DR5-CLV3-LD_E25_170811_sam04_t05,E25,4,5,51.8729859967,3.40877808182,-30.1911742249,0.00203360163497,-0.000511065304901
525,qDII-DR5-CLV3-LD_E25_170811_sam04_t05,E25,4,5,49.530531247700004,13.3057551164,-27.2539237544,0.009139947574829999,-9.7568413817e-05
526,qDII-DR5-CLV3-LD_E25_170811_sam04_t05,E25,4,5,47.83448261270001,19.9452972749,-27.646854985300003,0.011761615826,-3.1507082999999995e-05
527,qDII-DR5-CLV3-LD_E25_170811_sam04_t05,E25,4,5,44.8536282931,31.538857886,-25.987469592199997,0.0213248282762,0.00021881811343500002
528,qDII-DR5-CLV3-LD_E25_170811_sam04_t05,E25,4,5,60.67933263649999,-29.5738388827,-22.3660798465,0.0218143210208,0.000470104946297
529,qDII-DR5-CLV3-LD_E25_170811_sam04_t05,E25,4,5,43.8987700551,36.079419973600004,-25.0787217317,0.024783801919999997,0.00040858887543699995
530,qDII-DR5-CLV3-LD_E25_170811_sam04_t05,E25,4,5,47.902971851800004,21.773884165300004,-40.645886188,0.00921045678977,-9.89212455668e-05
531,qDII-DR5-CLV3-LD_E25_170811_sam04_t05,E25,4,5,66.8853713667,-50.8181725659,-37.5131798209,0.0401943094044,0.00111102992507
532,qDII-DR5-CLV3-LD_E25_170811_sam04_t05,E25,4,5,58.5083968879,-18.4784846369,-25.3540711679,0.0144437676735,0.000105832044862
533,qDII-DR5-CLV3-LD_E25_170811_sam04_t05,E25,4,5,55.0904027989,-4.90895687558,-32.0208666305,0.0020672834735899997,-0.0007745187307450001
534,qDII-DR5-CLV3-LD_E25_170811_sam04_t05,E25,4,5,51.646989760699995,8.49538796056,-30.4686443004,0.00592977492284,-0.00027748738242000005
535,qDII-DR5-CLV3-LD_E25_170811_sam04_t05,E25,4,5,50.284652908999995,14.1688612892,-41.3591430811,0.00709726106388,-0.00015360991239300002
536,qDII-DR5-CLV3-LD_E25_170811_sam04_t05,E25,4,5,54.2639932713,-0.833421541941,-32.257347152,0.00107144864877,-0.000697218275317
537,qDII-DR5-CLV3-LD_E25_170811_sam04_t05,E25,4,5,58.38919475,-14.5746969024,-27.911750618800003,0.00978284430956,-0.000273923350431
538,qDII-DR5-CLV3-LD_E25_170811_sam04_t05,E25,4,5,47.827556808599994,26.657636310900003,-26.8336528584,0.0160728831905,3.42361453668e-05
539,qDII-DR5-CLV3-LD_E25_170811_sam04_t05,E25,4,5,63.4989952674,-33.7755279879,-25.5979759326,0.022024748853599996,0.000459411796111
540,qDII-DR5-CLV3-LD_E25_170811_sam04_t05,E25,4,5,56.8647447604,-6.81271526082,-31.8799318427,0.004380191595020001,-0.0007029582654889999
541,qDII-DR5-CLV3-LD_E25_170811_sam04_t05,E25,4,5,50.7446076751,17.9862395375,-33.3428340849,0.00971064247523,-0.00010494360552299999
542,qDII-DR5-CLV3-LD_E25_170811_sam04_t05,E25,4,5,54.004014028,6.1804208087,-36.1576952485,0.00453638563379,-0.00034722395997099996
543,qDII-DR5-CLV3-LD_E25_170811_sam04_t05,E25,4,5,52.2566496248,12.945223486300002,-34.2125416874,0.00785860437832,-0.000185038520599
544,qDII-DR5-CLV3-LD_E25_170811_sam04_t05,E25,4,5,49.275874950200006,24.4628463691,-30.2031644954,0.0143431683557,-1.4340189353e-05
545,qDII-DR5-CLV3-LD_E25_170811_sam04_t05,E25,4,5,42.6202087656,50.4800505212,-30.5701260021,0.0354382736242,0.00120673624843
546,qDII-DR5-CLV3-LD_E25_170811_sam04_t05,E25,4,5,56.39918386430001,1.00592007874,-35.8279079671,0.0023058416141799997,-0.000521646770235
547,qDII-DR5-CLV3-LD_E25_170811_sam04_t05,E25,4,5,47.1997234846,36.7166554199,-28.5592950239,0.024898936439099996,0.00046141310122199995
548,qDII-DR5-CLV3-LD_E25_170811_sam04_t05,E25,4,5,45.2980931969,44.1609905674,-28.9998542828,0.035122787030000005,0.0011667041114900001
549,qDII-DR5-CLV3-LD_E25_170811_sam04_t05,E25,4,5,66.3362295941,-36.4030583248,-27.7408594348,0.0227223267188,0.000474710118362
550,qDII-DR5-CLV3-LD_E25_170811_sam04_t05,E25,4,5,59.603350822299994,-9.97015020953,-31.6506691504,0.00901007835707,-0.0004660991390319999
551,qDII-DR5-CLV3-LD_E25_170811_sam04_t05,E25,4,5,49.2471352437,30.609265471300002,-35.2249269598,0.0170793655709,9.448920770899998e-05
552,qDII-DR5-CLV3-LD_E25_170811_sam04_t05,E25,4,5,49.140420790600004,31.7161498873,-30.594725785399998,0.0194787685654,0.00018175722220099998
553,qDII-DR5-CLV3-LD_E25_170811_sam04_t05,E25,4,5,58.3831107501,-2.4830569451599995,-37.9433685407,0.00146183882289,-0.000586318361016
554,qDII-DR5-CLV3-LD_E25_170811_sam04_t05,E25,4,5,68.5298210494,-41.5531917156,-29.7627235708,0.026724527177400002,0.000618590675016
555,qDII-DR5-CLV3-LD_E25_170811_sam04_t05,E25,4,5,55.475147166199996,9.77897626539,-39.837078745,0.00590254145302,-0.000249734177918
556,qDII-DR5-CLV3-LD_E25_170811_sam04_t05,E25,4,5,70.06744123819999,-46.580900298100005,-34.1514653683,0.0357565535952,0.00095117773042
557,qDII-DR5-CLV3-LD_E25_170811_sam04_t05,E25,4,5,62.9967677665,-18.3255599749,-27.609675943699997,0.020495567851,0.000383606863312
558,qDII-DR5-CLV3-LD_E25_170811_sam04_t05,E25,4,5,57.291478678400004,4.38713410879,-40.6813127151,0.00387061547618,-0.000340644233475
559,qDII-DR5-CLV3-LD_E25_170811_sam04_t05,E25,4,5,46.369993199700005,47.1037927809,-42.0365558026,0.0328701649344,0.00118624738641
560,qDII-DR5-CLV3-LD_E25_170811_sam04_t05,E25,4,5,48.289434118100004,41.0058032169,-33.4570085629,0.0312107173092,0.00101775879518
561,qDII-DR5-CLV3-LD_E25_170811_sam04_t05,E25,4,5,60.941872688400004,-4.97426689268,-36.5807844734,0.00333653925226,-0.000575301261572
562,qDII-DR5-CLV3-LD_E25_170811_sam04_t05,E25,4,5,64.2407442845,-14.7159446477,-30.1216766627,0.0201792623735,0.00029097498128900003
563,qDII-DR5-CLV3-LD_E25_170811_sam04_t05,E25,4,5,66.8713162193,-21.6901697323,-28.5173435409,0.0233950996474,0.0005409353666349999
564,qDII-DR5-CLV3-LD_E25_170811_sam04_t05,E25,4,5,64.4000941799,-11.024415030799998,-33.8348318842,0.015494097421799998,-1.23496542393e-06
565,qDII-DR5-CLV3-LD_E25_170811_sam04_t05,E25,4,5,64.2849749586,-7.97699067425,-36.3465429256,0.008367503237,-0.000319946243141
566,qDII-DR5-CLV3-LD_E25_170811_sam04_t05,E25,4,5,73.3737972585,-41.8763536779,-34.3309395061,0.0244751067361,0.000534616789014
567,qDII-DR5-CLV3-LD_E25_170811_sam04_t05,E25,4,5,74.2715743084,-34.5037662023,-33.533253300700004,0.019258516990000002,0.00034273650533799997
568,qDII-DR5-CLV3-LD_E25_170811_sam04_t05,E25,4,5,69.1577705193,-14.522509467,-33.5430045975,0.0232388331928,0.0004902424009059999
569,qDII-DR5-CLV3-LD_E25_170811_sam04_t05,E25,4,5,69.0169137689,-11.3365171227,-37.2356650419,0.0157589574605,0.00012321825957
570,qDII-DR5-CLV3-LD_E25_170811_sam04_t05,E25,4,5,76.8383427901,-38.5558274492,-36.7787160123,0.0180499330108,0.000299886390497
571,qDII-DR5-CLV3-LD_E25_170811_sam04_t05,E25,4,5,75.2423217389,-26.538643855300002,-33.938670893899996,0.024777201520500003,0.00059897449214
572,qDII-DR5-CLV3-LD_E25_170811_sam04_t05,E25,4,5,77.9754455651,-33.687452249699994,-39.3604991549,0.0184692741417,0.000320655493251
573,qDII-DR5-CLV3-LD_E25_170811_sam04_t05,E25,4,5,72.578927181,-12.5616362906,-40.6107348896,0.0197829927513,0.00034405741257900003
574,qDII-DR5-CLV3-LD_E25_170811_sam04_t05,E25,4,5,73.8557263222,-15.9548034436,-38.0550047348,0.025589589736900002,0.000638801285381
575,qDII-DR5-CLV3-LD_E25_170811_sam04_t05,E25,4,5,76.4266573655,-20.9391657968,-38.9045072379,0.0304576785761,0.0009042963171789999
576,qDII-DR5-CLV3-LD_E25_170811_sam04_t05,E25,4,5,-71.0045399035,1.4851471755899999,-40.9957326045,0.0222862298795,0.000326512774629
577,qDII-DR5-CLV3-LD_E25_170811_sam04_t05,E25,4,5,-54.5169473321,-18.9726505113,-25.462330240500002,0.0102742320291,-0.00014287635022799998
578,qDII-DR5-CLV3-LD_E25_170811_sam04_t05,E25,4,5,-56.14811177479999,-10.1037844538,-24.80031029,0.0113340418749,-1.47822540086e-05
579,qDII-DR5-CLV3-LD_E25_170811_sam04_t05,E25,4,5,-37.717827457199995,27.6098516472,-19.3785109564,0.0231149055998,0.00043874126145099993
580,qDII-DR5-CLV3-LD_E25_170811_sam04_t05,E25,4,5,-17.7325039019,-12.3854025093,-3.8946026530199997,0.0137842449395,0.00017495247862700001
581,qDII-DR5-CLV3-LD_E25_170811_sam04_t05,E25,4,5,-14.0030986553,3.9956682172300004,-1.17146707802,0.0166128025525,0.000262681013976
582,qDII-DR5-CLV3-LD_E25_170811_sam04_t05,E25,4,5,-20.2245022484,40.107496808899995,-29.0478070296,0.0232810569043,9.34082333482e-05
583,qDII-DR5-CLV3-LD_E25_170811_sam04_t05,E25,4,5,-12.527244335399999,27.8204859789,-8.280270187660001,0.015460954859700001,0.00022287548541200002
584,qDII-DR5-CLV3-LD_E25_170811_sam04_t05,E25,4,5,0.0618686517087,-15.6930466626,-2.15389113792,0.012563808890799999,0.00014375345765200003
585,qDII-DR5-CLV3-LD_E25_170811_sam04_t05,E25,4,5,5.66080722115,-31.4639290396,-9.39682403454,0.0125745866071,9.02467201233e-05
586,qDII-DR5-CLV3-LD_E25_170811_sam04_t05,E25,4,5,11.8750117847,-54.4209894788,-24.4519871899,0.022126245219099998,0.000438446522878
587,qDII-DR5-CLV3-LD_E25_170811_sam04_t05,E25,4,5,-2.17539485754,3.87669616586,0.26745943951900003,0.0157598846454,0.00023581561176099996
588,qDII-DR5-CLV3-LD_E25_170811_sam04_t05,E25,4,5,2.22251358955,1.7869894602599998,0.47593767718900004,0.0158472461799,0.00024001357473599997
589,qDII-DR5-CLV3-LD_E25_170811_sam04_t05,E25,4,5,7.49975019073,-15.359101035999998,-3.18149783798,0.0125283051181,0.000143117593996
590,qDII-DR5-CLV3-LD_E25_170811_sam04_t05,E25,4,5,23.4979668805,-17.3289067379,-7.4166857021000006,0.015156683417499999,0.000224113548002
591,qDII-DR5-CLV3-LD_E25_170811_sam04_t05,E25,4,5,30.0135672267,55.1778475805,-27.579610845700003,0.0321497271495,0.0009171966505710001
592,qDII-DR5-CLV3-LD_E25_170811_sam04_t05,E25,4,5,61.7817344941,-43.7849191659,-27.4453447864,0.033024265195499995,0.000900642884927
593,qDII-DR5-CLV3-LD_E25_170811_sam04_t05,E25,4,5,37.9910607817,53.4371804752,-29.6571898718,0.0339578671394,0.00107471722794
594,qDII-DR5-CLV3-LD_E25_170811_sam04_t05,E25,4,5,39.088857603499996,56.0895392446,-36.812958390700004,0.02547971537,0.000624749603553
595,qDII-DR5-CLV3-LD_E25_170811_sam04_t05,E25,4,5,62.6265132725,-25.355545504899997,-24.895256105599998,0.0206261522743,0.000416187759331
596,qDII-DR5-CLV3-LD_E25_170811_sam04_t05,E25,4,5,45.2219613489,49.7281822671,-36.3375471436,0.0334192782247,0.0011899090721500002
597,qDII-DR5-CLV3-LD_E25_170811_sam04_t05,E25,4,5,68.9230498299,-28.8817362435,-28.087031670500004,0.0212016513194,0.00042584016495
598,qDII-DR5-CLV3-LD_E25_170811_sam04_t05,E25,4,5,70.7212875272,-19.840661493699997,-32.0508133941,0.026982829519400002,0.0007115632735830001
599,qDII-DR5-CLV3-LD_E25_170811_sam04_t05,E25,4,5,29.1896444005,-5.15460842548,-7.943991694139999,0.0172459865955,0.00029186288091599997
