,filename,experiment,sam_id,hour_time,aligned_x,aligned_y,aligned_z,mean_curvature,gaussian_curvature
0,qDII-DR5-CLV3-LD_E27_170817_sam03_t10,E27,3,10,47.2689143468,60.246753255200005,-33.2040506401,0.03711592693869999,0.00131249050127
1,qDII-DR5-CLV3-LD_E27_170817_sam03_t10,E27,3,10,52.338954593000004,54.2852793468,-35.8447484156,0.0330505537592,0.000962585169495
2,qDII-DR5-CLV3-LD_E27_170817_sam03_t10,E27,3,10,51.898114758999995,52.7908094169,-42.8580660235,0.0299652294649,0.000772477322145
3,qDII-DR5-CLV3-LD_E27_170817_sam03_t10,E27,3,10,44.0954007618,58.601233798100004,-28.33158707,0.0366347101606,0.00126228331502
4,qDII-DR5-CLV3-LD_E27_170817_sam03_t10,E27,3,10,54.135764926899995,48.4148388469,-30.087274493800003,0.034833960880100004,0.00101364196247
5,qDII-DR5-CLV3-LD_E27_170817_sam03_t10,E27,3,10,44.0800579284,54.6802109188,-24.8146996426,0.033801370901,0.00105985048863
6,qDII-DR5-CLV3-LD_E27_170817_sam03_t10,E27,3,10,28.5053598185,64.65257845720001,-36.816967156,0.0207147906752,0.0005906483294530001
7,qDII-DR5-CLV3-LD_E27_170817_sam03_t10,E27,3,10,33.2658414537,60.901121656499996,-27.7091330297,0.028841333657900002,0.00079043781001
8,qDII-DR5-CLV3-LD_E27_170817_sam03_t10,E27,3,10,38.1503302208,57.084197952299995,-24.4730687656,0.0313864366131,0.0008781046190179999
9,qDII-DR5-CLV3-LD_E27_170817_sam03_t10,E27,3,10,28.4622546343,63.388666631599996,-30.950771298400003,0.021395889846900003,0.0005481441232519999
10,qDII-DR5-CLV3-LD_E27_170817_sam03_t10,E27,3,10,50.7562558209,45.8504076061,-26.3765716474,0.035290992827599996,0.00109085811941
11,qDII-DR5-CLV3-LD_E27_170817_sam03_t10,E27,3,10,55.511093027,41.7996329887,-31.3437000071,0.030844622609000002,0.0005183045106230001
12,qDII-DR5-CLV3-LD_E27_170817_sam03_t10,E27,3,10,32.0121403902,58.108582507,-24.1204586586,0.027434450192299998,0.000630110227832
13,qDII-DR5-CLV3-LD_E27_170817_sam03_t10,E27,3,10,54.1626088404,41.665028095100006,-26.5747974163,0.033256954834099996,0.0008022513932889999
14,qDII-DR5-CLV3-LD_E27_170817_sam03_t10,E27,3,10,46.6054425047,46.8838279742,-22.619118233600002,0.0328038037295,0.0010181248986400001
15,qDII-DR5-CLV3-LD_E27_170817_sam03_t10,E27,3,10,35.5857737299,53.342705636400005,-23.1557600491,0.028388543786299996,0.000691207238048
16,qDII-DR5-CLV3-LD_E27_170817_sam03_t10,E27,3,10,20.161464942000002,62.445561938699996,-35.1672613105,0.0100957134064,3.06851691163e-05
17,qDII-DR5-CLV3-LD_E27_170817_sam03_t10,E27,3,10,22.6337914188,60.424091796800006,-29.4458029949,0.0144609997526,0.00016999918290399997
18,qDII-DR5-CLV3-LD_E27_170817_sam03_t10,E27,3,10,31.944201180700002,54.0167060112,-19.427753361300002,0.025684119923400004,0.000450271637141
19,qDII-DR5-CLV3-LD_E27_170817_sam03_t10,E27,3,10,29.108090054699996,54.60670352,-22.7835187913,0.0244910532174,0.000360133686705
20,qDII-DR5-CLV3-LD_E27_170817_sam03_t10,E27,3,10,48.5763897444,40.6580834921,-22.73649209,0.0287742034062,0.0006593340045650001
21,qDII-DR5-CLV3-LD_E27_170817_sam03_t10,E27,3,10,54.4191958587,36.348336380999996,-27.7661736454,0.0307472446973,0.00030114631200200005
22,qDII-DR5-CLV3-LD_E27_170817_sam03_t10,E27,3,10,54.6290381424,35.874872138899995,-35.988997419899995,0.0387732443763,-0.00042671517900599995
23,qDII-DR5-CLV3-LD_E27_170817_sam03_t10,E27,3,10,15.0843186088,62.8581396242,-44.259292808699996,0.00786312062096,-6.17014652122e-05
24,qDII-DR5-CLV3-LD_E27_170817_sam03_t10,E27,3,10,15.9425444122,61.1660480929,-39.617992697800005,0.00816844576952,-5.38011633925e-05
25,qDII-DR5-CLV3-LD_E27_170817_sam03_t10,E27,3,10,36.1243250125,46.6941655865,-20.8454696515,0.0177239987427,0.000279206121457
26,qDII-DR5-CLV3-LD_E27_170817_sam03_t10,E27,3,10,19.799228457599998,57.382080302700004,-28.112522871,0.013559891705,5.31904215961e-06
27,qDII-DR5-CLV3-LD_E27_170817_sam03_t10,E27,3,10,30.606045125999998,49.779097479300006,-21.6998696225,0.020260345224599997,0.000212838355148
28,qDII-DR5-CLV3-LD_E27_170817_sam03_t10,E27,3,10,54.8479964015,31.372528697699998,-30.140105403699998,0.0312438310535,-0.000113579963744
29,qDII-DR5-CLV3-LD_E27_170817_sam03_t10,E27,3,10,14.722625345099999,58.9515366963,-33.6850020738,0.00888817058496,-8.96003256886e-05
30,qDII-DR5-CLV3-LD_E27_170817_sam03_t10,E27,3,10,10.8367172909,60.143037134,-40.498930258099996,0.00801894190074,-0.000114133797707
31,qDII-DR5-CLV3-LD_E27_170817_sam03_t10,E27,3,10,24.3005749752,51.383979393699995,-22.5101838938,0.0180914807597,-8.51319377404e-05
32,qDII-DR5-CLV3-LD_E27_170817_sam03_t10,E27,3,10,50.8312246298,32.4043026613,-24.0444915689,0.0256079724406,0.000121576391719
33,qDII-DR5-CLV3-LD_E27_170817_sam03_t10,E27,3,10,43.5465313665,37.384312413800004,-21.2775237474,0.019432234059400002,0.000217638402677
34,qDII-DR5-CLV3-LD_E27_170817_sam03_t10,E27,3,10,32.6132409642,44.5920714454,-20.6456671798,0.011908361418899999,4.28669015005e-05
35,qDII-DR5-CLV3-LD_E27_170817_sam03_t10,E27,3,10,37.1269204923,40.897424012399995,-20.9070279717,0.012408309505000001,0.00012548316637600002
36,qDII-DR5-CLV3-LD_E27_170817_sam03_t10,E27,3,10,52.23631995939999,29.5384428638,-26.472906429499997,0.026139255597399998,-2.70022838437e-05
37,qDII-DR5-CLV3-LD_E27_170817_sam03_t10,E27,3,10,27.2622413979,47.0965059786,-20.3371427724,0.013448608615200001,-9.64366274645e-05
38,qDII-DR5-CLV3-LD_E27_170817_sam03_t10,E27,3,10,18.437324819100002,52.6302645169,-24.519025101799997,0.015160735044799999,-0.00020325506929900003
39,qDII-DR5-CLV3-LD_E27_170817_sam03_t10,E27,3,10,46.3046688704,32.6386179102,-21.4389833034,0.019007048797400002,9.39527061137e-07
40,qDII-DR5-CLV3-LD_E27_170817_sam03_t10,E27,3,10,12.8683719378,54.8481547803,-28.8898994521,0.0105330605345,-0.00025214306154400007
41,qDII-DR5-CLV3-LD_E27_170817_sam03_t10,E27,3,10,53.9972569112,25.5651049056,-31.268346609800002,0.0311474590808,-0.0005116780484640001
42,qDII-DR5-CLV3-LD_E27_170817_sam03_t10,E27,3,10,7.9664489518499995,57.2191858999,-36.8176741379,0.00898667076856,-0.00033460850668200003
43,qDII-DR5-CLV3-LD_E27_170817_sam03_t10,E27,3,10,21.4992507897,47.7631169444,-22.3521398123,0.013557637626499999,-0.000270009907541
44,qDII-DR5-CLV3-LD_E27_170817_sam03_t10,E27,3,10,8.48764751278,56.2273983926,-33.32948283,0.00909449517889,-0.00031843482376800003
45,qDII-DR5-CLV3-LD_E27_170817_sam03_t10,E27,3,10,29.3721633862,41.790496482399995,-20.4618361155,0.00634925648833,-0.000162806880121
46,qDII-DR5-CLV3-LD_E27_170817_sam03_t10,E27,3,10,13.111621001400001,52.0168973012,-25.387069170700002,0.012994574501399998,-0.00032246753268799994
47,qDII-DR5-CLV3-LD_E27_170817_sam03_t10,E27,3,10,38.7196586866,33.4118837158,-21.0036070227,0.009000097678709998,-0.00013677224120799998
48,qDII-DR5-CLV3-LD_E27_170817_sam03_t10,E27,3,10,42.0952395325,30.2660458552,-21.1993367029,0.0109431007429,-0.000223438389646
49,qDII-DR5-CLV3-LD_E27_170817_sam03_t10,E27,3,10,49.1932948752,25.1168288908,-25.1286470755,0.0189974769918,-0.000238960602884
50,qDII-DR5-CLV3-LD_E27_170817_sam03_t10,E27,3,10,16.5969525872,47.198327074,-20.8985766952,0.0115953127016,-0.000359245551384
51,qDII-DR5-CLV3-LD_E27_170817_sam03_t10,E27,3,10,53.7446031626,20.6078331849,-32.4302761127,0.0320843430275,-0.000986602076058
52,qDII-DR5-CLV3-LD_E27_170817_sam03_t10,E27,3,10,2.87257962452,55.5638074271,-34.1809736642,0.010138907449700002,-0.00033428648394999997
53,qDII-DR5-CLV3-LD_E27_170817_sam03_t10,E27,3,10,20.3790480499,43.81205268229999,-19.9448573157,0.00803463652654,-0.000316717339725
54,qDII-DR5-CLV3-LD_E27_170817_sam03_t10,E27,3,10,24.959748350199998,40.1165820471,-19.0371378971,0.00393473544367,-0.00027293807066400006
55,qDII-DR5-CLV3-LD_E27_170817_sam03_t10,E27,3,10,31.2403844758,35.6837354625,-19.400314186099997,-0.00041755729731,-0.00020416829879
56,qDII-DR5-CLV3-LD_E27_170817_sam03_t10,E27,3,10,12.280782332200001,48.1160567889,-22.996339908899998,0.0132032955763,-0.00037775194021
57,qDII-DR5-CLV3-LD_E27_170817_sam03_t10,E27,3,10,38.9097681534,29.2528939121,-19.8445111668,0.00557930328105,-0.00028593735742600004
58,qDII-DR5-CLV3-LD_E27_170817_sam03_t10,E27,3,10,6.57833112728,51.4924721649,-26.185822384699996,0.0118174437574,-0.000327192961588
59,qDII-DR5-CLV3-LD_E27_170817_sam03_t10,E27,3,10,2.3867112248900004,53.5016136845,-30.6358031654,0.010915066701700001,-0.000284431081981
60,qDII-DR5-CLV3-LD_E27_170817_sam03_t10,E27,3,10,54.6205569043,16.194810100799998,-38.3482147151,0.0529600292154,-0.00271301295935
61,qDII-DR5-CLV3-LD_E27_170817_sam03_t10,E27,3,10,49.3997521196,20.0899742554,-26.3169453886,0.0166586166985,-0.00031165888116100004
62,qDII-DR5-CLV3-LD_E27_170817_sam03_t10,E27,3,10,32.6380799991,31.4358035793,-18.3105091853,-0.0006544849960140001,-0.00022462905415500002
63,qDII-DR5-CLV3-LD_E27_170817_sam03_t10,E27,3,10,44.5560699388,22.9311768081,-21.3455754581,0.0115987611191,-0.00032199429678699996
64,qDII-DR5-CLV3-LD_E27_170817_sam03_t10,E27,3,10,24.760234198400003,36.4870426509,-17.8553329746,0.00014134110361000002,-0.000251177083656
65,qDII-DR5-CLV3-LD_E27_170817_sam03_t10,E27,3,10,14.1520132446,43.62686517229999,-19.588005638,0.008668944442639999,-0.00032101356683099993
66,qDII-DR5-CLV3-LD_E27_170817_sam03_t10,E27,3,10,52.265548977799995,16.14667768,-30.002780638,0.020277822058099998,-0.0008843464221039999
67,qDII-DR5-CLV3-LD_E27_170817_sam03_t10,E27,3,10,54.1515795029,14.4216302346,-33.6308860898,0.0345564562112,-0.0021364527521799998
68,qDII-DR5-CLV3-LD_E27_170817_sam03_t10,E27,3,10,18.5605000205,39.5905105063,-17.4977306902,0.0035373976124000004,-0.00027025405318
69,qDII-DR5-CLV3-LD_E27_170817_sam03_t10,E27,3,10,5.609060930140001,47.828775374799996,-20.2682213407,0.013786141770200001,-0.000269057677983
70,qDII-DR5-CLV3-LD_E27_170817_sam03_t10,E27,3,10,35.346087729000004,26.9799461545,-18.4688908254,0.0014857907557000003,-0.00028895654886400003
71,qDII-DR5-CLV3-LD_E27_170817_sam03_t10,E27,3,10,27.245898629899997,31.980138274,-16.8280811694,-0.00233633579096,-0.000198529778248
72,qDII-DR5-CLV3-LD_E27_170817_sam03_t10,E27,3,10,-3.1782268893799994,52.5481856402,-31.4903719156,0.0119556636958,-0.000123924530153
73,qDII-DR5-CLV3-LD_E27_170817_sam03_t10,E27,3,10,-1.1124150294,50.767152029399995,-26.9183626596,0.013235596585299998,-0.00013989590925499997
74,qDII-DR5-CLV3-LD_E27_170817_sam03_t10,E27,3,10,22.3709010548,34.704003769,-15.373767445599999,0.000466364913226,-0.000196527960604
75,qDII-DR5-CLV3-LD_E27_170817_sam03_t10,E27,3,10,45.5278932449,18.173976884400002,-21.4046376896,0.0127568950673,-0.00024227873136999998
76,qDII-DR5-CLV3-LD_E27_170817_sam03_t10,E27,3,10,38.0208566832,23.1029396848,-17.4520364229,0.00364118751183,-0.000267225768511
77,qDII-DR5-CLV3-LD_E27_170817_sam03_t10,E27,3,10,13.797176566600001,39.9454556219,-16.0514870598,0.00533018270915,-0.00016752800224700002
78,qDII-DR5-CLV3-LD_E27_170817_sam03_t10,E27,3,10,30.6691426477,28.083772639499998,-15.8541488118,-0.00117360531767,-0.00019767501578299998
79,qDII-DR5-CLV3-LD_E27_170817_sam03_t10,E27,3,10,41.4490339052,20.1279554407,-18.8235839729,0.00869406715117,-0.000238415603303
80,qDII-DR5-CLV3-LD_E27_170817_sam03_t10,E27,3,10,57.6426812329,7.51449596875,-43.219270361599996,0.0539659049675,-0.00369321051669
81,qDII-DR5-CLV3-LD_E27_170817_sam03_t10,E27,3,10,7.02118084958,43.4091666729,-16.8335182597,0.0123952313815,-0.000160492757067
82,qDII-DR5-CLV3-LD_E27_170817_sam03_t10,E27,3,10,52.0799160014,11.188582757,-29.9956299305,0.015072961004700002,-0.00128370672949
83,qDII-DR5-CLV3-LD_E27_170817_sam03_t10,E27,3,10,-7.07153474995,52.357613992299996,-34.7860802385,0.011620611977600002,-2.93793028837e-05
84,qDII-DR5-CLV3-LD_E27_170817_sam03_t10,E27,3,10,-1.2418985861799998,48.7543588343,-22.220665185100003,0.015167385866499999,-7.18745911095e-05
85,qDII-DR5-CLV3-LD_E27_170817_sam03_t10,E27,3,10,17.3901675067,35.929283323,-15.0873702776,0.00299987333222,-0.000137810535361
86,qDII-DR5-CLV3-LD_E27_170817_sam03_t10,E27,3,10,49.1729373404,13.1717794938,-25.135891072600003,0.012734745927799999,-0.000361142383691
87,qDII-DR5-CLV3-LD_E27_170817_sam03_t10,E27,3,10,55.851977051599995,7.73848786629,-37.2518408342,0.0438260139676,-0.0034620990509800003
88,qDII-DR5-CLV3-LD_E27_170817_sam03_t10,E27,3,10,9.37334695737,40.0607874086,-14.6248745801,0.00885879357155,-8.68902170274e-05
89,qDII-DR5-CLV3-LD_E27_170817_sam03_t10,E27,3,10,27.6032884169,27.240651110599998,-14.506060935199999,-0.00016232141295700002,-0.000130927610777
90,qDII-DR5-CLV3-LD_E27_170817_sam03_t10,E27,3,10,32.7984222364,23.527467715,-15.9794239823,0.00194194723589,-0.00019654494907
91,qDII-DR5-CLV3-LD_E27_170817_sam03_t10,E27,3,10,-0.080427536684,45.7839355259,-18.770572524000002,0.016227262082200003,-3.81171386583e-05
92,qDII-DR5-CLV3-LD_E27_170817_sam03_t10,E27,3,10,-6.715525123659999,49.47119355,-24.2522154598,0.0158569779588,5.89583296507e-05
93,qDII-DR5-CLV3-LD_E27_170817_sam03_t10,E27,3,10,21.5207047852,30.0534586851,-12.9824563564,0.00354170324418,-3.79322329072e-05
94,qDII-DR5-CLV3-LD_E27_170817_sam03_t10,E27,3,10,57.914235868,3.1830061440400006,-38.5461962152,0.04125499631,-0.00335587987915
95,qDII-DR5-CLV3-LD_E27_170817_sam03_t10,E27,3,10,42.4685203832,14.620227743,-17.7129841667,0.012102049594700001,-7.30935975259e-05
96,qDII-DR5-CLV3-LD_E27_170817_sam03_t10,E27,3,10,12.5047603024,35.6535073291,-12.461649034,0.005689073657870001,-3.97701656071e-05
97,qDII-DR5-CLV3-LD_E27_170817_sam03_t10,E27,3,10,45.829676833,11.646066701199999,-20.2536119271,0.0122005561239,-0.000138411939241
98,qDII-DR5-CLV3-LD_E27_170817_sam03_t10,E27,3,10,61.03615802109999,-0.131215726347,-41.0733486569,0.0445940744006,-0.00291906761658
99,qDII-DR5-CLV3-LD_E27_170817_sam03_t10,E27,3,10,52.336503019700004,5.871891042890001,-31.1870061596,0.012041475180600001,-0.00193618135434
100,qDII-DR5-CLV3-LD_E27_170817_sam03_t10,E27,3,10,67.28301215020001,-5.1420900637999996,-43.780841198800005,0.044326472170099995,-0.000232401719471
101,qDII-DR5-CLV3-LD_E27_170817_sam03_t10,E27,3,10,0.6720622938549999,42.5932580535,-15.2971889688,0.0165755812116,5.3357094904400005e-06
102,qDII-DR5-CLV3-LD_E27_170817_sam03_t10,E27,3,10,65.2748978747,-4.0477637279100005,-38.9732581338,0.0329096890108,-0.00136170558423
103,qDII-DR5-CLV3-LD_E27_170817_sam03_t10,E27,3,10,72.9323237584,-9.84623776443,-42.9350931485,0.028674175160699998,0.00045516833823300003
104,qDII-DR5-CLV3-LD_E27_170817_sam03_t10,E27,3,10,5.26718699027,38.7261105995,-12.04457147,0.0125687708485,3.42811580815e-05
105,qDII-DR5-CLV3-LD_E27_170817_sam03_t10,E27,3,10,-12.8324339725,50.5490946634,-28.5924794292,0.012949477039299998,5.43176964102e-05
106,qDII-DR5-CLV3-LD_E27_170817_sam03_t10,E27,3,10,54.3203264907,3.1064787449299995,-33.6485274897,0.020080917361299997,-0.00247385222598
107,qDII-DR5-CLV3-LD_E27_170817_sam03_t10,E27,3,10,14.498074965199999,31.795036821999997,-10.2327923762,0.00719493677573,3.52541176361e-05
108,qDII-DR5-CLV3-LD_E27_170817_sam03_t10,E27,3,10,30.217517968000003,20.6538402307,-12.314721096900001,0.00686781692614,-1.34071275473e-05
109,qDII-DR5-CLV3-LD_E27_170817_sam03_t10,E27,3,10,69.3438908059,-7.84450506502,-36.863352035300004,0.027668503536799997,-0.000107437917218
110,qDII-DR5-CLV3-LD_E27_170817_sam03_t10,E27,3,10,8.03080091913,36.0586761944,-11.031958638299999,0.00973685344299,4.82358083417e-05
111,qDII-DR5-CLV3-LD_E27_170817_sam03_t10,E27,3,10,37.8392384738,14.973526454100002,-13.928580115399999,0.0116156302113,3.44581873696e-05
112,qDII-DR5-CLV3-LD_E27_170817_sam03_t10,E27,3,10,60.669906769799994,-2.02337905473,-37.5349158174,0.0335887873736,-0.0022984869247
113,qDII-DR5-CLV3-LD_E27_170817_sam03_t10,E27,3,10,25.9544873098,22.8993022702,-12.068749885,0.00627083057224,1.32592037981e-05
114,qDII-DR5-CLV3-LD_E27_170817_sam03_t10,E27,3,10,49.3883425559,5.89498794118,-25.153363693200003,0.00481037548699,-0.0007193100133250001
115,qDII-DR5-CLV3-LD_E27_170817_sam03_t10,E27,3,10,76.1501154759,-13.5046364745,-39.6033692193,0.0288545111499,0.000648757266024
116,qDII-DR5-CLV3-LD_E27_170817_sam03_t10,E27,3,10,72.836622198,-11.281003206600001,-35.893079421100005,0.027851191099400003,0.000449637520102
117,qDII-DR5-CLV3-LD_E27_170817_sam03_t10,E27,3,10,63.3114369482,-5.321534569240001,-35.3428253725,0.026091661490700004,-0.0010839551262899999
118,qDII-DR5-CLV3-LD_E27_170817_sam03_t10,E27,3,10,56.9613134484,-1.3485554777000002,-34.9759893401,0.0230792712721,-0.00219296741698
119,qDII-DR5-CLV3-LD_E27_170817_sam03_t10,E27,3,10,-14.4564010543,49.0357104932,-24.9816778187,0.0155292895289,0.000136965324924
120,qDII-DR5-CLV3-LD_E27_170817_sam03_t10,E27,3,10,17.9520911566,26.8591295371,-9.261356107300001,0.00823208905813,6.59345832182e-05
121,qDII-DR5-CLV3-LD_E27_170817_sam03_t10,E27,3,10,39.8181287405,11.2867327658,-14.0446215378,0.0144607005991,0.00011853385281499999
122,qDII-DR5-CLV3-LD_E27_170817_sam03_t10,E27,3,10,-9.2512328223,45.386347596499995,-18.2451105827,0.0209193250864,0.000275276942206
123,qDII-DR5-CLV3-LD_E27_170817_sam03_t10,E27,3,10,-4.80649744785,42.3887113787,-14.9832593359,0.0195800857499,0.00020763493431499999
124,qDII-DR5-CLV3-LD_E27_170817_sam03_t10,E27,3,10,31.904577561900002,16.4561320973,-11.2414693308,0.0107333105234,7.59819720565e-05
125,qDII-DR5-CLV3-LD_E27_170817_sam03_t10,E27,3,10,42.091316282,8.57154421762,-16.5226961027,0.0141907269376,8.60461249612e-05
126,qDII-DR5-CLV3-LD_E27_170817_sam03_t10,E27,3,10,78.5374437409,-18.128054706900002,-43.2622538313,0.0296777688325,0.0007995294465980001
127,qDII-DR5-CLV3-LD_E27_170817_sam03_t10,E27,3,10,0.00850394486708,38.111920181500004,-11.743535328499998,0.0161912111182,0.00017011290750600002
128,qDII-DR5-CLV3-LD_E27_170817_sam03_t10,E27,3,10,67.3754966753,-10.0396572968,-30.8874393664,0.021478766406900003,5.94720900142e-05
129,qDII-DR5-CLV3-LD_E27_170817_sam03_t10,E27,3,10,22.393816708200003,22.2439239159,-8.346317202,0.00876600625278,6.93080022876e-05
130,qDII-DR5-CLV3-LD_E27_170817_sam03_t10,E27,3,10,51.469415751999996,0.93233208248,-29.967853196799997,0.0039021276376200002,-0.00135332576558
131,qDII-DR5-CLV3-LD_E27_170817_sam03_t10,E27,3,10,34.6319428922,12.7499792441,-11.400432798199999,0.013147276875499998,0.00012878382784000002
132,qDII-DR5-CLV3-LD_E27_170817_sam03_t10,E27,3,10,45.31349798310001,4.67764818983,-19.0560043764,0.00902968980276,-0.000173512297787
133,qDII-DR5-CLV3-LD_E27_170817_sam03_t10,E27,3,10,7.8094625648600005,31.2187415314,-8.67683193453,0.01028146463,9.83288030792e-05
134,qDII-DR5-CLV3-LD_E27_170817_sam03_t10,E27,3,10,12.1201563949,28.222751718,-7.75314110856,0.00985178239104,9.58524637271e-05
135,qDII-DR5-CLV3-LD_E27_170817_sam03_t10,E27,3,10,49.8841638708,0.918357055597,-26.358215241,0.000602223729809,-0.000962310826219
136,qDII-DR5-CLV3-LD_E27_170817_sam03_t10,E27,3,10,-19.858616836099998,49.5162246888,-31.709180086,0.012685770531500001,3.00635789352e-05
137,qDII-DR5-CLV3-LD_E27_170817_sam03_t10,E27,3,10,-19.4878075971,49.3939484177,-28.21175503,0.0146447680645,0.000111687058313
138,qDII-DR5-CLV3-LD_E27_170817_sam03_t10,E27,3,10,69.7107717848,-13.6770504375,-29.8509538132,0.024380775147700002,0.000437027879417
139,qDII-DR5-CLV3-LD_E27_170817_sam03_t10,E27,3,10,77.9657401894,-19.7822511109,-37.366029420100006,0.0303323415783,0.000838270217627
140,qDII-DR5-CLV3-LD_E27_170817_sam03_t10,E27,3,10,59.611791598,-6.896647909460001,-31.6130732027,0.0128611244026,-0.0008033307984019999
141,qDII-DR5-CLV3-LD_E27_170817_sam03_t10,E27,3,10,-6.0076021353,39.767025845700005,-12.570402834600001,0.0196298046094,0.000301614617194
142,qDII-DR5-CLV3-LD_E27_170817_sam03_t10,E27,3,10,3.35732738407,32.8343056637,-8.42046331998,0.0118624111308,0.000128245246311
143,qDII-DR5-CLV3-LD_E27_170817_sam03_t10,E27,3,10,26.7824026631,16.3009859701,-9.77501272225,0.010242769187299999,9.000485175399999e-05
144,qDII-DR5-CLV3-LD_E27_170817_sam03_t10,E27,3,10,54.5000263283,-4.0521525477399996,-31.318024114,0.0069401011619799995,-0.00129144668984
145,qDII-DR5-CLV3-LD_E27_170817_sam03_t10,E27,3,10,16.831888416800002,22.908065275,-6.8540736106699995,0.00976540135233,9.23803873795e-05
146,qDII-DR5-CLV3-LD_E27_170817_sam03_t10,E27,3,10,-20.5161555394,48.270025623500004,-23.461901762600004,0.019561156737,0.00030071671410299996
147,qDII-DR5-CLV3-LD_E27_170817_sam03_t10,E27,3,10,47.1220981068,-0.046217542213,-22.6817825189,-0.00019101510413799998,-0.000720860002173
148,qDII-DR5-CLV3-LD_E27_170817_sam03_t10,E27,3,10,-3.38542955722,35.7191657595,-10.3777305624,0.016539341466899997,0.00024453707765
149,qDII-DR5-CLV3-LD_E27_170817_sam03_t10,E27,3,10,-11.174973603900002,40.8230981876,-13.4463482176,0.0226138919252,0.000423585455871
150,qDII-DR5-CLV3-LD_E27_170817_sam03_t10,E27,3,10,36.7919946545,7.154132669260001,-11.5282040573,0.016177784714299998,0.000217046247056
151,qDII-DR5-CLV3-LD_E27_170817_sam03_t10,E27,3,10,20.068494514,18.842492428499998,-7.04248380417,0.010150634207700002,9.65304797195e-05
152,qDII-DR5-CLV3-LD_E27_170817_sam03_t10,E27,3,10,41.7835995552,2.9827281851599996,-15.336067782,0.0132525205223,8.74464693594e-05
153,qDII-DR5-CLV3-LD_E27_170817_sam03_t10,E27,3,10,54.8985979181,-6.8315398725900005,-30.169907488299998,0.00362846818403,-0.00103245309679
154,qDII-DR5-CLV3-LD_E27_170817_sam03_t10,E27,3,10,11.2893177257,24.3219112058,-5.362411846690001,0.010493080329499999,0.00010551173059499998
155,qDII-DR5-CLV3-LD_E27_170817_sam03_t10,E27,3,10,-19.407280866,45.1287486986,-18.8359912317,0.0241890629447,0.00048043228287699997
156,qDII-DR5-CLV3-LD_E27_170817_sam03_t10,E27,3,10,80.8235940206,-26.26449848,-41.0531971035,0.028009753816999997,0.000720132434624
157,qDII-DR5-CLV3-LD_E27_170817_sam03_t10,E27,3,10,71.42613695029999,-19.3749909165,-27.607458182,0.0282514853468,0.000760708198744
158,qDII-DR5-CLV3-LD_E27_170817_sam03_t10,E27,3,10,48.89992605689999,-3.73054162388,-26.305064572600003,-0.0037387266160700005,-0.0010305986609400002
159,qDII-DR5-CLV3-LD_E27_170817_sam03_t10,E27,3,10,62.546700613999995,-13.315897981800001,-25.9212303925,0.015587851808899999,-4.79817466562e-05
160,qDII-DR5-CLV3-LD_E27_170817_sam03_t10,E27,3,10,6.736922996919999,26.517149495399998,-5.09988740012,0.010905510911700002,0.00011222143485799999
161,qDII-DR5-CLV3-LD_E27_170817_sam03_t10,E27,3,10,31.725425954600002,8.78740956186,-8.89075297704,0.0139000545178,0.00017377047256
162,qDII-DR5-CLV3-LD_E27_170817_sam03_t10,E27,3,10,-26.9349294736,48.773191793,-34.8228028266,0.0218334457586,0.000426228477873
163,qDII-DR5-CLV3-LD_E27_170817_sam03_t10,E27,3,10,-25.5813440786,48.0502357951,-29.036295226700002,0.019549645511700003,0.000321240039759
164,qDII-DR5-CLV3-LD_E27_170817_sam03_t10,E27,3,10,-14.4939433067,40.968471357,-10.9101308071,0.0220686245016,0.000433900271926
165,qDII-DR5-CLV3-LD_E27_170817_sam03_t10,E27,3,10,26.9199157538,11.9711425499,-7.44009899663,0.0116074454361,0.000118176326126
166,qDII-DR5-CLV3-LD_E27_170817_sam03_t10,E27,3,10,55.9955147975,-9.34044928356,-29.0616349914,0.00303254102502,-0.000885105618237
167,qDII-DR5-CLV3-LD_E27_170817_sam03_t10,E27,3,10,22.554158945500003,14.3355880516,-6.015231999,0.010948100058600002,0.000109824513985
168,qDII-DR5-CLV3-LD_E27_170817_sam03_t10,E27,3,10,44.4076955147,-1.76131991393,-17.8356877589,0.00142985090822,-0.0004206216509559999
169,qDII-DR5-CLV3-LD_E27_170817_sam03_t10,E27,3,10,-0.787547783716,30.0002197112,-5.8389965551900005,0.0123598207694,0.000140721505355
170,qDII-DR5-CLV3-LD_E27_170817_sam03_t10,E27,3,10,67.4281795582,-18.7503910893,-25.03197847,0.025880820127500002,0.000637303532597
171,qDII-DR5-CLV3-LD_E27_170817_sam03_t10,E27,3,10,-9.272970517889998,35.294364920599996,-10.040510035399999,0.0171749910378,0.00028440307079299996
172,qDII-DR5-CLV3-LD_E27_170817_sam03_t10,E27,3,10,75.1714405938,-24.9568624645,-31.344867396999998,0.027226452535799996,0.0007172014376160001
173,qDII-DR5-CLV3-LD_E27_170817_sam03_t10,E27,3,10,14.145248175499999,18.5358518496,-4.3572872809300005,0.0113265312021,0.000125687616171
174,qDII-DR5-CLV3-LD_E27_170817_sam03_t10,E27,3,10,2.0763256931200003,26.753111148800002,-4.83253955548,0.0114642620083,0.00012118398351
175,qDII-DR5-CLV3-LD_E27_170817_sam03_t10,E27,3,10,8.45475476452,21.2798997117,-4.02913172272,0.010758980663799999,0.00010735222309999999
176,qDII-DR5-CLV3-LD_E27_170817_sam03_t10,E27,3,10,18.5368439531,14.2104833071,-3.4391704596300006,0.0123279314374,0.00015000098630899998
177,qDII-DR5-CLV3-LD_E27_170817_sam03_t10,E27,3,10,-19.5615984481,40.2879908334,-15.3117843175,0.024066752960900002,0.000515710087582
178,qDII-DR5-CLV3-LD_E27_170817_sam03_t10,E27,3,10,33.6462434203,2.85150215847,-9.005048917469999,0.0162575991135,0.000250005258926
179,qDII-DR5-CLV3-LD_E27_170817_sam03_t10,E27,3,10,45.09508795439999,-5.6473621970800005,-20.2236766633,-0.0108048600905,-0.0008733447161950001
180,qDII-DR5-CLV3-LD_E27_170817_sam03_t10,E27,3,10,61.833012491000005,-17.507398775,-22.3644988362,0.020870946544500002,0.00031099376960600004
181,qDII-DR5-CLV3-LD_E27_170817_sam03_t10,E27,3,10,71.13777782380001,-24.2141023773,-26.421411688699997,0.027548261085299997,0.000736578908334
182,qDII-DR5-CLV3-LD_E27_170817_sam03_t10,E27,3,10,81.4886190372,-32.5178147381,-45.7874165221,0.023706029964799997,0.000485429831821
183,qDII-DR5-CLV3-LD_E27_170817_sam03_t10,E27,3,10,78.6944009388,-30.589780964499997,-33.8966431668,0.024948342083400004,0.000571613121608
184,qDII-DR5-CLV3-LD_E27_170817_sam03_t10,E27,3,10,81.41474167930001,-32.7421849134,-39.9187245758,0.024507529058500004,0.0005238020936330001
185,qDII-DR5-CLV3-LD_E27_170817_sam03_t10,E27,3,10,-5.24762599155,29.0768330498,-5.58396037459,0.0119288589891,0.000126315849622
186,qDII-DR5-CLV3-LD_E27_170817_sam03_t10,E27,3,10,51.6977837056,-11.7657146951,-25.2981945248,-0.00766154855771,-0.00108332227962
187,qDII-DR5-CLV3-LD_E27_170817_sam03_t10,E27,3,10,55.057016774,-14.043687724000002,-23.146530036199998,0.0034992261814000003,-0.000614835517138
188,qDII-DR5-CLV3-LD_E27_170817_sam03_t10,E27,3,10,-17.2118989424,36.4789208739,-11.9304006841,0.0183767212678,0.00032242333638999996
189,qDII-DR5-CLV3-LD_E27_170817_sam03_t10,E27,3,10,-33.167440703800004,46.5097441845,-35.6400235366,0.026926298130399998,0.0006798525309169999
190,qDII-DR5-CLV3-LD_E27_170817_sam03_t10,E27,3,10,-9.59456842014,31.034104415,-7.67922749964,0.012983205567799999,0.000155589720004
191,qDII-DR5-CLV3-LD_E27_170817_sam03_t10,E27,3,10,1.58744747067,23.073348002800003,-3.63418139815,0.010900923432400001,0.00010832807007700001
192,qDII-DR5-CLV3-LD_E27_170817_sam03_t10,E27,3,10,-31.9860688333,45.4459041559,-28.670960407600003,0.0269326373577,0.000657373038976
193,qDII-DR5-CLV3-LD_E27_170817_sam03_t10,E27,3,10,-30.8861421311,44.554564148199994,-25.2158755692,0.0266305615905,0.000643268443678
194,qDII-DR5-CLV3-LD_E27_170817_sam03_t10,E27,3,10,21.1058769344,8.83489089631,-3.59023261292,0.013552415682000002,0.000177298907841
195,qDII-DR5-CLV3-LD_E27_170817_sam03_t10,E27,3,10,25.1127822977,5.960354151830001,-4.99488663244,0.013633235142299999,0.000173263058321
196,qDII-DR5-CLV3-LD_E27_170817_sam03_t10,E27,3,10,35.7085022367,-1.70397956378,-10.2994042984,0.0144504651779,0.000197064629937
197,qDII-DR5-CLV3-LD_E27_170817_sam03_t10,E27,3,10,64.3688066966,-22.304140230599998,-21.340324947,0.027527451122099998,0.0007189907478150001
198,qDII-DR5-CLV3-LD_E27_170817_sam03_t10,E27,3,10,68.03621821520001,-24.939063646199997,-22.7253478158,0.0271860215503,0.000705320202462
199,qDII-DR5-CLV3-LD_E27_170817_sam03_t10,E27,3,10,40.3104835188,-5.345933640269999,-14.0845589563,0.00506110116768,-0.000110896766472
200,qDII-DR5-CLV3-LD_E27_170817_sam03_t10,E27,3,10,13.907018823,13.4069033101,-3.17431870365,0.013428755528,0.00018045271304599998
201,qDII-DR5-CLV3-LD_E27_170817_sam03_t10,E27,3,10,57.659831751700004,-18.841252381900002,-20.9532759366,0.0183038911028,0.000193154063072
202,qDII-DR5-CLV3-LD_E27_170817_sam03_t10,E27,3,10,-29.468545786700002,42.2132155448,-20.6071001004,0.026181622987,0.000639517719949
203,qDII-DR5-CLV3-LD_E27_170817_sam03_t10,E27,3,10,-4.01967739054,24.948707831,-4.4843397984,0.0112048441068,0.000110255738709
204,qDII-DR5-CLV3-LD_E27_170817_sam03_t10,E27,3,10,8.67563640496,16.0813682575,-2.87253195556,0.012266637898,0.00014828316847
205,qDII-DR5-CLV3-LD_E27_170817_sam03_t10,E27,3,10,-24.3303983269,38.5646758504,-15.0396130748,0.0231620528335,0.000517800583616
206,qDII-DR5-CLV3-LD_E27_170817_sam03_t10,E27,3,10,4.651840043469999,18.6668911255,-2.64003606248,0.011187601335200002,0.00011790918236799999
207,qDII-DR5-CLV3-LD_E27_170817_sam03_t10,E27,3,10,72.31012022590001,-30.130650615900002,-26.492785584299998,0.023618448009599998,0.000503132481506
208,qDII-DR5-CLV3-LD_E27_170817_sam03_t10,E27,3,10,-27.2498780027,40.0233613931,-17.2170645463,0.024832886180400002,0.000591098691769
209,qDII-DR5-CLV3-LD_E27_170817_sam03_t10,E27,3,10,80.19181278939999,-36.5742657133,-36.3325462933,0.025061073906900003,0.0005287542940149999
210,qDII-DR5-CLV3-LD_E27_170817_sam03_t10,E27,3,10,28.5499074908,0.735432990482,-5.195608489980001,0.0163801017151,0.000253686743447
211,qDII-DR5-CLV3-LD_E27_170817_sam03_t10,E27,3,10,43.7852374712,-11.3852030745,-21.325549059300002,-0.020401431906599998,-0.0011210114178
212,qDII-DR5-CLV3-LD_E27_170817_sam03_t10,E27,3,10,42.1692134164,-10.359636451,-17.7134150148,-0.012836355413899998,-0.000754713651735
213,qDII-DR5-CLV3-LD_E27_170817_sam03_t10,E27,3,10,-10.2750177674,26.2637526666,-5.29773198579,0.0114437010229,0.000108326175394
214,qDII-DR5-CLV3-LD_E27_170817_sam03_t10,E27,3,10,47.586147313599994,-15.1786516027,-23.8919638025,-0.018273159738000002,-0.0012022096424899999
215,qDII-DR5-CLV3-LD_E27_170817_sam03_t10,E27,3,10,60.073542206800006,-24.268714947,-18.7496244342,0.028762533339499997,0.000778720243089
216,qDII-DR5-CLV3-LD_E27_170817_sam03_t10,E27,3,10,31.6331144433,-4.07819802325,-7.721597276989999,0.0155061752679,0.00022192661572
217,qDII-DR5-CLV3-LD_E27_170817_sam03_t10,E27,3,10,77.2098703291,-37.1291965679,-32.6432200798,0.024804887453099996,0.000516066807247
218,qDII-DR5-CLV3-LD_E27_170817_sam03_t10,E27,3,10,-39.8879117192,44.659233128100006,-41.120671597,0.0175413671657,0.000273719756101
219,qDII-DR5-CLV3-LD_E27_170817_sam03_t10,E27,3,10,-22.0194140219,33.2561967476,-11.6570657867,0.015312943235299999,0.00022026183846299998
220,qDII-DR5-CLV3-LD_E27_170817_sam03_t10,E27,3,10,-30.995263143400003,38.5025878139,-19.349266663399998,0.023441194177099996,0.0005468159391
221,qDII-DR5-CLV3-LD_E27_170817_sam03_t10,E27,3,10,35.434024285599996,-7.8716465514100005,-10.2880120202,0.010242672866299998,3.29222182941e-05
222,qDII-DR5-CLV3-LD_E27_170817_sam03_t10,E27,3,10,65.9615448909,-29.789680527199998,-21.436903998,0.0259535333249,0.000628729729421
223,qDII-DR5-CLV3-LD_E27_170817_sam03_t10,E27,3,10,-3.90152190019,19.8691598391,-2.14884424543,0.0113079243353,0.00011837982762200001
224,qDII-DR5-CLV3-LD_E27_170817_sam03_t10,E27,3,10,19.590574151,3.3350169433,-2.33431343727,0.014783232614200002,0.000208260047657
225,qDII-DR5-CLV3-LD_E27_170817_sam03_t10,E27,3,10,51.2412258217,-20.1170284943,-19.4132869023,0.00430440142768,-0.000331071568599
226,qDII-DR5-CLV3-LD_E27_170817_sam03_t10,E27,3,10,-38.152102512,42.024754637,-31.8386532025,0.0228507170365,0.00047927089547800003
227,qDII-DR5-CLV3-LD_E27_170817_sam03_t10,E27,3,10,-35.2394794219,40.3408757169,-22.623429574299998,0.0241065538229,0.000558251158686
228,qDII-DR5-CLV3-LD_E27_170817_sam03_t10,E27,3,10,38.0799444476,-11.4052993836,-13.960953778299999,-0.00051288620648,-0.000314613236731
229,qDII-DR5-CLV3-LD_E27_170817_sam03_t10,E27,3,10,-28.3393085688,35.0327554806,-14.8122781383,0.0192249603111,0.00038246416569199995
230,qDII-DR5-CLV3-LD_E27_170817_sam03_t10,E27,3,10,-40.1539034226,42.1873956423,-37.5883945895,0.0196145392624,0.00030972049710299997
231,qDII-DR5-CLV3-LD_E27_170817_sam03_t10,E27,3,10,23.439147165300003,-1.2089593587799998,-3.7310661427199996,0.016671735764399998,0.000268171230673
232,qDII-DR5-CLV3-LD_E27_170817_sam03_t10,E27,3,10,55.3409909266,-24.953311481799997,-17.3058768924,0.0253540152061,0.000602322490455
233,qDII-DR5-CLV3-LD_E27_170817_sam03_t10,E27,3,10,78.3871459354,-42.1243634161,-35.0600738829,0.027393628844099998,0.0006151948429169999
234,qDII-DR5-CLV3-LD_E27_170817_sam03_t10,E27,3,10,-16.5884309452,25.329683787199997,-6.10937869112,0.012528549811100001,0.000122798255887
235,qDII-DR5-CLV3-LD_E27_170817_sam03_t10,E27,3,10,39.2313810845,-14.439543190999999,-18.7207914003,-0.014617619524100001,-0.0008564280077450001
236,qDII-DR5-CLV3-LD_E27_170817_sam03_t10,E27,3,10,69.4482566374,-36.4613174754,-25.1602560669,0.0242752487817,0.000503849382615
237,qDII-DR5-CLV3-LD_E27_170817_sam03_t10,E27,3,10,79.15581553930001,-44.4039634384,-46.834974595,0.028101435091400003,0.0006304066032009999
238,qDII-DR5-CLV3-LD_E27_170817_sam03_t10,E27,3,10,72.7925220889,-39.7244923937,-28.8730419538,0.0262439080977,0.000577100609635
239,qDII-DR5-CLV3-LD_E27_170817_sam03_t10,E27,3,10,-20.495619981199997,26.4676676662,-8.23043279895,0.0132763450766,0.00013332900222299998
240,qDII-DR5-CLV3-LD_E27_170817_sam03_t10,E27,3,10,65.4364180699,-34.5081621213,-21.4101221398,0.0254279856408,0.000593372574776
241,qDII-DR5-CLV3-LD_E27_170817_sam03_t10,E27,3,10,30.170408035999998,-9.40721835976,-7.64149597115,0.01398091676,0.000155089292868
242,qDII-DR5-CLV3-LD_E27_170817_sam03_t10,E27,3,10,-3.29101664114,14.1411779774,-1.01495354505,0.0131458383324,0.000167806349214
243,qDII-DR5-CLV3-LD_E27_170817_sam03_t10,E27,3,10,45.6762877074,-21.0704565385,-20.2678556525,-0.0158707711867,-0.00110917602604
244,qDII-DR5-CLV3-LD_E27_170817_sam03_t10,E27,3,10,-8.6589072057,16.3565986341,-1.8785872640299999,0.013264206261799999,0.000166152202547
245,qDII-DR5-CLV3-LD_E27_170817_sam03_t10,E27,3,10,-26.6958973798,28.4142568135,-11.3923828099,0.014329470383799997,0.000178541521931
246,qDII-DR5-CLV3-LD_E27_170817_sam03_t10,E27,3,10,77.64460902020001,-45.9725105718,-36.1931384871,0.0318220791906,0.000835494688195
247,qDII-DR5-CLV3-LD_E27_170817_sam03_t10,E27,3,10,-33.9404952817,33.0406089883,-16.8384231876,0.017887236023799997,0.000320644741508
248,qDII-DR5-CLV3-LD_E27_170817_sam03_t10,E27,3,10,32.7969705976,-13.690575763699998,-11.3138559018,0.00621018033621,-0.00017480233685299997
249,qDII-DR5-CLV3-LD_E27_170817_sam03_t10,E27,3,10,-41.2477239723,37.4322870475,-29.318575978600002,0.0203590089318,0.000286485112916
250,qDII-DR5-CLV3-LD_E27_170817_sam03_t10,E27,3,10,-38.1345817862,34.589059812600006,-20.115664014500002,0.0189569506333,0.00033234332336
251,qDII-DR5-CLV3-LD_E27_170817_sam03_t10,E27,3,10,8.23889784478,2.53399261092,0.6617348028369999,0.0131745429528,0.000166246936956
252,qDII-DR5-CLV3-LD_E27_170817_sam03_t10,E27,3,10,73.0014459353,-44.2906563339,-31.2340802207,0.0308422084575,0.0008036740030369999
253,qDII-DR5-CLV3-LD_E27_170817_sam03_t10,E27,3,10,49.565124087200005,-27.747032700100004,-16.9767264588,0.012879860034299999,-7.02823419926e-05
254,qDII-DR5-CLV3-LD_E27_170817_sam03_t10,E27,3,10,34.285434476999995,-17.4251235951,-14.920584720899999,-0.0029897717645900003,-0.000643299991013
255,qDII-DR5-CLV3-LD_E27_170817_sam03_t10,E27,3,10,-44.4094477675,36.9333423583,-33.8293644729,0.0170818618619,8.05896506898e-05
256,qDII-DR5-CLV3-LD_E27_170817_sam03_t10,E27,3,10,10.8660036271,-0.592486084858,0.508927167491,0.0135268443484,0.00017200791728
257,qDII-DR5-CLV3-LD_E27_170817_sam03_t10,E27,3,10,41.8088188162,-23.221951227199998,-21.220580156500002,-0.017528796110099998,-0.00127616985912
258,qDII-DR5-CLV3-LD_E27_170817_sam03_t10,E27,3,10,64.554906406,-39.276044263,-22.5358672572,0.026704370638900004,0.0006411285085299999
259,qDII-DR5-CLV3-LD_E27_170817_sam03_t10,E27,3,10,76.78985476300001,-48.6086160562,-40.8376852933,0.0389254878843,0.00120758319272
260,qDII-DR5-CLV3-LD_E27_170817_sam03_t10,E27,3,10,-22.211441860500003,22.127142028,-6.962201959269999,0.0135738310127,0.000140975373764
261,qDII-DR5-CLV3-LD_E27_170817_sam03_t10,E27,3,10,3.49739859336,4.09933299336,0.934656652139,0.0130522707602,0.00016499996270800003
262,qDII-DR5-CLV3-LD_E27_170817_sam03_t10,E27,3,10,21.526277736300003,-8.71833369791,-2.45377033426,0.017513334709400002,0.000294351984139
263,qDII-DR5-CLV3-LD_E27_170817_sam03_t10,E27,3,10,53.7869729425,-31.9525945781,-16.0487940621,0.030251264480099998,0.000839519474606
264,qDII-DR5-CLV3-LD_E27_170817_sam03_t10,E27,3,10,-0.815761838768,6.634632111549999,1.1837057799700001,0.0136141138681,0.000179699998906
265,qDII-DR5-CLV3-LD_E27_170817_sam03_t10,E27,3,10,27.469343398600003,-13.607754966400002,-7.48960772165,0.013456164131,0.000142145270958
266,qDII-DR5-CLV3-LD_E27_170817_sam03_t10,E27,3,10,-16.6003022323,17.0804638921,-2.59573795894,0.013947398795399999,0.000174324723161
267,qDII-DR5-CLV3-LD_E27_170817_sam03_t10,E27,3,10,17.380397624300002,-6.763531939369999,-1.04179682801,0.0156932241379,0.000233467704715
268,qDII-DR5-CLV3-LD_E27_170817_sam03_t10,E27,3,10,-32.3278562663,27.4616519715,-13.4160317706,0.015374901746399999,0.000219982288433
269,qDII-DR5-CLV3-LD_E27_170817_sam03_t10,E27,3,10,13.932862802,-4.53825226694,0.33033254936900003,0.0145569820253,0.00019818137072000002
270,qDII-DR5-CLV3-LD_E27_170817_sam03_t10,E27,3,10,75.27793701899999,-49.55509961600001,-46.6162915791,0.0428875606244,0.00141952491405
271,qDII-DR5-CLV3-LD_E27_170817_sam03_t10,E27,3,10,29.823432887800003,-17.6523222437,-9.97325629114,0.00770228892706,-0.000105650185771
272,qDII-DR5-CLV3-LD_E27_170817_sam03_t10,E27,3,10,58.448031969700004,-38.1343226506,-18.666200943499998,0.0315302879571,0.0009337647208410001
273,qDII-DR5-CLV3-LD_E27_170817_sam03_t10,E27,3,10,-12.3978109774,12.1251974424,-1.6672237349099999,0.015111901083400001,0.00021547629947099998
274,qDII-DR5-CLV3-LD_E27_170817_sam03_t10,E27,3,10,44.5789141142,-28.600013244699998,-17.8644016785,-0.0027375795880300005,-0.0008788230867469999
275,qDII-DR5-CLV3-LD_E27_170817_sam03_t10,E27,3,10,-38.494894889099996,28.829390163600003,-17.753217824,0.016644535877499998,0.000239980883727
276,qDII-DR5-CLV3-LD_E27_170817_sam03_t10,E27,3,10,72.1531730472,-49.6373894307,-33.5350613806,0.04321212117,0.00150238560509
277,qDII-DR5-CLV3-LD_E27_170817_sam03_t10,E27,3,10,-27.5540366764,21.2247609358,-9.00240415466,0.013893063550100001,0.000152087564844
278,qDII-DR5-CLV3-LD_E27_170817_sam03_t10,E27,3,10,-44.8362384219,32.3313746197,-29.1164461975,0.016044854409299997,-0.00012253376065200002
279,qDII-DR5-CLV3-LD_E27_170817_sam03_t10,E27,3,10,32.9448118202,-22.1234228222,-16.0199610282,-0.00516342459701,-0.0007305071952879999
280,qDII-DR5-CLV3-LD_E27_170817_sam03_t10,E27,3,10,-36.7020993223,26.1302679714,-15.5120495022,0.0159670598554,0.00023457777967599998
281,qDII-DR5-CLV3-LD_E27_170817_sam03_t10,E27,3,10,72.9506914434,-52.2603430905,-40.6201659321,0.0496103477945,0.0019523618945
282,qDII-DR5-CLV3-LD_E27_170817_sam03_t10,E27,3,10,21.746616155999998,-15.0737438602,-4.81672286244,0.016336043273799998,0.00024985719276700004
283,qDII-DR5-CLV3-LD_E27_170817_sam03_t10,E27,3,10,39.0382668045,-27.8823553268,-21.065032163599998,-0.0128576966223,-0.00125669762844
284,qDII-DR5-CLV3-LD_E27_170817_sam03_t10,E27,3,10,-47.892769465,32.1741371635,-35.9788704314,0.0128111709462,-0.000252708335301
285,qDII-DR5-CLV3-LD_E27_170817_sam03_t10,E27,3,10,61.884613942200005,-44.51612252,-22.386475096399998,0.0323261375666,0.00092253192665
286,qDII-DR5-CLV3-LD_E27_170817_sam03_t10,E27,3,10,-6.52214130382,4.30077838619,1.50919647028,0.013996853293000001,0.00018996094258
287,qDII-DR5-CLV3-LD_E27_170817_sam03_t10,E27,3,10,46.7558568747,-33.9068459431,-16.8200148112,0.0164770928641,-1.08447328632e-05
288,qDII-DR5-CLV3-LD_E27_170817_sam03_t10,E27,3,10,-34.1632952939,22.9510959191,-12.1410632715,0.014604259052899998,0.00019479348889500002
289,qDII-DR5-CLV3-LD_E27_170817_sam03_t10,E27,3,10,16.988769127,-12.6405386461,-2.19640684425,0.0158950263398,0.00023757302610499998
290,qDII-DR5-CLV3-LD_E27_170817_sam03_t10,E27,3,10,29.795589039699998,-22.097856317199998,-13.4935591931,-0.00052651266341,-0.00044748410258999997
291,qDII-DR5-CLV3-LD_E27_170817_sam03_t10,E27,3,10,51.389153551099994,-37.4314629618,-17.0881132624,0.032959512806099996,0.000953696397998
292,qDII-DR5-CLV3-LD_E27_170817_sam03_t10,E27,3,10,-12.1769293369,6.926665988310001,-0.510623967754,0.0152768168921,0.000224749000078
293,qDII-DR5-CLV3-LD_E27_170817_sam03_t10,E27,3,10,0.58540523081,-1.9414967874200002,2.27026408552,0.0124779514698,0.00014632723733399997
294,qDII-DR5-CLV3-LD_E27_170817_sam03_t10,E27,3,10,67.3849163891,-50.2038257056,-29.7433378425,0.0412626285593,0.00135673842909
295,qDII-DR5-CLV3-LD_E27_170817_sam03_t10,E27,3,10,8.08750858828,-7.791840978230001,0.663142726403,0.0133323317406,0.000162351501465
296,qDII-DR5-CLV3-LD_E27_170817_sam03_t10,E27,3,10,11.652193956800001,-10.3077809316,0.457015643449,0.014191262682499999,0.00018616539147299998
297,qDII-DR5-CLV3-LD_E27_170817_sam03_t10,E27,3,10,24.4903292638,-19.647761545,-7.3230804987,0.0135900849031,0.000150992989307
298,qDII-DR5-CLV3-LD_E27_170817_sam03_t10,E27,3,10,32.1878505089,-25.7998931592,-19.4979237126,-0.010374152708,-0.0009265715876249999
299,qDII-DR5-CLV3-LD_E27_170817_sam03_t10,E27,3,10,-26.417399652100002,15.4263729572,-6.72580205397,0.0144689847266,0.00016932325469700001
300,qDII-DR5-CLV3-LD_E27_170817_sam03_t10,E27,3,10,-42.6855098474,26.0496439722,-21.033705346199998,0.0130419714388,3.47999094596e-05
301,qDII-DR5-CLV3-LD_E27_170817_sam03_t10,E27,3,10,-18.5801924336,9.57191275524,-2.48752236091,0.015412619132700001,0.000220428883815
302,qDII-DR5-CLV3-LD_E27_170817_sam03_t10,E27,3,10,25.9480209696,-22.3427677261,-10.927313229100001,0.00879600324209,-1.56540347105e-05
303,qDII-DR5-CLV3-LD_E27_170817_sam03_t10,E27,3,10,42.1116073485,-34.5387491214,-18.900061135399998,0.005727927814409999,-0.0005818199189759999
304,qDII-DR5-CLV3-LD_E27_170817_sam03_t10,E27,3,10,33.5234584642,-29.1256204498,-21.9226788298,-0.0147013983976,-0.00119685672096
305,qDII-DR5-CLV3-LD_E27_170817_sam03_t10,E27,3,10,-35.874183969,19.5319516713,-13.2183123394,0.012717262286100001,0.00014359824333899998
306,qDII-DR5-CLV3-LD_E27_170817_sam03_t10,E27,3,10,17.2478227475,-17.496539665,-4.56052302713,0.0148552905022,0.000196602199217
307,qDII-DR5-CLV3-LD_E27_170817_sam03_t10,E27,3,10,-44.9816080328,25.2406798372,-24.421413590900002,0.010592405497700002,-0.00029175333720200006
308,qDII-DR5-CLV3-LD_E27_170817_sam03_t10,E27,3,10,66.40807838149999,-53.470652299399994,-33.2084070356,0.0464280078869,0.0016364692373000002
309,qDII-DR5-CLV3-LD_E27_170817_sam03_t10,E27,3,10,2.16919545397,-7.17710016671,1.00285934205,0.0132707363702,0.00016198097682400001
310,qDII-DR5-CLV3-LD_E27_170817_sam03_t10,E27,3,10,38.3741652348,-33.5205719069,-21.0309308187,-0.00854770712396,-0.0011838300734000001
311,qDII-DR5-CLV3-LD_E27_170817_sam03_t10,E27,3,10,56.1782344772,-46.8499762454,-22.0609844061,0.037034581834800004,0.0011768938767500001
312,qDII-DR5-CLV3-LD_E27_170817_sam03_t10,E27,3,10,-41.6799045448,21.870471801399997,-18.7484513248,0.00961346449416,-1.11657564885e-05
313,qDII-DR5-CLV3-LD_E27_170817_sam03_t10,E27,3,10,50.9305042816,-43.3076464663,-19.411803489100002,0.036029971577599997,0.0010887629443699998
314,qDII-DR5-CLV3-LD_E27_170817_sam03_t10,E27,3,10,-48.241124773900005,25.7821000007,-30.0987862069,0.012555243072500001,-0.000481601030583
315,qDII-DR5-CLV3-LD_E27_170817_sam03_t10,E27,3,10,-38.5430147748,19.5414518204,-15.4111533909,0.010638024757,7.803619567199999e-05
316,qDII-DR5-CLV3-LD_E27_170817_sam03_t10,E27,3,10,-24.46280019,10.068493306799999,-4.495781741509999,0.0151746562632,0.000203894495789
317,qDII-DR5-CLV3-LD_E27_170817_sam03_t10,E27,3,10,-10.547942544,0.479844139905,0.564373280361,0.0144429724676,0.00020372826454299997
318,qDII-DR5-CLV3-LD_E27_170817_sam03_t10,E27,3,10,28.6410610827,-27.783827040300004,-16.9501452447,-0.00801268311403,-0.0006833733258680002
319,qDII-DR5-CLV3-LD_E27_170817_sam03_t10,E27,3,10,19.721529385,-21.371076527899998,-7.050909256000001,0.0147748268406,0.00018427699138299998
320,qDII-DR5-CLV3-LD_E27_170817_sam03_t10,E27,3,10,-33.5413754616,15.4338678353,-11.0090868324,0.0125547572409,0.000124678065975
321,qDII-DR5-CLV3-LD_E27_170817_sam03_t10,E27,3,10,26.106815041999997,-26.619094587600003,-13.28527358,0.00011799052462,-0.00028337966223200003
322,qDII-DR5-CLV3-LD_E27_170817_sam03_t10,E27,3,10,-51.9572859058,26.853793773899998,-36.922529966599996,0.00938147595272,-0.00041690075962099994
323,qDII-DR5-CLV3-LD_E27_170817_sam03_t10,E27,3,10,-2.35489370327,-6.48209422262,2.4356276537599997,0.013578515152399998,0.000171950373772
324,qDII-DR5-CLV3-LD_E27_170817_sam03_t10,E27,3,10,-14.5578577301,1.7368114810599997,-0.377785041656,0.015173341861399998,0.00022686567382099998
325,qDII-DR5-CLV3-LD_E27_170817_sam03_t10,E27,3,10,-18.1587916972,3.21403298629,-1.3432342577899998,0.0158806892511,0.000245348899249
326,qDII-DR5-CLV3-LD_E27_170817_sam03_t10,E27,3,10,12.395654318900002,-18.351166614,-3.11003782597,0.013348203916,0.000157000906085
327,qDII-DR5-CLV3-LD_E27_170817_sam03_t10,E27,3,10,60.55431941729999,-53.3174253854,-30.5268702557,0.0411820173492,0.0012822186893099998
328,qDII-DR5-CLV3-LD_E27_170817_sam03_t10,E27,3,10,29.9404204394,-32.148272779,-20.546476661,-0.014715914803500001,-0.00114423834848
329,qDII-DR5-CLV3-LD_E27_170817_sam03_t10,E27,3,10,22.0393702756,-26.454362253299998,-10.7061341246,0.0105784334977,7.18651955769e-05
330,qDII-DR5-CLV3-LD_E27_170817_sam03_t10,E27,3,10,-36.5358189366,14.3544257864,-14.3569509483,0.008156996449140001,2.93395546648e-05
331,qDII-DR5-CLV3-LD_E27_170817_sam03_t10,E27,3,10,-31.447801250799998,10.9957231708,-8.78638600671,0.0140651440837,0.000164361857727
332,qDII-DR5-CLV3-LD_E27_170817_sam03_t10,E27,3,10,3.850778623,-13.4530683986,0.902038720363,0.0141931700649,0.000180506579403
333,qDII-DR5-CLV3-LD_E27_170817_sam03_t10,E27,3,10,51.9042509692,-48.7610344029,-24.1631579697,0.0349816692783,0.00104979756538
334,qDII-DR5-CLV3-LD_E27_170817_sam03_t10,E27,3,10,38.0495575097,-39.3984018158,-21.0164606245,0.00245535296194,-0.0008636983662060001
335,qDII-DR5-CLV3-LD_E27_170817_sam03_t10,E27,3,10,-43.8836862093,17.9428827153,-22.1436478355,0.00134407109196,-0.000360264967263
336,qDII-DR5-CLV3-LD_E27_170817_sam03_t10,E27,3,10,-1.33047402103,-11.0684405299,1.20074755244,0.014807211811600001,0.00019879183390099998
337,qDII-DR5-CLV3-LD_E27_170817_sam03_t10,E27,3,10,30.76925423,-34.6538893811,-24.114525005900003,-0.0153542797394,-0.0013657653089300002
338,qDII-DR5-CLV3-LD_E27_170817_sam03_t10,E27,3,10,-40.5100287448,15.4932328676,-17.6470852665,0.000945228190604,-0.000199664896287
339,qDII-DR5-CLV3-LD_E27_170817_sam03_t10,E27,3,10,-29.655005683899997,8.29660097849,-6.54521768493,0.015113391004800001,0.00020209521615900002
340,qDII-DR5-CLV3-LD_E27_170817_sam03_t10,E27,3,10,14.79740698,-23.1462616652,-4.4240243576800005,0.0138223828979,0.000161478630905
341,qDII-DR5-CLV3-LD_E27_170817_sam03_t10,E27,3,10,-22.836279999200002,3.16098076318,-2.2480445396,0.0159794405048,0.00024365316661200003
342,qDII-DR5-CLV3-LD_E27_170817_sam03_t10,E27,3,10,-48.668458649099996,20.023253553900002,-28.905420226900002,0.00831264403175,-0.000674981084525
343,qDII-DR5-CLV3-LD_E27_170817_sam03_t10,E27,3,10,-51.4683211765,21.6519695108,-31.0896093577,0.0113515573322,-0.000618502896933
344,qDII-DR5-CLV3-LD_E27_170817_sam03_t10,E27,3,10,-26.3320212141,4.9799095014,-5.565129495340001,0.0155633693144,0.000223747643042
345,qDII-DR5-CLV3-LD_E27_170817_sam03_t10,E27,3,10,17.6130740642,-26.799721161799997,-8.10678169109,0.014395202041100001,0.000171036444741
346,qDII-DR5-CLV3-LD_E27_170817_sam03_t10,E27,3,10,33.886243178899996,-38.8894926418,-24.29619754,-0.00821436118829,-0.00132290884426
347,qDII-DR5-CLV3-LD_E27_170817_sam03_t10,E27,3,10,23.6087361027,-31.5182888139,-14.318436948299999,-0.00048312397182400003,-0.000300917397888
348,qDII-DR5-CLV3-LD_E27_170817_sam03_t10,E27,3,10,53.069568781499996,-53.1238337372,-30.0976498069,0.026538891328099997,0.0006208621142660001
349,qDII-DR5-CLV3-LD_E27_170817_sam03_t10,E27,3,10,45.5437178401,-47.7876968003,-22.6249144175,0.029099158793200002,0.0006157222672080001
350,qDII-DR5-CLV3-LD_E27_170817_sam03_t10,E27,3,10,-18.0744182033,-2.44354275857,-1.35205495771,0.016286505826299997,0.000263221584845
351,qDII-DR5-CLV3-LD_E27_170817_sam03_t10,E27,3,10,9.254836288869999,-21.7324157344,-2.93236259369,0.012665696114700002,0.000140300678533
352,qDII-DR5-CLV3-LD_E27_170817_sam03_t10,E27,3,10,-54.256769130600006,21.4914392457,-33.2757127498,0.011108391429399999,-0.00055720201559
353,qDII-DR5-CLV3-LD_E27_170817_sam03_t10,E27,3,10,26.017888570100002,-34.9313117794,-19.150643341400002,-0.00894249986498,-0.000808531300089
354,qDII-DR5-CLV3-LD_E27_170817_sam03_t10,E27,3,10,-8.40377683576,-10.1939040224,0.43393715329,0.0152197899857,0.00021886288218999999
355,qDII-DR5-CLV3-LD_E27_170817_sam03_t10,E27,3,10,-57.1599010289,22.0822599567,-37.8005583901,0.00889081567594,-0.00039111456777199996
356,qDII-DR5-CLV3-LD_E27_170817_sam03_t10,E27,3,10,-37.080303358,8.886239620660001,-14.3295872627,0.005881775709729999,-1.95392846737e-05
357,qDII-DR5-CLV3-LD_E27_170817_sam03_t10,E27,3,10,30.9757114743,-39.6807440164,-25.3028233189,-0.00985411318638,-0.0013305393688199999
358,qDII-DR5-CLV3-LD_E27_170817_sam03_t10,E27,3,10,-0.870901304646,-17.0837898636,-1.17568029448,0.0146094370651,0.000190231141991
359,qDII-DR5-CLV3-LD_E27_170817_sam03_t10,E27,3,10,26.9494485107,-37.5559118436,-23.8975874721,-0.0110539262036,-0.00107834163183
360,qDII-DR5-CLV3-LD_E27_170817_sam03_t10,E27,3,10,45.3848422704,-50.614015066,-26.136565398800002,0.023604201052,0.000341004633304
361,qDII-DR5-CLV3-LD_E27_170817_sam03_t10,E27,3,10,-48.500173384700005,14.653868483299998,-26.573002589899996,0.00113178801415,-0.0006880073462980001
362,qDII-DR5-CLV3-LD_E27_170817_sam03_t10,E27,3,10,-29.300625719699998,1.9395444117700003,-6.57000979224,0.0154372849325,0.00022248713997799998
363,qDII-DR5-CLV3-LD_E27_170817_sam03_t10,E27,3,10,17.6522509884,-31.2460784376,-10.4580043826,0.0124824289931,0.000119090349826
364,qDII-DR5-CLV3-LD_E27_170817_sam03_t10,E27,3,10,-45.3632836148,12.3248485023,-23.2357046561,-0.00591120632339,-0.00056650953138
365,qDII-DR5-CLV3-LD_E27_170817_sam03_t10,E27,3,10,-32.6097290141,3.92768036202,-8.724752196919999,0.014624175764500001,0.000195303169027
366,qDII-DR5-CLV3-LD_E27_170817_sam03_t10,E27,3,10,-4.9666516425800005,-15.418825183800001,0.233215295755,0.015089467925499998,0.00020637998088699998
367,qDII-DR5-CLV3-LD_E27_170817_sam03_t10,E27,3,10,22.7629298167,-36.4043312155,-17.792158062000002,-0.0024993475475399997,-0.000487858679424
368,qDII-DR5-CLV3-LD_E27_170817_sam03_t10,E27,3,10,-25.9801078521,-1.8378377605200003,-4.41718164886,0.015573451785,0.000234098713573
369,qDII-DR5-CLV3-LD_E27_170817_sam03_t10,E27,3,10,-21.0430227089,-5.48390784819,-2.3569352546099998,0.0163866786101,0.0002650740515
370,qDII-DR5-CLV3-LD_E27_170817_sam03_t10,E27,3,10,-52.8163436397,15.571598198199998,-28.670765803600002,0.0086403084801,-0.0007437606834389998
371,qDII-DR5-CLV3-LD_E27_170817_sam03_t10,E27,3,10,3.28091695565,-22.9060979427,-3.7636404497800005,0.013031813747300001,0.000151121182098
372,qDII-DR5-CLV3-LD_E27_170817_sam03_t10,E27,3,10,31.713233688000003,-43.8566233783,-27.6938901393,-0.0050679804249899995,-0.00132439740148
373,qDII-DR5-CLV3-LD_E27_170817_sam03_t10,E27,3,10,-16.292575486300002,-9.299185147889999,-1.4590314114200003,0.016102956566899997,0.000256022993809
374,qDII-DR5-CLV3-LD_E27_170817_sam03_t10,E27,3,10,5.5516378951,-26.0819771861,-5.06897506081,0.0127759446468,0.000140019330192
375,qDII-DR5-CLV3-LD_E27_170817_sam03_t10,E27,3,10,18.3227524299,-35.421134597199995,-14.018151413399998,0.00842280038999,-4.47615293308e-05
376,qDII-DR5-CLV3-LD_E27_170817_sam03_t10,E27,3,10,-43.441922928400004,7.54581980705,-19.8304483011,-0.0100730604491,-0.000523867225008
377,qDII-DR5-CLV3-LD_E27_170817_sam03_t10,E27,3,10,39.6357328377,-51.2759596271,-29.326216653899998,0.0153425164525,-0.000307350087645
378,qDII-DR5-CLV3-LD_E27_170817_sam03_t10,E27,3,10,-35.6235300895,2.0985337415000003,-12.0720344854,0.0100512126598,9.1862009755e-05
379,qDII-DR5-CLV3-LD_E27_170817_sam03_t10,E27,3,10,-57.2521310429,16.3192974988,-30.761791358000004,0.014739543479200002,-0.000622004355844
380,qDII-DR5-CLV3-LD_E27_170817_sam03_t10,E27,3,10,11.661983877599999,-31.5518958142,-8.94188806979,0.0144051996523,0.00015804085446899998
381,qDII-DR5-CLV3-LD_E27_170817_sam03_t10,E27,3,10,-5.09722164077,-19.7453757951,-2.10819182037,0.014403586586799999,0.000186860370618
382,qDII-DR5-CLV3-LD_E27_170817_sam03_t10,E27,3,10,-11.836968759200001,-15.2429462959,-1.71864672123,0.0148911594022,0.000212572848811
383,qDII-DR5-CLV3-LD_E27_170817_sam03_t10,E27,3,10,7.296227069389999,-29.1874503125,-7.51702107215,0.0134837281379,0.000146391915718
384,qDII-DR5-CLV3-LD_E27_170817_sam03_t10,E27,3,10,22.957429267,-40.798818337,-22.4980944091,-0.0041406864343,-0.0006855375616489999
385,qDII-DR5-CLV3-LD_E27_170817_sam03_t10,E27,3,10,-46.536625951400005,7.046051915619999,-23.172156585,-0.00982042060483,-0.000622620133823
386,qDII-DR5-CLV3-LD_E27_170817_sam03_t10,E27,3,10,-55.920913071099996,13.2290675259,-27.3215142723,0.0119087912475,-0.000581808971903
387,qDII-DR5-CLV3-LD_E27_170817_sam03_t10,E27,3,10,-50.0154761681,9.15399453031,-25.317083414299997,-0.00177436852505,-0.000607907484367
388,qDII-DR5-CLV3-LD_E27_170817_sam03_t10,E27,3,10,26.267912722,-44.640021008299996,-28.5551965489,-0.0104115112751,-0.0012606636733
389,qDII-DR5-CLV3-LD_E27_170817_sam03_t10,E27,3,10,13.3370856776,-35.1172364337,-11.3862743378,0.012749943376899999,8.54553120517e-05
390,qDII-DR5-CLV3-LD_E27_170817_sam03_t10,E27,3,10,36.065027823499996,-51.9951584804,-33.813714254000004,0.00719833703964,-0.000839973077185
391,qDII-DR5-CLV3-LD_E27_170817_sam03_t10,E27,3,10,-25.793008208099998,-7.614396967589999,-5.6048981346,0.0153668859651,0.000225473536333
392,qDII-DR5-CLV3-LD_E27_170817_sam03_t10,E27,3,10,-61.5901255003,16.026631946800002,-31.686232790500004,0.0166034917707,-0.000402344538684
393,qDII-DR5-CLV3-LD_E27_170817_sam03_t10,E27,3,10,-0.775656458163,-25.687490538600002,-4.7059675510400005,0.012564826880700002,0.00013618983920899997
394,qDII-DR5-CLV3-LD_E27_170817_sam03_t10,E27,3,10,18.973896270999997,-40.3458953285,-17.5777166168,0.00825432260888,-0.00011505749237799999
395,qDII-DR5-CLV3-LD_E27_170817_sam03_t10,E27,3,10,-54.3341130251,9.61103354998,-26.242106674200002,0.0082820345928,-0.0004886966249800001
396,qDII-DR5-CLV3-LD_E27_170817_sam03_t10,E27,3,10,-41.066927674,0.618948098625,-17.6256331441,-0.00787173116509,-0.00041953512763799996
397,qDII-DR5-CLV3-LD_E27_170817_sam03_t10,E27,3,10,-11.9700053595,-20.0301876024,-2.88731388355,0.0139056994839,0.00018091374042400002
398,qDII-DR5-CLV3-LD_E27_170817_sam03_t10,E27,3,10,6.7040794761399995,-33.9051087044,-8.659319424349999,0.012689817685400001,9.70616118785e-05
399,qDII-DR5-CLV3-LD_E27_170817_sam03_t10,E27,3,10,-44.768664409799996,1.51896505315,-22.1044788236,-0.012930567488899999,-0.0006600565579279999
400,qDII-DR5-CLV3-LD_E27_170817_sam03_t10,E27,3,10,19.30737047,-43.820647464,-22.2909724507,0.00473197682914,-0.000295371148522
401,qDII-DR5-CLV3-LD_E27_170817_sam03_t10,E27,3,10,-61.8353794426,12.451432311600001,-36.366382154899995,0.0167384086461,-0.000189530371137
402,qDII-DR5-CLV3-LD_E27_170817_sam03_t10,E27,3,10,13.3762626017,-39.5635937094,-13.7374970293,0.013468378044100001,6.73508318644e-05
403,qDII-DR5-CLV3-LD_E27_170817_sam03_t10,E27,3,10,-60.400348879300005,11.5559762928,-27.065896264299997,0.0188908793331,-0.00020978579294400002
404,qDII-DR5-CLV3-LD_E27_170817_sam03_t10,E27,3,10,-36.7328614767,-4.79865545075,-13.1862185454,0.0039192771620199995,-7.4964841645e-05
405,qDII-DR5-CLV3-LD_E27_170817_sam03_t10,E27,3,10,-0.7866093080259999,-29.844010735700003,-7.054112326539999,0.011417586168599999,0.000101180442911
406,qDII-DR5-CLV3-LD_E27_170817_sam03_t10,E27,3,10,-4.693255123309999,-27.5491481486,-5.65561413903,0.011718331099499999,0.00011407063327
407,qDII-DR5-CLV3-LD_E27_170817_sam03_t10,E27,3,10,-33.6654590811,-7.587542924710001,-9.8452608682,0.0110489581813,0.00010332591004899999
408,qDII-DR5-CLV3-LD_E27_170817_sam03_t10,E27,3,10,25.3188370652,-50.5639586558,-34.3695741721,-0.008584480618079999,-0.00132269700075
409,qDII-DR5-CLV3-LD_E27_170817_sam03_t10,E27,3,10,-53.9265934642,4.58170930787,-23.923164355999997,0.00310509171181,-0.00036516977781
410,qDII-DR5-CLV3-LD_E27_170817_sam03_t10,E27,3,10,-43.084071418,-3.13943377544,-19.8584871037,-0.012891152647799999,-0.000713259412897
411,qDII-DR5-CLV3-LD_E27_170817_sam03_t10,E27,3,10,-29.7855706725,-12.014182169100001,-7.72495736697,0.0141070799768,0.000176166456383
412,qDII-DR5-CLV3-LD_E27_170817_sam03_t10,E27,3,10,15.337718649500001,-44.6962799824,-18.5452488735,0.017546215774700002,0.000234652162708
413,qDII-DR5-CLV3-LD_E27_170817_sam03_t10,E27,3,10,-24.0692382921,-16.7191530719,-5.71012910625,0.014750526073600001,0.000202422560243
414,qDII-DR5-CLV3-LD_E27_170817_sam03_t10,E27,3,10,-18.1280960112,-20.9123863275,-6.053674244500001,0.013714426508400001,0.000173656086387
415,qDII-DR5-CLV3-LD_E27_170817_sam03_t10,E27,3,10,18.514703780799998,-47.37895754109999,-23.4209591389,0.00943584515836,-8.92011482754e-05
416,qDII-DR5-CLV3-LD_E27_170817_sam03_t10,E27,3,10,-50.792713516999996,0.635119923557,-22.932678763600002,-0.00574197773269,-0.0005612459201319999
417,qDII-DR5-CLV3-LD_E27_170817_sam03_t10,E27,3,10,-14.4656176968,-24.4686911335,-5.09321720568,0.0127982229912,0.000147677995232
418,qDII-DR5-CLV3-LD_E27_170817_sam03_t10,E27,3,10,20.144609011,-49.7330796914,-28.207747398400002,0.00428635136711,-0.000322183608656
419,qDII-DR5-CLV3-LD_E27_170817_sam03_t10,E27,3,10,-64.9468054597,9.883708261910002,-27.979358466799997,0.025130751102,0.000251811056875
420,qDII-DR5-CLV3-LD_E27_170817_sam03_t10,E27,3,10,-11.427064093399999,-26.91422497,-6.442055688940001,0.011570992096,0.00011642947300599999
421,qDII-DR5-CLV3-LD_E27_170817_sam03_t10,E27,3,10,-60.1124464666,6.35662163645,-24.7402162867,0.0203621551399,0.000150425064146
422,qDII-DR5-CLV3-LD_E27_170817_sam03_t10,E27,3,10,-39.3763965338,-7.90695705053,-16.5556280733,-0.008668673836270001,-0.000528144256048
423,qDII-DR5-CLV3-LD_E27_170817_sam03_t10,E27,3,10,7.858987659299999,-41.2675495276,-13.4224037417,0.014076143381299998,0.00010341406086399998
424,qDII-DR5-CLV3-LD_E27_170817_sam03_t10,E27,3,10,-67.5436822891,10.813766599200001,-31.3485992154,0.024695800278699997,0.00032894225006400003
425,qDII-DR5-CLV3-LD_E27_170817_sam03_t10,E27,3,10,-0.546913287944,-35.4497163262,-9.41764668207,0.0087661885594,1.33383172599e-05
426,qDII-DR5-CLV3-LD_E27_170817_sam03_t10,E27,3,10,-33.6982361334,-12.954458388599999,-11.0200838625,0.0105596447386,6.58186399801e-05
427,qDII-DR5-CLV3-LD_E27_170817_sam03_t10,E27,3,10,-41.5359865727,-8.256876894760001,-18.777915850899998,-0.0123188281148,-0.0007328082329410002
428,qDII-DR5-CLV3-LD_E27_170817_sam03_t10,E27,3,10,9.72319398191,-44.2029922398,-15.8771874124,0.0200394007818,0.00033029101850800006
429,qDII-DR5-CLV3-LD_E27_170817_sam03_t10,E27,3,10,-36.5844770334,-12.0746238012,-14.372771376400001,0.0014347697036900002,-0.00022136890509099998
430,qDII-DR5-CLV3-LD_E27_170817_sam03_t10,E27,3,10,-6.137147150930001,-33.2853426216,-9.095646955880001,0.0080491990343,1.56124118415e-05
431,qDII-DR5-CLV3-LD_E27_170817_sam03_t10,E27,3,10,2.0464104978999997,-39.1542227749,-11.9147705703,0.00986949222247,-3.8033840253e-06
432,qDII-DR5-CLV3-LD_E27_170817_sam03_t10,E27,3,10,-28.7303788166,-17.6400701267,-8.96233355695,0.0142905386564,0.00017213258969299997
433,qDII-DR5-CLV3-LD_E27_170817_sam03_t10,E27,3,10,-24.4196849866,-20.6360599401,-8.038642730980001,0.014378777887799999,0.00018424863491900003
434,qDII-DR5-CLV3-LD_E27_170817_sam03_t10,E27,3,10,-47.7169063709,-5.560583175780001,-21.940447689299997,-0.008160858734350001,-0.0007034033885700001
435,qDII-DR5-CLV3-LD_E27_170817_sam03_t10,E27,3,10,-56.1541227125,0.139912967827,-21.4527468363,0.00558493855645,-0.000235277448374
436,qDII-DR5-CLV3-LD_E27_170817_sam03_t10,E27,3,10,-19.8057459105,-24.9103815305,-8.30615935486,0.013941818278700002,0.000166300707602
437,qDII-DR5-CLV3-LD_E27_170817_sam03_t10,E27,3,10,4.97922812837,-43.0983425526,-14.431525609300001,0.0150422816402,0.00016864311574300001
438,qDII-DR5-CLV3-LD_E27_170817_sam03_t10,E27,3,10,-11.5243953158,-31.8196265365,-9.95869884751,0.00868004863207,3.54901025605e-05
439,qDII-DR5-CLV3-LD_E27_170817_sam03_t10,E27,3,10,-31.3684374488,-18.6701116279,-11.1576706971,0.0129729510461,0.000120625649685
440,qDII-DR5-CLV3-LD_E27_170817_sam03_t10,E27,3,10,10.8672308125,-48.6193081328,-17.1188051731,0.025105404087,0.0005778641259090001
441,qDII-DR5-CLV3-LD_E27_170817_sam03_t10,E27,3,10,-64.6638362513,3.76297221515,-23.3081985816,0.0276151912458,0.0006183802357100001
442,qDII-DR5-CLV3-LD_E27_170817_sam03_t10,E27,3,10,-40.0549224996,-13.3734968118,-18.866424808599998,-0.008663619130700002,-0.000664141139981
443,qDII-DR5-CLV3-LD_E27_170817_sam03_t10,E27,3,10,13.8049816472,-51.64204652,-21.981040119699998,0.023003583958,0.0005110367159830001
444,qDII-DR5-CLV3-LD_E27_170817_sam03_t10,E27,3,10,-51.528769063199995,-5.923654844650001,-21.7221777215,-0.0006567894369369999,-0.000480748608527
445,qDII-DR5-CLV3-LD_E27_170817_sam03_t10,E27,3,10,-42.6349083307,-12.1544245981,-21.063507430799998,-0.011031616367299999,-0.000826035677025
446,qDII-DR5-CLV3-LD_E27_170817_sam03_t10,E27,3,10,-68.924943528,5.31224624171,-27.754519618899998,0.0315245139147,0.000795629525118
447,qDII-DR5-CLV3-LD_E27_170817_sam03_t10,E27,3,10,-23.3644931307,-26.2619478977,-9.27601892096,0.0148248428121,0.000179108853252
448,qDII-DR5-CLV3-LD_E27_170817_sam03_t10,E27,3,10,-16.404869315899997,-31.17402114,-9.678457511489999,0.0113461690742,8.33833265834e-05
449,qDII-DR5-CLV3-LD_E27_170817_sam03_t10,E27,3,10,-27.2855633421,-23.7954084919,-10.2224188137,0.014504254413999999,0.000176570764338
450,qDII-DR5-CLV3-LD_E27_170817_sam03_t10,E27,3,10,5.6140241920000005,-47.1552384522,-15.6436966439,0.0227895622288,0.000512360743056
451,qDII-DR5-CLV3-LD_E27_170817_sam03_t10,E27,3,10,-35.601239154,-18.621069947,-14.433747869300001,0.0069891039488400005,-9.11880655911e-05
452,qDII-DR5-CLV3-LD_E27_170817_sam03_t10,E27,3,10,-6.37345312202,-39.110479174,-12.6049706277,0.00765259143076,-1.43322676219e-05
453,qDII-DR5-CLV3-LD_E27_170817_sam03_t10,E27,3,10,14.2774305948,-54.1970636696,-26.7016154402,0.0226279478474,0.000504712589834
454,qDII-DR5-CLV3-LD_E27_170817_sam03_t10,E27,3,10,-10.3972494835,-36.524956306,-12.3724747346,0.00790006672062,-3.95500727275e-06
455,qDII-DR5-CLV3-LD_E27_170817_sam03_t10,E27,3,10,0.619409468512,-44.6014033714,-14.1826452607,0.0147807219251,0.00019939008386299999
456,qDII-DR5-CLV3-LD_E27_170817_sam03_t10,E27,3,10,-3.5741338152900006,-41.896073839,-13.9403337923,0.00966015730723,3.49731767779e-05
457,qDII-DR5-CLV3-LD_E27_170817_sam03_t10,E27,3,10,7.63108643869,-50.4995017053,-19.2804540164,0.0287453029723,0.0007944987302460001
458,qDII-DR5-CLV3-LD_E27_170817_sam03_t10,E27,3,10,-37.8109589668,-18.6811527125,-16.6529577309,0.0030046894224800003,-0.000253652936963
459,qDII-DR5-CLV3-LD_E27_170817_sam03_t10,E27,3,10,-55.8692301227,-6.67701109185,-21.4738792003,0.00782257776107,-0.000167967310767
460,qDII-DR5-CLV3-LD_E27_170817_sam03_t10,E27,3,10,-31.348618125,-23.8661734754,-13.5083115612,0.012477908151399998,9.30059424215e-05
461,qDII-DR5-CLV3-LD_E27_170817_sam03_t10,E27,3,10,-73.349316358,4.27069932028,-29.8474594346,0.033079631779,0.000968957655422
462,qDII-DR5-CLV3-LD_E27_170817_sam03_t10,E27,3,10,-23.5451929029,-30.2986614303,-11.614348121099999,0.015377986368899999,0.000166931094362
463,qDII-DR5-CLV3-LD_E27_170817_sam03_t10,E27,3,10,-15.9065813989,-35.6899613304,-12.056049013099999,0.010682620278700001,4.28597579811e-05
464,qDII-DR5-CLV3-LD_E27_170817_sam03_t10,E27,3,10,-20.848599746199998,-32.9652726331,-11.7708154998,0.0142954425395,0.000123786168614
465,qDII-DR5-CLV3-LD_E27_170817_sam03_t10,E27,3,10,-50.019942639300005,-13.697385815399999,-24.1599951094,0.00109886761724,-0.0005269020436769999
466,qDII-DR5-CLV3-LD_E27_170817_sam03_t10,E27,3,10,-41.5012811293,-19.57038198,-21.1337176716,-0.00399908088145,-0.0006612533701769999
467,qDII-DR5-CLV3-LD_E27_170817_sam03_t10,E27,3,10,1.33757408188,-49.526987305,-16.5731302537,0.0267461634765,0.000753979239117
468,qDII-DR5-CLV3-LD_E27_170817_sam03_t10,E27,3,10,-34.4959175241,-24.5367949833,-15.674201975299999,0.00918743720185,-5.50650623357e-05
469,qDII-DR5-CLV3-LD_E27_170817_sam03_t10,E27,3,10,-8.89983763291,-42.5094410547,-14.808377861199999,0.012768851142799999,0.000127580032881
470,qDII-DR5-CLV3-LD_E27_170817_sam03_t10,E27,3,10,-43.0627854266,-19.0701497529,-23.3896937461,-0.0060580883303999996,-0.000816748613392
471,qDII-DR5-CLV3-LD_E27_170817_sam03_t10,E27,3,10,-4.5057752531599995,-46.374118902,-15.0630009937,0.0184115398567,0.000377895669125
472,qDII-DR5-CLV3-LD_E27_170817_sam03_t10,E27,3,10,-28.389961525100002,-29.771216293800002,-13.682082781300002,0.0148122440586,0.000157766805805
473,qDII-DR5-CLV3-LD_E27_170817_sam03_t10,E27,3,10,6.92178829923,-54.9264998163,-21.588754663000003,0.030825542942,0.000931643640129
474,qDII-DR5-CLV3-LD_E27_170817_sam03_t10,E27,3,10,-13.0124789691,-41.1334902513,-14.5716403974,0.0140382087191,0.00013042829697
475,qDII-DR5-CLV3-LD_E27_170817_sam03_t10,E27,3,10,-71.26067535140001,-1.08882673464,-25.2792787012,0.031234250959400005,0.000877939170529
476,qDII-DR5-CLV3-LD_E27_170817_sam03_t10,E27,3,10,-37.0118924058,-24.9361153751,-19.049016728599998,0.004478928481189999,-0.000318232197393
477,qDII-DR5-CLV3-LD_E27_170817_sam03_t10,E27,3,10,-25.220376200100002,-33.835965938,-15.0395731852,0.0166339698621,0.000162019097272
478,qDII-DR5-CLV3-LD_E27_170817_sam03_t10,E27,3,10,8.90753515157,-58.388100127200005,-28.742568242199997,0.025958813325400003,0.000631119150469
479,qDII-DR5-CLV3-LD_E27_170817_sam03_t10,E27,3,10,-18.1604928374,-39.3277133377,-15.4481676078,0.016661034029899997,0.000163039105002
480,qDII-DR5-CLV3-LD_E27_170817_sam03_t10,E27,3,10,2.46471991421,-54.232317074399994,-18.9869061409,0.033219714819099994,0.00109628933973
481,qDII-DR5-CLV3-LD_E27_170817_sam03_t10,E27,3,10,-5.329214116,-48.8928873286,-16.1904915932,0.0250940393037,0.0006655250776970001
482,qDII-DR5-CLV3-LD_E27_170817_sam03_t10,E27,3,10,-32.6396542285,-30.011188489200002,-18.1303180799,0.011201089951500001,-5.34100674171e-05
483,qDII-DR5-CLV3-LD_E27_170817_sam03_t10,E27,3,10,-40.563239819699994,-24.9056096567,-23.537096156,-0.0019666053947000003,-0.00076390621126
484,qDII-DR5-CLV3-LD_E27_170817_sam03_t10,E27,3,10,-45.2303184925,-21.9590203909,-25.6133139577,-0.005249786166270001,-0.000946941521161
485,qDII-DR5-CLV3-LD_E27_170817_sam03_t10,E27,3,10,-10.4077406099,-46.6272429221,-17.0706785469,0.0236346808586,0.0005273896127519999
486,qDII-DR5-CLV3-LD_E27_170817_sam03_t10,E27,3,10,-78.7837659713,0.541176760145,-34.2302324008,0.029861273383299997,0.000829560513119
487,qDII-DR5-CLV3-LD_E27_170817_sam03_t10,E27,3,10,-3.05849317655,-52.068766572,-17.4958262042,0.0313813737932,0.000999578353959
488,qDII-DR5-CLV3-LD_E27_170817_sam03_t10,E27,3,10,-36.0738510962,-30.2713430518,-21.452395213,0.006399854716520001,-0.000407442320138
489,qDII-DR5-CLV3-LD_E27_170817_sam03_t10,E27,3,10,-14.011141179200001,-45.6107121121,-16.8633878093,0.024043904575099997,0.00046015394158899995
490,qDII-DR5-CLV3-LD_E27_170817_sam03_t10,E27,3,10,-50.2110520406,-20.7337408369,-25.326916789699997,0.00258005333042,-0.000564637223534
491,qDII-DR5-CLV3-LD_E27_170817_sam03_t10,E27,3,10,-26.656325200700003,-37.0332096173,-18.4782735681,0.0174718855599,0.000104318101205
492,qDII-DR5-CLV3-LD_E27_170817_sam03_t10,E27,3,10,-31.6628977182,-33.8470070226,-20.534860219000002,0.0123226443482,-0.000126996682644
493,qDII-DR5-CLV3-LD_E27_170817_sam03_t10,E27,3,10,-76.9264162343,-2.61945932957,-29.6472439148,0.0313985007841,0.0009053429166020001
494,qDII-DR5-CLV3-LD_E27_170817_sam03_t10,E27,3,10,-42.2691952905,-27.4033725141,-26.9598251315,-0.0017292801333299997,-0.0009380639794460002
495,qDII-DR5-CLV3-LD_E27_170817_sam03_t10,E27,3,10,-55.275154138400005,-18.6397732491,-23.8622056632,0.0147297812658,4.98452711414e-05
496,qDII-DR5-CLV3-LD_E27_170817_sam03_t10,E27,3,10,-22.2816204213,-41.647592036199995,-18.7323148733,0.0215723579678,0.000243854680464
497,qDII-DR5-CLV3-LD_E27_170817_sam03_t10,E27,3,10,-9.09395685706,-51.1633654795,-18.322111882999998,0.0306320125615,0.0008908933142669999
498,qDII-DR5-CLV3-LD_E27_170817_sam03_t10,E27,3,10,-44.4620241052,-27.174441403099998,-28.0068768667,-0.0026142913360500003,-0.0010169542094500001
499,qDII-DR5-CLV3-LD_E27_170817_sam03_t10,E27,3,10,-2.67735580569,-56.2940464814,-21.039420000299998,0.0346401754876,0.00119074001465
500,qDII-DR5-CLV3-LD_E27_170817_sam03_t10,E27,3,10,-65.9384380704,-12.1314950394,-23.246320502899998,0.0243609028683,0.0005731498729079999
501,qDII-DR5-CLV3-LD_E27_170817_sam03_t10,E27,3,10,0.396903175563,-58.8577405779,-24.7362344798,0.0317929027513,0.00101262233313
502,qDII-DR5-CLV3-LD_E27_170817_sam03_t10,E27,3,10,-30.9786831054,-37.571676427199996,-38.1705515633,0.0047206157230399995,-0.000587142558199
503,qDII-DR5-CLV3-LD_E27_170817_sam03_t10,E27,3,10,-36.2244899195,-34.725534661,-40.2136628954,0.00129291043184,-0.0007972208891960001
504,qDII-DR5-CLV3-LD_E27_170817_sam03_t10,E27,3,10,-30.6360114338,-37.9726626346,-22.9424802741,0.014493531999899998,-0.000141213917834
505,qDII-DR5-CLV3-LD_E27_170817_sam03_t10,E27,3,10,-17.6369091716,-46.961455277,-19.0023275858,0.027414638922000002,0.0005594876125630001
506,qDII-DR5-CLV3-LD_E27_170817_sam03_t10,E27,3,10,-48.0654246744,-26.1579105931,-27.7995861291,-0.0017284355358399997,-0.0009353146357889999
507,qDII-DR5-CLV3-LD_E27_170817_sam03_t10,E27,3,10,-37.134600874200004,-33.8263603199,-27.2587027429,0.00635854370783,-0.000641757311533
508,qDII-DR5-CLV3-LD_E27_170817_sam03_t10,E27,3,10,-26.717407824499997,-40.8998927356,-20.8233404276,0.0187813449094,8.84720551904e-05
509,qDII-DR5-CLV3-LD_E27_170817_sam03_t10,E27,3,10,-62.4124679025,-16.1468441361,-23.4512839312,0.0230011641946,0.000508228167954
510,qDII-DR5-CLV3-LD_E27_170817_sam03_t10,E27,3,10,-42.5000248367,-31.150248967899998,-29.295076415700002,0.000837901512013,-0.000952116447369
511,qDII-DR5-CLV3-LD_E27_170817_sam03_t10,E27,3,10,-13.991321855399999,-50.8067739595,-19.214028673399998,0.0322509140562,0.0008762664624339998
512,qDII-DR5-CLV3-LD_E27_170817_sam03_t10,E27,3,10,-8.38967341911,-54.7603938862,-19.5379426609,0.034140381056300004,0.00110746328033
513,qDII-DR5-CLV3-LD_E27_170817_sam03_t10,E27,3,10,-33.2190070878,-38.3711598242,-27.4863752379,0.010588301063600002,-0.00039065013449800007
514,qDII-DR5-CLV3-LD_E27_170817_sam03_t10,E27,3,10,-28.554395016999997,-41.7784397852,-24.237417482399998,0.0171117126011,-1.82511398251e-05
515,qDII-DR5-CLV3-LD_E27_170817_sam03_t10,E27,3,10,-23.4644539498,-45.8333304138,-23.35914479,0.023405845617999996,0.000343350146891
516,qDII-DR5-CLV3-LD_E27_170817_sam03_t10,E27,3,10,-55.0185671201,-23.956464963200002,-25.053581892199997,0.0135663073333,-4.55747541696e-05
517,qDII-DR5-CLV3-LD_E27_170817_sam03_t10,E27,3,10,-47.1556889363,-29.992905924200002,-31.373208478600002,-0.001285613769,-0.00101877390434
518,qDII-DR5-CLV3-LD_E27_170817_sam03_t10,E27,3,10,-8.479061614489998,-57.126844659,-23.053253385599998,0.034577760103199996,0.00115613560875
519,qDII-DR5-CLV3-LD_E27_170817_sam03_t10,E27,3,10,-58.942103933599995,-21.950616252600003,-24.8272418312,0.021167827017000002,0.00037383716860500004
520,qDII-DR5-CLV3-LD_E27_170817_sam03_t10,E27,3,10,-30.6927040741,-42.0748430707,-31.1525793366,0.010515845551899999,-0.000284418577272
521,qDII-DR5-CLV3-LD_E27_170817_sam03_t10,E27,3,10,-70.1121620304,-14.622227354400001,-25.3546498986,0.029200318350900003,0.0008035748643360001
522,qDII-DR5-CLV3-LD_E27_170817_sam03_t10,E27,3,10,-52.1860090376,-27.3209105834,-27.564181099200002,0.0038712790734499996,-0.0006298187826540001
523,qDII-DR5-CLV3-LD_E27_170817_sam03_t10,E27,3,10,-79.2239760777,-8.678001870700001,-30.6927189471,0.0283366677871,0.000757566022183
524,qDII-DR5-CLV3-LD_E27_170817_sam03_t10,E27,3,10,-24.6368778491,-47.0194273024,-29.1573822266,0.0182017224368,0.000184623726743
525,qDII-DR5-CLV3-LD_E27_170817_sam03_t10,E27,3,10,-23.8194586319,-47.7357976824,-32.7235163102,0.0166034419608,0.00015884926513799998
526,qDII-DR5-CLV3-LD_E27_170817_sam03_t10,E27,3,10,-14.219684799400001,-54.0929597182,-22.722019911300002,0.0343578785574,0.00103597244382
527,qDII-DR5-CLV3-LD_E27_170817_sam03_t10,E27,3,10,-43.1874987737,-34.366851812,-32.7766988434,0.000408620864906,-0.000947294296864
528,qDII-DR5-CLV3-LD_E27_170817_sam03_t10,E27,3,10,-38.281729024899995,-38.130258957399995,-34.2335086559,0.00309627050437,-0.0007460476790650001
529,qDII-DR5-CLV3-LD_E27_170817_sam03_t10,E27,3,10,-20.601123693599998,-50.2373176844,-25.872240085599998,0.0288879360875,0.000737826308431
530,qDII-DR5-CLV3-LD_E27_170817_sam03_t10,E27,3,10,-9.173560141260001,-58.7896985987,-32.397993755,0.0294288148703,0.0008831446867669999
531,qDII-DR5-CLV3-LD_E27_170817_sam03_t10,E27,3,10,-15.3081969283,-54.9908659326,-26.179019010999998,0.033333841514,0.00101729209189
532,qDII-DR5-CLV3-LD_E27_170817_sam03_t10,E27,3,10,-76.7020630476,-12.1461877995,-28.4938908429,0.030295653173599998,0.0008567496657220001
533,qDII-DR5-CLV3-LD_E27_170817_sam03_t10,E27,3,10,-66.5052899149,-19.9669551802,-25.565187331599997,0.028230007246900002,0.000773720500633
534,qDII-DR5-CLV3-LD_E27_170817_sam03_t10,E27,3,10,-51.0539300011,-31.1048589625,-32.3234368939,0.000586245627004,-0.0008320781458080001
535,qDII-DR5-CLV3-LD_E27_170817_sam03_t10,E27,3,10,-45.5198455577,-36.2145343951,-37.335983387199995,-0.00158994424906,-0.0009283359703139999
536,qDII-DR5-CLV3-LD_E27_170817_sam03_t10,E27,3,10,-49.137127302299994,-33.8694480582,-35.9540384345,-0.0010220645499700001,-0.0008794961518010001
537,qDII-DR5-CLV3-LD_E27_170817_sam03_t10,E27,3,10,-62.9793197471,-23.9823042769,-25.7701507598,0.0264462070843,0.0006674145075880001
538,qDII-DR5-CLV3-LD_E27_170817_sam03_t10,E27,3,10,-72.2821616985,-17.9717886875,-26.405530156399998,0.030982825074999998,0.0009082303131950001
539,qDII-DR5-CLV3-LD_E27_170817_sam03_t10,E27,3,10,-57.853673302,-28.1553551654,-27.239854063600003,0.017330215966900004,0.00015369018713799998
540,qDII-DR5-CLV3-LD_E27_170817_sam03_t10,E27,3,10,-81.719588415,-13.116505401800001,-32.898622269200004,0.024974406013700004,0.000591314280403
541,qDII-DR5-CLV3-LD_E27_170817_sam03_t10,E27,3,10,-68.6614084076,-24.6450720402,-27.7907218044,0.0297539416863,0.000852523075486
542,qDII-DR5-CLV3-LD_E27_170817_sam03_t10,E27,3,10,-62.05816943560001,-29.60654583,-29.3456873706,0.023091286136,0.00048271704418499997
543,qDII-DR5-CLV3-LD_E27_170817_sam03_t10,E27,3,10,-55.1279376338,-35.332144143,-37.957474417,0.00793571985359,-0.000318331211402
544,qDII-DR5-CLV3-LD_E27_170817_sam03_t10,E27,3,10,-78.4571433483,-19.143001289100003,-30.744048643800003,0.0302554855517,0.000870829757721
545,qDII-DR5-CLV3-LD_E27_170817_sam03_t10,E27,3,10,-58.3242803655,-33.399171156,-33.081182324299995,0.014555707786,1.82846286781e-05
546,qDII-DR5-CLV3-LD_E27_170817_sam03_t10,E27,3,10,-74.385683815,-22.479051931,-29.8068824991,0.0314220631079,0.0009408729189229999
547,qDII-DR5-CLV3-LD_E27_170817_sam03_t10,E27,3,10,-83.2945121642,-17.233484067,-36.3300031654,0.0252260886337,0.000602182784549
548,qDII-DR5-CLV3-LD_E27_170817_sam03_t10,E27,3,10,-66.3296863415,-31.056913292399997,-32.6206008881,0.0270358212657,0.000687239099555
549,qDII-DR5-CLV3-LD_E27_170817_sam03_t10,E27,3,10,-81.5692805903,-21.0886617651,-38.7774673494,0.028123416065500003,0.000754547043759
550,qDII-DR5-CLV3-LD_E27_170817_sam03_t10,E27,3,10,-61.9500483579,-34.749914320900004,-35.2201221008,0.0240830636553,0.000532993110563
551,qDII-DR5-CLV3-LD_E27_170817_sam03_t10,E27,3,10,-77.3330073388,-25.465900461900002,-35.5046368725,0.0308917018219,0.0009005446468370001
552,qDII-DR5-CLV3-LD_E27_170817_sam03_t10,E27,3,10,-72.5493213405,-29.8600287168,-35.781969071700004,0.0281507779215,0.000745442823182
553,qDII-DR5-CLV3-LD_E27_170817_sam03_t10,E27,3,10,-66.2855762132,-34.5818891777,-37.3173034872,0.0265274184902,0.0006471656073840001
554,qDII-DR5-CLV3-LD_E27_170817_sam03_t10,E27,3,10,48.038127171499994,59.124031941000005,-41.459399056799995,0.0326812385855,0.000977753856308
555,qDII-DR5-CLV3-LD_E27_170817_sam03_t10,E27,3,10,41.1092755303,62.9965635329,-41.059456554899995,0.0444052507896,0.00199110934271
556,qDII-DR5-CLV3-LD_E27_170817_sam03_t10,E27,3,10,39.567296837600004,62.4675580499,-30.4151243584,0.03646103322059999,0.00129392068078
557,qDII-DR5-CLV3-LD_E27_170817_sam03_t10,E27,3,10,35.3756769352,64.4766995694,-34.865105139099995,0.0364229291887,0.0014367444342999998
558,qDII-DR5-CLV3-LD_E27_170817_sam03_t10,E27,3,10,54.574431878,45.281793944300006,-37.1521660672,0.0306606499529,0.0006342687528940001
559,qDII-DR5-CLV3-LD_E27_170817_sam03_t10,E27,3,10,25.0041421787,64.3932470969,-41.308124499499996,0.0142397735562,0.000238910925429
560,qDII-DR5-CLV3-LD_E27_170817_sam03_t10,E27,3,10,41.254442938400004,49.3882625074,-22.3105938261,0.0284923985291,0.0007834966072819999
561,qDII-DR5-CLV3-LD_E27_170817_sam03_t10,E27,3,10,26.569286026300002,57.78587557229999,-26.154505022,0.0208626001339,0.000354404731062
562,qDII-DR5-CLV3-LD_E27_170817_sam03_t10,E27,3,10,41.895720371100005,42.6207389953,-21.1791992144,0.022262347461900003,0.000487055866535
563,qDII-DR5-CLV3-LD_E27_170817_sam03_t10,E27,3,10,74.1430061446,-17.1991978496,-33.626292895700004,0.0304206728633,0.000774495501015
564,qDII-DR5-CLV3-LD_E27_170817_sam03_t10,E27,3,10,-14.2423759995,43.61198566149999,-16.7873058949,0.023986468813900003,0.00044514212259300003
565,qDII-DR5-CLV3-LD_E27_170817_sam03_t10,E27,3,10,77.0128177698,-24.313812732600002,-33.7958225451,0.0279997087088,0.0007508141076299999
566,qDII-DR5-CLV3-LD_E27_170817_sam03_t10,E27,3,10,-24.5632377613,44.3955748185,-19.713850876,0.025543148152,0.000576891274682
567,qDII-DR5-CLV3-LD_E27_170817_sam03_t10,E27,3,10,-16.1368062655,32.759616195999996,-9.64880640608,0.014697331836000001,0.00019701013589200003
568,qDII-DR5-CLV3-LD_E27_170817_sam03_t10,E27,3,10,14.857017926700001,7.439308119460001,-2.06005915402,0.0147063178079,0.000211090448158
569,qDII-DR5-CLV3-LD_E27_170817_sam03_t10,E27,3,10,80.7952934587,-40.7484986706,-41.0617735346,0.0261494398248,0.000553332863428
570,qDII-DR5-CLV3-LD_E27_170817_sam03_t10,E27,3,10,10.5220332921,8.76421197078,-0.637688245039,0.0142426966717,0.00019965372604900002
571,qDII-DR5-CLV3-LD_E27_170817_sam03_t10,E27,3,10,2.1681855002200003,13.596020080499999,-1.32830135057,0.0129594622334,0.000165010454436
572,qDII-DR5-CLV3-LD_E27_170817_sam03_t10,E27,3,10,5.8331304167499995,10.500405969700001,-1.54058426554,0.013489623168799997,0.00017981743582299998
573,qDII-DR5-CLV3-LD_E27_170817_sam03_t10,E27,3,10,-9.30812766545,20.5851713525,-3.01131430972,0.0119145579752,0.000127798315815
574,qDII-DR5-CLV3-LD_E27_170817_sam03_t10,E27,3,10,16.806140963900003,0.0031683704987800006,-1.00411122931,0.014706233025,0.000203403485898
575,qDII-DR5-CLV3-LD_E27_170817_sam03_t10,E27,3,10,60.3559681945,-31.546329701799998,-17.5980168444,0.0309674153737,0.00090060859656
576,qDII-DR5-CLV3-LD_E27_170817_sam03_t10,E27,3,10,25.7828270253,-8.25316812494,-5.0433071923699995,0.0175582030178,0.000296196426666
577,qDII-DR5-CLV3-LD_E27_170817_sam03_t10,E27,3,10,-20.029022675,18.8985694281,-4.74374270425,0.0138289255554,0.00015847620051299998
578,qDII-DR5-CLV3-LD_E27_170817_sam03_t10,E27,3,10,-5.26543041745,8.71088693901,0.267334440727,0.0146365157904,0.00020641860282700003
579,qDII-DR5-CLV3-LD_E27_170817_sam03_t10,E27,3,10,67.8604566568,-44.0386283246,-26.2474894894,0.031084521902400002,0.0008383268546269999
580,qDII-DR5-CLV3-LD_E27_170817_sam03_t10,E27,3,10,-42.6339184154,31.009385299699996,-23.3790164745,0.0160110325581,7.19589224086e-05
581,qDII-DR5-CLV3-LD_E27_170817_sam03_t10,E27,3,10,5.53536660524,-2.12723469097,1.9863630061300002,0.012469630106299999,0.000146331546912
582,qDII-DR5-CLV3-LD_E27_170817_sam03_t10,E27,3,10,-30.013400415,17.8249758529,-10.0367311777,0.013661575452100002,0.000146669642224
583,qDII-DR5-CLV3-LD_E27_170817_sam03_t10,E27,3,10,-5.99801441733,-2.17608484497,1.4745887875900001,0.0137469824748,0.000179993365461
584,qDII-DR5-CLV3-LD_E27_170817_sam03_t10,E27,3,10,60.10122807,-50.0127036641,-25.8068767625,0.0384595100352,0.0011982072674
585,qDII-DR5-CLV3-LD_E27_170817_sam03_t10,E27,3,10,61.1284895709,-51.202538286199996,-37.5958346206,0.04533981643,0.00156111422805
586,qDII-DR5-CLV3-LD_E27_170817_sam03_t10,E27,3,10,7.99912533704,-14.947179462000001,-1.68267473968,0.013578491998299998,0.00016437502319299998
587,qDII-DR5-CLV3-LD_E27_170817_sam03_t10,E27,3,10,55.0404295143,-50.46799081020001,-37.2463024296,0.024901865209,0.0005612745849319999
588,qDII-DR5-CLV3-LD_E27_170817_sam03_t10,E27,3,10,-11.3793244339,-4.57787508048,-0.564449753099,0.0150344729837,0.00021999840236400003
589,qDII-DR5-CLV3-LD_E27_170817_sam03_t10,E27,3,10,38.667462575100004,-43.744311591899994,-23.400789785500002,0.0116085455014,-0.000534973253941
590,qDII-DR5-CLV3-LD_E27_170817_sam03_t10,E27,3,10,41.8076558872,-48.6225863069,-32.9676286452,0.0169704840728,-9.89259611895e-05
591,qDII-DR5-CLV3-LD_E27_170817_sam03_t10,E27,3,10,37.807775113699996,-47.3017984667,-25.6998566841,0.010919639629,-0.000635063580961
592,qDII-DR5-CLV3-LD_E27_170817_sam03_t10,E27,3,10,31.9916449088,-47.9629198255,-30.058588149600002,-0.000661957722278,-0.0012160052609000002
593,qDII-DR5-CLV3-LD_E27_170817_sam03_t10,E27,3,10,-19.417045738800002,-13.5482990999,-3.62875034804,0.015632919347,0.000237651616032
594,qDII-DR5-CLV3-LD_E27_170817_sam03_t10,E27,3,10,-5.88988832997,-23.3036858721,-3.23817850853,0.0134370775015,0.000161549105575
595,qDII-DR5-CLV3-LD_E27_170817_sam03_t10,E27,3,10,-74.83447669520001,5.45599241781,-39.1448674091,0.029471489929299998,0.00078772185042
596,qDII-DR5-CLV3-LD_E27_170817_sam03_t10,E27,3,10,13.5278690898,-56.491461921,-33.697797986,0.023824184269999996,0.000528957408582
597,qDII-DR5-CLV3-LD_E27_170817_sam03_t10,E27,3,10,-61.8992173783,-3.6933499008699995,-21.1260924913,0.0186240042438,0.000295361263878
598,qDII-DR5-CLV3-LD_E27_170817_sam03_t10,E27,3,10,7.519162816000001,-53.4542841713,-38.0428853535,0.024304369892,0.000543460947972
599,qDII-DR5-CLV3-LD_E27_170817_sam03_t10,E27,3,10,-66.1846154596,-3.81516183638,-23.226351793699997,0.0256093764631,0.000611057058373
600,qDII-DR5-CLV3-LD_E27_170817_sam03_t10,E27,3,10,-59.407614798400004,-12.0677605984,-21.2748273352,0.0169117301147,0.000216115695711
601,qDII-DR5-CLV3-LD_E27_170817_sam03_t10,E27,3,10,3.614526889,-60.7371970062,-34.305400649,0.026650068506,0.0006704253870519998
602,qDII-DR5-CLV3-LD_E27_170817_sam03_t10,E27,3,10,-71.7242578251,-7.8863916295,-25.257489020300003,0.0299055458872,0.0008191624627280001
603,qDII-DR5-CLV3-LD_E27_170817_sam03_t10,E27,3,10,-2.2416986773099996,-61.044660787299996,-30.451123915300002,0.027533292433700004,0.000763013408013
604,qDII-DR5-CLV3-LD_E27_170817_sam03_t10,E27,3,10,-15.972928225599999,-52.9043738117,-36.695748727600005,0.026730817661299998,0.000718777096702
605,qDII-DR5-CLV3-LD_E27_170817_sam03_t10,E27,3,10,55.7401549646,-52.0505796174,-45.4979911029,0.0340779316297,0.0011647822848199999
606,qDII-DR5-CLV3-LD_E27_170817_sam03_t10,E27,3,10,42.263213836599995,-51.4666173329,-38.8603620922,0.0164854580949,-1.40767982957e-05
607,qDII-DR5-CLV3-LD_E27_170817_sam03_t10,E27,3,10,-81.77967110430001,-5.78784369487,-35.2358633043,0.0249432881698,0.000585032642021
