,filename,experiment,sam_id,hour_time,aligned_x,aligned_y,aligned_z,mean_curvature,gaussian_curvature
0,qDII-DR5-CLV3-LD_E25_170811_sam01_t10,E25,1,10,-45.1528049984,34.754504361100004,-35.569415732399996,0.0212313579427,0.00036702453311500004
1,qDII-DR5-CLV3-LD_E25_170811_sam01_t10,E25,1,10,-40.058053729899996,36.757614918200005,-28.3630555826,0.0238860491118,0.00047639339920199994
2,qDII-DR5-CLV3-LD_E25_170811_sam01_t10,E25,1,10,-32.5477317884,40.1341735337,-27.792834352,0.0221662489406,0.000401427122492
3,qDII-DR5-CLV3-LD_E25_170811_sam01_t10,E25,1,10,-40.5239127784,33.9195781395,-38.6922764433,0.021293703404900003,0.000360118523955
4,qDII-DR5-CLV3-LD_E25_170811_sam01_t10,E25,1,10,-47.358913379099995,30.7026219307,-33.400593106399995,0.0186598663503,0.000274087148201
5,qDII-DR5-CLV3-LD_E25_170811_sam01_t10,E25,1,10,-37.262811726799995,35.881100689899995,-22.7393079041,0.0245367733057,0.000505003860611
6,qDII-DR5-CLV3-LD_E25_170811_sam01_t10,E25,1,10,-42.634246048200005,32.9860803173,-26.166610979699996,0.0242302299273,0.0004839500099680001
7,qDII-DR5-CLV3-LD_E25_170811_sam01_t10,E25,1,10,17.9712944562,63.1601154322,-34.155908136,0.043907413918399994,0.0010961215838299998
8,qDII-DR5-CLV3-LD_E25_170811_sam01_t10,E25,1,10,12.0965946147,59.608177758000004,-31.3935436539,0.0256876780384,0.00038732652741600005
9,qDII-DR5-CLV3-LD_E25_170811_sam01_t10,E25,1,10,1.5018302428299999,54.237861969399994,-31.1260661154,0.0117728961051,-0.00014131567020500002
10,qDII-DR5-CLV3-LD_E25_170811_sam01_t10,E25,1,10,-23.4948068401,41.6078357345,-24.832144297600003,0.0167196226221,4.24832983541e-05
11,qDII-DR5-CLV3-LD_E25_170811_sam01_t10,E25,1,10,-27.896734801399997,39.3079944407,-21.310575861900002,0.0206063456474,0.000255556410365
12,qDII-DR5-CLV3-LD_E25_170811_sam01_t10,E25,1,10,-29.7734802653,37.336131186399996,-32.7073621532,0.0204182199506,0.000328878979359
13,qDII-DR5-CLV3-LD_E25_170811_sam01_t10,E25,1,10,-34.0720692455,35.7811868024,-19.6986427411,0.023241455494099998,0.000427245543856
14,qDII-DR5-CLV3-LD_E25_170811_sam01_t10,E25,1,10,23.305527358000003,64.0068200596,-29.233229635,0.0518365498747,0.0016994221858299997
15,qDII-DR5-CLV3-LD_E25_170811_sam01_t10,E25,1,10,6.47961086862,55.43049502149999,-29.7913112898,0.014293962147299999,-5.33318788809e-05
16,qDII-DR5-CLV3-LD_E25_170811_sam01_t10,E25,1,10,-46.494210991,28.5789160783,-28.4539235973,0.0200217793055,0.000300902118787
17,qDII-DR5-CLV3-LD_E25_170811_sam01_t10,E25,1,10,-2.1405810939900003,49.9952048932,-27.4693483813,0.0136994395939,-0.000180803321564
18,qDII-DR5-CLV3-LD_E25_170811_sam01_t10,E25,1,10,-14.8677835028,43.6826441538,-24.2813245803,0.0165394908352,-9.67376162828e-05
19,qDII-DR5-CLV3-LD_E25_170811_sam01_t10,E25,1,10,-19.9969801732,41.0220851034,-20.577583355999998,0.0183658154732,7.43736217392e-05
20,qDII-DR5-CLV3-LD_E25_170811_sam01_t10,E25,1,10,-50.6229444126,24.7931233373,-34.3836636975,0.00478730294241,-0.000280534698518
21,qDII-DR5-CLV3-LD_E25_170811_sam01_t10,E25,1,10,15.080103378199999,58.3611362612,-25.7518747551,0.030079051755,0.000574556060079
22,qDII-DR5-CLV3-LD_E25_170811_sam01_t10,E25,1,10,10.2788046337,55.8066083654,-28.128793474000002,0.018375382010400003,8.02062657724e-05
23,qDII-DR5-CLV3-LD_E25_170811_sam01_t10,E25,1,10,2.6177991432299996,51.9491177623,-27.4029931417,0.012907700348,-0.00018442149235900005
24,qDII-DR5-CLV3-LD_E25_170811_sam01_t10,E25,1,10,29.6702428495,65.2503194387,-31.7603978142,0.0450186353252,0.00153865224992
25,qDII-DR5-CLV3-LD_E25_170811_sam01_t10,E25,1,10,-8.37891529002,46.262908340799996,-24.615897505,0.0169666943187,-0.000125673719897
26,qDII-DR5-CLV3-LD_E25_170811_sam01_t10,E25,1,10,-27.595718407199996,36.3830894036,-17.3508262922,0.021010583008400002,0.00029271365834900005
27,qDII-DR5-CLV3-LD_E25_170811_sam01_t10,E25,1,10,-37.030130380500005,31.298632456,-18.5346612749,0.023981746285200004,0.0004758051639119999
28,qDII-DR5-CLV3-LD_E25_170811_sam01_t10,E25,1,10,-21.447824026099997,38.4490756306,-29.5644993102,0.015240097062699999,-6.55865090811e-07
29,qDII-DR5-CLV3-LD_E25_170811_sam01_t10,E25,1,10,-3.9622413800199996,46.7155492392,-32.686167871500004,0.0132087464723,-0.00016361851823400002
30,qDII-DR5-CLV3-LD_E25_170811_sam01_t10,E25,1,10,-1.3070123341,48.262251589099996,-23.773157238000003,0.0146275162133,-0.00017425420058300001
31,qDII-DR5-CLV3-LD_E25_170811_sam01_t10,E25,1,10,-15.6862245223,40.6686220611,-29.7168994462,0.0150684008996,-0.00011384076779
32,qDII-DR5-CLV3-LD_E25_170811_sam01_t10,E25,1,10,-23.282206738499998,37.4204936132,-17.075416433599997,0.019803541391,0.000221444150045
33,qDII-DR5-CLV3-LD_E25_170811_sam01_t10,E25,1,10,-41.7938459136,27.8926453041,-19.5976372106,0.0227694052069,0.0004162003176419999
34,qDII-DR5-CLV3-LD_E25_170811_sam01_t10,E25,1,10,26.001300685,61.8634951829,-24.6150632627,0.048928207949800004,0.00170954993953
35,qDII-DR5-CLV3-LD_E25_170811_sam01_t10,E25,1,10,20.5221013217,59.0881578494,-24.4357812963,0.039815147625000005,0.0011333472920999998
36,qDII-DR5-CLV3-LD_E25_170811_sam01_t10,E25,1,10,-48.3484698962,23.7160249511,-27.4362724792,0.013409158341000002,-2.33096465593e-05
37,qDII-DR5-CLV3-LD_E25_170811_sam01_t10,E25,1,10,7.909113537760001,52.1952073631,-24.79087812,0.012415830276699999,-0.000207400791552
38,qDII-DR5-CLV3-LD_E25_170811_sam01_t10,E25,1,10,34.5822677055,64.84659632489999,-38.5988511819,0.0396606590526,0.0013730927517199999
39,qDII-DR5-CLV3-LD_E25_170811_sam01_t10,E25,1,10,-31.1121302401,32.5514101555,-16.177144069300002,0.021941201524900002,0.000376606163669
40,qDII-DR5-CLV3-LD_E25_170811_sam01_t10,E25,1,10,13.607713289600001,54.2092648795,-23.7017605004,0.0183597891305,5.56187793938e-05
41,qDII-DR5-CLV3-LD_E25_170811_sam01_t10,E25,1,10,-8.780483559710001,43.047239706599996,-19.2869611984,0.0171802179616,9.26959711214e-07
42,qDII-DR5-CLV3-LD_E25_170811_sam01_t10,E25,1,10,-14.5739491872,40.2314518137,-16.642564941,0.0171202052196,0.00011274115731999999
43,qDII-DR5-CLV3-LD_E25_170811_sam01_t10,E25,1,10,-4.89287350204,44.6857901347,-21.4214216768,0.016271114935700003,-8.05051852625e-05
44,qDII-DR5-CLV3-LD_E25_170811_sam01_t10,E25,1,10,17.2998745083,55.6920552733,-22.1751321295,0.024906546109199998,0.0003921391370680001
45,qDII-DR5-CLV3-LD_E25_170811_sam01_t10,E25,1,10,-20.2915158965,36.699739419299995,-15.1127576044,0.0186369981144,0.000201876602623
46,qDII-DR5-CLV3-LD_E25_170811_sam01_t10,E25,1,10,-45.4966777243,23.5057063447,-23.1175069736,0.0164073187766,0.00012512824474999998
47,qDII-DR5-CLV3-LD_E25_170811_sam01_t10,E25,1,10,30.358845148,61.588733428599994,-22.962246203499998,0.048075664116000005,0.0017714998517999998
48,qDII-DR5-CLV3-LD_E25_170811_sam01_t10,E25,1,10,5.703005157000001,48.143324932700004,-22.622055494,0.0110123814284,-0.000250001934502
49,qDII-DR5-CLV3-LD_E25_170811_sam01_t10,E25,1,10,-38.7591222773,25.8597251462,-16.257571180899998,0.0221499094104,0.000411097209165
50,qDII-DR5-CLV3-LD_E25_170811_sam01_t10,E25,1,10,-25.356598527800003,32.331888292399995,-13.583690414400001,0.0196703612132,0.00028845930600700004
51,qDII-DR5-CLV3-LD_E25_170811_sam01_t10,E25,1,10,-49.8254627853,19.0990732975,-30.125253407600002,0.005693276844499999,-0.00048538005341300003
52,qDII-DR5-CLV3-LD_E25_170811_sam01_t10,E25,1,10,37.8034113196,63.3689358782,-30.5652331662,0.0420039449017,0.00154854673304
53,qDII-DR5-CLV3-LD_E25_170811_sam01_t10,E25,1,10,1.2828427336700001,45.3128227717,-20.2240365892,0.0122793455018,-0.00014583472358200002
54,qDII-DR5-CLV3-LD_E25_170811_sam01_t10,E25,1,10,-7.664514659299999,40.7584954995,-15.563888224600001,0.015220798002200001,7.96032621111e-05
55,qDII-DR5-CLV3-LD_E25_170811_sam01_t10,E25,1,10,11.471054243800001,49.9021646554,-22.710991212600003,0.0102815694085,-0.00028209020545999996
56,qDII-DR5-CLV3-LD_E25_170811_sam01_t10,E25,1,10,26.4852485436,57.115988594399994,-21.634013168899997,0.0363220604236,0.00113048168074
57,qDII-DR5-CLV3-LD_E25_170811_sam01_t10,E25,1,10,-13.2002641914,37.3169625442,-14.079624085199999,0.0158107353371,0.00016476210719100002
58,qDII-DR5-CLV3-LD_E25_170811_sam01_t10,E25,1,10,-35.1417456895,26.145659051,-14.5495101679,0.0219102038883,0.000406578339204
59,qDII-DR5-CLV3-LD_E25_170811_sam01_t10,E25,1,10,-42.3560358288,22.278890127600004,-18.708395220299998,0.0182870075938,0.000253787303938
60,qDII-DR5-CLV3-LD_E25_170811_sam01_t10,E25,1,10,22.4917202267,54.671334225600006,-20.568598414,0.0247728786872,0.000485950274898
61,qDII-DR5-CLV3-LD_E25_170811_sam01_t10,E25,1,10,-2.27833438912,41.8063154767,-16.685287079800002,0.013061492409700002,-2.76206297521e-06
62,qDII-DR5-CLV3-LD_E25_170811_sam01_t10,E25,1,10,39.638175823699996,61.4977428943,-40.2449978344,0.039303170929,0.0013864681653499998
63,qDII-DR5-CLV3-LD_E25_170811_sam01_t10,E25,1,10,16.4306004075,50.564136840299994,-22.4997859179,0.0136051820667,-0.000131781122503
64,qDII-DR5-CLV3-LD_E25_170811_sam01_t10,E25,1,10,-47.2997217566,17.8569365566,-24.4014587246,0.00735209650104,-0.00037222776196699995
65,qDII-DR5-CLV3-LD_E25_170811_sam01_t10,E25,1,10,-51.6296211047,15.3630845,-30.4760488799,0.00233081858857,-0.0008830195577510001
66,qDII-DR5-CLV3-LD_E25_170811_sam01_t10,E25,1,10,7.709825481669999,45.7748170541,-20.250248037000002,0.00843043376607,-0.000254343126322
67,qDII-DR5-CLV3-LD_E25_170811_sam01_t10,E25,1,10,-56.7251048687,12.3729799321,-33.9399345426,0.0032087768311599998,-0.0009590331431939998
68,qDII-DR5-CLV3-LD_E25_170811_sam01_t10,E25,1,10,3.4650306525300003,43.49520104,-17.9612367467,0.009766715054330001,-0.000123620348261
69,qDII-DR5-CLV3-LD_E25_170811_sam01_t10,E25,1,10,-19.443933683399997,32.1325917091,-12.2227939049,0.017548332773,0.00022810449764700002
70,qDII-DR5-CLV3-LD_E25_170811_sam01_t10,E25,1,10,31.545377670500002,57.1319904372,-21.350382846600002,0.040042407992,0.0014152807668900002
71,qDII-DR5-CLV3-LD_E25_170811_sam01_t10,E25,1,10,-30.389433243699997,25.660503626599997,-11.7373011373,0.0198917206695,0.000334361555181
72,qDII-DR5-CLV3-LD_E25_170811_sam01_t10,E25,1,10,-45.206331921899995,17.6766527421,-21.150998796099998,0.0103488659779,-0.000120131158866
73,qDII-DR5-CLV3-LD_E25_170811_sam01_t10,E25,1,10,-6.52919700969,37.0876311691,-11.650421998599999,0.0145850816326,0.00016531099852300002
74,qDII-DR5-CLV3-LD_E25_170811_sam01_t10,E25,1,10,-24.991468094499997,27.699691178800002,-11.798614879,0.01882136689,0.00028421556674699996
75,qDII-DR5-CLV3-LD_E25_170811_sam01_t10,E25,1,10,42.395102119899995,60.48569391149999,-32.1927184519,0.039147823688300006,0.00140800300763
76,qDII-DR5-CLV3-LD_E25_170811_sam01_t10,E25,1,10,-48.7649297666,14.231352478,-26.0303545395,0.00198926450825,-0.000772220001053
77,qDII-DR5-CLV3-LD_E25_170811_sam01_t10,E25,1,10,16.1614812248,47.2987393264,-19.5904207051,0.00790894977278,-0.000334608359283
78,qDII-DR5-CLV3-LD_E25_170811_sam01_t10,E25,1,10,-38.7629614945,19.595094871500002,-15.3780299473,0.0179614481916,0.000284556946332
79,qDII-DR5-CLV3-LD_E25_170811_sam01_t10,E25,1,10,21.007545259100002,49.528095269,-19.5785692727,0.012684726204899998,-0.00010277960266899999
80,qDII-DR5-CLV3-LD_E25_170811_sam01_t10,E25,1,10,-2.05855220892,38.1452606584,-12.6075692855,0.012983313903900002,0.000104000478855
81,qDII-DR5-CLV3-LD_E25_170811_sam01_t10,E25,1,10,-53.8156482408,10.916075957,-31.859307488699997,0.00238162835594,-0.0010908911193800001
82,qDII-DR5-CLV3-LD_E25_170811_sam01_t10,E25,1,10,35.7028704942,56.236388376499995,-20.7755721212,0.0398864175418,0.0014800217925699998
83,qDII-DR5-CLV3-LD_E25_170811_sam01_t10,E25,1,10,-42.4604580092,16.660230195,-17.9012790142,0.012393672790299999,8.40202187506e-05
84,qDII-DR5-CLV3-LD_E25_170811_sam01_t10,E25,1,10,27.615230897199996,51.99304998109999,-18.717167639,0.0191663545913,0.000312016431569
85,qDII-DR5-CLV3-LD_E25_170811_sam01_t10,E25,1,10,4.93284902846,40.3954481361,-15.3893352808,0.00843094778909,-8.27175705937e-05
86,qDII-DR5-CLV3-LD_E25_170811_sam01_t10,E25,1,10,-66.3033690163,3.4471092879400005,-30.954965336500003,0.0322932316516,0.000855803113028
87,qDII-DR5-CLV3-LD_E25_170811_sam01_t10,E25,1,10,-56.5171075675,7.7205575388100005,-30.9223018617,0.006819271864479999,-0.000927499322737
88,qDII-DR5-CLV3-LD_E25_170811_sam01_t10,E25,1,10,-18.8411683994,27.2697756456,-8.04576925264,0.016643061639700002,0.00021952387825099998
89,qDII-DR5-CLV3-LD_E25_170811_sam01_t10,E25,1,10,-50.1360043965,10.420504765,-27.650289744299997,-0.000150398768704,-0.0010036596470799999
90,qDII-DR5-CLV3-LD_E25_170811_sam01_t10,E25,1,10,-5.2431958110300005,33.897698826100005,-9.03297733553,0.015486849845499999,0.00021116418356900002
91,qDII-DR5-CLV3-LD_E25_170811_sam01_t10,E25,1,10,12.594968805999999,42.3401577486,-17.0482918918,0.0035836356747900003,-0.000338768838671
92,qDII-DR5-CLV3-LD_E25_170811_sam01_t10,E25,1,10,-26.9964105488,22.3558680642,-9.48494219796,0.0173399994688,0.00025900872615
93,qDII-DR5-CLV3-LD_E25_170811_sam01_t10,E25,1,10,-59.676334628999996,4.5299438767,-29.903170450500003,0.0138593122584,-0.00044400438970999996
94,qDII-DR5-CLV3-LD_E25_170811_sam01_t10,E25,1,10,45.2069368544,56.836192308,-35.79330347,0.036220872900800005,0.00118579513154
95,qDII-DR5-CLV3-LD_E25_170811_sam01_t10,E25,1,10,44.80958959350001,56.985378947200005,-28.534590188600003,0.0424794078357,0.00170927473333
96,qDII-DR5-CLV3-LD_E25_170811_sam01_t10,E25,1,10,17.2474307841,43.4879666771,-18.0509823757,0.00296803125594,-0.000433059374553
97,qDII-DR5-CLV3-LD_E25_170811_sam01_t10,E25,1,10,-44.9406701648,11.7776449799,-20.371504567,0.0024538483543899998,-0.000319768810671
98,qDII-DR5-CLV3-LD_E25_170811_sam01_t10,E25,1,10,41.1842984317,55.186163728800004,-22.821166644899996,0.0455793657888,0.00195779927129
99,qDII-DR5-CLV3-LD_E25_170811_sam01_t10,E25,1,10,33.1213428799,51.0127794928,-19.5757482144,0.0233208018111,0.0005527637233740001
100,qDII-DR5-CLV3-LD_E25_170811_sam01_t10,E25,1,10,22.463578756,45.436974790200004,-18.0667529203,0.005899792035939999,-0.000324528434509
101,qDII-DR5-CLV3-LD_E25_170811_sam01_t10,E25,1,10,10.3759612591,39.2096887338,-15.0063981006,0.00492018819753,-0.000198367970908
102,qDII-DR5-CLV3-LD_E25_170811_sam01_t10,E25,1,10,-35.4329385515,16.0849703951,-11.8841532523,0.016680103992,0.00023899196390699998
103,qDII-DR5-CLV3-LD_E25_170811_sam01_t10,E25,1,10,-40.0771041638,13.550667779000001,-15.493629116700001,0.011807444149200002,9.86971312247e-05
104,qDII-DR5-CLV3-LD_E25_170811_sam01_t10,E25,1,10,-12.7531359608,27.6213652092,-6.793880357740001,0.0156549154016,0.00020694408986000003
105,qDII-DR5-CLV3-LD_E25_170811_sam01_t10,E25,1,10,-53.0557498247,6.07348517324,-28.914839981900002,0.00248904401849,-0.00101612855576
106,qDII-DR5-CLV3-LD_E25_170811_sam01_t10,E25,1,10,-22.5511822886,22.3565493833,-7.88662894605,0.015773976583399997,0.000213198420718
107,qDII-DR5-CLV3-LD_E25_170811_sam01_t10,E25,1,10,2.91427491255,34.9860444264,-9.46011694754,0.0119343573485,0.00010589641402399998
108,qDII-DR5-CLV3-LD_E25_170811_sam01_t10,E25,1,10,6.451149781819999,35.5228225606,-11.3765621969,0.009282672884200002,1.81687264485e-05
109,qDII-DR5-CLV3-LD_E25_170811_sam01_t10,E25,1,10,-28.3929017193,17.488072181,-8.549416864,0.0152750344639,0.00020047564143299998
110,qDII-DR5-CLV3-LD_E25_170811_sam01_t10,E25,1,10,-17.1091843451,23.083570971599997,-6.57053548722,0.0139537615833,0.00016756943666799997
111,qDII-DR5-CLV3-LD_E25_170811_sam01_t10,E25,1,10,-46.511796434,7.3459569606,-23.069446105500003,-0.00465529014999,-0.0006370776007610001
112,qDII-DR5-CLV3-LD_E25_170811_sam01_t10,E25,1,10,-56.1143939229,2.2369011690200002,-27.823283543200002,0.007165060101140001,-0.0007175898849
113,qDII-DR5-CLV3-LD_E25_170811_sam01_t10,E25,1,10,-62.866313526999996,-1.16969223838,-27.3251991967,0.0235253950646,0.00022305188640200002
114,qDII-DR5-CLV3-LD_E25_170811_sam01_t10,E25,1,10,29.530146415999997,45.984243755600005,-18.2206333494,0.010111055595799999,-6.95805857676e-05
115,qDII-DR5-CLV3-LD_E25_170811_sam01_t10,E25,1,10,-0.370951652796,31.3844529362,-5.95795002515,0.0148598818432,0.00020216070517700002
116,qDII-DR5-CLV3-LD_E25_170811_sam01_t10,E25,1,10,39.9878589005,50.939208152,-20.8076349772,0.036978003585199995,0.0013518878276600002
117,qDII-DR5-CLV3-LD_E25_170811_sam01_t10,E25,1,10,16.7911591281,38.6803154412,-16.0926946619,7.74381948333e-05,-0.00040532945893999994
118,qDII-DR5-CLV3-LD_E25_170811_sam01_t10,E25,1,10,-50.115159568500005,4.2258286497099995,-25.583734562300002,-0.005591091111710001,-0.000861454965818
119,qDII-DR5-CLV3-LD_E25_170811_sam01_t10,E25,1,10,12.6651817243,36.2853899522,-12.607708813199999,0.00434460234291,-0.000163971359522
120,qDII-DR5-CLV3-LD_E25_170811_sam01_t10,E25,1,10,-37.6937503185,10.4411053631,-13.0859792191,0.0130511197022,0.00014018839725
121,qDII-DR5-CLV3-LD_E25_170811_sam01_t10,E25,1,10,21.713122080500003,40.1937468823,-17.1954321503,-8.30182857751e-05,-0.00045121052458899996
122,qDII-DR5-CLV3-LD_E25_170811_sam01_t10,E25,1,10,34.8350924721,46.2959139516,-19.2240639799,0.020414147469699998,0.00034830119455599997
123,qDII-DR5-CLV3-LD_E25_170811_sam01_t10,E25,1,10,27.0169538496,42.4181980688,-17.2657065021,0.0037670512482600002,-0.00031761954000499997
124,qDII-DR5-CLV3-LD_E25_170811_sam01_t10,E25,1,10,6.20671464424,32.3273792061,-7.280183035760001,0.0118565699304,0.00011537063480600002
125,qDII-DR5-CLV3-LD_E25_170811_sam01_t10,E25,1,10,-41.121745858800004,7.871863199119999,-15.709275290499999,0.007930346038159999,-2.0299944902e-07
126,qDII-DR5-CLV3-LD_E25_170811_sam01_t10,E25,1,10,47.1693736808,51.8930813812,-28.247110518000003,0.0424546449104,0.0016762232153
127,qDII-DR5-CLV3-LD_E25_170811_sam01_t10,E25,1,10,-43.640655512799995,5.75351823082,-18.5602873477,0.00095093014497,-0.000231076213197
128,qDII-DR5-CLV3-LD_E25_170811_sam01_t10,E25,1,10,-19.2329442247,17.8550573319,-5.452837364630001,0.012504022871399999,0.000136829257199
129,qDII-DR5-CLV3-LD_E25_170811_sam01_t10,E25,1,10,-34.0387905194,9.87558001166,-10.063975422999999,0.0141390778773,0.00016604762668299999
130,qDII-DR5-CLV3-LD_E25_170811_sam01_t10,E25,1,10,-52.6648210591,-0.40153877155,-26.8759067769,-0.005052397021399999,-0.000804960319613
131,qDII-DR5-CLV3-LD_E25_170811_sam01_t10,E25,1,10,-24.366743695500002,14.7294180095,-6.48819132344,0.0130048363779,0.00014282664550900002
132,qDII-DR5-CLV3-LD_E25_170811_sam01_t10,E25,1,10,43.9626253117,47.6367724204,-34.2776377692,0.0370186041956,0.00104447273263
133,qDII-DR5-CLV3-LD_E25_170811_sam01_t10,E25,1,10,18.447244264400002,35.2100352688,-13.5028719757,0.00026625809264900003,-0.00030600459288
134,qDII-DR5-CLV3-LD_E25_170811_sam01_t10,E25,1,10,-46.5220852343,1.54203339368,-22.253369289299997,-0.0108844985187,-0.0007116537514920001
135,qDII-DR5-CLV3-LD_E25_170811_sam01_t10,E25,1,10,-4.26240092765,23.481272233400002,-2.9439483130400004,0.016858018043,0.000268819759218
136,qDII-DR5-CLV3-LD_E25_170811_sam01_t10,E25,1,10,43.319728626099995,46.503296695699994,-21.989389048000003,0.0356971762374,0.00113124770178
137,qDII-DR5-CLV3-LD_E25_170811_sam01_t10,E25,1,10,-30.6780157398,8.874477988210002,-8.1289385707,0.013256115160799999,0.00014330397254299997
138,qDII-DR5-CLV3-LD_E25_170811_sam01_t10,E25,1,10,10.753640154700001,29.7693091926,-6.542601034990001,0.0118566455776,0.00012331631399600001
139,qDII-DR5-CLV3-LD_E25_170811_sam01_t10,E25,1,10,33.9969519996,40.7772429703,-18.2982394026,0.014012359733200001,-1.64855384227e-05
140,qDII-DR5-CLV3-LD_E25_170811_sam01_t10,E25,1,10,4.78480693307,26.402635152800002,-3.78919716307,0.015706862483,0.00023337770119
141,qDII-DR5-CLV3-LD_E25_170811_sam01_t10,E25,1,10,-37.2462713841,4.6322770401,-12.3520281871,0.0109630516234,0.000100652417116
142,qDII-DR5-CLV3-LD_E25_170811_sam01_t10,E25,1,10,23.458005301,35.0861287927,-15.59326955,-0.0011723770857699999,-0.000380790068636
143,qDII-DR5-CLV3-LD_E25_170811_sam01_t10,E25,1,10,48.3376717413,46.9056775226,-27.758796691999997,0.0388323020635,0.0013098071535100001
144,qDII-DR5-CLV3-LD_E25_170811_sam01_t10,E25,1,10,14.7418331756,30.7618892785,-8.60463648594,0.009900391411139998,6.17751606798e-05
145,qDII-DR5-CLV3-LD_E25_170811_sam01_t10,E25,1,10,-48.445060979,-2.07864592893,-23.80013932,-0.0135083569493,-0.0008834373501960001
146,qDII-DR5-CLV3-LD_E25_170811_sam01_t10,E25,1,10,-21.0807535468,12.531459497,-4.37172182908,0.011829949387,0.00011830596249600002
147,qDII-DR5-CLV3-LD_E25_170811_sam01_t10,E25,1,10,-26.972955354899998,9.435854966399999,-6.4753813649800005,0.0126344726697,0.00012865153355600003
148,qDII-DR5-CLV3-LD_E25_170811_sam01_t10,E25,1,10,8.9795011764,27.5553488373,-4.70976186287,0.014267139533799999,0.00019243052057700002
149,qDII-DR5-CLV3-LD_E25_170811_sam01_t10,E25,1,10,-12.9126122314,16.5239536629,-2.8056200489300003,0.012038554599799998,0.000138308650785
150,qDII-DR5-CLV3-LD_E25_170811_sam01_t10,E25,1,10,-41.237952918299996,1.2618356915200002,-15.9622441979,0.004743290189720001,-7.75731935176e-05
151,qDII-DR5-CLV3-LD_E25_170811_sam01_t10,E25,1,10,-72.0210502899,-14.987351354300001,-28.535767394,0.0247131641113,0.000511459262936
152,qDII-DR5-CLV3-LD_E25_170811_sam01_t10,E25,1,10,38.8376807379,41.554524630100005,-19.283008666300002,0.022312831064299998,0.00022076182681799998
153,qDII-DR5-CLV3-LD_E25_170811_sam01_t10,E25,1,10,1.1678121369,23.2169262467,-2.6879399676899998,0.0172839436388,0.00028090521571399996
154,qDII-DR5-CLV3-LD_E25_170811_sam01_t10,E25,1,10,19.7085614179,31.950148766399998,-12.0724412609,0.00394580952143,-0.000138962630886
155,qDII-DR5-CLV3-LD_E25_170811_sam01_t10,E25,1,10,43.714701660799996,42.0634678033,-35.8535100699,0.0355341827811,0.0007130107810469999
156,qDII-DR5-CLV3-LD_E25_170811_sam01_t10,E25,1,10,-3.45240192579,19.7655837793,-1.3679273966499998,0.017450967607900002,0.00029064885935100004
157,qDII-DR5-CLV3-LD_E25_170811_sam01_t10,E25,1,10,-51.6472065477,-5.869874617690001,-25.091571388000002,-0.00884006312371,-0.000826057095748
158,qDII-DR5-CLV3-LD_E25_170811_sam01_t10,E25,1,10,-18.3906973075,11.8358353388,-3.5594943612,0.0114854300927,0.00011458933968000001
159,qDII-DR5-CLV3-LD_E25_170811_sam01_t10,E25,1,10,-9.00638591998,15.7933899568,-1.00721278814,0.0144255423673,0.000212054894839
160,qDII-DR5-CLV3-LD_E25_170811_sam01_t10,E25,1,10,-66.81097010939999,-15.4774115347,-25.8056841476,0.0251394259028,0.000532770631231
161,qDII-DR5-CLV3-LD_E25_170811_sam01_t10,E25,1,10,33.949079988,35.8247786595,-18.7961053695,0.0102506257529,-0.00018827866217400001
162,qDII-DR5-CLV3-LD_E25_170811_sam01_t10,E25,1,10,46.53923050939999,41.7219880066,-24.3036532599,0.0290505660738,0.000556831441571
163,qDII-DR5-CLV3-LD_E25_170811_sam01_t10,E25,1,10,28.6133820953,33.0040860106,-16.2338348963,0.00117483836769,-0.00032349896035500003
164,qDII-DR5-CLV3-LD_E25_170811_sam01_t10,E25,1,10,-37.4759605729,-0.410366709806,-12.8043509568,0.00951417868197,7.33522480546e-05
165,qDII-DR5-CLV3-LD_E25_170811_sam01_t10,E25,1,10,-58.0032438819,-11.3996426858,-24.3672513488,0.011662131521199999,-0.0001325658915
166,qDII-DR5-CLV3-LD_E25_170811_sam01_t10,E25,1,10,-42.9844467817,-3.72073847476,-18.5511781219,-0.00325500283769,-0.00037479427308599996
167,qDII-DR5-CLV3-LD_E25_170811_sam01_t10,E25,1,10,43.661289301400004,39.8883644321,-22.3244837396,0.024094174948900003,0.00017337555501900002
168,qDII-DR5-CLV3-LD_E25_170811_sam01_t10,E25,1,10,37.6860064966,36.9823971001,-19.6345442851,0.0177588972383,-8.80599396691e-05
169,qDII-DR5-CLV3-LD_E25_170811_sam01_t10,E25,1,10,-24.7019693518,5.980895317560001,-5.200241608450001,0.0123290551835,0.000125417340296
170,qDII-DR5-CLV3-LD_E25_170811_sam01_t10,E25,1,10,-13.0929333299,11.6212182318,-0.883914922066,0.011969571090799998,0.000138683891049
171,qDII-DR5-CLV3-LD_E25_170811_sam01_t10,E25,1,10,24.587987654699997,29.9631901794,-12.6764240201,0.0028863496608600003,-0.00018004093060599997
172,qDII-DR5-CLV3-LD_E25_170811_sam01_t10,E25,1,10,4.64851862893,20.1877337578,-0.49008483566100003,0.0164214923965,0.000256522279931
173,qDII-DR5-CLV3-LD_E25_170811_sam01_t10,E25,1,10,-53.4137816558,-10.4573226713,-24.1284240772,-0.0022648360062600004,-0.000718922743151
174,qDII-DR5-CLV3-LD_E25_170811_sam01_t10,E25,1,10,20.9197779856,27.5633599344,-9.27356395567,0.00976876835055,4.95653140797e-05
175,qDII-DR5-CLV3-LD_E25_170811_sam01_t10,E25,1,10,10.2666166622,22.452635503699998,-3.0254734784400004,0.0159517890267,0.00023970506001900002
176,qDII-DR5-CLV3-LD_E25_170811_sam01_t10,E25,1,10,15.339263163599998,24.4469989323,-5.42423252975,0.015341203652899999,0.000214893925959
177,qDII-DR5-CLV3-LD_E25_170811_sam01_t10,E25,1,10,-44.48078842,-6.955570005069999,-21.4305523025,-0.009544497688540002,-0.000756795176777
178,qDII-DR5-CLV3-LD_E25_170811_sam01_t10,E25,1,10,48.503864822299995,39.739859112,-27.984883769099998,0.0255329872683,0.000320273672796
179,qDII-DR5-CLV3-LD_E25_170811_sam01_t10,E25,1,10,-9.40610740706,11.651934342799999,-0.353907247255,0.0140811548373,0.000200452891085
180,qDII-DR5-CLV3-LD_E25_170811_sam01_t10,E25,1,10,33.0851411832,32.1489345093,-18.1241384618,0.0057548972140799995,-0.00030275882007700005
181,qDII-DR5-CLV3-LD_E25_170811_sam01_t10,E25,1,10,-39.1100865941,-5.04754364318,-14.2607747398,0.0066116594541499995,-7.54174996197e-06
182,qDII-DR5-CLV3-LD_E25_170811_sam01_t10,E25,1,10,-1.04324974817,14.8131945322,1.29358017056,0.017289055952700003,0.000282089262627
183,qDII-DR5-CLV3-LD_E25_170811_sam01_t10,E25,1,10,-16.006229175,6.8134919323,-2.0850007423,0.0116850190307,0.000123407717465
184,qDII-DR5-CLV3-LD_E25_170811_sam01_t10,E25,1,10,47.560156794399994,37.3018532021,-34.6798976108,0.0248143779974,0.000170517035215
185,qDII-DR5-CLV3-LD_E25_170811_sam01_t10,E25,1,10,30.3389165665,29.278588044299998,-14.8220655483,0.0023246945798600003,-0.00027356639572400005
186,qDII-DR5-CLV3-LD_E25_170811_sam01_t10,E25,1,10,3.05731111499,16.1511718511,0.364054860632,0.0158787785451,0.00024140692499100003
187,qDII-DR5-CLV3-LD_E25_170811_sam01_t10,E25,1,10,41.5439790048,34.1991440846,-21.1433211996,0.0185953372062,-0.000177010299848
188,qDII-DR5-CLV3-LD_E25_170811_sam01_t10,E25,1,10,20.2122398174,22.920747053099998,-6.09167970643,0.0141488971308,0.000172961026621
189,qDII-DR5-CLV3-LD_E25_170811_sam01_t10,E25,1,10,-34.815541883,-5.52779431153,-11.366439925,0.00962540995363,8.46016865267e-05
190,qDII-DR5-CLV3-LD_E25_170811_sam01_t10,E25,1,10,-45.2935123519,-11.417292816199998,-23.0601882639,-0.011303437994699999,-0.0009751746760780001
191,qDII-DR5-CLV3-LD_E25_170811_sam01_t10,E25,1,10,-3.93831113121,10.5361290999,1.21604388122,0.0168967637436,0.000267636180285
192,qDII-DR5-CLV3-LD_E25_170811_sam01_t10,E25,1,10,38.2093843492,30.4576442755,-20.0151821739,0.0133622011017,-0.000291134387399
193,qDII-DR5-CLV3-LD_E25_170811_sam01_t10,E25,1,10,-10.068880285399999,6.68414950837,0.462909715483,0.0140543159751,0.000195024004125
194,qDII-DR5-CLV3-LD_E25_170811_sam01_t10,E25,1,10,-40.5870794831,-9.664495296860002,-16.949755668199998,0.0005650369369580001,-0.0002731450127
195,qDII-DR5-CLV3-LD_E25_170811_sam01_t10,E25,1,10,16.350428092,19.439369793900003,-3.70336155829,0.0148949793655,0.000208229870594
196,qDII-DR5-CLV3-LD_E25_170811_sam01_t10,E25,1,10,8.193339160019999,15.4512491923,-0.46690373789800005,0.0148207121389,0.00021048334512400001
197,qDII-DR5-CLV3-LD_E25_170811_sam01_t10,E25,1,10,-50.0754623472,-15.3539408354,-25.2467137305,-0.00643887750885,-0.000829881603253
198,qDII-DR5-CLV3-LD_E25_170811_sam01_t10,E25,1,10,47.2390902433,33.8353403384,-25.726455041799998,0.019631674691000002,-0.000125474556481
199,qDII-DR5-CLV3-LD_E25_170811_sam01_t10,E25,1,10,27.9821246367,24.7457736265,-11.3572213595,0.00595609608958,-0.000110752761046
200,qDII-DR5-CLV3-LD_E25_170811_sam01_t10,E25,1,10,24.4892825618,22.8968295283,-8.06336890959,0.010802399774,5.87687416203e-05
201,qDII-DR5-CLV3-LD_E25_170811_sam01_t10,E25,1,10,12.3815838203,17.0646695846,-1.45093285511,0.014905907540500002,0.00021341107483099998
202,qDII-DR5-CLV3-LD_E25_170811_sam01_t10,E25,1,10,-15.102096793,2.91253984385,-0.500019215791,0.0123565130464,0.00013739306378100002
203,qDII-DR5-CLV3-LD_E25_170811_sam01_t10,E25,1,10,-30.7787132673,-5.382299917459999,-7.31197299225,0.0110244687438,0.00011622801628
204,qDII-DR5-CLV3-LD_E25_170811_sam01_t10,E25,1,10,32.5039843104,25.0175244548,-14.6159715154,0.00523427683955,-0.000216047822088
205,qDII-DR5-CLV3-LD_E25_170811_sam01_t10,E25,1,10,36.3915943681,26.6560748829,-16.7504319939,0.008283228904680001,-0.000283174828731
206,qDII-DR5-CLV3-LD_E25_170811_sam01_t10,E25,1,10,4.043791998180001,11.073588553299999,0.897911883775,0.015061751322700002,0.000211211289505
207,qDII-DR5-CLV3-LD_E25_170811_sam01_t10,E25,1,10,-24.227577798000002,-3.5835408271499998,-5.14558918545,0.012618025663,0.00014426261705399997
208,qDII-DR5-CLV3-LD_E25_170811_sam01_t10,E25,1,10,-57.1834524356,-21.3143808194,-25.527234851,0.011559798499,-2.17040269889e-05
209,qDII-DR5-CLV3-LD_E25_170811_sam01_t10,E25,1,10,-35.3211816292,-10.4753538662,-11.7821801077,0.00845528655872,5.0633802024999996e-05
210,qDII-DR5-CLV3-LD_E25_170811_sam01_t10,E25,1,10,41.5219053255,27.403852942600004,-21.3873294969,0.0148616530995,-0.000287331667924
211,qDII-DR5-CLV3-LD_E25_170811_sam01_t10,E25,1,10,21.568804638200003,17.5628159258,-5.58544466019,0.013928963185399998,0.00017368828051099997
212,qDII-DR5-CLV3-LD_E25_170811_sam01_t10,E25,1,10,-63.7953590826,-27.1441908049,-28.318413459499997,0.0192438278029,0.000220294352277
213,qDII-DR5-CLV3-LD_E25_170811_sam01_t10,E25,1,10,48.4775701342,29.5797126967,-30.1586690411,0.017487536858400002,-0.000244312612757
214,qDII-DR5-CLV3-LD_E25_170811_sam01_t10,E25,1,10,-43.6609969737,-16.8703081387,-22.590535804699996,-0.00938752297401,-0.000816497033991
215,qDII-DR5-CLV3-LD_E25_170811_sam01_t10,E25,1,10,11.5616778098,12.0766594705,0.598441253104,0.0139791573718,0.00018758167975599997
216,qDII-DR5-CLV3-LD_E25_170811_sam01_t10,E25,1,10,47.718435301499994,28.622753477800003,-27.484500131100003,0.0168979268195,-0.00024390196922799998
217,qDII-DR5-CLV3-LD_E25_170811_sam01_t10,E25,1,10,-30.851269324,-10.4047183877,-8.996852907480001,0.0102364718538,9.88114978698e-05
218,qDII-DR5-CLV3-LD_E25_170811_sam01_t10,E25,1,10,-39.618833062,-15.2727394619,-17.5394481759,0.000360678043758,-0.000315175027706
219,qDII-DR5-CLV3-LD_E25_170811_sam01_t10,E25,1,10,45.31649629020001,27.3148860144,-24.463906864200002,0.0165047392536,-0.000252781575391
220,qDII-DR5-CLV3-LD_E25_170811_sam01_t10,E25,1,10,-21.325303248599997,-5.56673210528,0.614047938048,0.0127684751986,0.000143870490733
221,qDII-DR5-CLV3-LD_E25_170811_sam01_t10,E25,1,10,37.2645931219,23.145875342800004,-16.4159288331,0.00950492365827,-0.000223321053038
222,qDII-DR5-CLV3-LD_E25_170811_sam01_t10,E25,1,10,-49.194899723199995,-21.2376280739,-25.781902431,-0.00564635512902,-0.000586634433304
223,qDII-DR5-CLV3-LD_E25_170811_sam01_t10,E25,1,10,-37.9137616271,-15.703336314200001,-15.384915801500002,0.00507796597957,-9.40003901897e-05
224,qDII-DR5-CLV3-LD_E25_170811_sam01_t10,E25,1,10,40.5072829717,23.247076805,-19.4193410263,0.013036442390100001,-0.000244863478909
225,qDII-DR5-CLV3-LD_E25_170811_sam01_t10,E25,1,10,32.4618293865,18.6173594255,-11.3078985779,0.0120809038693,2.88112901908e-05
226,qDII-DR5-CLV3-LD_E25_170811_sam01_t10,E25,1,10,23.6515238809,14.4783835456,-4.3282261239099995,0.0140409908533,0.00018681396200799998
227,qDII-DR5-CLV3-LD_E25_170811_sam01_t10,E25,1,10,-56.1704407247,-27.247796937600004,-28.4819946452,0.0125555723153,-5.69328683621e-05
228,qDII-DR5-CLV3-LD_E25_170811_sam01_t10,E25,1,10,44.5649253276,23.9844390971,-22.6594298155,0.0157875427091,-0.000248589005834
229,qDII-DR5-CLV3-LD_E25_170811_sam01_t10,E25,1,10,19.224911874500002,12.1085880924,-1.99367163653,0.0135048405483,0.000180415121414
230,qDII-DR5-CLV3-LD_E25_170811_sam01_t10,E25,1,10,48.9576476879,25.3541198469,-35.6591886174,0.012572110722399998,-0.00023898652503199998
231,qDII-DR5-CLV3-LD_E25_170811_sam01_t10,E25,1,10,36.6007059564,20.0908714989,-14.665955591700001,0.0107528476828,-0.00012551976240300001
232,qDII-DR5-CLV3-LD_E25_170811_sam01_t10,E25,1,10,11.0742725256,7.659760782999999,1.3062506012700001,0.0138245892387,0.000179300681352
233,qDII-DR5-CLV3-LD_E25_170811_sam01_t10,E25,1,10,-44.285454145299994,-21.7025582186,-24.2022505459,-0.00811336592707,-0.0006145022838180001
234,qDII-DR5-CLV3-LD_E25_170811_sam01_t10,E25,1,10,-50.8354753274,-25.4140982994,-27.3017906314,-0.0006220675817909999,-0.00045079761847300004
235,qDII-DR5-CLV3-LD_E25_170811_sam01_t10,E25,1,10,-5.71406075248,-1.76802351123,2.06211172963,0.0162100444035,0.00024498917979299997
236,qDII-DR5-CLV3-LD_E25_170811_sam01_t10,E25,1,10,-31.826461684,-16.338740761300002,-10.3905524195,0.0101852903111,8.89710911801e-05
237,qDII-DR5-CLV3-LD_E25_170811_sam01_t10,E25,1,10,47.432195943800004,22.913914106100002,-26.6318407279,0.0146346699358,-0.00022411950298900003
238,qDII-DR5-CLV3-LD_E25_170811_sam01_t10,E25,1,10,-27.2882143308,-14.610542085899999,-7.85012227882,0.0110868573198,0.000109017872355
239,qDII-DR5-CLV3-LD_E25_170811_sam01_t10,E25,1,10,-40.1544921494,-21.742327458800002,-20.138823003,-0.0024922012168400003,-0.00037946787910600005
240,qDII-DR5-CLV3-LD_E25_170811_sam01_t10,E25,1,10,40.5653292193,19.1007164349,-18.8481612697,0.0132832823779,-0.00015661841094
241,qDII-DR5-CLV3-LD_E25_170811_sam01_t10,E25,1,10,49.0138471529,22.133546456599998,-30.412378095,0.0128624144695,-0.00021970003546
242,qDII-DR5-CLV3-LD_E25_170811_sam01_t10,E25,1,10,-15.4415434582,-9.20083812145,-1.14184647555,0.0129224605434,0.000149461877611
243,qDII-DR5-CLV3-LD_E25_170811_sam01_t10,E25,1,10,-23.2889689264,-13.613588435699999,-5.10959812923,0.011968318612899998,0.000125292057267
244,qDII-DR5-CLV3-LD_E25_170811_sam01_t10,E25,1,10,15.853115799200001,6.318772538180001,0.62984281447,0.0130453876079,0.00016504757147600002
245,qDII-DR5-CLV3-LD_E25_170811_sam01_t10,E25,1,10,-45.423496725,-26.209105153400003,-28.1693318169,-0.00616560052424,-0.000597881523686
246,qDII-DR5-CLV3-LD_E25_170811_sam01_t10,E25,1,10,-52.7702359512,-30.0261451971,-29.9086457756,0.00931552984933,-0.00021136030785799998
247,qDII-DR5-CLV3-LD_E25_170811_sam01_t10,E25,1,10,45.1748726901,19.6479103367,-22.1614152329,0.015288476623100001,-0.00018216227358700001
248,qDII-DR5-CLV3-LD_E25_170811_sam01_t10,E25,1,10,10.4050500642,3.15268265637,2.0596031465999998,0.014642697869700001,0.00019675883435599998
249,qDII-DR5-CLV3-LD_E25_170811_sam01_t10,E25,1,10,-8.61445743146,-7.49716322634,0.9879547442159999,0.015597867292500001,0.00023107854326700003
250,qDII-DR5-CLV3-LD_E25_170811_sam01_t10,E25,1,10,37.7690040169,15.1034676403,-14.177641765699999,0.0130769119102,1.06148074594e-05
251,qDII-DR5-CLV3-LD_E25_170811_sam01_t10,E25,1,10,2.8510771200200002,-1.8114849966099997,2.92129292384,0.0186626262046,0.000289388404541
252,qDII-DR5-CLV3-LD_E25_170811_sam01_t10,E25,1,10,-36.2801319617,-23.0691326272,-15.8484196209,0.006577867919640001,-3.9427521867e-05
253,qDII-DR5-CLV3-LD_E25_170811_sam01_t10,E25,1,10,-18.743157702999998,-14.258877458699999,-3.4388598497800005,0.012541820544100002,0.000137467929564
254,qDII-DR5-CLV3-LD_E25_170811_sam01_t10,E25,1,10,-40.2334977892,-26.3040392212,-21.887167335700003,-0.0025317732191300004,-0.00035809682791500003
255,qDII-DR5-CLV3-LD_E25_170811_sam01_t10,E25,1,10,-4.38217997684,-7.19590879797,1.3813328275499999,0.017777023297400003,0.000293353995348
256,qDII-DR5-CLV3-LD_E25_170811_sam01_t10,E25,1,10,-33.5536067982,-22.703435051,-12.789093091199998,0.010459151150700001,7.91735356972e-05
257,qDII-DR5-CLV3-LD_E25_170811_sam01_t10,E25,1,10,35.9383148697,12.223311663199999,-11.0398204206,0.0146604248739,0.000151910711171
258,qDII-DR5-CLV3-LD_E25_170811_sam01_t10,E25,1,10,21.8799952685,5.53908620788,-1.5523813007499998,0.014619741768700002,0.00021032268913799998
259,qDII-DR5-CLV3-LD_E25_170811_sam01_t10,E25,1,10,-47.6030742779,-31.116820404200002,-29.489126008400003,-0.000145830759247,-0.000532324443168
260,qDII-DR5-CLV3-LD_E25_170811_sam01_t10,E25,1,10,42.1154960964,14.8243323217,-17.3273843071,0.0135852610262,-3.75948509972e-05
261,qDII-DR5-CLV3-LD_E25_170811_sam01_t10,E25,1,10,32.4454727948,10.374367565,-7.745967970689999,0.0156156493549,0.00022133970789300003
262,qDII-DR5-CLV3-LD_E25_170811_sam01_t10,E25,1,10,-29.8303119512,-21.6113972056,-10.011986354600001,0.011701277381899999,0.000117621436925
263,qDII-DR5-CLV3-LD_E25_170811_sam01_t10,E25,1,10,47.1899893804,15.8929087704,-24.401774124099997,0.0149678574528,-9.288955180099999e-05
264,qDII-DR5-CLV3-LD_E25_170811_sam01_t10,E25,1,10,44.33028263439999,14.5899460631,-21.299055072999998,0.0145338757638,-5.90694183704e-05
265,qDII-DR5-CLV3-LD_E25_170811_sam01_t10,E25,1,10,12.081216445099999,-0.7127236287369999,1.0973445979799998,0.016401013045600002,0.00023602620566199998
266,qDII-DR5-CLV3-LD_E25_170811_sam01_t10,E25,1,10,-11.063535958800001,-12.7705009897,-0.23179244279599998,0.014167956924100002,0.00018723273652
267,qDII-DR5-CLV3-LD_E25_170811_sam01_t10,E25,1,10,-26.583019301,-21.0451154713,-8.27630336472,0.011934059427100002,0.00012129439226299999
268,qDII-DR5-CLV3-LD_E25_170811_sam01_t10,E25,1,10,49.032668458500005,15.5349971002,-41.503023349,0.0153548556683,-0.00012713022662600001
269,qDII-DR5-CLV3-LD_E25_170811_sam01_t10,E25,1,10,30.1323318677,7.429162184580001,-5.71303478969,0.0156549683487,0.00023279654416999998
270,qDII-DR5-CLV3-LD_E25_170811_sam01_t10,E25,1,10,-21.950638567600002,-19.5021804302,-5.726912613890001,0.012463308579899999,0.000129761991209
271,qDII-DR5-CLV3-LD_E25_170811_sam01_t10,E25,1,10,50.515760226800005,15.804473034,-32.1987853077,0.0140720317084,-0.000119480571708
272,qDII-DR5-CLV3-LD_E25_170811_sam01_t10,E25,1,10,48.953457766899994,15.2027205601,-28.2278546884,0.0145601839829,-8.94519031265e-05
273,qDII-DR5-CLV3-LD_E25_170811_sam01_t10,E25,1,10,-14.485081916099999,-15.8004498615,-2.7916240968,0.0133403008133,0.000158521846325
274,qDII-DR5-CLV3-LD_E25_170811_sam01_t10,E25,1,10,18.8160158743,0.250427920859,-1.4574455581,0.015555626925899999,0.00022213188203499997
275,qDII-DR5-CLV3-LD_E25_170811_sam01_t10,E25,1,10,41.1008737425,10.667556184,-15.359395836500001,0.0142230741625,0.000120741837693
276,qDII-DR5-CLV3-LD_E25_170811_sam01_t10,E25,1,10,6.528346738069999,-6.5976984418199995,0.524902927821,0.0170015319374,0.000249147333855
277,qDII-DR5-CLV3-LD_E25_170811_sam01_t10,E25,1,10,-1.58397690403,-10.9109909966,1.39629346171,0.0178695636473,0.00029600619360400004
278,qDII-DR5-CLV3-LD_E25_170811_sam01_t10,E25,1,10,-38.813933216399995,-31.4564814345,-22.622450045,-0.000251681968876,-0.000308222466735
279,qDII-DR5-CLV3-LD_E25_170811_sam01_t10,E25,1,10,-33.3619971765,-28.812305291399998,-15.570640707,0.0109590128344,9.75161604204e-05
280,qDII-DR5-CLV3-LD_E25_170811_sam01_t10,E25,1,10,44.168195998,10.2178714993,-18.2538004152,0.0142954934704,9.99923353124e-05
281,qDII-DR5-CLV3-LD_E25_170811_sam01_t10,E25,1,10,-16.6711090521,-20.2474584045,-4.17488270567,0.013400983518100002,0.00015529494321799998
282,qDII-DR5-CLV3-LD_E25_170811_sam01_t10,E25,1,10,3.55738643694,-10.1588393726,1.56195555927,0.016941785137100002,0.000257762137745
283,qDII-DR5-CLV3-LD_E25_170811_sam01_t10,E25,1,10,-30.572472260999998,-28.2411188011,-13.7528319329,0.0132584992408,0.000154871525812
284,qDII-DR5-CLV3-LD_E25_170811_sam01_t10,E25,1,10,-35.8114574954,-31.1858680534,-19.5997061024,0.00559155639813,-7.46855486653e-05
285,qDII-DR5-CLV3-LD_E25_170811_sam01_t10,E25,1,10,11.7008437073,-6.23629936614,1.9410433911000002,0.0158966753314,0.000220256252623
286,qDII-DR5-CLV3-LD_E25_170811_sam01_t10,E25,1,10,-22.305594764899997,-23.9688079975,-7.438674359510001,0.012968318423799998,0.000137349321389
287,qDII-DR5-CLV3-LD_E25_170811_sam01_t10,E25,1,10,47.9699690412,10.655191874,-25.0093878521,0.0155829140552,5.4475884806999996e-05
288,qDII-DR5-CLV3-LD_E25_170811_sam01_t10,E25,1,10,38.292763661,5.67893981444,-11.7489614461,0.0163663480971,0.0002482593321
289,qDII-DR5-CLV3-LD_E25_170811_sam01_t10,E25,1,10,23.8708097053,-1.18564451915,-2.17043593194,0.016241045737299998,0.00024318708895
290,qDII-DR5-CLV3-LD_E25_170811_sam01_t10,E25,1,10,17.325391323599998,-4.43210432798,-0.530880834273,0.0159677250735,0.000225321578853
291,qDII-DR5-CLV3-LD_E25_170811_sam01_t10,E25,1,10,-42.6090516246,-36.5839437394,-30.826911184,-0.0026260381818299997,-0.0005672923536259999
292,qDII-DR5-CLV3-LD_E25_170811_sam01_t10,E25,1,10,34.1037865053,3.07852541139,-7.022457841839999,0.0161431572889,0.000241594923901
293,qDII-DR5-CLV3-LD_E25_170811_sam01_t10,E25,1,10,-7.994717624510001,-18.0327416664,-1.25003509175,0.015547417515100002,0.000228361497068
294,qDII-DR5-CLV3-LD_E25_170811_sam01_t10,E25,1,10,-26.6544610706,-27.9803149321,-10.894339558599999,0.013847480574399999,0.00016292676728600001
295,qDII-DR5-CLV3-LD_E25_170811_sam01_t10,E25,1,10,-17.220781592799998,-23.8828519952,-5.96803008895,0.013356199494799999,0.00015000141334
296,qDII-DR5-CLV3-LD_E25_170811_sam01_t10,E25,1,10,-38.372171369600004,-35.817609039000004,-25.6944379175,-0.00126438896498,-0.00043146244495999997
297,qDII-DR5-CLV3-LD_E25_170811_sam01_t10,E25,1,10,51.5663551491,9.01959765965,-33.8396023189,0.0208618261078,0.00021853388810900003
298,qDII-DR5-CLV3-LD_E25_170811_sam01_t10,E25,1,10,1.01417452942,-15.246913501600002,0.33324776212699997,0.0159303319781,0.000245011131068
299,qDII-DR5-CLV3-LD_E25_170811_sam01_t10,E25,1,10,-10.0182763325,-21.007450646800002,-2.86923015,0.014604194911,0.000196756086967
300,qDII-DR5-CLV3-LD_E25_170811_sam01_t10,E25,1,10,46.728764220200006,6.733408250419999,-20.6307888979,0.015911428903600002,0.000183370099458
301,qDII-DR5-CLV3-LD_E25_170811_sam01_t10,E25,1,10,42.1002537918,4.66855947066,-14.698609978599999,0.0165488648191,0.000251222737535
302,qDII-DR5-CLV3-LD_E25_170811_sam01_t10,E25,1,10,29.157521299299997,-1.40463519041,-4.29741609335,0.0160114966076,0.00023811108431500002
303,qDII-DR5-CLV3-LD_E25_170811_sam01_t10,E25,1,10,49.4643182449,6.699606149809999,-25.9261032036,0.0180224096962,0.000202339794363
304,qDII-DR5-CLV3-LD_E25_170811_sam01_t10,E25,1,10,23.0015356045,-6.313562952130001,-2.4950897203599998,0.015603279225899998,0.000222394325884
305,qDII-DR5-CLV3-LD_E25_170811_sam01_t10,E25,1,10,-2.55160539382,-19.2185010687,-0.867097911584,0.0157579637335,0.00023897884573900003
306,qDII-DR5-CLV3-LD_E25_170811_sam01_t10,E25,1,10,-32.066585325,-35.3015123125,-18.498518670899998,0.011363631281600001,6.02666077722e-05
307,qDII-DR5-CLV3-LD_E25_170811_sam01_t10,E25,1,10,-34.43481143,-36.938925293400004,-22.645552290999998,0.00505378340664,-0.00018515153696200003
308,qDII-DR5-CLV3-LD_E25_170811_sam01_t10,E25,1,10,-38.764710778099996,-39.43277735,-28.7201424462,-0.0012543376843199999,-0.00046515965151099997
309,qDII-DR5-CLV3-LD_E25_170811_sam01_t10,E25,1,10,32.8708780499,-2.2297518998599997,-7.25602523594,0.016867294108799998,0.00026465218531799997
310,qDII-DR5-CLV3-LD_E25_170811_sam01_t10,E25,1,10,16.0176982373,-10.937238128299999,-0.583015586271,0.0130639058427,0.00015041626359
311,qDII-DR5-CLV3-LD_E25_170811_sam01_t10,E25,1,10,-27.021202146799997,-33.4383100743,-13.6661864177,0.014187626138799998,0.00015844811477700002
312,qDII-DR5-CLV3-LD_E25_170811_sam01_t10,E25,1,10,37.655789114899996,-1.13167185113,-10.6782868137,0.018607821891900002,0.000325105131299
313,qDII-DR5-CLV3-LD_E25_170811_sam01_t10,E25,1,10,-17.4998388719,-29.065404064000003,-8.794380755339999,0.0122470411351,0.00010822364391500001
314,qDII-DR5-CLV3-LD_E25_170811_sam01_t10,E25,1,10,-21.0914171274,-31.194164799899998,-10.2485840987,0.012495786593200001,0.00011133507097700001
315,qDII-DR5-CLV3-LD_E25_170811_sam01_t10,E25,1,10,-28.806393508699998,-35.6566439939,-16.635906846199997,0.0138385274159,0.00013316720850299998
316,qDII-DR5-CLV3-LD_E25_170811_sam01_t10,E25,1,10,45.388090723000005,1.5448139783300001,-17.2577712499,0.019138526279400003,0.000334004906676
317,qDII-DR5-CLV3-LD_E25_170811_sam01_t10,E25,1,10,51.9060690417,3.3304523758399998,-29.499066244699996,0.0227780425037,0.00041207921981300003
318,qDII-DR5-CLV3-LD_E25_170811_sam01_t10,E25,1,10,49.3022316085,2.32753158598,-22.8808485458,0.020064728089499998,0.00034543939555000005
319,qDII-DR5-CLV3-LD_E25_170811_sam01_t10,E25,1,10,20.9407754768,-11.336587677799999,-2.6189093533700003,0.013591498512500001,0.000162672152772
320,qDII-DR5-CLV3-LD_E25_170811_sam01_t10,E25,1,10,-38.4235318944,-43.1479346124,-31.8645553462,-0.0004703054912159999,-0.000410743636106
321,qDII-DR5-CLV3-LD_E25_170811_sam01_t10,E25,1,10,13.2862195694,-15.6547849887,-1.82964460366,0.0121846755309,0.000128155908411
322,qDII-DR5-CLV3-LD_E25_170811_sam01_t10,E25,1,10,-2.2916607242200002,-23.6698081122,-3.8935425868599998,0.0148864335147,0.00021307120363299995
323,qDII-DR5-CLV3-LD_E25_170811_sam01_t10,E25,1,10,55.1377065079,3.4272802737599997,-37.3050380385,0.0310606289214,0.00079785883401
324,qDII-DR5-CLV3-LD_E25_170811_sam01_t10,E25,1,10,53.0299525162,2.5549894824400003,-33.1974778277,0.0276875368048,0.000638338899267
325,qDII-DR5-CLV3-LD_E25_170811_sam01_t10,E25,1,10,42.648315689499995,-1.7862391944299998,-13.892233919,0.020704660724799998,0.000395617968806
326,qDII-DR5-CLV3-LD_E25_170811_sam01_t10,E25,1,10,-34.3566839376,-41.4804117761,-25.6264537691,0.00510418526836,-0.00021291566612400003
327,qDII-DR5-CLV3-LD_E25_170811_sam01_t10,E25,1,10,29.2048969551,-8.4551441261,-5.71947772881,0.016496433817,0.000253085411959
328,qDII-DR5-CLV3-LD_E25_170811_sam01_t10,E25,1,10,-22.3801432562,-36.1816437222,-12.9196438068,0.012004489829299999,6.67287787552e-05
329,qDII-DR5-CLV3-LD_E25_170811_sam01_t10,E25,1,10,40.241041382199995,-4.54618094057,-11.868261348099999,0.0206534482437,0.00039557411273300006
330,qDII-DR5-CLV3-LD_E25_170811_sam01_t10,E25,1,10,-29.756169328000002,-40.5337181974,-20.5850668969,0.0117733151232,1.92412821441e-05
331,qDII-DR5-CLV3-LD_E25_170811_sam01_t10,E25,1,10,51.4122141745,-0.625739603871,-28.854721314000003,0.0246734398416,0.0005092594129719999
332,qDII-DR5-CLV3-LD_E25_170811_sam01_t10,E25,1,10,46.500571110100005,-3.12179149139,-19.206949738,0.0223965960671,0.000434794358978
333,qDII-DR5-CLV3-LD_E25_170811_sam01_t10,E25,1,10,26.698153971700002,-12.4818965207,-4.70108646415,0.014825938424500001,0.000196012972126
334,qDII-DR5-CLV3-LD_E25_170811_sam01_t10,E25,1,10,6.103444850009999,-22.8120814617,-1.92873308199,0.0138111765766,0.000178262033896
335,qDII-DR5-CLV3-LD_E25_170811_sam01_t10,E25,1,10,-4.01992012557,-28.1217214113,-5.35892697991,0.0147368958982,0.00020390371069999998
336,qDII-DR5-CLV3-LD_E25_170811_sam01_t10,E25,1,10,11.6520935483,-20.291961922,-3.2860683865900002,0.013009646266700002,0.000150867056678
337,qDII-DR5-CLV3-LD_E25_170811_sam01_t10,E25,1,10,-14.5498379629,-34.2123352658,-11.0085979627,0.009876664835389999,1.49223832731e-05
338,qDII-DR5-CLV3-LD_E25_170811_sam01_t10,E25,1,10,-24.4648549335,-40.2876285966,-17.9729518752,0.011955733672,7.90733845559e-06
339,qDII-DR5-CLV3-LD_E25_170811_sam01_t10,E25,1,10,34.486273253200004,-10.1262090802,-8.84307858631,0.018687740723,0.00032209932599299996
340,qDII-DR5-CLV3-LD_E25_170811_sam01_t10,E25,1,10,-17.1317473689,-36.5361691481,-12.618092264300001,0.009813461752909999,-1.02757376925e-05
341,qDII-DR5-CLV3-LD_E25_170811_sam01_t10,E25,1,10,59.4423943673,0.634748937939,-43.6985003378,0.034927397842900006,0.0010235504282400001
342,qDII-DR5-CLV3-LD_E25_170811_sam01_t10,E25,1,10,-31.358429225500004,-44.5746536684,-24.5334868012,0.0103481460244,-5.02291654826e-05
343,qDII-DR5-CLV3-LD_E25_170811_sam01_t10,E25,1,10,56.438453655299995,-1.60985246462,-39.2362953063,0.032094090017400004,0.000874340752107
344,qDII-DR5-CLV3-LD_E25_170811_sam01_t10,E25,1,10,50.0521919281,-4.4322137526,-25.6720969182,0.024049234803999998,0.000473847078148
345,qDII-DR5-CLV3-LD_E25_170811_sam01_t10,E25,1,10,39.7042680078,-9.10298794693,-13.5344798966,0.0215444008659,0.000414865649579
346,qDII-DR5-CLV3-LD_E25_170811_sam01_t10,E25,1,10,-7.89811953043,-33.059546517600005,-8.769789128400001,0.0107988908228,5.9229012789e-05
347,qDII-DR5-CLV3-LD_E25_170811_sam01_t10,E25,1,10,-33.9449414319,-47.363567822700006,-30.882076285900002,0.00849269323734,-0.00010217437789
348,qDII-DR5-CLV3-LD_E25_170811_sam01_t10,E25,1,10,53.998198937299996,-3.05325468256,-33.7871703354,0.028151934832200003,0.0006614053593280001
349,qDII-DR5-CLV3-LD_E25_170811_sam01_t10,E25,1,10,-19.274123502200002,-39.395568653699996,-15.433261880999998,0.009847871351770001,-5.75005632605e-05
350,qDII-DR5-CLV3-LD_E25_170811_sam01_t10,E25,1,10,4.8959529353199995,-27.0634106028,-4.717761014830001,0.014633620624599998,0.00019643389279400003
351,qDII-DR5-CLV3-LD_E25_170811_sam01_t10,E25,1,10,43.510643851400005,-8.20058730012,-15.5509721504,0.022427291022799997,0.000436895001113
352,qDII-DR5-CLV3-LD_E25_170811_sam01_t10,E25,1,10,-0.237846535456,-30.1890499252,-5.75311497365,0.0149002729137,0.00020472489492700003
353,qDII-DR5-CLV3-LD_E25_170811_sam01_t10,E25,1,10,19.5912781704,-20.3551174953,-5.91476386326,0.0134283751899,0.00015273140853100002
354,qDII-DR5-CLV3-LD_E25_170811_sam01_t10,E25,1,10,-25.4028458738,-44.173335225100004,-20.8620268125,0.0122736638831,-1.45098960733e-05
355,qDII-DR5-CLV3-LD_E25_170811_sam01_t10,E25,1,10,31.7794786305,-14.7738017811,-8.90269365539,0.0170845099542,0.000259713709505
356,qDII-DR5-CLV3-LD_E25_170811_sam01_t10,E25,1,10,15.065197487899999,-23.991723597100002,-4.58579068209,0.013604872134499998,0.000163981038865
357,qDII-DR5-CLV3-LD_E25_170811_sam01_t10,E25,1,10,51.929142443900005,-6.68978572061,-29.298823620100002,0.0246940102413,0.000476307375886
358,qDII-DR5-CLV3-LD_E25_170811_sam01_t10,E25,1,10,44.4538244357,-10.979010623199999,-20.1369968148,0.0217201552105,0.00037531011440800006
359,qDII-DR5-CLV3-LD_E25_170811_sam01_t10,E25,1,10,-28.2212758433,-48.1793311482,-25.796626509699998,0.013725917239700002,2.18292284514e-05
360,qDII-DR5-CLV3-LD_E25_170811_sam01_t10,E25,1,10,-19.5413959023,-43.586753147399996,-17.199527433900002,0.010134415054799999,-9.243478056100001e-05
361,qDII-DR5-CLV3-LD_E25_170811_sam01_t10,E25,1,10,-8.15894234748,-37.7114377191,-10.472590263899999,0.007820221151909999,-4.99629566192e-05
362,qDII-DR5-CLV3-LD_E25_170811_sam01_t10,E25,1,10,-11.3868862485,-39.6598395767,-12.0178800016,0.00671291137449,-0.000115630610896
363,qDII-DR5-CLV3-LD_E25_170811_sam01_t10,E25,1,10,53.999695016000004,-7.8658106744700005,-31.911008405700002,0.025250965880800003,0.000493476192974
364,qDII-DR5-CLV3-LD_E25_170811_sam01_t10,E25,1,10,29.072684007800003,-19.421394482100002,-8.962308724460001,0.015942646570600003,0.00021836820078999998
365,qDII-DR5-CLV3-LD_E25_170811_sam01_t10,E25,1,10,-2.55447597585,-35.5121165683,-9.392433254439998,0.010428451039,5.23632376899e-05
366,qDII-DR5-CLV3-LD_E25_170811_sam01_t10,E25,1,10,46.408138860600005,-11.978519071300001,-32.3632614116,0.0202742962852,0.00024915001848800004
367,qDII-DR5-CLV3-LD_E25_170811_sam01_t10,E25,1,10,37.7569900095,-15.6933964303,-13.4589456672,0.0208012814559,0.000373187134788
368,qDII-DR5-CLV3-LD_E25_170811_sam01_t10,E25,1,10,23.606383810700002,-23.1181452311,-8.656097923239999,0.014594249019999998,0.00017795577657499998
369,qDII-DR5-CLV3-LD_E25_170811_sam01_t10,E25,1,10,50.355992652299996,-11.525346981099998,-45.1539655946,0.0256518814046,0.000517095588623
370,qDII-DR5-CLV3-LD_E25_170811_sam01_t10,E25,1,10,50.1898306591,-11.1460725839,-35.5667676137,0.0221083458459,0.000321977656012
371,qDII-DR5-CLV3-LD_E25_170811_sam01_t10,E25,1,10,12.0395338005,-29.144847129499997,-6.91938664335,0.0137425309654,0.000162652808174
372,qDII-DR5-CLV3-LD_E25_170811_sam01_t10,E25,1,10,-24.8422666016,-48.649772304399995,-22.7380401265,0.0147789058576,4.86311653036e-05
373,qDII-DR5-CLV3-LD_E25_170811_sam01_t10,E25,1,10,47.547677519,-12.2845281284,-26.5200182109,0.0204131428514,0.000287465747181
374,qDII-DR5-CLV3-LD_E25_170811_sam01_t10,E25,1,10,45.897691261999995,-13.1617236757,-22.494583784299998,0.0199900623364,0.000288776278622
375,qDII-DR5-CLV3-LD_E25_170811_sam01_t10,E25,1,10,18.7732189425,-26.2689145893,-8.54102052076,0.013806365046600001,0.00015704191909399998
376,qDII-DR5-CLV3-LD_E25_170811_sam01_t10,E25,1,10,32.5977739981,-19.875983922899998,-11.9388390873,0.0180483532547,0.000282116079192
377,qDII-DR5-CLV3-LD_E25_170811_sam01_t10,E25,1,10,-29.0268176966,-52.1147666564,-31.105272540700003,0.0164362856065,0.000120385492784
378,qDII-DR5-CLV3-LD_E25_170811_sam01_t10,E25,1,10,51.51118649479999,-11.361902201900001,-29.7690676102,0.0224987127153,0.0003568765570930001
379,qDII-DR5-CLV3-LD_E25_170811_sam01_t10,E25,1,10,5.34527865238,-33.7980259056,-8.65944074853,0.0116975651527,8.71430467191e-05
380,qDII-DR5-CLV3-LD_E25_170811_sam01_t10,E25,1,10,40.893761600000005,-16.3982989088,-17.5314035841,0.0205553050312,0.00033835835876999996
381,qDII-DR5-CLV3-LD_E25_170811_sam01_t10,E25,1,10,-12.143060011500001,-43.4553667661,-14.952498135999999,0.0062575492024100005,-0.00017027020488100003
382,qDII-DR5-CLV3-LD_E25_170811_sam01_t10,E25,1,10,-20.4664876765,-48.3938731915,-19.9616735364,0.013975509606099999,3.26840266669e-05
383,qDII-DR5-CLV3-LD_E25_170811_sam01_t10,E25,1,10,-0.439890609387,-38.0003074861,-10.6272108395,0.0078538736115,-2.45550759062e-05
384,qDII-DR5-CLV3-LD_E25_170811_sam01_t10,E25,1,10,-15.752872729100002,-46.1147883692,-17.5302510103,0.010816845006799998,-7.515939408600002e-05
385,qDII-DR5-CLV3-LD_E25_170811_sam01_t10,E25,1,10,10.937960145,-32.590072329899996,-8.63936885257,0.0125413555895,0.000109430272625
386,qDII-DR5-CLV3-LD_E25_170811_sam01_t10,E25,1,10,44.1902456008,-17.0217690767,-31.254523899200002,0.016718536361,0.00014279449758200003
387,qDII-DR5-CLV3-LD_E25_170811_sam01_t10,E25,1,10,26.8748719927,-24.859770600100003,-11.405652446800001,0.015395771659600002,0.00018772514348400004
388,qDII-DR5-CLV3-LD_E25_170811_sam01_t10,E25,1,10,36.9442660775,-20.1551192415,-15.088581628699998,0.019527341527700002,0.00031586273533099995
389,qDII-DR5-CLV3-LD_E25_170811_sam01_t10,E25,1,10,-5.31597398481,-41.751691871,-12.822696916199998,0.00421214530285,-0.00015138426286700002
390,qDII-DR5-CLV3-LD_E25_170811_sam01_t10,E25,1,10,41.579226089,-18.5509771695,-20.9572961306,0.0182007123145,0.00023530427673900002
391,qDII-DR5-CLV3-LD_E25_170811_sam01_t10,E25,1,10,43.6998792469,-18.6000997937,-24.937927506599998,0.0166328914005,0.000160955388513
392,qDII-DR5-CLV3-LD_E25_170811_sam01_t10,E25,1,10,17.3273596817,-31.276618791300002,-9.97952308344,0.0131495866319,0.00012336029228200002
393,qDII-DR5-CLV3-LD_E25_170811_sam01_t10,E25,1,10,22.6065074056,-29.1221217642,-11.2368113836,0.0136794878914,0.00012609146767
394,qDII-DR5-CLV3-LD_E25_170811_sam01_t10,E25,1,10,5.23513938438,-37.9689851197,-11.658263446900001,0.0076604447324,-4.65292883819e-05
395,qDII-DR5-CLV3-LD_E25_170811_sam01_t10,E25,1,10,-5.790861894480001,-44.190228972700005,-14.797276941600002,0.00280644082565,-0.000207301279273
396,qDII-DR5-CLV3-LD_E25_170811_sam01_t10,E25,1,10,-15.757093738,-49.4796436426,-19.460027985,0.0151590503471,7.56180256198e-05
397,qDII-DR5-CLV3-LD_E25_170811_sam01_t10,E25,1,10,11.021422933299998,-35.6794845298,-10.6236496346,0.010531947848600001,1.50248191314e-05
398,qDII-DR5-CLV3-LD_E25_170811_sam01_t10,E25,1,10,-20.6396266964,-52.7703213196,-21.7189784792,0.017799231145400003,0.00018560735027000003
399,qDII-DR5-CLV3-LD_E25_170811_sam01_t10,E25,1,10,32.7582499915,-25.594101614899998,-15.970865068800002,0.016615992054399998,0.00018133471389099995
400,qDII-DR5-CLV3-LD_E25_170811_sam01_t10,E25,1,10,0.7538239917149999,-41.9307631746,-12.6943575522,0.00437499878799,-0.00013134899819600002
401,qDII-DR5-CLV3-LD_E25_170811_sam01_t10,E25,1,10,16.2952353612,-34.977061785500005,-12.8775586308,0.011637038229,2.40300581121e-05
402,qDII-DR5-CLV3-LD_E25_170811_sam01_t10,E25,1,10,-9.40600990804,-48.3017248586,-18.371650512000002,0.008013649141920001,-0.00011559712484899999
403,qDII-DR5-CLV3-LD_E25_170811_sam01_t10,E25,1,10,38.1333778782,-24.550655201999998,-21.894823524499998,0.0161952645826,0.000164661848331
404,qDII-DR5-CLV3-LD_E25_170811_sam01_t10,E25,1,10,-0.203515697819,-44.434349679700006,-15.773825741700001,0.00270500702078,-0.00019764447267700002
405,qDII-DR5-CLV3-LD_E25_170811_sam01_t10,E25,1,10,39.4527101916,-25.1703580611,-29.254323956900002,0.0143882556696,0.00014232014495399998
406,qDII-DR5-CLV3-LD_E25_170811_sam01_t10,E25,1,10,8.62889457479,-40.2866266714,-13.1483789946,0.007529468842770001,-0.00010791258254799998
407,qDII-DR5-CLV3-LD_E25_170811_sam01_t10,E25,1,10,25.3177591768,-32.1256530256,-14.9098214292,0.0138676773235,8.45125064233e-05
408,qDII-DR5-CLV3-LD_E25_170811_sam01_t10,E25,1,10,-24.183478592399997,-58.0628219791,-31.147036153400002,0.0248904708639,0.000436290970236
409,qDII-DR5-CLV3-LD_E25_170811_sam01_t10,E25,1,10,40.5611152218,-25.0856145698,-24.6615591219,0.0153116946416,0.000149184731222
410,qDII-DR5-CLV3-LD_E25_170811_sam01_t10,E25,1,10,-3.5939280268699996,-47.855051099799994,-17.08317903,0.00372723446055,-0.00018945149228999998
411,qDII-DR5-CLV3-LD_E25_170811_sam01_t10,E25,1,10,-10.940667253099999,-51.672091143500005,-18.8224929887,0.0149967437732,0.00010105262976
412,qDII-DR5-CLV3-LD_E25_170811_sam01_t10,E25,1,10,20.3092267144,-35.8273085307,-14.6857364122,0.0122969230336,2.89312116883e-05
413,qDII-DR5-CLV3-LD_E25_170811_sam01_t10,E25,1,10,29.1059005583,-31.753913246,-18.0498632139,0.015207784010199999,6.76191420059e-05
414,qDII-DR5-CLV3-LD_E25_170811_sam01_t10,E25,1,10,14.015074845,-39.2388066942,-14.2697778498,0.0102272006754,-9.10410863632e-05
415,qDII-DR5-CLV3-LD_E25_170811_sam01_t10,E25,1,10,-16.5687033828,-55.854147444300004,-22.022820225100002,0.020473496886,0.000326304013078
416,qDII-DR5-CLV3-LD_E25_170811_sam01_t10,E25,1,10,33.5654929756,-30.700657320999998,-23.8095701013,0.014546778409,2.40565044093e-05
417,qDII-DR5-CLV3-LD_E25_170811_sam01_t10,E25,1,10,6.32405001342,-44.6183257395,-15.7276121619,0.0055922296285799995,-0.000170387255377
418,qDII-DR5-CLV3-LD_E25_170811_sam01_t10,E25,1,10,33.7062384282,-32.1368798883,-30.841307543400003,0.011849321966600001,-5.33168962736e-05
419,qDII-DR5-CLV3-LD_E25_170811_sam01_t10,E25,1,10,24.6557187939,-36.1064438493,-17.835478953499997,0.014406182052500001,3.40329710121e-05
420,qDII-DR5-CLV3-LD_E25_170811_sam01_t10,E25,1,10,30.3432661622,-34.0967598971,-21.548920934499996,0.015935805600399998,3.21428509883e-05
421,qDII-DR5-CLV3-LD_E25_170811_sam01_t10,E25,1,10,11.7979140807,-43.2950626888,-16.903514824400002,0.00995709051905,-0.00014772135580000002
422,qDII-DR5-CLV3-LD_E25_170811_sam01_t10,E25,1,10,-6.437774536980001,-52.917995193100005,-19.462318188399998,0.015423604164,0.00018747097530400002
423,qDII-DR5-CLV3-LD_E25_170811_sam01_t10,E25,1,10,17.4653802043,-40.890252624,-17.064875570599998,0.0115900605776,-7.80093535233e-05
424,qDII-DR5-CLV3-LD_E25_170811_sam01_t10,E25,1,10,-19.556051363399998,-60.8717362221,-26.784947890300003,0.022368872532200004,0.000431689525422
425,qDII-DR5-CLV3-LD_E25_170811_sam01_t10,E25,1,10,22.0931581372,-39.812397855,-19.2545800029,0.0135990167198,-1.38510497433e-05
426,qDII-DR5-CLV3-LD_E25_170811_sam01_t10,E25,1,10,-12.7619457475,-57.8515217988,-21.2299942705,0.023993711729,0.0005127985194810001
427,qDII-DR5-CLV3-LD_E25_170811_sam01_t10,E25,1,10,26.8716196191,-38.2536110984,-22.7403059981,0.0170552574689,3.32410939977e-05
428,qDII-DR5-CLV3-LD_E25_170811_sam01_t10,E25,1,10,3.5807864665400007,-50.3272401749,-18.0343262928,0.008950592450940001,-6.30456907595e-05
429,qDII-DR5-CLV3-LD_E25_170811_sam01_t10,E25,1,10,9.335936387210001,-47.646987036599995,-18.2501908463,0.0103072556433,-0.000129988058727
430,qDII-DR5-CLV3-LD_E25_170811_sam01_t10,E25,1,10,14.8910346685,-45.587574204700005,-19.5440617334,0.0123695251883,-0.00011914894548899999
431,qDII-DR5-CLV3-LD_E25_170811_sam01_t10,E25,1,10,31.6447458051,-38.1468986247,-27.2226526893,0.016546514884600003,2.25722166435e-05
432,qDII-DR5-CLV3-LD_E25_170811_sam01_t10,E25,1,10,-0.561578616739,-54.1786135109,-20.348520740799998,0.0161298855706,0.000231252123884
433,qDII-DR5-CLV3-LD_E25_170811_sam01_t10,E25,1,10,29.1706014409,-40.5904155462,-32.438732033,0.017132629447,4.54102994061e-05
434,qDII-DR5-CLV3-LD_E25_170811_sam01_t10,E25,1,10,19.2557612101,-45.336048656,-21.570254743899998,0.0130869987154,-6.75193997007e-05
435,qDII-DR5-CLV3-LD_E25_170811_sam01_t10,E25,1,10,-7.77660125151,-59.0323764451,-20.764931306199998,0.025846267080900005,0.000627204199602
436,qDII-DR5-CLV3-LD_E25_170811_sam01_t10,E25,1,10,-15.5857110129,-63.3095920047,-27.161214663800003,0.022845656340600002,0.0004935355086540001
437,qDII-DR5-CLV3-LD_E25_170811_sam01_t10,E25,1,10,13.068641887,-49.854223869399995,-21.0184067366,0.0144671571929,-4.62473603128e-05
438,qDII-DR5-CLV3-LD_E25_170811_sam01_t10,E25,1,10,21.6899481367,-46.3317147316,-24.2735259238,0.013537099728000001,-3.40995151428e-05
439,qDII-DR5-CLV3-LD_E25_170811_sam01_t10,E25,1,10,6.417305246130001,-53.906787618900005,-20.4478973626,0.0167434894774,0.000179494473156
440,qDII-DR5-CLV3-LD_E25_170811_sam01_t10,E25,1,10,26.0983256811,-44.4925801456,-27.7316299421,0.0163535966971,2.36680923111e-05
441,qDII-DR5-CLV3-LD_E25_170811_sam01_t10,E25,1,10,3.13281117627,-56.5213850983,-20.6882049272,0.0202297427518,0.000383410531386
442,qDII-DR5-CLV3-LD_E25_170811_sam01_t10,E25,1,10,-2.45875602921,-59.642119664700004,-21.6414331019,0.0256191526706,0.000645476709718
443,qDII-DR5-CLV3-LD_E25_170811_sam01_t10,E25,1,10,16.6184159224,-50.238859150799996,-22.807923151199997,0.014498165774299998,-2.91589585227e-05
444,qDII-DR5-CLV3-LD_E25_170811_sam01_t10,E25,1,10,28.8896973792,-44.8471806351,-30.589451933699998,0.0167820842137,3.86622846894e-05
445,qDII-DR5-CLV3-LD_E25_170811_sam01_t10,E25,1,10,-7.792607139349999,-63.3885992935,-23.7547933944,0.025974412157299998,0.000642652075768
446,qDII-DR5-CLV3-LD_E25_170811_sam01_t10,E25,1,10,12.4377351323,-54.22576724140001,-22.6935858952,0.0185343500408,0.000180625051968
447,qDII-DR5-CLV3-LD_E25_170811_sam01_t10,E25,1,10,26.690771076999997,-48.3727757626,-32.099639377399996,0.0144809387314,1.07163981306e-05
448,qDII-DR5-CLV3-LD_E25_170811_sam01_t10,E25,1,10,18.9284501278,-52.571290034300006,-27.7037895856,0.013965167660299998,5.79783304804e-05
449,qDII-DR5-CLV3-LD_E25_170811_sam01_t10,E25,1,10,8.34473813938,-57.9372322586,-22.6337524465,0.023732093696900002,0.000506332899717
450,qDII-DR5-CLV3-LD_E25_170811_sam01_t10,E25,1,10,0.840865781036,-61.774497581999995,-23.140509259699996,0.028285994694099998,0.0007948568500900001
451,qDII-DR5-CLV3-LD_E25_170811_sam01_t10,E25,1,10,23.7516768996,-51.337675230900004,-33.5545828673,0.0121249611095,5.7437003014e-06
452,qDII-DR5-CLV3-LD_E25_170811_sam01_t10,E25,1,10,14.691219168800002,-57.2243937467,-26.284470156599998,0.0204273658853,0.000372278951003
453,qDII-DR5-CLV3-LD_E25_170811_sam01_t10,E25,1,10,7.312613818889999,-61.637675252799994,-25.5317879939,0.0293328840737,0.000850487103823
454,qDII-DR5-CLV3-LD_E25_170811_sam01_t10,E25,1,10,-3.87697017515,-67.4184376777,-27.5017087606,0.0257844787983,0.000623186948743
455,qDII-DR5-CLV3-LD_E25_170811_sam01_t10,E25,1,10,19.8351617879,-56.4110350918,-34.5369133118,0.0133116426912,0.000158527971564
456,qDII-DR5-CLV3-LD_E25_170811_sam01_t10,E25,1,10,3.4891178002900003,-64.9835177574,-25.572001549699998,0.030467079117,0.000906603068004
457,qDII-DR5-CLV3-LD_E25_170811_sam01_t10,E25,1,10,17.5338057399,-58.364872897299996,-31.4438950173,0.0180801091597,0.00033881327639499997
458,qDII-DR5-CLV3-LD_E25_170811_sam01_t10,E25,1,10,12.8505919252,-62.0217042787,-28.8823646907,0.025048896762900005,0.000657127214436
459,qDII-DR5-CLV3-LD_E25_170811_sam01_t10,E25,1,10,18.6595359969,-60.0661227705,-39.817937366,0.016852037118599998,0.00032361233851099997
460,qDII-DR5-CLV3-LD_E25_170811_sam01_t10,E25,1,10,-0.126030213267,-69.09501364329999,-29.146375120100004,0.027881533771900002,0.000718987462867
461,qDII-DR5-CLV3-LD_E25_170811_sam01_t10,E25,1,10,8.36927653258,-65.9834823336,-29.918458796,0.029968910419099996,0.0008815390115689999
462,qDII-DR5-CLV3-LD_E25_170811_sam01_t10,E25,1,10,14.9594602041,-63.062194478,-33.9230811802,0.0235111655874,0.000589107122186
463,qDII-DR5-CLV3-LD_E25_170811_sam01_t10,E25,1,10,5.80560158872,-67.7766553487,-30.4044035667,0.0301805917674,0.0008649642807389999
464,qDII-DR5-CLV3-LD_E25_170811_sam01_t10,E25,1,10,2.4406058003299997,-70.14040859859999,-34.2692173938,0.028209079766700004,0.000696394828749
465,qDII-DR5-CLV3-LD_E25_170811_sam01_t10,E25,1,10,10.365776969199999,-67.3693697658,-36.0916854266,0.028851932933,0.0007976893290430001
466,qDII-DR5-CLV3-LD_E25_170811_sam01_t10,E25,1,10,5.77737690855,59.026500436499994,-34.9739172483,0.014836897815499999,4.59865563114e-05
467,qDII-DR5-CLV3-LD_E25_170811_sam01_t10,E25,1,10,25.697910064499997,60.4977579668,-35.1802205728,0.0492446705475,0.00156532404476
468,qDII-DR5-CLV3-LD_E25_170811_sam01_t10,E25,1,10,25.049119551599997,59.4823227396,-44.5307419577,0.044431604923900005,0.0012044570962000001
469,qDII-DR5-CLV3-LD_E25_170811_sam01_t10,E25,1,10,37.1505765376,60.3183055987,-24.0127003242,0.047885194752199996,0.0019359770656
470,qDII-DR5-CLV3-LD_E25_170811_sam01_t10,E25,1,10,-13.6200669232,33.570633042800004,-9.874237309489999,0.0165603481408,0.00022083047284099998
471,qDII-DR5-CLV3-LD_E25_170811_sam01_t10,E25,1,10,43.1400778475,56.1606433022,-42.532380215799996,0.0368984335629,0.0012141234634800002
472,qDII-DR5-CLV3-LD_E25_170811_sam01_t10,E25,1,10,-69.7438819312,-1.10049446177,-30.8958720344,0.040250981921900006,0.0013214606398499998
473,qDII-DR5-CLV3-LD_E25_170811_sam01_t10,E25,1,10,-6.11320240733,27.782786382399998,-5.615156636900001,0.0164291108799,0.00024530569394999997
474,qDII-DR5-CLV3-LD_E25_170811_sam01_t10,E25,1,10,-72.6761447339,-7.425875639260001,-29.4780328985,0.0332782131641,0.000968132387303
475,qDII-DR5-CLV3-LD_E25_170811_sam01_t10,E25,1,10,-66.5634282501,-7.004331916260001,-27.039130055300003,0.029713046330300003,0.0007491152600910001
476,qDII-DR5-CLV3-LD_E25_170811_sam01_t10,E25,1,10,-10.7011685547,22.027910375999998,-3.9778219787999998,0.0132560028125,0.000165849560045
477,qDII-DR5-CLV3-LD_E25_170811_sam01_t10,E25,1,10,-58.3694886024,-4.854664581540001,-25.2191706055,0.013234582087700002,-8.11646262807e-05
478,qDII-DR5-CLV3-LD_E25_170811_sam01_t10,E25,1,10,28.1541182818,37.8215467585,-18.0278710419,0.0024640580708000003,-0.00032950643201700005
479,qDII-DR5-CLV3-LD_E25_170811_sam01_t10,E25,1,10,-62.511471893999996,-11.605812918900002,-24.724046845100002,0.024383868016,0.000504183469552
480,qDII-DR5-CLV3-LD_E25_170811_sam01_t10,E25,1,10,-32.6435282002,1.7534086376299998,-9.17695387226,0.0115740090694,0.00012065258078899998
481,qDII-DR5-CLV3-LD_E25_170811_sam01_t10,E25,1,10,-28.8249856859,0.7474018581209999,-7.324042804179999,0.012092056788700001,0.000130625051914
482,qDII-DR5-CLV3-LD_E25_170811_sam01_t10,E25,1,10,-69.25248476659999,-23.124236996500002,-27.8951231958,0.0204631886664,0.000281918681644
483,qDII-DR5-CLV3-LD_E25_170811_sam01_t10,E25,1,10,-22.687585156999997,1.23889974055,-3.69812601265,0.0124516064506,0.000132511752743
484,qDII-DR5-CLV3-LD_E25_170811_sam01_t10,E25,1,10,-55.0851090967,-17.1428153499,-24.0894724348,0.00259751596851,-0.000463493282345
485,qDII-DR5-CLV3-LD_E25_170811_sam01_t10,E25,1,10,-62.331265359700005,-21.6058257357,-25.756361365900002,0.020960303029700002,0.000331420778917
486,qDII-DR5-CLV3-LD_E25_170811_sam01_t10,E25,1,10,-3.69199812324,6.01924146117,1.8051448581799998,0.016779108500700003,0.000258537146403
487,qDII-DR5-CLV3-LD_E25_170811_sam01_t10,E25,1,10,-17.1875409658,-2.1804390412599997,-1.8108527971200001,0.012698368637299999,0.000139150434445
488,qDII-DR5-CLV3-LD_E25_170811_sam01_t10,E25,1,10,-26.125869497600004,-7.13426599033,-5.505345267849999,0.012026460872299999,0.000135935832916
489,qDII-DR5-CLV3-LD_E25_170811_sam01_t10,E25,1,10,-9.527267970810001,0.690057551072,1.20582135764,0.014304514650299999,0.000193536243054
490,qDII-DR5-CLV3-LD_E25_170811_sam01_t10,E25,1,10,27.6833679045,17.058572669,-7.8221725826899995,0.0134039962921,0.000139330651039
491,qDII-DR5-CLV3-LD_E25_170811_sam01_t10,E25,1,10,-20.188520608,-7.263608414249999,-2.95743481007,0.0126214864723,0.000142865281312
492,qDII-DR5-CLV3-LD_E25_170811_sam01_t10,E25,1,10,-1.43924658224,2.03362094512,1.9567350838099997,0.0177431651031,0.000275938241184
493,qDII-DR5-CLV3-LD_E25_170811_sam01_t10,E25,1,10,5.822037421139999,1.74965593415,1.8842402924000001,0.0167225296032,0.000242606802069
494,qDII-DR5-CLV3-LD_E25_170811_sam01_t10,E25,1,10,25.358823890100002,10.222224712200001,-4.0400063068000005,0.0146034803082,0.00021068883131799998
495,qDII-DR5-CLV3-LD_E25_170811_sam01_t10,E25,1,10,-0.17570085449099998,-5.05182753845,1.52085324125,0.0187706992806,0.000305290834925
496,qDII-DR5-CLV3-LD_E25_170811_sam01_t10,E25,1,10,26.8854210091,3.9631054490099995,-4.63939957121,0.0155105187301,0.000230847720257
497,qDII-DR5-CLV3-LD_E25_170811_sam01_t10,E25,1,10,-4.98083881615,-13.870985708900001,0.0234757560234,0.0169724940253,0.00027420454473599997
498,qDII-DR5-CLV3-LD_E25_170811_sam01_t10,E25,1,10,8.600395388919999,-12.5862793876,-0.211119928061,0.0133127078385,0.000162690432675
499,qDII-DR5-CLV3-LD_E25_170811_sam01_t10,E25,1,10,51.100496100600004,6.181560881009999,-44.168823179600004,0.0311567246693,0.000748887375477
500,qDII-DR5-CLV3-LD_E25_170811_sam01_t10,E25,1,10,4.5897468971099995,-17.4743756141,-1.20241098276,0.0136294217468,0.000177320040474
501,qDII-DR5-CLV3-LD_E25_170811_sam01_t10,E25,1,10,-9.63951423758,-25.5740671653,-4.69970026684,0.0140346426071,0.00017876550014700001
502,qDII-DR5-CLV3-LD_E25_170811_sam01_t10,E25,1,10,-11.8384405398,-29.0996622927,-6.209887710519999,0.0126217982416,0.000127520128353
503,qDII-DR5-CLV3-LD_E25_170811_sam01_t10,E25,1,10,35.5502636974,-5.82952462362,-8.43703916023,0.0187009688148,0.00032697265696300003
504,qDII-DR5-CLV3-LD_E25_170811_sam01_t10,E25,1,10,18.7600836367,-14.331521938,-3.0055472661500002,0.0126075528773,0.000134361130285
505,qDII-DR5-CLV3-LD_E25_170811_sam01_t10,E25,1,10,24.512126835700002,-16.9289050637,-6.08434507301,0.0139263548575,0.000162939736645
506,qDII-DR5-CLV3-LD_E25_170811_sam01_t10,E25,1,10,-18.3551546837,-64.2759046077,-32.5311046727,0.019166149928400003,0.000351499272361
507,qDII-DR5-CLV3-LD_E25_170811_sam01_t10,E25,1,10,-10.2356178753,-66.2228687633,-27.720394372399998,0.0234008073396,0.0005127760544649999
508,qDII-DR5-CLV3-LD_E25_170811_sam01_t10,E25,1,10,-10.6027407431,-68.7810889042,-33.3015594399,0.022191198222500003,0.00045471422045300004
509,qDII-DR5-CLV3-LD_E25_170811_sam01_t10,E25,1,10,-3.3403424526200003,-70.9778349058,-34.30721051,0.0246620380149,0.0005149242379609999
