,filename,experiment,sam_id,hour_time,aligned_x,aligned_y,aligned_z,mean_curvature,gaussian_curvature
0,qDII-DR5-CLV3-LD_E27_170817_sam04_t00,E27,4,0,-50.632504664399995,32.7523694622,-37.8870974012,0.014411464476999999,0.000114512177127
1,qDII-DR5-CLV3-LD_E27_170817_sam04_t00,E27,4,0,-49.260072441000005,32.2755513863,-42.645362874499995,0.0139556970976,9.952998892e-05
2,qDII-DR5-CLV3-LD_E27_170817_sam04_t00,E27,4,0,-13.683593386400002,47.4327896757,-33.9957174765,0.0143500199851,6.16970294867e-05
3,qDII-DR5-CLV3-LD_E27_170817_sam04_t00,E27,4,0,-18.0425759939,45.445721838999994,-31.2572646215,0.020728504213099998,0.000269297400538
4,qDII-DR5-CLV3-LD_E27_170817_sam04_t00,E27,4,0,-23.3392368458,43.4418886936,-23.7584438778,0.0331203427523,0.0008224103597719999
5,qDII-DR5-CLV3-LD_E27_170817_sam04_t00,E27,4,0,-47.2903970535,32.7350838257,-33.3924977612,0.0172863185284,0.00019324067512599999
6,qDII-DR5-CLV3-LD_E27_170817_sam04_t00,E27,4,0,-42.935899215,34.0471859152,-29.0391578156,0.022524589712099995,0.000310212667787
7,qDII-DR5-CLV3-LD_E27_170817_sam04_t00,E27,4,0,9.68338887596,56.0079330938,-33.6019823967,0.019240988546700002,0.000327824439609
8,qDII-DR5-CLV3-LD_E27_170817_sam04_t00,E27,4,0,-37.0771133498,36.2153683375,-31.8814359809,0.0245616014389,0.000317828510227
9,qDII-DR5-CLV3-LD_E27_170817_sam04_t00,E27,4,0,-36.9058582582,36.478783836999995,-26.031173339899997,0.025075519679,0.000338730738145
10,qDII-DR5-CLV3-LD_E27_170817_sam04_t00,E27,4,0,-10.1153292482,47.3617126566,-27.1614196269,0.0162231554912,9.57612647459e-05
11,qDII-DR5-CLV3-LD_E27_170817_sam04_t00,E27,4,0,-15.8204190973,45.0709451145,-23.1461728248,0.0226408254704,0.00035857065434199997
12,qDII-DR5-CLV3-LD_E27_170817_sam04_t00,E27,4,0,-29.147615132,39.375187835300004,-24.333212364899996,0.0282165022339,0.000537869683449
13,qDII-DR5-CLV3-LD_E27_170817_sam04_t00,E27,4,0,-42.6724003275,33.290187031100004,-34.8873180414,0.019093154276,0.00022949150967700003
14,qDII-DR5-CLV3-LD_E27_170817_sam04_t00,E27,4,0,14.103805528599999,57.08013858100001,-37.4655937915,0.017804680706,0.000250837058137
15,qDII-DR5-CLV3-LD_E27_170817_sam04_t00,E27,4,0,4.57552401594,52.8408244537,-29.5721550513,0.0197227252668,0.00031481778472099994
16,qDII-DR5-CLV3-LD_E27_170817_sam04_t00,E27,4,0,-0.035949188158,50.7817199743,-32.6902039012,0.0176715350782,0.000205830727517
17,qDII-DR5-CLV3-LD_E27_170817_sam04_t00,E27,4,0,-33.3880198742,36.493533640500004,-29.7763788812,0.0274561077398,0.00034290842958300004
18,qDII-DR5-CLV3-LD_E27_170817_sam04_t00,E27,4,0,-3.9426187412699996,48.6870693721,-25.2723546268,0.0176776522189,0.000146114144414
19,qDII-DR5-CLV3-LD_E27_170817_sam04_t00,E27,4,0,-4.614555713540001,48.2507880529,-29.906043364299997,0.016509115582,0.00013721044129799998
20,qDII-DR5-CLV3-LD_E27_170817_sam04_t00,E27,4,0,-0.150245916174,49.8348221848,-25.5755572597,0.0191144554805,0.00022955853378
21,qDII-DR5-CLV3-LD_E27_170817_sam04_t00,E27,4,0,-43.4894528662,31.1062141498,-28.831370831999998,0.020623918443799998,0.00028226624841100003
22,qDII-DR5-CLV3-LD_E27_170817_sam04_t00,E27,4,0,-23.6337763785,39.068952296999996,-22.307024319299998,0.0275364964115,0.0006175004371769999
23,qDII-DR5-CLV3-LD_E27_170817_sam04_t00,E27,4,0,-16.7934191242,41.7657286727,-21.715572873600003,0.022662062113900004,0.000397422301433
24,qDII-DR5-CLV3-LD_E27_170817_sam04_t00,E27,4,0,-48.8761423921,27.7412408416,-34.174848687,0.0141073682877,9.90091106887e-05
25,qDII-DR5-CLV3-LD_E27_170817_sam04_t00,E27,4,0,7.2148758162,51.5864637254,-26.136254843499998,0.0234107367995,0.000440253848019
26,qDII-DR5-CLV3-LD_E27_170817_sam04_t00,E27,4,0,-9.452379989119999,44.635370868100004,-22.3406953315,0.0182780126899,0.00015321314509600002
27,qDII-DR5-CLV3-LD_E27_170817_sam04_t00,E27,4,0,-36.679914450300004,33.0021967529,-24.6649300811,0.022715816380000003,0.00031730765579799996
28,qDII-DR5-CLV3-LD_E27_170817_sam04_t00,E27,4,0,19.7252047689,55.8020064048,-38.9146382081,0.023242865548,0.00046115231970199995
29,qDII-DR5-CLV3-LD_E27_170817_sam04_t00,E27,4,0,14.3824174752,53.8552075478,-29.065743541999996,0.0235840259881,0.00048292070334
30,qDII-DR5-CLV3-LD_E27_170817_sam04_t00,E27,4,0,1.15177363644,48.0165891574,-22.0233536137,0.0211663550031,0.000261236043661
31,qDII-DR5-CLV3-LD_E27_170817_sam04_t00,E27,4,0,-3.6244129622800005,46.002759517799994,-21.6079841914,0.0186703919951,0.00014974168079700002
32,qDII-DR5-CLV3-LD_E27_170817_sam04_t00,E27,4,0,-30.7356028551,34.0438619776,-21.5696668904,0.021599072212,0.000332635620769
33,qDII-DR5-CLV3-LD_E27_170817_sam04_t00,E27,4,0,-46.480497106899996,27.061016683400002,-30.7576656713,0.0159094896904,0.00015468979462200002
34,qDII-DR5-CLV3-LD_E27_170817_sam04_t00,E27,4,0,11.5297707348,51.4515988294,-24.045710105599998,0.025620819757500003,0.000529917008787
35,qDII-DR5-CLV3-LD_E27_170817_sam04_t00,E27,4,0,-23.7701260386,36.1547423345,-19.7761539029,0.0197616694631,0.000355185962312
36,qDII-DR5-CLV3-LD_E27_170817_sam04_t00,E27,4,0,6.1869743536,48.5984541657,-21.195090461099998,0.0226026837005,0.00033417418485
37,qDII-DR5-CLV3-LD_E27_170817_sam04_t00,E27,4,0,-8.752079282230001,42.1121673849,-18.7095544498,0.0171052957701,0.000149707203489
38,qDII-DR5-CLV3-LD_E27_170817_sam04_t00,E27,4,0,20.3881631155,53.982010423,-27.095638891100002,0.0289618706429,0.000778515536454
39,qDII-DR5-CLV3-LD_E27_170817_sam04_t00,E27,4,0,-15.3575050154,39.101427032800004,-18.1217981946,0.0169831024571,0.000238411786536
40,qDII-DR5-CLV3-LD_E27_170817_sam04_t00,E27,4,0,16.4112754358,52.156048957399996,-24.3904155898,0.027763153111200003,0.0006726513269539999
41,qDII-DR5-CLV3-LD_E27_170817_sam04_t00,E27,4,0,-38.6367282508,28.8309034841,-23.122163340500002,0.017890133459700003,0.000245645652407
42,qDII-DR5-CLV3-LD_E27_170817_sam04_t00,E27,4,0,-43.439248918800004,26.691245819099997,-26.2235974135,0.0161550595846,0.00017615374462799999
43,qDII-DR5-CLV3-LD_E27_170817_sam04_t00,E27,4,0,24.7295775601,54.6767318339,-41.5096607719,0.029903843164400003,0.0007339369051499999
44,qDII-DR5-CLV3-LD_E27_170817_sam04_t00,E27,4,0,-51.4324417413,22.2961141839,-43.0973161327,0.0128246016079,-1.39478583739e-05
45,qDII-DR5-CLV3-LD_E27_170817_sam04_t00,E27,4,0,-19.764865536800002,35.9275648043,-16.485650038299998,0.0163024591416,0.000253250172192
46,qDII-DR5-CLV3-LD_E27_170817_sam04_t00,E27,4,0,-32.9646996246,29.9833943799,-20.0165244369,0.0182875776684,0.00027414324677900003
47,qDII-DR5-CLV3-LD_E27_170817_sam04_t00,E27,4,0,-26.1704688121,32.737205044,-17.0749990688,0.017409967475,0.00027959913664300003
48,qDII-DR5-CLV3-LD_E27_170817_sam04_t00,E27,4,0,24.960024312199998,53.6878021102,-33.2386602704,0.0297354926888,0.000808951788621
49,qDII-DR5-CLV3-LD_E27_170817_sam04_t00,E27,4,0,3.75805512621,44.7176059762,-18.464842721900002,0.0201307648567,0.000214682286482
50,qDII-DR5-CLV3-LD_E27_170817_sam04_t00,E27,4,0,-51.158110932,20.9126672983,-33.6304931534,0.013898728716400001,-4.0655309949e-05
51,qDII-DR5-CLV3-LD_E27_170817_sam04_t00,E27,4,0,-2.39281516798,41.9367657323,-16.7435864477,0.016963010522700002,0.00012810500688700002
52,qDII-DR5-CLV3-LD_E27_170817_sam04_t00,E27,4,0,-9.843666261980001,38.795191494499996,-16.0956101489,0.014988041725700002,0.000155359557099
53,qDII-DR5-CLV3-LD_E27_170817_sam04_t00,E27,4,0,-48.3319928051,21.5803439031,-29.1442349927,0.014124989097,-1.6532949492000002e-05
54,qDII-DR5-CLV3-LD_E27_170817_sam04_t00,E27,4,0,12.798719976900001,47.5887433491,-20.3708957756,0.023658961372700002,0.00044047199006900004
55,qDII-DR5-CLV3-LD_E27_170817_sam04_t00,E27,4,0,26.316954388000003,52.4587080073,-26.198746034000003,0.0336743886142,0.00109398803733
56,qDII-DR5-CLV3-LD_E27_170817_sam04_t00,E27,4,0,8.30134895656,44.8664325711,-17.5804961746,0.0198195651108,0.00023460890496400003
57,qDII-DR5-CLV3-LD_E27_170817_sam04_t00,E27,4,0,-15.1250285981,35.0271844814,-14.370149044200001,0.0147115272486,0.000203971265275
58,qDII-DR5-CLV3-LD_E27_170817_sam04_t00,E27,4,0,-39.9677406083,24.2465800163,-21.593908961500002,0.0137785628364,0.000105044541684
59,qDII-DR5-CLV3-LD_E27_170817_sam04_t00,E27,4,0,-25.050721729499998,30.5782462373,-14.666671154600001,0.0169640245137,0.000277027475322
60,qDII-DR5-CLV3-LD_E27_170817_sam04_t00,E27,4,0,-29.3548029013,28.273971518499998,-15.4387827308,0.0177914085774,0.000290680639589
61,qDII-DR5-CLV3-LD_E27_170817_sam04_t00,E27,4,0,-36.713401111799996,25.0183287039,-19.490954277100002,0.0151161181339,0.000174378506738
62,qDII-DR5-CLV3-LD_E27_170817_sam04_t00,E27,4,0,19.8256308386,48.7847613566,-19.7025413278,0.0295532252098,0.0008408562215119999
63,qDII-DR5-CLV3-LD_E27_170817_sam04_t00,E27,4,0,-2.61040033301,39.2139346265,-14.2189550953,0.015377541602,0.000119957040129
64,qDII-DR5-CLV3-LD_E27_170817_sam04_t00,E27,4,0,-19.9957195524,31.883594738400003,-12.7070103982,0.015925415029599998,0.00025295685285
65,qDII-DR5-CLV3-LD_E27_170817_sam04_t00,E27,4,0,-7.91584526637,36.5639282681,-12.5579188646,0.0144494864796,0.00015643908171399998
66,qDII-DR5-CLV3-LD_E27_170817_sam04_t00,E27,4,0,29.380228245599998,51.33721189600001,-38.075726616,0.030872359670299998,0.0008457979377180001
67,qDII-DR5-CLV3-LD_E27_170817_sam04_t00,E27,4,0,-44.884567091899996,20.2536787551,-24.578971414699996,0.013423510957599999,-1.2728761782e-05
68,qDII-DR5-CLV3-LD_E27_170817_sam04_t00,E27,4,0,29.4877978199,51.27166106479999,-34.5526840567,0.031713670405099995,0.0009266605194430001
69,qDII-DR5-CLV3-LD_E27_170817_sam04_t00,E27,4,0,25.6711478533,49.6318048188,-21.2908112053,0.0343598991251,0.00114558941079
70,qDII-DR5-CLV3-LD_E27_170817_sam04_t00,E27,4,0,2.1612924091099996,39.646452712199995,-14.540806738599999,0.0159537093743,0.000106587191804
71,qDII-DR5-CLV3-LD_E27_170817_sam04_t00,E27,4,0,-13.6517630414,32.5660211468,-11.965957778900002,0.0150648410509,0.000214032680679
72,qDII-DR5-CLV3-LD_E27_170817_sam04_t00,E27,4,0,-32.473209088800004,24.4771871972,-15.021242711700001,0.0169727627855,0.000253478714188
73,qDII-DR5-CLV3-LD_E27_170817_sam04_t00,E27,4,0,-54.1009899782,14.6314685223,-35.427938244699995,0.0177348892531,-3.85916399037e-05
74,qDII-DR5-CLV3-LD_E27_170817_sam04_t00,E27,4,0,-51.9841511839,15.5660713093,-27.3875103861,0.017470280536,9.07369279768e-06
75,qDII-DR5-CLV3-LD_E27_170817_sam04_t00,E27,4,0,6.00632428536,40.1395157691,-14.8086774025,0.0159119540812,9.85806384185e-05
76,qDII-DR5-CLV3-LD_E27_170817_sam04_t00,E27,4,0,-54.8235381613,13.5772557444,-30.619760259,0.0205647243954,0.00010576055212600001
77,qDII-DR5-CLV3-LD_E27_170817_sam04_t00,E27,4,0,13.547185878299999,42.829538556399996,-16.6109051459,0.0175637255645,0.000205900595689
78,qDII-DR5-CLV3-LD_E27_170817_sam04_t00,E27,4,0,-20.2331061773,28.437280139899997,-11.313776649600001,0.0170057030749,0.000289767579179
79,qDII-DR5-CLV3-LD_E27_170817_sam04_t00,E27,4,0,-25.2574931478,25.4162755167,-10.8236066405,0.0183298206055,0.000327734840641
80,qDII-DR5-CLV3-LD_E27_170817_sam04_t00,E27,4,0,-8.86476269598,32.1407111715,-11.0628940394,0.015097858625700001,0.000192460909595
81,qDII-DR5-CLV3-LD_E27_170817_sam04_t00,E27,4,0,25.315174275500002,46.1737307717,-18.714233107000002,0.0324737552633,0.00103644044824
82,qDII-DR5-CLV3-LD_E27_170817_sam04_t00,E27,4,0,-49.3447993837,14.311710581,-23.951610178299998,0.0173948430955,2.00293229019e-05
83,qDII-DR5-CLV3-LD_E27_170817_sam04_t00,E27,4,0,-38.3211902949,18.9635193534,-17.8588064064,0.013426393086600001,5.24654520767e-05
84,qDII-DR5-CLV3-LD_E27_170817_sam04_t00,E27,4,0,20.0097293421,43.5237244133,-17.0531968763,0.0237703211004,0.0005824383889780001
85,qDII-DR5-CLV3-LD_E27_170817_sam04_t00,E27,4,0,-14.3085960421,28.755461871799998,-9.34991106275,0.0162891479715,0.00025319427569
86,qDII-DR5-CLV3-LD_E27_170817_sam04_t00,E27,4,0,32.5463923642,47.865095118199996,-26.3147767456,0.0350486144053,0.00120709690969
87,qDII-DR5-CLV3-LD_E27_170817_sam04_t00,E27,4,0,-4.1018449478,32.833401851,-10.2242551739,0.014670076683200002,0.000156076364555
88,qDII-DR5-CLV3-LD_E27_170817_sam04_t00,E27,4,0,-42.3442135038,16.2882463696,-19.8017842042,0.0132941427935,-2.92421010413e-05
89,qDII-DR5-CLV3-LD_E27_170817_sam04_t00,E27,4,0,11.4279010678,39.041003001,-15.080616533399999,0.014620948477700001,8.35996021735e-05
90,qDII-DR5-CLV3-LD_E27_170817_sam04_t00,E27,4,0,-27.8752174545,21.7923570152,-11.6226405248,0.0181788355441,0.00031164195536
91,qDII-DR5-CLV3-LD_E27_170817_sam04_t00,E27,4,0,0.12528185634800001,33.487571279,-10.5253553916,0.0139422055906,0.000107958916384
92,qDII-DR5-CLV3-LD_E27_170817_sam04_t00,E27,4,0,-54.4747171757,9.17728976791,-24.505559058000003,0.024537204158400005,0.000329089709332
93,qDII-DR5-CLV3-LD_E27_170817_sam04_t00,E27,4,0,16.8539717068,39.5238017868,-15.4460734434,0.0147016079335,0.000163253180222
94,qDII-DR5-CLV3-LD_E27_170817_sam04_t00,E27,4,0,5.34499742807,34.7476449403,-12.0991129074,0.013058063991,5.23087366783e-05
95,qDII-DR5-CLV3-LD_E27_170817_sam04_t00,E27,4,0,-47.4894388991,12.0116536176,-21.5806484667,0.0173719087519,3.57606760531e-05
96,qDII-DR5-CLV3-LD_E27_170817_sam04_t00,E27,4,0,-35.6291794435,17.0544688693,-14.3875742296,0.0144332980309,0.00010940066858299999
97,qDII-DR5-CLV3-LD_E27_170817_sam04_t00,E27,4,0,-8.67617033584,28.4609857821,-8.50706736682,0.015780366259000003,0.00021754208861200002
98,qDII-DR5-CLV3-LD_E27_170817_sam04_t00,E27,4,0,-58.0782940089,6.8662614606400005,-27.6713498234,0.0261509100581,0.000441199713116
99,qDII-DR5-CLV3-LD_E27_170817_sam04_t00,E27,4,0,-18.830262379,23.7283560472,-7.59739128661,0.018402667473099998,0.000326931240487
100,qDII-DR5-CLV3-LD_E27_170817_sam04_t00,E27,4,0,32.2541043035,44.7359874018,-21.4109785657,0.0349313579464,0.00115728511003
101,qDII-DR5-CLV3-LD_E27_170817_sam04_t00,E27,4,0,-58.4977494721,5.595670977540001,-33.4468118775,0.0249953086179,0.00038240637293300003
102,qDII-DR5-CLV3-LD_E27_170817_sam04_t00,E27,4,0,35.2494115066,45.1270091073,-34.5482064995,0.0316373066402,0.000950466731471
103,qDII-DR5-CLV3-LD_E27_170817_sam04_t00,E27,4,0,26.1383430726,41.8208025895,-17.3334093049,0.028877133262299997,0.000827015612275
104,qDII-DR5-CLV3-LD_E27_170817_sam04_t00,E27,4,0,-39.8630515763,13.5751592072,-17.4453348543,0.0122398001951,-4.99705216545e-05
105,qDII-DR5-CLV3-LD_E27_170817_sam04_t00,E27,4,0,-12.132787394100001,24.1085779277,-6.86047531607,0.016738992193200002,0.000262213480186
106,qDII-DR5-CLV3-LD_E27_170817_sam04_t00,E27,4,0,-23.7405562532,19.137799318699997,-8.19704784822,0.018404296140099998,0.000320487118162
107,qDII-DR5-CLV3-LD_E27_170817_sam04_t00,E27,4,0,22.629066963200003,38.1230844909,-15.722149223199999,0.0184330774367,0.00036627420407599995
108,qDII-DR5-CLV3-LD_E27_170817_sam04_t00,E27,4,0,16.2059137,35.4530699181,-13.990517235999999,0.0111885030348,5.85123269715e-05
109,qDII-DR5-CLV3-LD_E27_170817_sam04_t00,E27,4,0,4.9692223903,30.5660874004,-10.6539324129,0.0112862794487,5.46025585809e-05
110,qDII-DR5-CLV3-LD_E27_170817_sam04_t00,E27,4,0,-30.400892509600002,15.5379200421,-11.097002183399999,0.0157499081159,0.00021076469305400002
111,qDII-DR5-CLV3-LD_E27_170817_sam04_t00,E27,4,0,10.3273263748,32.561404003,-12.2796366746,0.010064919727999999,1.3403847231e-05
112,qDII-DR5-CLV3-LD_E27_170817_sam04_t00,E27,4,0,-0.836904423809,27.7432152223,-7.77632227866,0.0129001870059,0.00013810703411799998
113,qDII-DR5-CLV3-LD_E27_170817_sam04_t00,E27,4,0,-50.640915397200004,6.17024684353,-21.040497763599998,0.021708259122799996,0.000251889921121
114,qDII-DR5-CLV3-LD_E27_170817_sam04_t00,E27,4,0,-55.5093639669,3.36413997418,-22.923255518,0.0271283498134,0.000480352964389
115,qDII-DR5-CLV3-LD_E27_170817_sam04_t00,E27,4,0,-17.2429037261,19.6976406074,-6.283026592020001,0.018074386827,0.000307947897103
116,qDII-DR5-CLV3-LD_E27_170817_sam04_t00,E27,4,0,-60.3404610888,0.761171410134,-25.995596686,0.027865826508400002,0.000579512055925
117,qDII-DR5-CLV3-LD_E27_170817_sam04_t00,E27,4,0,-7.15473958467,23.763821138,-5.974026353509999,0.014630664940799998,0.000196857771379
118,qDII-DR5-CLV3-LD_E27_170817_sam04_t00,E27,4,0,37.1639636516,41.5746069209,-29.756506927399997,0.031219585828700002,0.0009236628242310001
119,qDII-DR5-CLV3-LD_E27_170817_sam04_t00,E27,4,0,-35.427530952,11.273086738599998,-14.0592107956,0.0113225677902,9.445875062130001e-06
120,qDII-DR5-CLV3-LD_E27_170817_sam04_t00,E27,4,0,30.4464926625,38.8607974595,-18.601725409300002,0.0305293821575,0.0008523289925429999
121,qDII-DR5-CLV3-LD_E27_170817_sam04_t00,E27,4,0,-40.4496755379,8.58956498901,-17.114937186800002,0.008834895374239999,-0.000132663048166
122,qDII-DR5-CLV3-LD_E27_170817_sam04_t00,E27,4,0,-26.5625968745,14.1121886715,-7.7254586679,0.0162981802482,0.00024282522923199998
123,qDII-DR5-CLV3-LD_E27_170817_sam04_t00,E27,4,0,35.874805686,39.6810791188,-22.513078719499998,0.0320183452866,0.00091144060686
124,qDII-DR5-CLV3-LD_E27_170817_sam04_t00,E27,4,0,22.0995959093,34.0641120707,-15.4499373655,0.012358751679499999,0.00013371504716299998
125,qDII-DR5-CLV3-LD_E27_170817_sam04_t00,E27,4,0,15.557855693299999,31.3823380493,-12.5349610287,0.00835375975588,1.10428118837e-05
126,qDII-DR5-CLV3-LD_E27_170817_sam04_t00,E27,4,0,-46.3019378813,4.91738129271,-18.8855281517,0.012055063738,-3.136387969e-05
127,qDII-DR5-CLV3-LD_E27_170817_sam04_t00,E27,4,0,10.59715424,28.690299756799998,-9.717570937989999,0.007872465444520001,1.08162953785e-05
128,qDII-DR5-CLV3-LD_E27_170817_sam04_t00,E27,4,0,-0.5297251108150001,24.0752492815,-6.4038399557800005,0.012166614520900001,0.000133370499105
129,qDII-DR5-CLV3-LD_E27_170817_sam04_t00,E27,4,0,-21.4175841984,14.965985722200001,-6.92004935622,0.0176988492018,0.000289562725234
130,qDII-DR5-CLV3-LD_E27_170817_sam04_t00,E27,4,0,5.482756770580001,26.120846584099997,-8.07314948414,0.009508888037559999,6.37891426582e-05
131,qDII-DR5-CLV3-LD_E27_170817_sam04_t00,E27,4,0,-31.3696113991,10.3912194527,-10.733374962000001,0.012151422796,9.26939567526e-05
132,qDII-DR5-CLV3-LD_E27_170817_sam04_t00,E27,4,0,28.136160388,34.9917087185,-17.0548220199,0.0228183250771,0.000489352039505
133,qDII-DR5-CLV3-LD_E27_170817_sam04_t00,E27,4,0,-10.1766026638,18.917829898900003,-4.32533188752,0.0146755225095,0.000205852630594
134,qDII-DR5-CLV3-LD_E27_170817_sam04_t00,E27,4,0,-50.476618353599996,0.185726407533,-19.5225509159,0.0182046715921,0.000231957833535
135,qDII-DR5-CLV3-LD_E27_170817_sam04_t00,E27,4,0,21.0892444346,30.5557573236,-12.8297540006,0.00863540497714,1.97169742463e-05
136,qDII-DR5-CLV3-LD_E27_170817_sam04_t00,E27,4,0,-35.2499650579,6.60970526274,-13.795272235599999,0.00752806780253,-6.09281421925e-05
137,qDII-DR5-CLV3-LD_E27_170817_sam04_t00,E27,4,0,38.4504628816,37.1914062532,-28.402673615,0.029104893092400004,0.000745607386658
138,qDII-DR5-CLV3-LD_E27_170817_sam04_t00,E27,4,0,-64.102440514,-6.431379032640001,-31.214293260100003,0.0334154765573,0.00104856383524
139,qDII-DR5-CLV3-LD_E27_170817_sam04_t00,E27,4,0,-42.2550447944,3.0518579202700002,-17.8515804306,0.00506452673708,-0.00017087015408399998
140,qDII-DR5-CLV3-LD_E27_170817_sam04_t00,E27,4,0,-59.5019846884,-4.449584833069999,-23.3898575011,0.0325506959132,0.000863707037068
141,qDII-DR5-CLV3-LD_E27_170817_sam04_t00,E27,4,0,25.0089792065,31.4550969911,-15.4767914919,0.0131301703556,0.0001375221356
142,qDII-DR5-CLV3-LD_E27_170817_sam04_t00,E27,4,0,-15.932321898800001,14.1964392849,-4.86476840561,0.017095431533999998,0.000270744285683
143,qDII-DR5-CLV3-LD_E27_170817_sam04_t00,E27,4,0,-1.2590186226,20.1958962695,-4.9545228124900005,0.0127317620566,0.000153491610347
144,qDII-DR5-CLV3-LD_E27_170817_sam04_t00,E27,4,0,33.895948041,34.4488194837,-18.5558131824,0.028367072024400003,0.000643065764036
145,qDII-DR5-CLV3-LD_E27_170817_sam04_t00,E27,4,0,9.26614188247,24.105976289,-8.189316559049999,0.008184003589689999,4.81531559168e-05
146,qDII-DR5-CLV3-LD_E27_170817_sam04_t00,E27,4,0,-21.411264308299998,10.9455345535,-5.508098415519999,0.016621485758,0.00025568287481
147,qDII-DR5-CLV3-LD_E27_170817_sam04_t00,E27,4,0,17.6897802841,27.1299712672,-11.2413477598,0.00674141567183,-1.03094201896e-05
148,qDII-DR5-CLV3-LD_E27_170817_sam04_t00,E27,4,0,-26.934090774899996,8.089146984089998,-7.34725090322,0.012423672935200001,0.000140741410607
149,qDII-DR5-CLV3-LD_E27_170817_sam04_t00,E27,4,0,-64.306765916,-8.73941698495,-36.9419452172,0.0357825168797,0.00118014125774
150,qDII-DR5-CLV3-LD_E27_170817_sam04_t00,E27,4,0,5.842595134730001,21.7981908875,-6.66533519224,0.010335686255,0.00010099949028899999
151,qDII-DR5-CLV3-LD_E27_170817_sam04_t00,E27,4,0,-30.8911860821,6.08032320469,-10.5089050198,0.00959777935441,4.68262542745e-05
152,qDII-DR5-CLV3-LD_E27_170817_sam04_t00,E27,4,0,-45.063816565100005,-0.652613766793,-18.6339995381,0.006267617476960001,-8.74597692896e-05
153,qDII-DR5-CLV3-LD_E27_170817_sam04_t00,E27,4,0,-54.4888278157,-4.9286861911,-20.147095552,0.0257042893303,0.000554180965149
154,qDII-DR5-CLV3-LD_E27_170817_sam04_t00,E27,4,0,14.6197520104,24.5199813378,-9.721503041810001,0.00710673645763,1.39281348109e-05
155,qDII-DR5-CLV3-LD_E27_170817_sam04_t00,E27,4,0,-38.5990216293,1.2854007704000001,-15.623912647100001,0.00263318780841,-0.000171891523037
156,qDII-DR5-CLV3-LD_E27_170817_sam04_t00,E27,4,0,30.4305559889,30.356584223000002,-15.7487306229,0.0185746235594,0.00026018596177
157,qDII-DR5-CLV3-LD_E27_170817_sam04_t00,E27,4,0,-2.26059510337,16.4273689286,-3.49482995634,0.013057246314399999,0.000163087998387
158,qDII-DR5-CLV3-LD_E27_170817_sam04_t00,E27,4,0,-6.87431069202,14.030781575599999,-3.0669824059799997,0.0137918742793,0.000182996694929
159,qDII-DR5-CLV3-LD_E27_170817_sam04_t00,E27,4,0,-34.6090687308,1.91605130128,-13.5583241653,0.00409430067322,-9.24822891478e-05
160,qDII-DR5-CLV3-LD_E27_170817_sam04_t00,E27,4,0,22.9576610504,26.154043618899998,-12.6862555276,0.00871553908603,2.49835692566e-06
161,qDII-DR5-CLV3-LD_E27_170817_sam04_t00,E27,4,0,39.1615773353,32.2290631551,-23.4530995716,0.0270748525729,0.0005404873421980001
162,qDII-DR5-CLV3-LD_E27_170817_sam04_t00,E27,4,0,-48.7751666044,-5.4145411375300005,-19.298012792,0.013664343292399999,0.00017831190948599997
163,qDII-DR5-CLV3-LD_E27_170817_sam04_t00,E27,4,0,-61.173459388699996,-10.8333605143,-24.0849297119,0.0371314192069,0.0013269097878099998
164,qDII-DR5-CLV3-LD_E27_170817_sam04_t00,E27,4,0,13.1460701027,21.0418990762,-7.07432918715,0.00937904107371,7.67275408795e-05
165,qDII-DR5-CLV3-LD_E27_170817_sam04_t00,E27,4,0,4.693855247219999,17.554593199,-3.9932050814199997,0.012961941705,0.000165689053823
166,qDII-DR5-CLV3-LD_E27_170817_sam04_t00,E27,4,0,27.766705240300002,26.7897000099,-14.1976905847,0.0119668348441,5.01889987513e-05
167,qDII-DR5-CLV3-LD_E27_170817_sam04_t00,E27,4,0,-65.3303862413,-13.568910692200001,-33.067753564499995,0.03892516943509999,0.0015763507858199998
168,qDII-DR5-CLV3-LD_E27_170817_sam04_t00,E27,4,0,41.2630812637,31.3024565832,-37.6324121607,0.0228548648881,0.00040070506622000003
169,qDII-DR5-CLV3-LD_E27_170817_sam04_t00,E27,4,0,-17.970583923699998,6.793729171410001,-4.30169567989,0.0156862926,0.00023455687724799999
170,qDII-DR5-CLV3-LD_E27_170817_sam04_t00,E27,4,0,-56.63894055229999,-10.424361325700001,-22.0400926558,0.028602445905400002,0.000832195325052
171,qDII-DR5-CLV3-LD_E27_170817_sam04_t00,E27,4,0,40.720563166,30.251486711,-28.1344620429,0.0248563462494,0.00046819518428900005
172,qDII-DR5-CLV3-LD_E27_170817_sam04_t00,E27,4,0,-11.922992979000002,8.704981905730001,-3.6146922216900004,0.0168106534269,0.000264651802508
173,qDII-DR5-CLV3-LD_E27_170817_sam04_t00,E27,4,0,-40.558086901799996,-4.12972117862,-17.5335245278,0.0013163131050599997,-0.000179039601397
174,qDII-DR5-CLV3-LD_E27_170817_sam04_t00,E27,4,0,-63.7450572537,-14.5143133042,-27.2340375188,0.0394017183674,0.00157627709521
175,qDII-DR5-CLV3-LD_E27_170817_sam04_t00,E27,4,0,23.447112833400002,22.826803457399997,-10.169897472899999,0.00980788199517,3.17474923808e-05
176,qDII-DR5-CLV3-LD_E27_170817_sam04_t00,E27,4,0,19.3165291376,21.1234271116,-8.63764280846,0.008591712561530001,3.33839250899e-05
177,qDII-DR5-CLV3-LD_E27_170817_sam04_t00,E27,4,0,10.6732668181,17.5555680488,-5.539903925830001,0.012247207917200001,0.000148658470599
178,qDII-DR5-CLV3-LD_E27_170817_sam04_t00,E27,4,0,-29.571829260900003,0.318949288458,-10.2511373422,0.006902768123129999,3.11599703629e-05
179,qDII-DR5-CLV3-LD_E27_170817_sam04_t00,E27,4,0,1.89161608588,13.2524660446,-2.3902182972999997,0.0134026953246,0.00017506698653799998
180,qDII-DR5-CLV3-LD_E27_170817_sam04_t00,E27,4,0,-34.3216908778,-2.4753981323099996,-13.317239446199999,0.0018468844722,-0.00010678330152299999
181,qDII-DR5-CLV3-LD_E27_170817_sam04_t00,E27,4,0,-44.045319166700004,-6.76647291092,-18.3367632426,0.0055510741205399994,-5.51777680252e-05
182,qDII-DR5-CLV3-LD_E27_170817_sam04_t00,E27,4,0,33.5352678873,25.986638181300002,-16.859172256,0.018747509848799998,0.00019531944410599997
183,qDII-DR5-CLV3-LD_E27_170817_sam04_t00,E27,4,0,-52.04298767069999,-10.9302244866,-21.1204141395,0.0226094438453,0.0005326175258480001
184,qDII-DR5-CLV3-LD_E27_170817_sam04_t00,E27,4,0,-2.39715748263,10.0903632647,-1.9374144907599997,0.014129111453400001,0.00019413093946099997
185,qDII-DR5-CLV3-LD_E27_170817_sam04_t00,E27,4,0,7.69978165278,13.896371201600001,-2.78890476102,0.0142848793808,0.00020014373413900004
186,qDII-DR5-CLV3-LD_E27_170817_sam04_t00,E27,4,0,-64.9156464414,-18.2087732709,-35.170503703899996,0.030892514005900002,0.00108528216157
187,qDII-DR5-CLV3-LD_E27_170817_sam04_t00,E27,4,0,39.0162399621,26.152230084899998,-20.7351935973,0.022575826272,0.000285464486128
188,qDII-DR5-CLV3-LD_E27_170817_sam04_t00,E27,4,0,-25.423899209,-1.01446944794,-8.079552953310001,0.00790797848611,6.29902965967e-05
189,qDII-DR5-CLV3-LD_E27_170817_sam04_t00,E27,4,0,-13.5175133115,3.97131151535,-3.2365526386699996,0.0155063992753,0.00023538882686099997
190,qDII-DR5-CLV3-LD_E27_170817_sam04_t00,E27,4,0,-21.6864278196,0.45049024684699995,-4.87219115487,0.0106314440778,0.000117742349305
191,qDII-DR5-CLV3-LD_E27_170817_sam04_t00,E27,4,0,28.5041446758,21.0468391307,-12.7295880676,0.0129491285516,7.21131306209e-05
192,qDII-DR5-CLV3-LD_E27_170817_sam04_t00,E27,4,0,-7.287649896869999,6.22329002898,-1.4056734485799998,0.016653529211799998,0.000263839602975
193,qDII-DR5-CLV3-LD_E27_170817_sam04_t00,E27,4,0,40.9244631295,25.713933260500003,-24.3537199875,0.021665561247900002,0.000257113241072
194,qDII-DR5-CLV3-LD_E27_170817_sam04_t00,E27,4,0,-63.2578569427,-19.0853821459,-28.1700580854,0.0335623838413,0.0012162594894300001
195,qDII-DR5-CLV3-LD_E27_170817_sam04_t00,E27,4,0,20.7128403265,17.0121584862,-7.306663336980001,0.010384142073,7.512467553899999e-05
196,qDII-DR5-CLV3-LD_E27_170817_sam04_t00,E27,4,0,-44.9481101546,-11.246724295999998,-19.19181234,0.00900963347119,3.8994400117e-05
197,qDII-DR5-CLV3-LD_E27_170817_sam04_t00,E27,4,0,-48.488001470600004,-13.2287862725,-20.030383023800002,0.0161008463773,0.000255270531644
198,qDII-DR5-CLV3-LD_E27_170817_sam04_t00,E27,4,0,-39.5110130496,-9.780269423710001,-17.2653811373,-0.000168200448526,-0.000186456346994
199,qDII-DR5-CLV3-LD_E27_170817_sam04_t00,E27,4,0,3.8324932127800007,8.91954607694,-1.0799902515100002,0.013994548442,0.000191981780648
200,qDII-DR5-CLV3-LD_E27_170817_sam04_t00,E27,4,0,-30.015783672399998,-5.7728861359899994,-11.0396591503,0.004672265825100001,-5.86188277804e-06
201,qDII-DR5-CLV3-LD_E27_170817_sam04_t00,E27,4,0,16.5777627741,13.7274705865,-5.68089089359,0.012400176570099999,0.00014313989288499999
202,qDII-DR5-CLV3-LD_E27_170817_sam04_t00,E27,4,0,-58.3061341152,-18.6496211545,-23.8021375965,0.031414619594400006,0.000975982820381
203,qDII-DR5-CLV3-LD_E27_170817_sam04_t00,E27,4,0,25.111213134699998,17.023397607,-8.755775935279999,0.012391527622200001,0.00011188544795200001
204,qDII-DR5-CLV3-LD_E27_170817_sam04_t00,E27,4,0,10.6179399439,11.0271835282,-3.97624939621,0.0146494965778,0.00020867830184400003
205,qDII-DR5-CLV3-LD_E27_170817_sam04_t00,E27,4,0,-34.0212568934,-8.9685043072,-15.303617965699999,-0.000586569077222,-0.00015958060152300002
206,qDII-DR5-CLV3-LD_E27_170817_sam04_t00,E27,4,0,42.498756563600004,22.878528755399998,-27.810167076,0.018398551464900003,0.000137836577643
207,qDII-DR5-CLV3-LD_E27_170817_sam04_t00,E27,4,0,37.2372047749,20.7403510416,-17.9550333458,0.018563351176099998,0.000164391078919
208,qDII-DR5-CLV3-LD_E27_170817_sam04_t00,E27,4,0,-53.007425423,-17.918409223599998,-21.8237596479,0.025670568324599997,0.0006403147511219999
209,qDII-DR5-CLV3-LD_E27_170817_sam04_t00,E27,4,0,0.0597091283535,5.07248105569,-0.618844965704,0.0152285922264,0.00022560415092099997
210,qDII-DR5-CLV3-LD_E27_170817_sam04_t00,E27,4,0,-14.367645248199999,-1.16362962548,-4.05626976701,0.012539710870100002,0.000161451354996
211,qDII-DR5-CLV3-LD_E27_170817_sam04_t00,E27,4,0,-25.8107007127,-6.179683074319999,-8.9262605714,0.007241557427770001,4.82358636443e-05
212,qDII-DR5-CLV3-LD_E27_170817_sam04_t00,E27,4,0,7.53464281964,7.09605463863,-1.2023963904700001,0.014633394587299998,0.000208807698432
213,qDII-DR5-CLV3-LD_E27_170817_sam04_t00,E27,4,0,-62.3248852742,-24.072724092399998,-33.8103631458,0.0232845239485,0.000573121405221
214,qDII-DR5-CLV3-LD_E27_170817_sam04_t00,E27,4,0,40.9701732202,19.717653375999998,-21.652428790100004,0.0177839387111,0.000127113305575
215,qDII-DR5-CLV3-LD_E27_170817_sam04_t00,E27,4,0,33.9255087389,16.525530661199998,-13.9749821494,0.016059607789,0.000151318595744
216,qDII-DR5-CLV3-LD_E27_170817_sam04_t00,E27,4,0,30.058433018200002,14.971501238,-11.2926126891,0.015587044561299999,0.00018034804380200002
217,qDII-DR5-CLV3-LD_E27_170817_sam04_t00,E27,4,0,14.563796065899998,8.62955551967,-4.07993834304,0.0145985241939,0.00020473545454999999
218,qDII-DR5-CLV3-LD_E27_170817_sam04_t00,E27,4,0,-19.8049550725,-6.05288019913,-6.95615592048,0.00883367737691,7.34785076834e-05
219,qDII-DR5-CLV3-LD_E27_170817_sam04_t00,E27,4,0,21.3778192509,11.2005038699,-7.00529039271,0.0124530184006,0.000132826080197
220,qDII-DR5-CLV3-LD_E27_170817_sam04_t00,E27,4,0,-39.8165790483,-15.1368619068,-18.1058496914,0.0044002935083599995,-0.00014206868700400002
221,qDII-DR5-CLV3-LD_E27_170817_sam04_t00,E27,4,0,-59.755742513,-24.1520498775,-28.0888138895,0.026903174671,0.000745716310005
222,qDII-DR5-CLV3-LD_E27_170817_sam04_t00,E27,4,0,-47.7768961045,-19.0974751772,-22.079084002,0.0177113690856,0.00023235817068100001
223,qDII-DR5-CLV3-LD_E27_170817_sam04_t00,E27,4,0,-27.220706190700003,-10.2351448118,-10.950141656800001,0.0060857517856899995,2.17173462006e-05
224,qDII-DR5-CLV3-LD_E27_170817_sam04_t00,E27,4,0,-31.889332302600003,-13.220871089300001,-14.010004696800001,0.00235749500105,-9.80831315784e-05
225,qDII-DR5-CLV3-LD_E27_170817_sam04_t00,E27,4,0,-34.899965284000004,-14.5667563471,-16.0942421891,0.0013504211515100002,-0.00017107295786500002
226,qDII-DR5-CLV3-LD_E27_170817_sam04_t00,E27,4,0,-43.4048482782,-18.3057182752,-20.046725074,0.0110313370181,-2.06426880205e-05
227,qDII-DR5-CLV3-LD_E27_170817_sam04_t00,E27,4,0,27.0410637956,11.7068215528,-9.73743600207,0.014691738265500002,0.000182160469443
228,qDII-DR5-CLV3-LD_E27_170817_sam04_t00,E27,4,0,11.3268029255,4.82101174987,-2.4790539741499997,0.0152638084554,0.00022402608097699998
229,qDII-DR5-CLV3-LD_E27_170817_sam04_t00,E27,4,0,5.59537900701,2.40441618238,-1.9806106674200001,0.015185761676499999,0.00022268447337500002
230,qDII-DR5-CLV3-LD_E27_170817_sam04_t00,E27,4,0,-5.69622282591,-3.07170525978,-2.13173643463,0.0165709642146,0.000265927909483
231,qDII-DR5-CLV3-LD_E27_170817_sam04_t00,E27,4,0,38.4841010851,14.910183388399998,-18.863995240999998,0.014472883224599999,7.33120795181e-05
232,qDII-DR5-CLV3-LD_E27_170817_sam04_t00,E27,4,0,44.2616423578,16.3633988608,-28.7107874919,0.0120353373799,-9.48921834207e-05
233,qDII-DR5-CLV3-LD_E27_170817_sam04_t00,E27,4,0,-20.0621431574,-10.2226782904,-6.6943197757,0.00886830760374,7.08147989461e-05
234,qDII-DR5-CLV3-LD_E27_170817_sam04_t00,E27,4,0,17.2535554452,5.4766763553799995,-4.0610847875900005,0.015119007964000002,0.000215418051658
235,qDII-DR5-CLV3-LD_E27_170817_sam04_t00,E27,4,0,-49.0244305724,-23.5356946281,-24.090486959299998,0.0235739894305,0.000423585230946
236,qDII-DR5-CLV3-LD_E27_170817_sam04_t00,E27,4,0,-54.136585657299996,-25.7676649273,-25.9919619058,0.025614513053900004,0.000593896147498
237,qDII-DR5-CLV3-LD_E27_170817_sam04_t00,E27,4,0,-12.6421109018,-7.881897825339999,-3.7673067691699997,0.0121041382158,0.000142996816081
238,qDII-DR5-CLV3-LD_E27_170817_sam04_t00,E27,4,0,3.39485869139,-1.19274051623,-0.456561118946,0.0158081812429,0.00023925976697900003
239,qDII-DR5-CLV3-LD_E27_170817_sam04_t00,E27,4,0,-39.8125106302,-20.401141755799998,-20.146277372,0.00913312500875,-0.00012032993543999999
240,qDII-DR5-CLV3-LD_E27_170817_sam04_t00,E27,4,0,41.8261996085,13.9865519453,-21.3676706227,0.011407469588600002,-7.84130890395e-05
241,qDII-DR5-CLV3-LD_E27_170817_sam04_t00,E27,4,0,-8.12289966875,-6.615070575680001,-2.94738509583,0.014926798231600001,0.00021726207217099996
242,qDII-DR5-CLV3-LD_E27_170817_sam04_t00,E27,4,0,34.8913470861,11.0663612729,-13.713077822999999,0.0158411201847,0.000182186929505
243,qDII-DR5-CLV3-LD_E27_170817_sam04_t00,E27,4,0,31.606188751199998,9.49381881267,-12.2410432021,0.0166696257285,0.000230464969229
244,qDII-DR5-CLV3-LD_E27_170817_sam04_t00,E27,4,0,21.6519282534,5.48791547623,-5.51019738589,0.01498028362,0.00020539826533799997
245,qDII-DR5-CLV3-LD_E27_170817_sam04_t00,E27,4,0,-28.362922556300003,-15.982743774200001,-12.890880676099998,0.00486739990241,-3.16373311406e-05
246,qDII-DR5-CLV3-LD_E27_170817_sam04_t00,E27,4,0,43.156981071800004,13.3353880984,-37.8659299958,0.0104214507552,-0.000198651689958
247,qDII-DR5-CLV3-LD_E27_170817_sam04_t00,E27,4,0,24.9085101345,6.597147037409999,-6.9531391018100015,0.015149770561200001,0.00020687476309500002
248,qDII-DR5-CLV3-LD_E27_170817_sam04_t00,E27,4,0,37.9370800433,11.371556155699999,-16.270802365799998,0.0137495995407,8.33676193146e-05
249,qDII-DR5-CLV3-LD_E27_170817_sam04_t00,E27,4,0,-35.9609461446,-20.5057341662,-18.0287421443,0.0050320242402299995,-0.00020112636095599996
250,qDII-DR5-CLV3-LD_E27_170817_sam04_t00,E27,4,0,43.404986899200004,12.732458994000002,-24.917635490100004,0.00867811545339,-0.000229518832159
251,qDII-DR5-CLV3-LD_E27_170817_sam04_t00,E27,4,0,28.918255405300002,7.0449352544199995,-10.7544280379,0.016762845901899998,0.000248939447272
252,qDII-DR5-CLV3-LD_E27_170817_sam04_t00,E27,4,0,-0.779821780867,-5.92439540141,-1.09358388315,0.015791451839,0.000238560233134
253,qDII-DR5-CLV3-LD_E27_170817_sam04_t00,E27,4,0,-14.1333518849,-11.7459807061,-5.79742691862,0.010704117612799999,0.000104965586327
254,qDII-DR5-CLV3-LD_E27_170817_sam04_t00,E27,4,0,-30.8334834564,-19.1315919281,-14.9023518151,0.00363044286742,-0.000131799453483
255,qDII-DR5-CLV3-LD_E27_170817_sam04_t00,E27,4,0,-43.558969732799994,-25.0287245582,-23.1666036125,0.0159587219285,1.85466415644e-05
256,qDII-DR5-CLV3-LD_E27_170817_sam04_t00,E27,4,0,-23.239953724699998,-16.18991309,-9.67097256791,0.008750158510469999,6.60417810931e-05
257,qDII-DR5-CLV3-LD_E27_170817_sam04_t00,E27,4,0,-55.3555527588,-30.648919285799998,-35.0307327898,0.019651023520799997,0.00034722574297900004
258,qDII-DR5-CLV3-LD_E27_170817_sam04_t00,E27,4,0,-47.8542759107,-27.5931718708,-25.0992056975,0.021059129094599997,0.00030181529912
259,qDII-DR5-CLV3-LD_E27_170817_sam04_t00,E27,4,0,14.800340901300002,-0.7089668807089999,-2.3687168733,0.0160696565891,0.000243406786925
260,qDII-DR5-CLV3-LD_E27_170817_sam04_t00,E27,4,0,-38.804826978600005,-24.075861285,-21.1674742383,0.0112474573236,-0.00014288151715099998
261,qDII-DR5-CLV3-LD_E27_170817_sam04_t00,E27,4,0,19.5128419829,0.975896428126,-5.111306377169999,0.0161133461796,0.00024140790676900004
262,qDII-DR5-CLV3-LD_E27_170817_sam04_t00,E27,4,0,41.039753189,9.18057713522,-19.8601676694,0.0083665616348,-0.000187297469164
263,qDII-DR5-CLV3-LD_E27_170817_sam04_t00,E27,4,0,-17.3966790946,-15.680352501300002,-7.71334604507,0.0100553775597,9.02905184335e-05
264,qDII-DR5-CLV3-LD_E27_170817_sam04_t00,E27,4,0,-50.1688984101,-30.5271222708,-29.483604600000003,0.020419764403299998,0.00035893904576399997
265,qDII-DR5-CLV3-LD_E27_170817_sam04_t00,E27,4,0,46.40662308,10.0093753374,-29.6446374616,0.0027319914271799997,-0.000488317033301
266,qDII-DR5-CLV3-LD_E27_170817_sam04_t00,E27,4,0,44.8255752297,9.113293801900001,-36.5453262371,0.00150581321706,-0.00041730019766900004
267,qDII-DR5-CLV3-LD_E27_170817_sam04_t00,E27,4,0,5.41471985127,-6.9608680208700004,-2.5924726304599996,0.0147969619681,0.000205922270112
268,qDII-DR5-CLV3-LD_E27_170817_sam04_t00,E27,4,0,28.2042694969,2.30775418134,-8.08019551181,0.0164140874709,0.000250769409649
269,qDII-DR5-CLV3-LD_E27_170817_sam04_t00,E27,4,0,-32.845207780100004,-23.8920241214,-16.8472956649,0.00658198679014,-0.000193623332007
270,qDII-DR5-CLV3-LD_E27_170817_sam04_t00,E27,4,0,33.8895578861,3.87503823062,-13.2268399177,0.0144881205102,0.000181770730579
271,qDII-DR5-CLV3-LD_E27_170817_sam04_t00,E27,4,0,11.1614513731,-5.40210051444,-1.8660005544299998,0.015191609764900001,0.000216821099647
272,qDII-DR5-CLV3-LD_E27_170817_sam04_t00,E27,4,0,23.634437965500002,-0.48335033371200004,-6.456525483659999,0.016227528859299997,0.000246304686935
273,qDII-DR5-CLV3-LD_E27_170817_sam04_t00,E27,4,0,-40.7791998545,-28.633155173000002,-24.3020015018,0.0140278487301,-9.89537760942e-05
274,qDII-DR5-CLV3-LD_E27_170817_sam04_t00,E27,4,0,-51.65565462399999,-33.7162394044,-38.605517550100004,0.0206047191859,0.000364863869979
275,qDII-DR5-CLV3-LD_E27_170817_sam04_t00,E27,4,0,38.0003401219,4.85493108368,-15.8904921859,0.010063071383399999,-1.48071948583e-05
276,qDII-DR5-CLV3-LD_E27_170817_sam04_t00,E27,4,0,-8.94466787082,-14.709496518900002,-4.76965007999,0.0129948293652,0.000150764460914
277,qDII-DR5-CLV3-LD_E27_170817_sam04_t00,E27,4,0,30.9205665773,1.7971529372400001,-10.569358531799999,0.0157949556356,0.000235794772711
278,qDII-DR5-CLV3-LD_E27_170817_sam04_t00,E27,4,0,2.4347020765200003,-10.0224094007,-2.22687935719,0.0141797838307,0.00018875584525400002
279,qDII-DR5-CLV3-LD_E27_170817_sam04_t00,E27,4,0,-12.8666541148,-16.8526648666,-5.57499121,0.011543780969,0.000118865897061
280,qDII-DR5-CLV3-LD_E27_170817_sam04_t00,E27,4,0,48.7210146851,7.707838422769999,-40.2302435533,-0.0019173390528399998,-0.00046850111848699996
281,qDII-DR5-CLV3-LD_E27_170817_sam04_t00,E27,4,0,-26.002811773,-23.374214766799998,-13.7769205487,0.009126843678450002,3.09517016992e-07
282,qDII-DR5-CLV3-LD_E27_170817_sam04_t00,E27,4,0,-43.8667872036,-31.629145721599997,-27.4594507879,0.014251319284299999,2.8792307235e-05
283,qDII-DR5-CLV3-LD_E27_170817_sam04_t00,E27,4,0,44.867013270600005,5.86484387153,-25.7787872882,0.0026843960914899995,-0.000588586653704
284,qDII-DR5-CLV3-LD_E27_170817_sam04_t00,E27,4,0,-18.0271871134,-20.2714295575,-8.57877085528,0.0115861843649,0.000125209800716
285,qDII-DR5-CLV3-LD_E27_170817_sam04_t00,E27,4,0,-22.7572472704,-22.3422934855,-10.513475355499999,0.0107352126778,9.22130496552e-05
286,qDII-DR5-CLV3-LD_E27_170817_sam04_t00,E27,4,0,-33.3438599956,-27.150202768899998,-20.1500731125,0.0100001373335,-0.00020411429774400003
287,qDII-DR5-CLV3-LD_E27_170817_sam04_t00,E27,4,0,-36.809048415999996,-28.7259881348,-23.3678106238,0.0123838228752,-0.00018528522705400002
288,qDII-DR5-CLV3-LD_E27_170817_sam04_t00,E27,4,0,-48.6144064359,-34.0860102687,-34.0714492923,0.0181000791663,0.000274080926268
289,qDII-DR5-CLV3-LD_E27_170817_sam04_t00,E27,4,0,41.1075071242,4.24526361701,-19.573375268499998,0.004667149585270001,-0.0003050874937109999
290,qDII-DR5-CLV3-LD_E27_170817_sam04_t00,E27,4,0,18.4869701856,-5.09742595934,-4.68949334586,0.0161481758054,0.00024490570756
291,qDII-DR5-CLV3-LD_E27_170817_sam04_t00,E27,4,0,14.628669458800001,-6.9116279763,-3.16761439429,0.015536886727,0.00022580471263399998
292,qDII-DR5-CLV3-LD_E27_170817_sam04_t00,E27,4,0,47.945603819,4.79186550583,-29.432577465799998,0.0019111208259500001,-0.000628464656742
293,qDII-DR5-CLV3-LD_E27_170817_sam04_t00,E27,4,0,-13.321422273,-20.5053606761,-7.68194617987,0.012355394524299998,0.000140740026094
294,qDII-DR5-CLV3-LD_E27_170817_sam04_t00,E27,4,0,-39.461881786,-32.215562068000004,-26.523157494699998,0.0117123630253,-0.000127999372762
295,qDII-DR5-CLV3-LD_E27_170817_sam04_t00,E27,4,0,27.9425875554,-3.44335546379,-7.724841588060001,0.0148656971682,0.000217668965716
296,qDII-DR5-CLV3-LD_E27_170817_sam04_t00,E27,4,0,1.42209912976,-14.7745928281,-3.05907461362,0.0134737566865,0.00016733269651700002
297,qDII-DR5-CLV3-LD_E27_170817_sam04_t00,E27,4,0,53.338807779300005,5.74649173349,-35.7002437626,-1.3064893667000001e-05,-0.00047840568060600005
298,qDII-DR5-CLV3-LD_E27_170817_sam04_t00,E27,4,0,11.2906393534,-11.2522763821,-2.70436669324,0.0149304132553,0.000205394908358
299,qDII-DR5-CLV3-LD_E27_170817_sam04_t00,E27,4,0,51.544677708100004,4.61523645264,-33.1715439431,0.0009224897653879999,-0.000549356977123
300,qDII-DR5-CLV3-LD_E27_170817_sam04_t00,E27,4,0,23.271719059000002,-6.76656461489,-7.23880822775,0.015489669734700002,0.00022934330312
301,qDII-DR5-CLV3-LD_E27_170817_sam04_t00,E27,4,0,35.5997846292,-1.98540190817,-14.1627923026,0.007023756049620001,-4.25466219382e-05
302,qDII-DR5-CLV3-LD_E27_170817_sam04_t00,E27,4,0,-2.17494509405,-17.6832766027,-3.8394594874699997,0.013233284285799998,0.000154556504532
303,qDII-DR5-CLV3-LD_E27_170817_sam04_t00,E27,4,0,-28.335196979499997,-29.2106156808,-16.8137933844,0.0112194906935,-7.80199186275e-05
304,qDII-DR5-CLV3-LD_E27_170817_sam04_t00,E27,4,0,-41.6864937864,-35.601063918499996,-32.0618078419,0.011333765490700002,3.62233544189e-05
305,qDII-DR5-CLV3-LD_E27_170817_sam04_t00,E27,4,0,38.983728457,-1.12458349215,-17.949568877,0.0028468430658699995,-0.00026544371734299997
306,qDII-DR5-CLV3-LD_E27_170817_sam04_t00,E27,4,0,31.093638614899998,-4.44754009249,-10.2119021929,0.0116206268183,0.000128781552229
307,qDII-DR5-CLV3-LD_E27_170817_sam04_t00,E27,4,0,6.73835780985,-14.5637260847,-3.40167768263,0.014187266668499999,0.000185486428463
308,qDII-DR5-CLV3-LD_E27_170817_sam04_t00,E27,4,0,-44.752037291099995,-37.5360881007,-37.6337559245,0.013118043285399998,0.000129905156925
309,qDII-DR5-CLV3-LD_E27_170817_sam04_t00,E27,4,0,-24.9996219779,-28.630245849899996,-14.704599636,0.012874155287899999,5.10060622333e-05
310,qDII-DR5-CLV3-LD_E27_170817_sam04_t00,E27,4,0,-6.498827725830001,-20.7110348144,-5.7429686675,0.0131050750089,0.00014903382908000001
311,qDII-DR5-CLV3-LD_E27_170817_sam04_t00,E27,4,0,42.530143295,-0.646522789583,-21.7238673233,0.00017122683442899998,-0.000556355052792
312,qDII-DR5-CLV3-LD_E27_170817_sam04_t00,E27,4,0,-14.6589672399,-24.492028676599997,-8.53909769247,0.013621924677799999,0.00017875057546500001
313,qDII-DR5-CLV3-LD_E27_170817_sam04_t00,E27,4,0,-34.3785158743,-33.869698369299996,-25.5660445941,0.009916255746559998,-0.000162657029208
314,qDII-DR5-CLV3-LD_E27_170817_sam04_t00,E27,4,0,18.315298743,-11.3000870549,-5.4883908668400005,0.015635903975,0.00022584151235099999
315,qDII-DR5-CLV3-LD_E27_170817_sam04_t00,E27,4,0,-20.9284335745,-28.1909741758,-12.6327720902,0.015071507976299999,0.00017977925014099998
316,qDII-DR5-CLV3-LD_E27_170817_sam04_t00,E27,4,0,45.474839287200005,-0.873432542797,-25.419228534000002,0.0007667724769109999,-0.0006936064277969999
317,qDII-DR5-CLV3-LD_E27_170817_sam04_t00,E27,4,0,-9.16921108377,-23.680263560100002,-6.577334520830001,0.0133669362449,0.00016319388359
318,qDII-DR5-CLV3-LD_E27_170817_sam04_t00,E27,4,0,-29.024896658899998,-32.549347513899995,-20.0999560552,0.011700055084799998,-0.000113051412511
319,qDII-DR5-CLV3-LD_E27_170817_sam04_t00,E27,4,0,28.056467932399997,-8.43570327044,-9.788123109639999,0.0119948720687,0.000140498119929
320,qDII-DR5-CLV3-LD_E27_170817_sam04_t00,E27,4,0,1.42616754784,-20.0388726771,-5.09950229426,0.0132043367848,0.00015618098433200004
321,qDII-DR5-CLV3-LD_E27_170817_sam04_t00,E27,4,0,48.874090718400005,-0.870442187837,-27.9810897256,0.00352027939185,-0.000645539679015
322,qDII-DR5-CLV3-LD_E27_170817_sam04_t00,E27,4,0,33.0500269769,-7.12183822648,-13.7015788351,0.005388254471370001,-6.835889535699999e-05
323,qDII-DR5-CLV3-LD_E27_170817_sam04_t00,E27,4,0,14.3514671947,-15.2277052618,-5.010630804140001,0.0152534743291,0.000211338793464
324,qDII-DR5-CLV3-LD_E27_170817_sam04_t00,E27,4,0,-15.577065831099999,-28.1144520006,-10.6190621726,0.0160842668667,0.00024794089845
325,qDII-DR5-CLV3-LD_E27_170817_sam04_t00,E27,4,0,52.4929660674,-0.32358774826,-30.588658599099997,0.00592526580229,-0.000530223026001
326,qDII-DR5-CLV3-LD_E27_170817_sam04_t00,E27,4,0,-38.4060420273,-39.032628713499996,-34.4137796346,0.006770499066069999,-5.97188255141e-05
327,qDII-DR5-CLV3-LD_E27_170817_sam04_t00,E27,4,0,39.9716106487,-5.52278651415,-20.1021633471,-0.00190359857237,-0.000488031788607
328,qDII-DR5-CLV3-LD_E27_170817_sam04_t00,E27,4,0,23.6205309571,-12.072876398,-8.12288204842,0.0139524258896,0.00018611528594200002
329,qDII-DR5-CLV3-LD_E27_170817_sam04_t00,E27,4,0,9.518127688180002,-18.1681566994,-4.53707557191,0.014633996016799999,0.00019582872364099996
330,qDII-DR5-CLV3-LD_E27_170817_sam04_t00,E27,4,0,55.347651560699994,-0.0989460510153,-33.129768365100006,0.00906676273025,-0.00029581258825999996
331,qDII-DR5-CLV3-LD_E27_170817_sam04_t00,E27,4,0,-35.1890539786,-38.4640183312,-31.1212415365,0.00635964505477,-0.000114140317798
332,qDII-DR5-CLV3-LD_E27_170817_sam04_t00,E27,4,0,-32.143311934,-37.252477641700004,-26.6806910577,0.00854623223185,-0.000119554651013
333,qDII-DR5-CLV3-LD_E27_170817_sam04_t00,E27,4,0,-28.9065224253,-35.9603837667,-22.2567553557,0.0112615624959,-7.73234054274e-05
334,qDII-DR5-CLV3-LD_E27_170817_sam04_t00,E27,4,0,60.0864776241,0.805399476621,-39.353829395300004,0.0119440872309,-6.23646830918e-05
335,qDII-DR5-CLV3-LD_E27_170817_sam04_t00,E27,4,0,-2.36641799652,-24.6094211911,-5.76975461225,0.0133691057541,0.00015842270794299998
336,qDII-DR5-CLV3-LD_E27_170817_sam04_t00,E27,4,0,-9.46150823195,-27.7157170831,-8.67181136261,0.014680355919600001,0.00020826946322700002
337,qDII-DR5-CLV3-LD_E27_170817_sam04_t00,E27,4,0,36.6358320154,-8.619606239760001,-16.1865370247,0.00047964615060000005,-0.00027041162720999994
338,qDII-DR5-CLV3-LD_E27_170817_sam04_t00,E27,4,0,-21.350344141500003,-33.2218432338,-15.8357926948,0.0169684981369,0.000191741168315
339,qDII-DR5-CLV3-LD_E27_170817_sam04_t00,E27,4,0,27.9991023054,-12.7851207699,-10.7033922505,0.010516048935100001,9.80081816615e-05
340,qDII-DR5-CLV3-LD_E27_170817_sam04_t00,E27,4,0,19.6281229549,-16.4638055038,-7.616029080750001,0.0148178797465,0.000199230201153
341,qDII-DR5-CLV3-LD_E27_170817_sam04_t00,E27,4,0,46.278206624300005,-5.94984421771,-25.1698023356,0.000388276954883,-0.000639352049177
342,qDII-DR5-CLV3-LD_E27_170817_sam04_t00,E27,4,0,-16.442505371099998,-32.3915650804,-12.6636946837,0.0187959935745,0.00031469347885900004
343,qDII-DR5-CLV3-LD_E27_170817_sam04_t00,E27,4,0,51.8075566129,-4.5974579223,-27.943518978,0.00714996169384,-0.00048007655102999997
344,qDII-DR5-CLV3-LD_E27_170817_sam04_t00,E27,4,0,-4.37364846364,-27.7885418305,-7.80821624098,0.0142472251722,0.000190340990165
345,qDII-DR5-CLV3-LD_E27_170817_sam04_t00,E27,4,0,-30.7116971375,-39.8879867473,-36.0164936921,0.00424949012556,-0.000151763939862
346,qDII-DR5-CLV3-LD_E27_170817_sam04_t00,E27,4,0,-35.8260946069,-42.4574399201,-34.372072238200005,0.00493451661298,-0.00011348521170100001
347,qDII-DR5-CLV3-LD_E27_170817_sam04_t00,E27,4,0,56.954811673500004,-3.40617799806,-30.6840060667,0.013739435356,-0.00012178972702500001
348,qDII-DR5-CLV3-LD_E27_170817_sam04_t00,E27,4,0,38.2101254495,-11.455010744900001,-19.6429841132,-0.006159166877560001,-0.0005863369423869999
349,qDII-DR5-CLV3-LD_E27_170817_sam04_t00,E27,4,0,7.91258088964,-23.885483176300003,-6.45082410146,0.0139261102096,0.000177132970646
350,qDII-DR5-CLV3-LD_E27_170817_sam04_t00,E27,4,0,2.49079138798,-26.2097661096,-7.152339921319999,0.0135606074621,0.000167330852928
351,qDII-DR5-CLV3-LD_E27_170817_sam04_t00,E27,4,0,-21.6140648358,-36.7939858578,-17.9593624416,0.016931124539700002,0.00017812354284
352,qDII-DR5-CLV3-LD_E27_170817_sam04_t00,E27,4,0,-11.5456930668,-32.5449430134,-11.7834847852,0.0185976130375,0.000325456760919
353,qDII-DR5-CLV3-LD_E27_170817_sam04_t00,E27,4,0,16.6721877774,-20.6433475385,-7.18601093348,0.014715775617700001,0.00019318440789200001
354,qDII-DR5-CLV3-LD_E27_170817_sam04_t00,E27,4,0,12.9324740035,-22.445790106900002,-6.847476331619999,0.014375133119,0.000185843061873
355,qDII-DR5-CLV3-LD_E27_170817_sam04_t00,E27,4,0,-28.5181166948,-40.7260743709,-27.876308990500004,0.00937815072664,-5.07263003288e-05
356,qDII-DR5-CLV3-LD_E27_170817_sam04_t00,E27,4,0,23.0667645867,-18.4366438647,-8.88855001562,0.013523214957,0.000165178394147
357,qDII-DR5-CLV3-LD_E27_170817_sam04_t00,E27,4,0,-26.500072480900002,-39.9860933463,-24.5194142,0.0119189436406,8.7052473979e-06
358,qDII-DR5-CLV3-LD_E27_170817_sam04_t00,E27,4,0,64.64057611369999,-2.39125935004,-44.1493247078,0.019174591924700002,0.000336200253042
359,qDII-DR5-CLV3-LD_E27_170817_sam04_t00,E27,4,0,42.6832011533,-11.0374950135,-23.471263539000002,-0.00500715386205,-0.0006832602193999999
360,qDII-DR5-CLV3-LD_E27_170817_sam04_t00,E27,4,0,27.0963113175,-17.265372155,-11.558441347899999,0.009774622182120002,6.729718858000001e-05
361,qDII-DR5-CLV3-LD_E27_170817_sam04_t00,E27,4,0,32.5730022549,-15.258296103800001,-14.3674899593,0.00263773696924,-0.000150494031482
362,qDII-DR5-CLV3-LD_E27_170817_sam04_t00,E27,4,0,-23.1732724733,-39.1455509218,-21.2497299428,0.0151195072047,0.00011521304438200001
363,qDII-DR5-CLV3-LD_E27_170817_sam04_t00,E27,4,0,46.9762558592,-9.7168763811,-24.991040075300003,0.0010046921505299999,-0.0005646990057070001
364,qDII-DR5-CLV3-LD_E27_170817_sam04_t00,E27,4,0,51.9522649158,-7.88266614968,-26.5835147833,0.00832477261662,-0.000371917361274
365,qDII-DR5-CLV3-LD_E27_170817_sam04_t00,E27,4,0,62.8705377273,-3.7341694790499997,-34.5579249927,0.0195888000004,0.00027059562980799996
366,qDII-DR5-CLV3-LD_E27_170817_sam04_t00,E27,4,0,-7.039750684239999,-32.5992547238,-9.70955482411,0.0166625999128,0.00026949020948299995
367,qDII-DR5-CLV3-LD_E27_170817_sam04_t00,E27,4,0,-1.1019716984899999,-30.9599340318,-8.99969752497,0.015276611649,0.00022663122821500002
368,qDII-DR5-CLV3-LD_E27_170817_sam04_t00,E27,4,0,-14.6377742725,-37.1222451158,-14.8474162923,0.019273453915799998,0.000320212666391
369,qDII-DR5-CLV3-LD_E27_170817_sam04_t00,E27,4,0,65.4792652333,-4.17921989186,-40.5701305721,0.022434263287400003,0.000481987826439
370,qDII-DR5-CLV3-LD_E27_170817_sam04_t00,E27,4,0,10.066549325,-27.076883591999998,-7.57170962908,0.014214050835,0.000186786527687
371,qDII-DR5-CLV3-LD_E27_170817_sam04_t00,E27,4,0,29.0439246856,-19.6794976952,-13.887627481400001,0.0061180442167900004,-5.27349021027e-05
372,qDII-DR5-CLV3-LD_E27_170817_sam04_t00,E27,4,0,58.7046413364,-7.81965115133,-29.357163244000002,0.0178360211976,0.000126137429996
373,qDII-DR5-CLV3-LD_E27_170817_sam04_t00,E27,4,0,-24.0517863196,-43.1336988735,-35.0634492586,0.00785273971561,-6.5443874609e-05
374,qDII-DR5-CLV3-LD_E27_170817_sam04_t00,E27,4,0,35.4121674255,-17.5986220469,-19.1069700589,-0.00539571136684,-0.00047647736802900007
375,qDII-DR5-CLV3-LD_E27_170817_sam04_t00,E27,4,0,44.9008551058,-13.8999290985,-22.264928985,-0.0029902059156899996,-0.0006087067233320001
376,qDII-DR5-CLV3-LD_E27_170817_sam04_t00,E27,4,0,5.3605717652900005,-30.2657481748,-9.44198925533,0.0150967410107,0.00022119128267000001
377,qDII-DR5-CLV3-LD_E27_170817_sam04_t00,E27,4,0,15.721018875699999,-26.3103933154,-9.143364729670001,0.0145962887838,0.000190022216442
378,qDII-DR5-CLV3-LD_E27_170817_sam04_t00,E27,4,0,-8.9328880551,-37.3479274685,-12.8378430236,0.0189700289992,0.000336318415867
379,qDII-DR5-CLV3-LD_E27_170817_sam04_t00,E27,4,0,-15.3274739519,-40.4609769489,-18.1335789631,0.0176931274626,0.00025131908864400003
380,qDII-DR5-CLV3-LD_E27_170817_sam04_t00,E27,4,0,40.2299866094,-17.2231382496,-21.7788956247,-0.00773965980247,-0.000667871178885
381,qDII-DR5-CLV3-LD_E27_170817_sam04_t00,E27,4,0,24.880270679299997,-23.427496493899998,-12.232762133,0.011341977360200001,8.72944231955e-05
382,qDII-DR5-CLV3-LD_E27_170817_sam04_t00,E27,4,0,20.448827560599998,-25.4833580676,-10.6610388508,0.0143521127795,0.000176678944161
383,qDII-DR5-CLV3-LD_E27_170817_sam04_t00,E27,4,0,0.889525726773,-33.7685767341,-10.1330611807,0.0164134571363,0.00026662162656099995
384,qDII-DR5-CLV3-LD_E27_170817_sam04_t00,E27,4,0,-19.730349704200002,-42.959873430200005,-23.5892236075,0.0159172804815,0.00017786061244599998
385,qDII-DR5-CLV3-LD_E27_170817_sam04_t00,E27,4,0,55.3402862492,-11.379781776,-25.4124440166,0.015134279895,-1.99005655078e-05
386,qDII-DR5-CLV3-LD_E27_170817_sam04_t00,E27,4,0,-4.52348878094,-36.353032261100005,-11.9950675093,0.0179214988941,0.00030938518796200004
387,qDII-DR5-CLV3-LD_E27_170817_sam04_t00,E27,4,0,64.5017804374,-8.15940208089,-32.0477378203,0.026016058920900004,0.000636064532538
388,qDII-DR5-CLV3-LD_E27_170817_sam04_t00,E27,4,0,31.602031893299998,-21.6488253734,-17.4562413593,-0.00024532209828400005,-0.000294369203818
389,qDII-DR5-CLV3-LD_E27_170817_sam04_t00,E27,4,0,-22.5960707509,-45.074517020600005,-30.3382769758,0.012167241975100001,6.32581766702e-05
390,qDII-DR5-CLV3-LD_E27_170817_sam04_t00,E27,4,0,50.498171748800004,-14.0600606199,-23.7783982756,0.008415684044100001,-0.000237666787573
391,qDII-DR5-CLV3-LD_E27_170817_sam04_t00,E27,4,0,12.7497760949,-29.632107289,-9.93826196517,0.0151081735096,0.00021241295450400002
392,qDII-DR5-CLV3-LD_E27_170817_sam04_t00,E27,4,0,-20.3869790731,-44.2539828105,-26.9979969622,0.0148740581554,0.00014929263186599999
393,qDII-DR5-CLV3-LD_E27_170817_sam04_t00,E27,4,0,-16.3508906454,-42.774020761399996,-20.2842073813,0.0168241926609,0.00021891551111200003
394,qDII-DR5-CLV3-LD_E27_170817_sam04_t00,E27,4,0,68.0943217171,-7.73837566675,-38.172110189099996,0.028917294489500003,0.0008205018543010001
395,qDII-DR5-CLV3-LD_E27_170817_sam04_t00,E27,4,0,28.068673186599998,-24.2285428173,-15.9094061516,0.00507777707365,-0.00012981001257399998
396,qDII-DR5-CLV3-LD_E27_170817_sam04_t00,E27,4,0,9.61606230406,-32.5710635492,-10.7456373288,0.0160749340334,0.00025207464042400004
397,qDII-DR5-CLV3-LD_E27_170817_sam04_t00,E27,4,0,44.924724983800004,-18.4407254546,-23.173959061799998,-4.0580529878e-05,-0.00045209723376999993
398,qDII-DR5-CLV3-LD_E27_170817_sam04_t00,E27,4,0,-8.423643899670001,-40.8580299439,-16.1883623867,0.0178622977824,0.000298929140289
399,qDII-DR5-CLV3-LD_E27_170817_sam04_t00,E27,4,0,69.8378224024,-9.03774345793,-45.2554933288,0.028963383506900003,0.000800116738518
400,qDII-DR5-CLV3-LD_E27_170817_sam04_t00,E27,4,0,-0.40189279836499997,-37.812279023,-13.340286615799998,0.0179837841123,0.000318233914454
401,qDII-DR5-CLV3-LD_E27_170817_sam04_t00,E27,4,0,60.507130050600004,-12.8878140603,-27.9949884523,0.0222539189128,0.00039575739474199994
402,qDII-DR5-CLV3-LD_E27_170817_sam04_t00,E27,4,0,55.4278416444,-15.591611801400001,-23.9942540119,0.0193916824704,0.00023398599602400002
403,qDII-DR5-CLV3-LD_E27_170817_sam04_t00,E27,4,0,6.07167713141,-36.134437079499996,-11.490690233599999,0.0173698340751,0.000302299694085
404,qDII-DR5-CLV3-LD_E27_170817_sam04_t00,E27,4,0,-10.4835334179,-43.3824608275,-18.2621559844,0.0169534749511,0.000264308405857
405,qDII-DR5-CLV3-LD_E27_170817_sam04_t00,E27,4,0,35.9036488738,-24.011175036199997,-21.1099633552,-0.00708047039216,-0.0006160676703430001
406,qDII-DR5-CLV3-LD_E27_170817_sam04_t00,E27,4,0,18.5709977931,-31.0898588733,-12.5644116675,0.015499232279299998,0.00020583036669
407,qDII-DR5-CLV3-LD_E27_170817_sam04_t00,E27,4,0,23.6084408948,-30.170510991399997,-15.2820449152,0.00980393416157,-1.37892338672e-05
408,qDII-DR5-CLV3-LD_E27_170817_sam04_t00,E27,4,0,-10.8964562718,-45.250706778,-21.652212146999997,0.0156440863195,0.000223683920829
409,qDII-DR5-CLV3-LD_E27_170817_sam04_t00,E27,4,0,-13.979549764300002,-46.665385772700006,-24.9031792121,0.0150648602736,0.00019665619963599997
410,qDII-DR5-CLV3-LD_E27_170817_sam04_t00,E27,4,0,69.5630934171,-11.7808505551,-35.6744011448,0.032793938986800004,0.00102526919432
411,qDII-DR5-CLV3-LD_E27_170817_sam04_t00,E27,4,0,-2.65732363719,-41.9985746461,-15.3039476577,0.0182035277757,0.00032265087403900004
412,qDII-DR5-CLV3-LD_E27_170817_sam04_t00,E27,4,0,66.8861865372,-13.246078026900001,-31.8958978681,0.0300757810732,0.000868925375528
413,qDII-DR5-CLV3-LD_E27_170817_sam04_t00,E27,4,0,41.9116368986,-23.5468892874,-22.685755104600002,-0.0032325051265400004,-0.0005349112103999999
414,qDII-DR5-CLV3-LD_E27_170817_sam04_t00,E27,4,0,14.0713753007,-35.0559983316,-13.2263906878,0.017417795163300002,0.000288518248667
415,qDII-DR5-CLV3-LD_E27_170817_sam04_t00,E27,4,0,-14.5988276854,-47.756356847700005,-29.5015359805,0.0149570501428,0.00018850645271
416,qDII-DR5-CLV3-LD_E27_170817_sam04_t00,E27,4,0,29.6472477581,-28.90543147,-20.4328259698,-0.0011148625075899999,-0.0004457787169669999
417,qDII-DR5-CLV3-LD_E27_170817_sam04_t00,E27,4,0,26.8078698681,-29.9879012283,-16.6668008211,0.0048608662589099995,-0.00020250443067700003
418,qDII-DR5-CLV3-LD_E27_170817_sam04_t00,E27,4,0,-11.206108863599999,-47.1557110254,-34.4488030637,0.0158393817721,0.000220948994731
419,qDII-DR5-CLV3-LD_E27_170817_sam04_t00,E27,4,0,-7.688261392010001,-46.234615415200004,-31.195733583400003,0.014807827898699999,0.000204604978994
420,qDII-DR5-CLV3-LD_E27_170817_sam04_t00,E27,4,0,-5.20034504833,-45.2162165369,-18.4821483695,0.0170965182752,0.00028538066049199997
421,qDII-DR5-CLV3-LD_E27_170817_sam04_t00,E27,4,0,59.0728383435,-18.3417250378,-24.058474340900002,0.023485391757,0.000465272556385
422,qDII-DR5-CLV3-LD_E27_170817_sam04_t00,E27,4,0,36.0746821586,-28.076901044699998,-23.2314306868,-0.00453346003358,-0.0006016716078069998
423,qDII-DR5-CLV3-LD_E27_170817_sam04_t00,E27,4,0,20.1605988305,-34.7830914396,-14.7959433732,0.0141929734976,0.000131228095037
424,qDII-DR5-CLV3-LD_E27_170817_sam04_t00,E27,4,0,50.9016814509,-22.200029179899996,-22.148216456799997,0.0163579277322,0.000202328116679
425,qDII-DR5-CLV3-LD_E27_170817_sam04_t00,E27,4,0,8.39689157075,-39.968767802399995,-13.7595881419,0.0197110287449,0.000392730216354
426,qDII-DR5-CLV3-LD_E27_170817_sam04_t00,E27,4,0,46.970920213,-24.0830249338,-21.793067078000004,0.00855393167659,-9.94595127922e-05
427,qDII-DR5-CLV3-LD_E27_170817_sam04_t00,E27,4,0,63.2362796305,-18.0165219405,-26.686794640100004,0.0250206897841,0.000568955215185
428,qDII-DR5-CLV3-LD_E27_170817_sam04_t00,E27,4,0,3.499866547130001,-43.2381855708,-15.613252991300001,0.0203953552519,0.000417402364827
429,qDII-DR5-CLV3-LD_E27_170817_sam04_t00,E27,4,0,-6.41706067783,-48.853642215200004,-24.0685406321,0.016107269584299998,0.00025593444821500003
430,qDII-DR5-CLV3-LD_E27_170817_sam04_t00,E27,4,0,26.31349879,-35.0875640234,-21.0365509986,0.00225036758748,-0.000471804685609
431,qDII-DR5-CLV3-LD_E27_170817_sam04_t00,E27,4,0,14.185255677699999,-40.0483461383,-15.2896722094,0.0200317864565,0.000389510079212
432,qDII-DR5-CLV3-LD_E27_170817_sam04_t00,E27,4,0,-6.55974840296,-49.5600926223,-36.9461711997,0.0150449528094,0.00022407287381499998
433,qDII-DR5-CLV3-LD_E27_170817_sam04_t00,E27,4,0,-2.7806262534099995,-47.9207871565,-21.9988155015,0.018416662302299998,0.00034612047911199996
434,qDII-DR5-CLV3-LD_E27_170817_sam04_t00,E27,4,0,55.2867854086,-23.5099290191,-22.3433207673,0.0233104592062,0.00049900854643
435,qDII-DR5-CLV3-LD_E27_170817_sam04_t00,E27,4,0,38.6393219757,-30.643884190300003,-24.4146386731,-0.000287994451498,-0.000496842100479
436,qDII-DR5-CLV3-LD_E27_170817_sam04_t00,E27,4,0,34.054182840900005,-32.5771606443,-24.015884027800002,-0.00044786114484900006,-0.00054486742513
437,qDII-DR5-CLV3-LD_E27_170817_sam04_t00,E27,4,0,20.8037375422,-39.1392625274,-18.1048917032,0.0133002530272,4.27401807332e-05
438,qDII-DR5-CLV3-LD_E27_170817_sam04_t00,E27,4,0,68.91258030649999,-19.611860998900003,-31.646403488,0.030468926079099998,0.000841186064031
439,qDII-DR5-CLV3-LD_E27_170817_sam04_t00,E27,4,0,31.6934338998,-35.4540767558,-26.0502090077,0.00102267978216,-0.0005938696770310001
440,qDII-DR5-CLV3-LD_E27_170817_sam04_t00,E27,4,0,72.9882534791,-18.4976235775,-36.6663687428,0.0343865590853,0.0010696217546800001
441,qDII-DR5-CLV3-LD_E27_170817_sam04_t00,E27,4,0,10.4300215812,-44.415756347,-17.1495079412,0.0224326452895,0.000508542356789
442,qDII-DR5-CLV3-LD_E27_170817_sam04_t00,E27,4,0,3.6072143147300006,-47.6328779101,-20.0619404044,0.022495599084099996,0.000515565375316
443,qDII-DR5-CLV3-LD_E27_170817_sam04_t00,E27,4,0,61.05534805560001,-24.3129908477,-25.0048024387,0.027205018602200003,0.0006864018010780002
444,qDII-DR5-CLV3-LD_E27_170817_sam04_t00,E27,4,0,16.4753610538,-43.7483322929,-19.9148831043,0.0195807305833,0.00034878897509400006
445,qDII-DR5-CLV3-LD_E27_170817_sam04_t00,E27,4,0,43.1209690417,-33.0029909473,-23.3785885369,0.0106737687567,-8.82148109261e-05
446,qDII-DR5-CLV3-LD_E27_170817_sam04_t00,E27,4,0,23.7527146717,-41.2076564282,-22.8672256437,0.00730942394955,-0.00032119421128500004
447,qDII-DR5-CLV3-LD_E27_170817_sam04_t00,E27,4,0,1.2640153614799998,-51.0301392092,-24.4172464018,0.0224944482528,0.0005161506893349999
448,qDII-DR5-CLV3-LD_E27_170817_sam04_t00,E27,4,0,-3.23541258666,-53.386174579300004,-38.1023205147,0.0182264969263,0.000307588906842
449,qDII-DR5-CLV3-LD_E27_170817_sam04_t00,E27,4,0,66.5648965842,-23.6840880451,-28.909916684899997,0.0287655335605,0.00073739824238
450,qDII-DR5-CLV3-LD_E27_170817_sam04_t00,E27,4,0,48.514182089399995,-31.142018913,-22.6479798121,0.0179305422701,0.00024252253421900002
451,qDII-DR5-CLV3-LD_E27_170817_sam04_t00,E27,4,0,36.8339527192,-36.181591259,-25.151281917,0.00601563989451,-0.000364265988582
452,qDII-DR5-CLV3-LD_E27_170817_sam04_t00,E27,4,0,26.1814211799,-40.7496039401,-26.5709283336,0.0038353191682699997,-0.0005196532000350001
453,qDII-DR5-CLV3-LD_E27_170817_sam04_t00,E27,4,0,10.5045117576,-47.432275437799994,-20.5021297195,0.0235517896159,0.00056439201253
454,qDII-DR5-CLV3-LD_E27_170817_sam04_t00,E27,4,0,19.4925175571,-43.9064483091,-22.4435147421,0.0153630656784,0.000123047470819
455,qDII-DR5-CLV3-LD_E27_170817_sam04_t00,E27,4,0,53.5054987494,-30.1656367427,-23.015539137199998,0.025704480611200002,0.0006056049548539999
456,qDII-DR5-CLV3-LD_E27_170817_sam04_t00,E27,4,0,0.6973964915209999,-52.7758000399,-28.980271201300003,0.0230564899214,0.000524821056531
457,qDII-DR5-CLV3-LD_E27_170817_sam04_t00,E27,4,0,28.8164827553,-41.0688263275,-29.0663304177,0.00215021100202,-0.0005992843810850001
458,qDII-DR5-CLV3-LD_E27_170817_sam04_t00,E27,4,0,40.4593606777,-36.2323922868,-25.373444899000003,0.011869145778700001,-0.00011065391339299999
459,qDII-DR5-CLV3-LD_E27_170817_sam04_t00,E27,4,0,8.06252731139,-50.117812692600005,-22.542693763499997,0.0252542169327,0.000640984977164
460,qDII-DR5-CLV3-LD_E27_170817_sam04_t00,E27,4,0,58.916261785100005,-28.8250098958,-24.60591143,0.029744978260699998,0.000807766474854
461,qDII-DR5-CLV3-LD_E27_170817_sam04_t00,E27,4,0,34.2623548542,-39.8625440489,-28.3003897239,0.00469161362755,-0.0005292919725969999
462,qDII-DR5-CLV3-LD_E27_170817_sam04_t00,E27,4,0,14.538339625699999,-48.1024878755,-24.238993781599998,0.019836123496599998,0.000407094104563
463,qDII-DR5-CLV3-LD_E27_170817_sam04_t00,E27,4,0,21.978164253699997,-45.9445697243,-27.178858192899998,0.00782971377234,-0.000184990389907
464,qDII-DR5-CLV3-LD_E27_170817_sam04_t00,E27,4,0,7.01277654857,-52.5566845305,-28.210125676999997,0.0252614506695,0.000632489017678
465,qDII-DR5-CLV3-LD_E27_170817_sam04_t00,E27,4,0,17.909014603,-48.5628084196,-26.7717620682,0.0140884658564,0.00017380562179499998
466,qDII-DR5-CLV3-LD_E27_170817_sam04_t00,E27,4,0,73.7959019536,-25.415519399999997,-37.483915274299996,0.0321135819605,0.000899517235658
467,qDII-DR5-CLV3-LD_E27_170817_sam04_t00,E27,4,0,25.4147671328,-45.73844106399999,-30.930302798299998,0.000996664751581,-0.00039580118716900007
468,qDII-DR5-CLV3-LD_E27_170817_sam04_t00,E27,4,0,12.959330528299999,-51.1775364322,-28.6607588866,0.0186333547394,0.000389300815141
469,qDII-DR5-CLV3-LD_E27_170817_sam04_t00,E27,4,0,1.3713540415799998,-56.3311773551,-35.8642088366,0.0231291853342,0.00048610827089199993
470,qDII-DR5-CLV3-LD_E27_170817_sam04_t00,E27,4,0,64.11168204020001,-29.8697312812,-27.2175487706,0.0318451964265,0.000914931570475
471,qDII-DR5-CLV3-LD_E27_170817_sam04_t00,E27,4,0,45.661313542200006,-37.8747691394,-25.5996763481,0.0256745866872,0.000467382577097
472,qDII-DR5-CLV3-LD_E27_170817_sam04_t00,E27,4,0,53.5381436214,-34.966605692600005,-25.0850597229,0.031837613893300004,0.0008245635097090001
473,qDII-DR5-CLV3-LD_E27_170817_sam04_t00,E27,4,0,8.681574338239999,-54.262328932299994,-32.914341989099995,0.0224852420649,0.000517742390977
474,qDII-DR5-CLV3-LD_E27_170817_sam04_t00,E27,4,0,40.8741004775,-40.872254865500004,-27.4761950384,0.0184350057187,7.91050091946e-05
475,qDII-DR5-CLV3-LD_E27_170817_sam04_t00,E27,4,0,20.3793536963,-49.7431017738,-32.732020901700004,0.00105300425996,-0.000175194117458
476,qDII-DR5-CLV3-LD_E27_170817_sam04_t00,E27,4,0,35.1975779948,-43.606057315200005,-30.488316163,0.00697101180571,-0.00043768473932300004
477,qDII-DR5-CLV3-LD_E27_170817_sam04_t00,E27,4,0,58.948906656999995,-33.625978845700004,-26.6754320156,0.034029555564700005,0.000987996305981
478,qDII-DR5-CLV3-LD_E27_170817_sam04_t00,E27,4,0,13.2271105531,-53.776019463900006,-35.5758918421,0.012870990030200001,0.000215835312736
479,qDII-DR5-CLV3-LD_E27_170817_sam04_t00,E27,4,0,7.232178659630001,-56.341961953900004,-36.227563331300004,0.021772087075400005,0.000471155908698
480,qDII-DR5-CLV3-LD_E27_170817_sam04_t00,E27,4,0,71.1759352622,-29.376920775100004,-34.7370527583,0.0304935390215,0.0008101007265739999
481,qDII-DR5-CLV3-LD_E27_170817_sam04_t00,E27,4,0,27.972874340500002,-47.7077687423,-34.4989166762,2.35476548452e-05,-0.000376911754315
482,qDII-DR5-CLV3-LD_E27_170817_sam04_t00,E27,4,0,22.522508384899997,-50.4953625746,-35.1713395911,-0.00341140666004,-0.000241205770114
483,qDII-DR5-CLV3-LD_E27_170817_sam04_t00,E27,4,0,66.751024753,-32.030437816100005,-30.779923584499997,0.0326039079561,0.0009366169682989998
484,qDII-DR5-CLV3-LD_E27_170817_sam04_t00,E27,4,0,49.701674019799995,-39.1426370446,-26.9511345186,0.031492402009200005,0.000718420487083
485,qDII-DR5-CLV3-LD_E27_170817_sam04_t00,E27,4,0,17.772646767999998,-53.2897099954,-38.2374416951,0.0014956196446700002,-4.66161311843e-05
486,qDII-DR5-CLV3-LD_E27_170817_sam04_t00,E27,4,0,12.4320927714,-55.8053717854,-38.932718450900005,0.0116814951091,0.000174638887311
487,qDII-DR5-CLV3-LD_E27_170817_sam04_t00,E27,4,0,72.6932794203,-30.6224971835,-44.1601341076,0.0301287006101,0.0008053784452439999
488,qDII-DR5-CLV3-LD_E27_170817_sam04_t00,E27,4,0,32.8170275937,-47.2064569195,-33.6540387467,0.00778282625211,-0.00032605689399
489,qDII-DR5-CLV3-LD_E27_170817_sam04_t00,E27,4,0,61.85175734479999,-35.6373384581,-29.087692033499998,0.0345088017129,0.0010164587604199998
490,qDII-DR5-CLV3-LD_E27_170817_sam04_t00,E27,4,0,23.9914837167,-52.0213875683,-38.6984506176,-0.00673468507827,-0.00023172558169299998
491,qDII-DR5-CLV3-LD_E27_170817_sam04_t00,E27,4,0,10.0999202842,-58.218976998,-40.996136335799996,0.0144885207019,0.000239546454772
492,qDII-DR5-CLV3-LD_E27_170817_sam04_t00,E27,4,0,29.5032837174,-50.1486560854,-39.1511862425,0.00398794381739,-0.000216072035765
493,qDII-DR5-CLV3-LD_E27_170817_sam04_t00,E27,4,0,45.7839689132,-43.127289539799996,-28.8234483785,0.0279892363924,0.0004915444896600001
494,qDII-DR5-CLV3-LD_E27_170817_sam04_t00,E27,4,0,55.4900381267,-39.2222153804,-28.481218586199997,0.0338777694301,0.0008744249734880001
495,qDII-DR5-CLV3-LD_E27_170817_sam04_t00,E27,4,0,18.486207238,-55.3981203251,-42.8585841228,0.000523077558148,-5.6805934886000004e-05
496,qDII-DR5-CLV3-LD_E27_170817_sam04_t00,E27,4,0,39.1236326568,-46.7271688164,-31.723402713600002,0.018819029265299998,2.71087682167e-05
497,qDII-DR5-CLV3-LD_E27_170817_sam04_t00,E27,4,0,68.8984605789,-34.6241827645,-34.2862150036,0.0321116046595,0.0009041319155680001
498,qDII-DR5-CLV3-LD_E27_170817_sam04_t00,E27,4,0,50.9991906283,-43.4485274324,-30.3036881153,0.029171396239200002,0.0005640043898860001
499,qDII-DR5-CLV3-LD_E27_170817_sam04_t00,E27,4,0,45.5137156095,-46.101776696499996,-33.3324240168,0.026847269803900002,0.000372769699638
500,qDII-DR5-CLV3-LD_E27_170817_sam04_t00,E27,4,0,36.982498546,-49.96656665,-40.801710397,0.024034644942200003,0.00023840609831400001
501,qDII-DR5-CLV3-LD_E27_170817_sam04_t00,E27,4,0,70.4047873585,-35.9470694528,-39.0029094439,0.029502102818,0.0007909898569500001
502,qDII-DR5-CLV3-LD_E27_170817_sam04_t00,E27,4,0,64.8446185316,-38.1002495209,-32.6542034962,0.0340384369892,0.000981471320043
503,qDII-DR5-CLV3-LD_E27_170817_sam04_t00,E27,4,0,59.576525046099995,-40.547117573899996,-32.1827506792,0.0328035748178,0.0008657274616689999
504,qDII-DR5-CLV3-LD_E27_170817_sam04_t00,E27,4,0,67.229431895,-38.1540256774,-44.552003685600006,0.0342245503773,0.0009728749475
505,qDII-DR5-CLV3-LD_E27_170817_sam04_t00,E27,4,0,53.0984612597,-43.8062710712,-33.9388292825,0.0266177807798,0.00046207085766900003
506,qDII-DR5-CLV3-LD_E27_170817_sam04_t00,E27,4,0,54.4270094259,-43.888571985,-39.8929172336,0.0265965280675,0.00048746325156699997
507,qDII-DR5-CLV3-LD_E27_170817_sam04_t00,E27,4,0,65.6965674143,-39.4734169092,-37.3272926698,0.0344416026559,0.000985633462765
508,qDII-DR5-CLV3-LD_E27_170817_sam04_t00,E27,4,0,60.32090435439999,-41.854734131,-40.3788824122,0.0333078119914,0.000901721419264
509,qDII-DR5-CLV3-LD_E27_170817_sam04_t00,E27,4,0,39.014821192,36.786892597,-34.2903024586,0.027892281893799997,0.0006863047028619999
510,qDII-DR5-CLV3-LD_E27_170817_sam04_t00,E27,4,0,-10.4062688037,-0.9962899936310001,-1.9615883802400003,0.015304348799900001,0.00023393153334799998
511,qDII-DR5-CLV3-LD_E27_170817_sam04_t00,E27,4,0,8.85378692161,-2.08811497899,-1.91808366367,0.0154387559949,0.00022627962994900002
512,qDII-DR5-CLV3-LD_E27_170817_sam04_t00,E27,4,0,-3.1736410324799995,-10.845933965799999,-3.00529817913,0.0142824247505,0.00018966465078699998
513,qDII-DR5-CLV3-LD_E27_170817_sam04_t00,E27,4,0,53.1059059234,2.9751428821399997,-41.3988028147,0.00148627192694,-0.00039446124241000004
514,qDII-DR5-CLV3-LD_E27_170817_sam04_t00,E27,4,0,-15.3958842199,-47.606742148100004,-35.3372862599,0.0168456598971,0.00023293241083400005
515,qDII-DR5-CLV3-LD_E27_170817_sam04_t00,E27,4,0,72.9357980597,-15.326483927,-42.7265207827,0.032306732631,0.0009757177832689999
516,qDII-DR5-CLV3-LD_E27_170817_sam04_t00,E27,4,0,74.07716354829999,-23.270067770100002,-44.6796015667,0.034990113406,0.00101551446437
517,qDII-DR5-CLV3-LD_E27_170817_sam04_t00,E27,4,0,50.716084825100005,-41.804907953000004,-38.6100205858,0.024329376792900002,0.000339379974684
