,filename,experiment,sam_id,hour_time,aligned_x,aligned_y,aligned_z,mean_curvature,gaussian_curvature
0,qDII-DR5-CLV3-LD_E25_170811_sam07_t10,E25,7,10,-55.4990040937,-41.677136491199995,-53.2193376752,0.0181494212217,0.000272020154945
1,qDII-DR5-CLV3-LD_E25_170811_sam07_t10,E25,7,10,-59.0172522524,-38.828592567600005,-46.433454430699996,0.0240425963589,0.0005378466077020001
2,qDII-DR5-CLV3-LD_E25_170811_sam07_t10,E25,7,10,-50.269167602399996,-43.329397588199996,-47.7761610713,0.0182292333332,0.000293746058283
3,qDII-DR5-CLV3-LD_E25_170811_sam07_t10,E25,7,10,-61.1897715675,-36.7601185363,-40.6827918595,0.030743509190599996,0.0008689526924930001
4,qDII-DR5-CLV3-LD_E25_170811_sam07_t10,E25,7,10,-48.580520257299995,-41.4589898059,-53.320818849,0.01818200269,0.000282770029224
5,qDII-DR5-CLV3-LD_E25_170811_sam07_t10,E25,7,10,-52.6514695067,-40.5113711683,-39.628749351399996,0.0201147118868,0.000375517882383
6,qDII-DR5-CLV3-LD_E25_170811_sam07_t10,E25,7,10,-70.4549240756,-26.7125292328,-44.963965903,0.0340988461163,0.00109152757845
7,qDII-DR5-CLV3-LD_E25_170811_sam07_t10,E25,7,10,-57.6117994611,-36.6386650135,-34.1809172338,0.028022267603,0.000711474497236
8,qDII-DR5-CLV3-LD_E25_170811_sam07_t10,E25,7,10,-44.379653741300004,-44.2315374955,-43.36526784350001,0.0121590986307,0.00010537253734399999
9,qDII-DR5-CLV3-LD_E25_170811_sam07_t10,E25,7,10,-47.210524518599996,-41.8009518506,-41.2543296481,0.014902693138999999,0.00019386593923
10,qDII-DR5-CLV3-LD_E25_170811_sam07_t10,E25,7,10,-61.3419151934,-32.2645407992,-32.0705622918,0.0329061075783,0.00100194160055
11,qDII-DR5-CLV3-LD_E25_170811_sam07_t10,E25,7,10,-70.1383796779,-21.781739286300002,-50.5027490859,0.026785003302000003,0.000694636535152
12,qDII-DR5-CLV3-LD_E25_170811_sam07_t10,E25,7,10,-51.0468574531,-38.1642842453,-33.2735923798,0.0221253088365,0.000341023896038
13,qDII-DR5-CLV3-LD_E25_170811_sam07_t10,E25,7,10,-65.1219128479,-27.9364728661,-32.346978099699996,0.0356815806739,0.00121322376823
14,qDII-DR5-CLV3-LD_E25_170811_sam07_t10,E25,7,10,-38.2223276771,-44.052530904300006,-38.8358213674,0.00858466738951,-7.3416192683e-05
15,qDII-DR5-CLV3-LD_E25_170811_sam07_t10,E25,7,10,-40.6613332877,-41.9529705682,-37.875719796300004,0.0102962133336,-2.43355991178e-05
16,qDII-DR5-CLV3-LD_E25_170811_sam07_t10,E25,7,10,-44.6985198183,-39.6127608911,-34.770057776,0.0146827010039,6.81784108511e-05
17,qDII-DR5-CLV3-LD_E25_170811_sam07_t10,E25,7,10,-55.2583695203,-32.542632580799996,-27.585133214899997,0.0263299815901,0.0005828815738169999
18,qDII-DR5-CLV3-LD_E25_170811_sam07_t10,E25,7,10,-67.9245390074,-21.7310809636,-31.1503532854,0.0359421667593,0.00120093437141
19,qDII-DR5-CLV3-LD_E25_170811_sam07_t10,E25,7,10,-46.9985029893,-36.4683199538,-30.1502750317,0.020678370379400002,0.000157452191189
20,qDII-DR5-CLV3-LD_E25_170811_sam07_t10,E25,7,10,-59.344502716099996,-27.220919920300002,-27.838071674499997,0.028527477566,0.00077355725314
21,qDII-DR5-CLV3-LD_E25_170811_sam07_t10,E25,7,10,-38.846938645,-40.355436033800004,-33.9173119735,0.009394807811200001,-0.000144271178614
22,qDII-DR5-CLV3-LD_E25_170811_sam07_t10,E25,7,10,-62.6243330171,-23.262448589,-28.0634289817,0.0324736683342,0.0010081990866600001
23,qDII-DR5-CLV3-LD_E25_170811_sam07_t10,E25,7,10,-51.333677369600004,-31.349822943400003,-26.892604016,0.022126873797200002,0.00037208098196699996
24,qDII-DR5-CLV3-LD_E25_170811_sam07_t10,E25,7,10,-32.204414703299996,-43.0030784529,-34.2658780427,0.00442207387504,-0.000219359190375
25,qDII-DR5-CLV3-LD_E25_170811_sam07_t10,E25,7,10,-72.3226942718,-13.0605741134,-37.1521835256,0.0297385246663,0.0006760306239900001
26,qDII-DR5-CLV3-LD_E25_170811_sam07_t10,E25,7,10,-46.598880781400005,-33.0993761954,-27.472401986999998,0.020041176616099998,0.00016129451252899999
27,qDII-DR5-CLV3-LD_E25_170811_sam07_t10,E25,7,10,-70.7497377281,-14.8244983493,-32.2829828723,0.0328609710769,0.00091766299408
28,qDII-DR5-CLV3-LD_E25_170811_sam07_t10,E25,7,10,-25.6582437138,-45.406628533100005,-36.9877159123,0.00694975176264,-0.000176752478964
29,qDII-DR5-CLV3-LD_E25_170811_sam07_t10,E25,7,10,-34.4186682488,-39.1960180969,-30.773454574299997,0.006333835552140001,-0.000252268836245
30,qDII-DR5-CLV3-LD_E25_170811_sam07_t10,E25,7,10,-38.443905545,-36.650287374099996,-28.8391692294,0.010677337492700001,-0.00023364775972299997
31,qDII-DR5-CLV3-LD_E25_170811_sam07_t10,E25,7,10,-54.8305026945,-25.3988825647,-25.8215735514,0.020462480592400002,0.0003866888440259999
32,qDII-DR5-CLV3-LD_E25_170811_sam07_t10,E25,7,10,-65.6555127843,-17.1854351462,-28.0992177423,0.0353394892764,0.00112380523236
33,qDII-DR5-CLV3-LD_E25_170811_sam07_t10,E25,7,10,-29.494576648200002,-41.7699609279,-29.006978644,0.00468052727293,-0.00021089851137599998
34,qDII-DR5-CLV3-LD_E25_170811_sam07_t10,E25,7,10,-23.336469282800003,-45.4216072594,-31.8778882117,0.007377385938,-0.000117992012115
35,qDII-DR5-CLV3-LD_E25_170811_sam07_t10,E25,7,10,-45.5050594081,-29.475980913,-24.6689345927,0.015050589189799998,4.24348338065e-05
36,qDII-DR5-CLV3-LD_E25_170811_sam07_t10,E25,7,10,-58.9012757639,-19.5354439571,-24.8456189869,0.024639759790500003,0.000600970365826
37,qDII-DR5-CLV3-LD_E25_170811_sam07_t10,E25,7,10,-39.5720947583,-32.9198008031,-26.371988035700003,0.0120682264537,-0.00019544151269799997
38,qDII-DR5-CLV3-LD_E25_170811_sam07_t10,E25,7,10,-50.111456883500004,-25.774835302399996,-23.9300865247,0.015003204165399998,0.000122360595501
39,qDII-DR5-CLV3-LD_E25_170811_sam07_t10,E25,7,10,-70.0212312376,-8.23457005991,-40.0154477079,0.0311768125087,0.0006297469031669999
40,qDII-DR5-CLV3-LD_E25_170811_sam07_t10,E25,7,10,-16.082064909,-48.141212671999995,-28.5732309556,0.013226031628700001,0.000129881090078
41,qDII-DR5-CLV3-LD_E25_170811_sam07_t10,E25,7,10,-69.3594688833,-8.26047677225,-33.9754536327,0.0336888307687,0.000823939043272
42,qDII-DR5-CLV3-LD_E25_170811_sam07_t10,E25,7,10,-7.444367430160001,-51.8274184976,-38.1901101727,0.0109330742949,9.80460748524e-05
43,qDII-DR5-CLV3-LD_E25_170811_sam07_t10,E25,7,10,-68.1080080075,-9.572482227810001,-30.3116686552,0.0354101070218,0.000964221176844
44,qDII-DR5-CLV3-LD_E25_170811_sam07_t10,E25,7,10,-30.987321667399996,-36.9612020551,-25.331444477199998,0.006118242840749999,-0.000262014810118
45,qDII-DR5-CLV3-LD_E25_170811_sam07_t10,E25,7,10,-9.466850328189999,-51.536102084,-28.9793133736,0.016462280032600002,0.000246431604897
46,qDII-DR5-CLV3-LD_E25_170811_sam07_t10,E25,7,10,-64.2819299736,-12.2753723196,-26.348573774899997,0.034137773152400006,0.000981107769587
47,qDII-DR5-CLV3-LD_E25_170811_sam07_t10,E25,7,10,-35.3067452706,-33.216305559,-24.5450584592,0.00808213669997,-0.000289189943918
48,qDII-DR5-CLV3-LD_E25_170811_sam07_t10,E25,7,10,-4.2591957475,-54.4024989307,-29.5655691927,0.0215127728036,0.00042922757745999997
49,qDII-DR5-CLV3-LD_E25_170811_sam07_t10,E25,7,10,-21.503303621500002,-42.946141876599995,-24.2903176653,0.011357925047299999,4.44092534965e-05
50,qDII-DR5-CLV3-LD_E25_170811_sam07_t10,E25,7,10,-12.2943102135,-48.7693115378,-24.4681054787,0.0180670352672,0.000267156277049
51,qDII-DR5-CLV3-LD_E25_170811_sam07_t10,E25,7,10,-17.1876815611,-45.1119168127,-23.776795360700003,0.0157108672001,0.00018022692352400002
52,qDII-DR5-CLV3-LD_E25_170811_sam07_t10,E25,7,10,-40.7194456408,-28.151918619099998,-23.8337915437,0.00891635819647,-0.00022744994542400003
53,qDII-DR5-CLV3-LD_E25_170811_sam07_t10,E25,7,10,-44.8994561538,-25.2774679831,-23.087902374299997,0.00875340933109,-0.00017771640804400003
54,qDII-DR5-CLV3-LD_E25_170811_sam07_t10,E25,7,10,-25.0820570292,-39.2369424767,-23.3918362471,0.008673179598450001,-5.40062283855e-05
55,qDII-DR5-CLV3-LD_E25_170811_sam07_t10,E25,7,10,-49.792827501400005,-21.620073258,-22.396592256399998,0.0108628930424,-4.53789609392e-05
56,qDII-DR5-CLV3-LD_E25_170811_sam07_t10,E25,7,10,-54.6277785845,-18.0473061071,-22.8901577633,0.015825848796299998,0.00019503160623
57,qDII-DR5-CLV3-LD_E25_170811_sam07_t10,E25,7,10,-59.9509477866,-13.8994213086,-24.6061584463,0.027618638327700003,0.000700642771771
58,qDII-DR5-CLV3-LD_E25_170811_sam07_t10,E25,7,10,-29.4479516625,-35.2018973605,-22.591951279699998,0.00653394318601,-0.000222628029441
59,qDII-DR5-CLV3-LD_E25_170811_sam07_t10,E25,7,10,-37.6949337021,-28.0431296769,-22.1700158682,0.0070431434368100005,-0.000288200886009
60,qDII-DR5-CLV3-LD_E25_170811_sam07_t10,E25,7,10,-0.9907700745620001,-53.6236055817,-25.4404869182,0.027627977524900003,0.000688784438953
61,qDII-DR5-CLV3-LD_E25_170811_sam07_t10,E25,7,10,-5.849619626490001,-50.4618805225,-23.591299074400002,0.0235596932229,0.00048123156039199994
62,qDII-DR5-CLV3-LD_E25_170811_sam07_t10,E25,7,10,8.07331436672,-58.136506382,-35.0503250338,0.0338245332331,0.0011290143613399998
63,qDII-DR5-CLV3-LD_E25_170811_sam07_t10,E25,7,10,3.8574561505300005,-55.8786188834,-30.790305838400002,0.029993038639599998,0.000826634613045
64,qDII-DR5-CLV3-LD_E25_170811_sam07_t10,E25,7,10,-32.8446224925,-31.074170880700002,-20.4475573371,0.006188194054140001,-0.000288494490283
65,qDII-DR5-CLV3-LD_E25_170811_sam07_t10,E25,7,10,-1.53475664292,-50.739394753199996,-34.8220619731,0.020051767996700002,0.00038780771369300004
66,qDII-DR5-CLV3-LD_E25_170811_sam07_t10,E25,7,10,-13.0272233679,-45.0336453743,-20.7514912099,0.0191175420546,0.000278366586107
67,qDII-DR5-CLV3-LD_E25_170811_sam07_t10,E25,7,10,12.5224629903,-58.8175777161,-40.3496687067,0.0389472137935,0.00151705100586
68,qDII-DR5-CLV3-LD_E25_170811_sam07_t10,E25,7,10,-63.5858602942,-5.96580226635,-28.166638885,0.0341959648005,0.000788142295838
69,qDII-DR5-CLV3-LD_E25_170811_sam07_t10,E25,7,10,-20.6657358675,-38.2830455856,-19.0766021726,0.0135796663085,0.000117577710948
70,qDII-DR5-CLV3-LD_E25_170811_sam07_t10,E25,7,10,-54.2579413726,-12.7342549781,-23.6419004969,0.014761204522500002,0.00013677323907499998
71,qDII-DR5-CLV3-LD_E25_170811_sam07_t10,E25,7,10,5.29914729568,-54.9874546533,-25.752076689499997,0.0318320385642,0.0009500041997639999
72,qDII-DR5-CLV3-LD_E25_170811_sam07_t10,E25,7,10,-6.60984214185,-47.4734613519,-19.9322011545,0.023444699891499998,0.00045276559576199995
73,qDII-DR5-CLV3-LD_E25_170811_sam07_t10,E25,7,10,-16.303642776900002,-40.7389691418,-18.5765788176,0.016798858254499997,0.00021102381004
74,qDII-DR5-CLV3-LD_E25_170811_sam07_t10,E25,7,10,-23.984824763800003,-35.2773422931,-18.188099153299998,0.0111046699162,2.89247294668e-05
75,qDII-DR5-CLV3-LD_E25_170811_sam07_t10,E25,7,10,-49.9815779075,-15.8527979529,-22.0145178658,0.00838366161847,-0.000118366721027
76,qDII-DR5-CLV3-LD_E25_170811_sam07_t10,E25,7,10,-64.9029538693,-3.32625257773,-31.745909614600002,0.0327840813416,0.00055429566684
77,qDII-DR5-CLV3-LD_E25_170811_sam07_t10,E25,7,10,-65.0564011784,-1.8852998613,-37.6063135421,0.030661517286799996,0.000421376075418
78,qDII-DR5-CLV3-LD_E25_170811_sam07_t10,E25,7,10,-27.5789382979,-32.1098688403,-18.5185107592,0.007995694162629999,-0.000108490303099
79,qDII-DR5-CLV3-LD_E25_170811_sam07_t10,E25,7,10,-59.887246116099995,-7.59272545212,-25.3344238315,0.029149173631899998,0.000611966133374
80,qDII-DR5-CLV3-LD_E25_170811_sam07_t10,E25,7,10,1.7310172148700003,-52.1849670109,-21.3529641949,0.0296230526128,0.0008162617849619999
81,qDII-DR5-CLV3-LD_E25_170811_sam07_t10,E25,7,10,-38.5553107124,-23.231496607399997,-19.5842814262,0.0050667071918500005,-0.000310358587075
82,qDII-DR5-CLV3-LD_E25_170811_sam07_t10,E25,7,10,-2.1001882693200002,-49.01518816229999,-19.3441430009,0.026132766943999998,0.0006063419887949999
83,qDII-DR5-CLV3-LD_E25_170811_sam07_t10,E25,7,10,-45.4719240349,-17.394524763299998,-21.4264597123,0.005329664614460001,-0.00025344271116699995
84,qDII-DR5-CLV3-LD_E25_170811_sam07_t10,E25,7,10,13.204322270699999,-56.8533207767,-35.3525196597,0.0379232332307,0.00141738237621
85,qDII-DR5-CLV3-LD_E25_170811_sam07_t10,E25,7,10,12.0167775359,-56.0657658962,-30.728633111300002,0.035849709482900005,0.0012481323438099999
86,qDII-DR5-CLV3-LD_E25_170811_sam07_t10,E25,7,10,-33.5109676907,-25.6384896856,-17.787287046099998,0.00575127762658,-0.000264635638295
87,qDII-DR5-CLV3-LD_E25_170811_sam07_t10,E25,7,10,-41.381444690100004,-19.352473257899998,-19.7450812831,0.0044338708064700005,-0.000296518989197
88,qDII-DR5-CLV3-LD_E25_170811_sam07_t10,E25,7,10,-13.143519290599999,-39.9215044998,-15.6533916682,0.018189046757599997,0.000257246457235
89,qDII-DR5-CLV3-LD_E25_170811_sam07_t10,E25,7,10,-8.509812454299999,-42.8754031175,-16.3347233874,0.020885769379700003,0.000343005747242
90,qDII-DR5-CLV3-LD_E25_170811_sam07_t10,E25,7,10,10.2979545442,-54.0767398466,-24.913413089899997,0.0332512004191,0.0010588505816400001
91,qDII-DR5-CLV3-LD_E25_170811_sam07_t10,E25,7,10,-29.013263052600003,-27.385737541799998,-16.0278522172,0.00812463509213,-0.000102229587565
92,qDII-DR5-CLV3-LD_E25_170811_sam07_t10,E25,7,10,5.48898691439,-50.8689585062,-20.6774544962,0.030404710716900003,0.0008770894682899999
93,qDII-DR5-CLV3-LD_E25_170811_sam07_t10,E25,7,10,-62.9861435671,0.587860125752,-32.3579757956,0.0297264747562,0.000216064823724
94,qDII-DR5-CLV3-LD_E25_170811_sam07_t10,E25,7,10,-54.4931628088,-6.67683105298,-23.2463271568,0.0167901793497,0.00011721924482799999
95,qDII-DR5-CLV3-LD_E25_170811_sam07_t10,E25,7,10,-16.4079894651,-35.4213072214,-14.649855951300001,0.0149864720387,0.00017685329119400002
96,qDII-DR5-CLV3-LD_E25_170811_sam07_t10,E25,7,10,-23.635475128699998,-30.039128354499997,-14.1968188367,0.010924533698200001,4.97939627805e-05
97,qDII-DR5-CLV3-LD_E25_170811_sam07_t10,E25,7,10,-3.8406485653900004,-43.297412136400006,-16.8300071106,0.0221516009306,0.000414544351055
98,qDII-DR5-CLV3-LD_E25_170811_sam07_t10,E25,7,10,-50.022767531599996,-9.17132590215,-21.5444086767,0.00820253041318,-9.09149054727e-05
99,qDII-DR5-CLV3-LD_E25_170811_sam07_t10,E25,7,10,-34.433175857600006,-21.0784339431,-16.4169466787,0.00536768870886,-0.000235116451006
100,qDII-DR5-CLV3-LD_E25_170811_sam07_t10,E25,7,10,-46.947983020100004,-10.9318071402,-21.1940402731,0.004396216309119999,-0.00021385754474099997
101,qDII-DR5-CLV3-LD_E25_170811_sam07_t10,E25,7,10,-59.0709250157,-1.11620564607,-27.1219704919,0.0289818084378,0.00024253599301400002
102,qDII-DR5-CLV3-LD_E25_170811_sam07_t10,E25,7,10,9.778234870930001,-50.7544211705,-21.1932782704,0.0303446817013,0.000890690648142
103,qDII-DR5-CLV3-LD_E25_170811_sam07_t10,E25,7,10,-9.15699598337,-38.4771175353,-13.7454683946,0.017952910774599998,0.000252622683616
104,qDII-DR5-CLV3-LD_E25_170811_sam07_t10,E25,7,10,-38.0809728566,-16.377895211400002,-17.8342207122,0.00358021302147,-0.00026275657122200004
105,qDII-DR5-CLV3-LD_E25_170811_sam07_t10,E25,7,10,-58.0632016941,1.8175044616,-38.6356070465,0.0265976402115,-1.38082221862e-05
106,qDII-DR5-CLV3-LD_E25_170811_sam07_t10,E25,7,10,1.40967550268,-44.874836043100004,-16.1298535568,0.0238942692234,0.000532017591127
107,qDII-DR5-CLV3-LD_E25_170811_sam07_t10,E25,7,10,-41.2832212239,-13.5414470673,-19.3154689426,0.00258307872389,-0.00028604348822000006
108,qDII-DR5-CLV3-LD_E25_170811_sam07_t10,E25,7,10,16.7056477003,-52.582284802,-28.5665838408,0.030924571561599997,0.000881313188041
109,qDII-DR5-CLV3-LD_E25_170811_sam07_t10,E25,7,10,-17.3886178965,-30.7766239047,-12.094639959,0.0132258403474,0.00013961554086200001
110,qDII-DR5-CLV3-LD_E25_170811_sam07_t10,E25,7,10,-25.9498831692,-24.4088540996,-11.777758846400001,0.010126173609700001,2.6551251730999998e-05
111,qDII-DR5-CLV3-LD_E25_170811_sam07_t10,E25,7,10,-12.192912550199999,-33.8485417972,-11.509519102899999,0.0155689342221,0.000189391308738
112,qDII-DR5-CLV3-LD_E25_170811_sam07_t10,E25,7,10,-30.412130754699998,-20.1297166445,-13.3511456793,0.00770162480353,-8.68609773953e-05
113,qDII-DR5-CLV3-LD_E25_170811_sam07_t10,E25,7,10,7.936684822969999,-46.240990510299994,-18.780676128099998,0.0267312469308,0.0006954064351379999
114,qDII-DR5-CLV3-LD_E25_170811_sam07_t10,E25,7,10,-20.3934235597,-26.9799227337,-11.1010826409,0.0119229792648,0.000107966185374
115,qDII-DR5-CLV3-LD_E25_170811_sam07_t10,E25,7,10,-4.398691577,-37.9003022343,-12.9678416945,0.0161189725489,0.00020652106969799999
116,qDII-DR5-CLV3-LD_E25_170811_sam07_t10,E25,7,10,15.0141340695,-49.8460117595,-22.693847470700003,0.0274379913592,0.000730617150782
117,qDII-DR5-CLV3-LD_E25_170811_sam07_t10,E25,7,10,2.03444042618,-41.7137187261,-14.6198366368,0.0192017610037,0.000346238156246
118,qDII-DR5-CLV3-LD_E25_170811_sam07_t10,E25,7,10,-54.269951121999995,0.74958259501,-25.057934418800002,0.0209896917776,-6.88800465212e-05
119,qDII-DR5-CLV3-LD_E25_170811_sam07_t10,E25,7,10,-59.0571052674,5.14443392916,-30.2370066271,0.025738683199200002,-8.76675749896e-05
120,qDII-DR5-CLV3-LD_E25_170811_sam07_t10,E25,7,10,-43.5153105311,-7.584758295039999,-20.4240379278,0.0010517507854299999,-0.00027818582409099994
121,qDII-DR5-CLV3-LD_E25_170811_sam07_t10,E25,7,10,-50.8736709426,-1.4628174233899998,-23.5021503394,0.011735082006899999,-0.00015288544653900001
122,qDII-DR5-CLV3-LD_E25_170811_sam07_t10,E25,7,10,-6.53536318887,-35.2152650655,-10.7313091493,0.015316352200499999,0.000176076436862
123,qDII-DR5-CLV3-LD_E25_170811_sam07_t10,E25,7,10,-47.4773907632,-3.6752174417800005,-21.94636626,0.004606949424890001,-0.000212109022539
124,qDII-DR5-CLV3-LD_E25_170811_sam07_t10,E25,7,10,12.2259327795,-46.1264531746,-19.2964999023,0.024977738212200003,0.0006152001180919999
125,qDII-DR5-CLV3-LD_E25_170811_sam07_t10,E25,7,10,22.4345018175,-50.800555333999995,-31.116455917399996,0.025464194300599995,0.0005262868606409999
126,qDII-DR5-CLV3-LD_E25_170811_sam07_t10,E25,7,10,-12.506651177,-29.696653949499996,-8.886225109660002,0.014317204666500001,0.000159800500311
127,qDII-DR5-CLV3-LD_E25_170811_sam07_t10,E25,7,10,-33.6565040031,-13.6393557144,-13.390454990599999,0.0056925340484299996,-0.00011585214666299998
128,qDII-DR5-CLV3-LD_E25_170811_sam07_t10,E25,7,10,-39.8823290523,-7.88413724776,-17.5073086264,0.00109801344584,-0.00026223291957499996
129,qDII-DR5-CLV3-LD_E25_170811_sam07_t10,E25,7,10,9.07697722638,-42.907743848,-15.990707683299998,0.0222700041731,0.000483282513308
130,qDII-DR5-CLV3-LD_E25_170811_sam07_t10,E25,7,10,-57.6472841028,8.755733431900001,-35.700670707600004,0.022186246656299997,-0.00028994617790499994
131,qDII-DR5-CLV3-LD_E25_170811_sam07_t10,E25,7,10,-20.7536332166,-22.537886265999997,-8.464289698189999,0.0121478388875,0.000117256397614
132,qDII-DR5-CLV3-LD_E25_170811_sam07_t10,E25,7,10,-16.1783466448,-25.407157309499997,-7.96074579247,0.0132642029118,0.000142926436774
133,qDII-DR5-CLV3-LD_E25_170811_sam07_t10,E25,7,10,-24.5336308711,-18.2098183329,-8.74070550609,0.011443990692,9.51971229057e-05
134,qDII-DR5-CLV3-LD_E25_170811_sam07_t10,E25,7,10,-54.0548871269,6.39135363709,-26.9980733279,0.0207567372955,-0.000235576343404
135,qDII-DR5-CLV3-LD_E25_170811_sam07_t10,E25,7,10,21.662330067800003,-48.017657209300005,-26.2859813221,0.021485071807900002,0.00035178963804800004
136,qDII-DR5-CLV3-LD_E25_170811_sam07_t10,E25,7,10,18.2800841073,-46.3757640471,-21.9408646255,0.0212487678908,0.00041119078800699996
137,qDII-DR5-CLV3-LD_E25_170811_sam07_t10,E25,7,10,-7.89590755258,-30.0340353942,-8.196633208049999,0.0143845754987,0.000155782091319
138,qDII-DR5-CLV3-LD_E25_170811_sam07_t10,E25,7,10,-0.916137165897,-34.5071971079,-9.81106859919,0.0133331521673,0.00013066048622499999
139,qDII-DR5-CLV3-LD_E25_170811_sam07_t10,E25,7,10,-43.0371711326,-2.31027845907,-19.973885536199997,-0.000242954982537,-0.000275141195125
140,qDII-DR5-CLV3-LD_E25_170811_sam07_t10,E25,7,10,-36.795985957,-7.523770978610001,-14.628138876300001,0.00288548911173,-0.00018228800700599996
141,qDII-DR5-CLV3-LD_E25_170811_sam07_t10,E25,7,10,8.62762705205,-39.4645317003,-14.626825164000001,0.018152950499,0.000313803214966
142,qDII-DR5-CLV3-LD_E25_170811_sam07_t10,E25,7,10,-11.974828313699998,-25.9552393924,-7.349210290610001,0.0139458937341,0.00015201222156799998
143,qDII-DR5-CLV3-LD_E25_170811_sam07_t10,E25,7,10,-3.1611109644099997,-31.7835886461,-8.77643117912,0.013549958988700001,0.000135294806144
144,qDII-DR5-CLV3-LD_E25_170811_sam07_t10,E25,7,10,5.676504853659999,-37.2008958082,-12.5464054183,0.014314187398600001,0.00017666017623599997
145,qDII-DR5-CLV3-LD_E25_170811_sam07_t10,E25,7,10,-28.6197640669,-12.8881056724,-8.99364396568,0.00909208236791,2.80768234267e-05
146,qDII-DR5-CLV3-LD_E25_170811_sam07_t10,E25,7,10,-48.3282941742,4.033291036980001,-23.9041079228,0.0103338354148,-0.000294332274195
147,qDII-DR5-CLV3-LD_E25_170811_sam07_t10,E25,7,10,16.1587726219,-43.1490009313,-18.4754390563,0.0188748043753,0.000335623892512
148,qDII-DR5-CLV3-LD_E25_170811_sam07_t10,E25,7,10,-16.387193977,-21.630045656100002,-6.53582637365,0.0137807455424,0.000156963417155
149,qDII-DR5-CLV3-LD_E25_170811_sam07_t10,E25,7,10,-55.3983548059,11.3112155975,-31.606690136300003,0.018554217528799998,-0.000273451333206
150,qDII-DR5-CLV3-LD_E25_170811_sam07_t10,E25,7,10,-33.4499783504,-7.866900816849999,-11.758947525,0.00576553658784,-7.74224697736e-05
151,qDII-DR5-CLV3-LD_E25_170811_sam07_t10,E25,7,10,27.5080247139,-46.405182889799995,-31.2056046484,0.0150718078969,-4.54489519039e-05
152,qDII-DR5-CLV3-LD_E25_170811_sam07_t10,E25,7,10,-30.7862206748,-8.25896113311,-10.1867271987,0.007676130035100001,-9.76516079613e-06
153,qDII-DR5-CLV3-LD_E25_170811_sam07_t10,E25,7,10,-51.8046319224,10.059068606,-27.576100508400003,0.017409813117500002,-0.000293481215158
154,qDII-DR5-CLV3-LD_E25_170811_sam07_t10,E25,7,10,-8.84922662304,-24.6421050845,-5.5839008670200005,0.0135634337158,0.000143784390472
155,qDII-DR5-CLV3-LD_E25_170811_sam07_t10,E25,7,10,-19.8648576328,-16.7165008904,-5.535811207439999,0.013325635401200001,0.000151750688116
156,qDII-DR5-CLV3-LD_E25_170811_sam07_t10,E25,7,10,-43.8343910788,3.8651647408199996,-20.8447647715,0.0029249725320899997,-0.0002995111862290001
157,qDII-DR5-CLV3-LD_E25_170811_sam07_t10,E25,7,10,21.499563115,-42.6153677146,-21.1743828309,0.0142928150094,8.54890460712e-05
158,qDII-DR5-CLV3-LD_E25_170811_sam07_t10,E25,7,10,-53.8218111901,14.799316232999999,-37.0533347166,0.013600395247500001,-0.000167631291219
159,qDII-DR5-CLV3-LD_E25_170811_sam07_t10,E25,7,10,6.282108107969999,-33.0023828782,-10.965373199999998,0.0117527500749,9.90731338253e-05
160,qDII-DR5-CLV3-LD_E25_170811_sam07_t10,E25,7,10,-35.1819003041,-2.27980864638,-12.8164580094,0.00465290722051,-8.19647128042e-05
161,qDII-DR5-CLV3-LD_E25_170811_sam07_t10,E25,7,10,-23.4508234752,-11.764384831700001,-5.73769116631,0.0122624934352,0.000126674697925
162,qDII-DR5-CLV3-LD_E25_170811_sam07_t10,E25,7,10,-41.3493050888,3.39078224601,-18.118187270099998,0.0009370632026369999,-0.000231394158588
163,qDII-DR5-CLV3-LD_E25_170811_sam07_t10,E25,7,10,25.4365951507,-43.132363492799996,-25.3534083292,0.0131605948111,-5.89997716549e-05
164,qDII-DR5-CLV3-LD_E25_170811_sam07_t10,E25,7,10,-46.0626788432,8.24273195302,-23.253242079099998,0.00857652713396,-0.00033586904915799997
165,qDII-DR5-CLV3-LD_E25_170811_sam07_t10,E25,7,10,-3.1059476363,-25.3462089342,-5.933050189559999,0.012390075199799998,0.00012135096978300001
166,qDII-DR5-CLV3-LD_E25_170811_sam07_t10,E25,7,10,-11.1325237599,-19.8437053968,-4.407232850340001,0.014125572823700002,0.00016885485458899998
167,qDII-DR5-CLV3-LD_E25_170811_sam07_t10,E25,7,10,4.38593933822,-29.983446203899998,-8.66780375532,0.0111504594639,8.67614317762e-05
168,qDII-DR5-CLV3-LD_E25_170811_sam07_t10,E25,7,10,27.4672257405,-41.6390373004,-34.4356734812,0.00879950141194,-0.00044335713657
169,qDII-DR5-CLV3-LD_E25_170811_sam07_t10,E25,7,10,12.5101943216,-34.617809276799996,-12.492357045899999,0.0131663588715,0.00014299452090600002
170,qDII-DR5-CLV3-LD_E25_170811_sam07_t10,E25,7,10,-30.5878427137,-4.27114884147,-8.683751380139999,0.008831766004660001,3.90038770331e-05
171,qDII-DR5-CLV3-LD_E25_170811_sam07_t10,E25,7,10,-15.591360453399998,-15.2283630405,-3.5803499838699997,0.0143737192371,0.00018323293607
172,qDII-DR5-CLV3-LD_E25_170811_sam07_t10,E25,7,10,-48.5659912455,12.7820693255,-26.8806340121,0.014810203757700001,-0.00027219868118700006
173,qDII-DR5-CLV3-LD_E25_170811_sam07_t10,E25,7,10,-50.4105615349,15.043968623,-30.5684795912,0.0146230668039,-0.000194568453995
174,qDII-DR5-CLV3-LD_E25_170811_sam07_t10,E25,7,10,20.793959321400003,-38.1324545582,-17.4002522133,0.011871938182700001,7.12818766084e-05
175,qDII-DR5-CLV3-LD_E25_170811_sam07_t10,E25,7,10,-5.20336065286,-21.708403726700002,-4.81037797095,0.0126712125535,0.00013324950885799998
176,qDII-DR5-CLV3-LD_E25_170811_sam07_t10,E25,7,10,-26.10208731,-6.2239177435399995,-5.75293987592,0.011211771884,0.000100690292362
177,qDII-DR5-CLV3-LD_E25_170811_sam07_t10,E25,7,10,2.71111174141,-25.593214410999998,-6.23818211283,0.011317650693000001,0.000100384421451
178,qDII-DR5-CLV3-LD_E25_170811_sam07_t10,E25,7,10,28.221539504299997,-40.3299147915,-24.7224992831,0.0078136027752,-0.00037625458823599997
179,qDII-DR5-CLV3-LD_E25_170811_sam07_t10,E25,7,10,11.3474833127,-30.391653039899996,-11.1830535781,0.011176856909000001,8.44510001133e-05
180,qDII-DR5-CLV3-LD_E25_170811_sam07_t10,E25,7,10,-11.10086825,-15.732694237899999,-2.92127653201,0.014786663795700001,0.000201147124207
181,qDII-DR5-CLV3-LD_E25_170811_sam07_t10,E25,7,10,-18.4486053346,-10.5174651238,-2.49875786717,0.0146939233581,0.000194350310818
182,qDII-DR5-CLV3-LD_E25_170811_sam07_t10,E25,7,10,-38.6692520298,6.56800714156,-16.2889036496,0.0039360819817,-0.00011005171035100002
183,qDII-DR5-CLV3-LD_E25_170811_sam07_t10,E25,7,10,18.6381260404,-34.4100217765,-15.0927043699,0.0111449912014,8.73190929571e-05
184,qDII-DR5-CLV3-LD_E25_170811_sam07_t10,E25,7,10,30.739062305500003,-40.523939050100005,-27.9103215072,0.0074142859831400005,-0.000502481111537
185,qDII-DR5-CLV3-LD_E25_170811_sam07_t10,E25,7,10,-22.2439631156,-6.73112313778,-4.00406669921,0.0139136359204,0.00017453846006599996
186,qDII-DR5-CLV3-LD_E25_170811_sam07_t10,E25,7,10,-42.4287621075,10.970912265,-21.3083425077,0.00707725176797,-0.00024652536525599997
187,qDII-DR5-CLV3-LD_E25_170811_sam07_t10,E25,7,10,24.940383295700002,-37.4836762636,-20.2758488385,0.00822637148953,-0.000146182430315
188,qDII-DR5-CLV3-LD_E25_170811_sam07_t10,E25,7,10,-50.1179156061,19.563716477899998,-33.7645094235,0.012145422242999998,-9.94735383198e-05
189,qDII-DR5-CLV3-LD_E25_170811_sam07_t10,E25,7,10,-34.1954458605,4.409717193680001,-12.1867154701,0.00742966194326,2.2681501316e-05
190,qDII-DR5-CLV3-LD_E25_170811_sam07_t10,E25,7,10,9.40484351284,-27.0825677455,-8.87198518388,0.0107618313101,7.80699783453e-05
191,qDII-DR5-CLV3-LD_E25_170811_sam07_t10,E25,7,10,-27.8804802939,-0.34667695299999995,-6.79695141089,0.0113978017416,0.00011669596487100001
192,qDII-DR5-CLV3-LD_E25_170811_sam07_t10,E25,7,10,38.2390969717,-43.3765337139,-30.5165434259,0.0115596472058,-0.000463959469933
193,qDII-DR5-CLV3-LD_E25_170811_sam07_t10,E25,7,10,-0.17724404347699999,-20.0504419272,-3.91419802249,0.011925298455399998,0.000124868476868
194,qDII-DR5-CLV3-LD_E25_170811_sam07_t10,E25,7,10,-5.869705851109999,-16.2727225316,-2.15010767993,0.0142929051483,0.000196024212128
195,qDII-DR5-CLV3-LD_E25_170811_sam07_t10,E25,7,10,-30.7100251636,3.19614149524,-9.35802096731,0.0104117315656,9.76806724098e-05
196,qDII-DR5-CLV3-LD_E25_170811_sam07_t10,E25,7,10,17.630188248099998,-30.5125854527,-12.595004726400001,0.00998485633261,6.55943008201e-05
197,qDII-DR5-CLV3-LD_E25_170811_sam07_t10,E25,7,10,-37.0906234295,9.28007987497,-14.6632707787,0.007120137889209999,-2.40810098995e-05
198,qDII-DR5-CLV3-LD_E25_170811_sam07_t10,E25,7,10,-45.2454224859,17.7468110238,-26.0126184694,0.013064585168200001,-0.000174631629642
199,qDII-DR5-CLV3-LD_E25_170811_sam07_t10,E25,7,10,22.028129042,-32.3519458714,-15.6091113975,0.00862450194043,3.22264135013e-05
200,qDII-DR5-CLV3-LD_E25_170811_sam07_t10,E25,7,10,6.69042261386,-22.905910787800003,-5.43062021628,0.011059986268799999,9.57045013602e-05
201,qDII-DR5-CLV3-LD_E25_170811_sam07_t10,E25,7,10,-39.9082190648,13.028419369000002,-18.3957170104,0.00854933784032,-9.26328443316e-05
202,qDII-DR5-CLV3-LD_E25_170811_sam07_t10,E25,7,10,-10.5882070559,-10.953884067799999,-1.31324641466,0.0165450709722,0.000265739788173
203,qDII-DR5-CLV3-LD_E25_170811_sam07_t10,E25,7,10,30.4406838052,-35.8303252554,-24.0581344899,0.00391940049928,-0.000541347443138
204,qDII-DR5-CLV3-LD_E25_170811_sam07_t10,E25,7,10,-17.1833247105,-5.5688310041,-1.95000902493,0.0157789805918,0.00022768819574200003
205,qDII-DR5-CLV3-LD_E25_170811_sam07_t10,E25,7,10,34.5516507268,-37.7134365596,-27.1197791109,0.00757192070457,-0.0005706512589380001
206,qDII-DR5-CLV3-LD_E25_170811_sam07_t10,E25,7,10,-49.131070511800004,24.3379158566,-36.834944906,0.014517212301199999,-7.92359702885e-05
207,qDII-DR5-CLV3-LD_E25_170811_sam07_t10,E25,7,10,28.9124817334,-33.5534559815,-20.5686483189,0.00294151170595,-0.00035033935513699996
208,qDII-DR5-CLV3-LD_E25_170811_sam07_t10,E25,7,10,-12.840393289100001,-6.987358947250001,-1.37897037162,0.0166757001472,0.00026273928410599996
209,qDII-DR5-CLV3-LD_E25_170811_sam07_t10,E25,7,10,-19.6760137859,-1.93620538912,-2.0767698813999997,0.015272234268200001,0.00021303681521999998
210,qDII-DR5-CLV3-LD_E25_170811_sam07_t10,E25,7,10,-24.2465635581,2.3815033589900003,-4.8520518394800005,0.014180161973600001,0.000185533623762
211,qDII-DR5-CLV3-LD_E25_170811_sam07_t10,E25,7,10,17.3164496214,-26.360697605,-9.971710733250001,0.010239318822799999,7.00443940851e-05
212,qDII-DR5-CLV3-LD_E25_170811_sam07_t10,E25,7,10,25.6897457892,-30.7918450278,-17.3068734992,0.00507150900426,-8.30502259843e-05
213,qDII-DR5-CLV3-LD_E25_170811_sam07_t10,E25,7,10,44.6143533167,-42.1624369054,-28.2553144514,0.025273919196,0.000267971026949
214,qDII-DR5-CLV3-LD_E25_170811_sam07_t10,E25,7,10,5.98140792823,-18.7592025326,-4.05675929818,0.0113805495016,0.000110669461525
215,qDII-DR5-CLV3-LD_E25_170811_sam07_t10,E25,7,10,-33.208991416799996,11.099243033699999,-11.556972930699999,0.011545978203200002,0.000115111738549
216,qDII-DR5-CLV3-LD_E25_170811_sam07_t10,E25,7,10,-45.5458859707,23.2164527206,-29.2327089033,0.0128694697808,-5.13808710754e-05
217,qDII-DR5-CLV3-LD_E25_170811_sam07_t10,E25,7,10,39.3291168023,-38.1740168715,-26.413167709099998,0.0126586400762,-0.00038458606190499997
218,qDII-DR5-CLV3-LD_E25_170811_sam07_t10,E25,7,10,14.439107813900002,-23.639963340100003,-7.84727358832,0.011135802579700002,9.03841413124e-05
219,qDII-DR5-CLV3-LD_E25_170811_sam07_t10,E25,7,10,2.81709224861,-16.0822191532,-1.9798601032499998,0.012107324736,0.00013752928231900002
220,qDII-DR5-CLV3-LD_E25_170811_sam07_t10,E25,7,10,-40.4457744997,18.5003664615,-19.276574644500002,0.012160764061,-2.33434510966e-05
221,qDII-DR5-CLV3-LD_E25_170811_sam07_t10,E25,7,10,-29.584157629699998,9.0152214751,-8.76877527651,0.012739649953700001,0.00015003423954700003
222,qDII-DR5-CLV3-LD_E25_170811_sam07_t10,E25,7,10,-36.739947886799996,15.630526616900001,-15.3439982139,0.0119745445789,7.6752739549e-05
223,qDII-DR5-CLV3-LD_E25_170811_sam07_t10,E25,7,10,23.929188566999997,-27.0642326536,-13.7498925806,0.00686771829558,1.57117753981e-05
224,qDII-DR5-CLV3-LD_E25_170811_sam07_t10,E25,7,10,-42.2237768329,22.462280790700003,-24.0207642013,0.014004042149399999,-3.7314526243699995e-06
225,qDII-DR5-CLV3-LD_E25_170811_sam07_t10,E25,7,10,-45.8080261171,26.611303191399998,-32.5948299339,0.0132894114057,-3.02479109412e-05
226,qDII-DR5-CLV3-LD_E25_170811_sam07_t10,E25,7,10,-25.571260218600003,8.17929616777,-5.83150592421,0.0140758318774,0.00017847978597099998
227,qDII-DR5-CLV3-LD_E25_170811_sam07_t10,E25,7,10,44.1492523653,-37.3456242434,-24.4201469343,0.0215125057786,7.58059447401e-05
228,qDII-DR5-CLV3-LD_E25_170811_sam07_t10,E25,7,10,36.4800196128,-31.6784763489,-25.203043945300003,0.000825311960919,-0.000717903954962
229,qDII-DR5-CLV3-LD_E25_170811_sam07_t10,E25,7,10,-17.8832564475,3.39007912166,-1.4194461896500001,0.014631936687100002,0.000197625794793
230,qDII-DR5-CLV3-LD_E25_170811_sam07_t10,E25,7,10,28.2888060225,-26.828801846300003,-16.621968655,0.0021512217549499997,-0.00014020865014500002
231,qDII-DR5-CLV3-LD_E25_170811_sam07_t10,E25,7,10,7.94810015258,-14.799033547899999,-2.28205472916,0.011750463918700002,0.000122517934105
232,qDII-DR5-CLV3-LD_E25_170811_sam07_t10,E25,7,10,-8.105052094660001,-3.7940264731199997,0.769579949284,0.0174887826174,0.00030223387269200005
233,qDII-DR5-CLV3-LD_E25_170811_sam07_t10,E25,7,10,49.9892749549,-40.2091468933,-26.0962024783,0.0318482006054,0.000648513124662
234,qDII-DR5-CLV3-LD_E25_170811_sam07_t10,E25,7,10,54.492107043199994,-42.4232835063,-30.3086837237,0.0339147560708,0.0007812861167180001
235,qDII-DR5-CLV3-LD_E25_170811_sam07_t10,E25,7,10,40.0822808386,-33.0613071959,-24.744100692199996,0.006618545049260001,-0.000554106588157
236,qDII-DR5-CLV3-LD_E25_170811_sam07_t10,E25,7,10,21.36232845,-21.973378950100003,-10.2204928145,0.0100937573354,7.96686583657e-05
237,qDII-DR5-CLV3-LD_E25_170811_sam07_t10,E25,7,10,-21.4261621519,7.71584165905,-4.0350947975,0.014345432851499999,0.000184063411967
238,qDII-DR5-CLV3-LD_E25_170811_sam07_t10,E25,7,10,35.262689882,-28.9468140979,-24.008773175,-0.0021628469360300004,-0.000734624286826
239,qDII-DR5-CLV3-LD_E25_170811_sam07_t10,E25,7,10,-32.9512579344,18.0299870158,-12.2107024669,0.0163159797778,0.00025232818085599995
240,qDII-DR5-CLV3-LD_E25_170811_sam07_t10,E25,7,10,-29.3537335082,15.1987184643,-9.48002116151,0.0154709019208,0.000226494143024
241,qDII-DR5-CLV3-LD_E25_170811_sam07_t10,E25,7,10,-26.6362923677,13.273592869200002,-6.820938407740001,0.0145584176622,0.00018965330624400002
242,qDII-DR5-CLV3-LD_E25_170811_sam07_t10,E25,7,10,-2.55580491996,-5.122178448440001,0.345894777715,0.0169317785727,0.00029071516243000004
243,qDII-DR5-CLV3-LD_E25_170811_sam07_t10,E25,7,10,-44.4139557296,31.596203208400002,-35.5872090167,0.0153408199375,1.54455222816e-05
244,qDII-DR5-CLV3-LD_E25_170811_sam07_t10,E25,7,10,-38.9936744983,25.3159653656,-19.7536513302,0.0162133836632,0.000151516155183
245,qDII-DR5-CLV3-LD_E25_170811_sam07_t10,E25,7,10,-10.3644507627,1.41541530625,-0.39650538470700003,0.0161279555664,0.00025366464284
246,qDII-DR5-CLV3-LD_E25_170811_sam07_t10,E25,7,10,-35.7295949744,22.7310945486,-17.0570090252,0.017263036031099997,0.00023218674415999998
247,qDII-DR5-CLV3-LD_E25_170811_sam07_t10,E25,7,10,-40.8727665834,28.073534329,-24.599374635100002,0.0168869886965,0.00015795859632799998
248,qDII-DR5-CLV3-LD_E25_170811_sam07_t10,E25,7,10,26.0434415733,-22.1898669232,-11.887153213,0.00706770353722,2.52490409039e-05
249,qDII-DR5-CLV3-LD_E25_170811_sam07_t10,E25,7,10,-22.638755083000003,11.8959416147,-5.11256207958,0.0143664577501,0.00018021909967800003
250,qDII-DR5-CLV3-LD_E25_170811_sam07_t10,E25,7,10,17.375959098499997,-16.5595537271,-5.69988977415,0.0126759997889,0.00013964118954499998
251,qDII-DR5-CLV3-LD_E25_170811_sam07_t10,E25,7,10,2.75293941261,-6.78422992934,-0.138827293368,0.0150980622885,0.000230216348018
252,qDII-DR5-CLV3-LD_E25_170811_sam07_t10,E25,7,10,12.699192124200001,-12.9793015881,-2.6047894060299996,0.0129109122402,0.000151677861969
253,qDII-DR5-CLV3-LD_E25_170811_sam07_t10,E25,7,10,-41.6039631796,31.0061068345,-29.254946140100003,0.0175981266136,0.00014972272170700002
254,qDII-DR5-CLV3-LD_E25_170811_sam07_t10,E25,7,10,-45.4239785063,36.2696674343,-40.1617868246,0.0172881318621,4.01479082803e-05
255,qDII-DR5-CLV3-LD_E25_170811_sam07_t10,E25,7,10,32.7576609215,-23.604383067399997,-19.263979334200002,-0.00273166944233,-0.0004268631491
256,qDII-DR5-CLV3-LD_E25_170811_sam07_t10,E25,7,10,40.6068912672,-28.07697598,-24.3074472502,0.00023341751242400002,-0.0007438809112830001
257,qDII-DR5-CLV3-LD_E25_170811_sam07_t10,E25,7,10,50.397044854399994,-35.055560528899996,-23.289797786599998,0.030700209837700002,0.000652734039393
258,qDII-DR5-CLV3-LD_E25_170811_sam07_t10,E25,7,10,29.961311939899996,-21.6694670883,-15.995163413,0.00166269908779,-0.000161579248734
259,qDII-DR5-CLV3-LD_E25_170811_sam07_t10,E25,7,10,9.94210173782,-10.0916175703,-0.449833811344,0.0129392886206,0.000155909437139
260,qDII-DR5-CLV3-LD_E25_170811_sam07_t10,E25,7,10,-47.1090387793,39.6512845233,-44.932974280500005,0.0178622707017,3.59719577165e-05
261,qDII-DR5-CLV3-LD_E25_170811_sam07_t10,E25,7,10,35.2167634582,-23.713779751700002,-21.266925933499998,-0.00481510255266,-0.00067924824089
262,qDII-DR5-CLV3-LD_E25_170811_sam07_t10,E25,7,10,-28.8981666709,21.174389012,-11.359123171099998,0.018454275502900002,0.00032891561377999996
263,qDII-DR5-CLV3-LD_E25_170811_sam07_t10,E25,7,10,-8.70009253705,4.79010745833,0.10176821019099999,0.015521501414099999,0.000233291998624
264,qDII-DR5-CLV3-LD_E25_170811_sam07_t10,E25,7,10,-31.7550209016,23.9699604673,-13.977709076300002,0.0194444685372,0.000349530236068
265,qDII-DR5-CLV3-LD_E25_170811_sam07_t10,E25,7,10,-41.9351469174,35.3922966371,-34.9328226223,0.019773866946099998,0.000133340136491
266,qDII-DR5-CLV3-LD_E25_170811_sam07_t10,E25,7,10,57.5636346184,-37.6617574582,-25.930058705700002,0.0374674775644,0.00108929179276
267,qDII-DR5-CLV3-LD_E25_170811_sam07_t10,E25,7,10,21.599574355799998,-15.1174721584,-6.13119930052,0.0126045755247,0.000138858360252
268,qDII-DR5-CLV3-LD_E25_170811_sam07_t10,E25,7,10,-22.451000448800002,16.7904656639,-7.1102173375,0.015535059349799998,0.000217623926025
269,qDII-DR5-CLV3-LD_E25_170811_sam07_t10,E25,7,10,2.2844275691,-2.30362216862,1.29607052425,0.017867626601599997,0.000316406586852
270,qDII-DR5-CLV3-LD_E25_170811_sam07_t10,E25,7,10,61.127963156499995,-38.885123540500004,-29.0292628779,0.0377722034694,0.00106521588375
271,qDII-DR5-CLV3-LD_E25_170811_sam07_t10,E25,7,10,-18.1128058271,13.923500016099998,-4.26744063183,0.014018997864999999,0.000167671194046
272,qDII-DR5-CLV3-LD_E25_170811_sam07_t10,E25,7,10,6.82519234523,-4.67722354621,0.641736704145,0.0159168840665,0.00025024168488999997
273,qDII-DR5-CLV3-LD_E25_170811_sam07_t10,E25,7,10,45.5199688903,-27.828880591999997,-22.3414243744,0.00995445938834,-0.0003692262339669999
274,qDII-DR5-CLV3-LD_E25_170811_sam07_t10,E25,7,10,-33.3628898916,28.144880830500004,-16.304609433499998,0.0201930334947,0.00034591529513
275,qDII-DR5-CLV3-LD_E25_170811_sam07_t10,E25,7,10,17.7645673289,-10.368571749700001,-2.82246978411,0.0140839810731,0.00018284731520299996
276,qDII-DR5-CLV3-LD_E25_170811_sam07_t10,E25,7,10,-10.792768754,9.87635037043,-1.04729762356,0.0137630136892,0.00017185302895400003
277,qDII-DR5-CLV3-LD_E25_170811_sam07_t10,E25,7,10,40.4646118912,-22.599849295,-23.9388718091,-0.004348463523239999,-0.0008516038209800001
278,qDII-DR5-CLV3-LD_E25_170811_sam07_t10,E25,7,10,28.6041784682,-16.1520325157,-11.0602177723,0.008945844583889999,4.20274598608e-05
279,qDII-DR5-CLV3-LD_E25_170811_sam07_t10,E25,7,10,10.6334346175,-5.2304852216699995,0.00383913091509,0.015382114047,0.000228619812652
280,qDII-DR5-CLV3-LD_E25_170811_sam07_t10,E25,7,10,52.150543597600006,-30.6820440569,-21.5186137683,0.030457727034299997,0.00072399215677
281,qDII-DR5-CLV3-LD_E25_170811_sam07_t10,E25,7,10,-43.3097255,41.1440331647,-38.299047457,0.028473662661299998,0.000222081048433
282,qDII-DR5-CLV3-LD_E25_170811_sam07_t10,E25,7,10,-38.0808242656,36.464212803,-31.884041123200003,0.0223322497768,0.00018144185950499998
283,qDII-DR5-CLV3-LD_E25_170811_sam07_t10,E25,7,10,1.58736211788,2.0486071323500004,1.4985547670100001,0.0190160248837,0.00034996247704800006
284,qDII-DR5-CLV3-LD_E25_170811_sam07_t10,E25,7,10,-35.8648763862,33.7964510063,-24.6040091183,0.0201440595023,0.000251253820383
285,qDII-DR5-CLV3-LD_E25_170811_sam07_t10,E25,7,10,56.7152068425,-32.6446033428,-24.515700939099997,0.037681898441,0.0011734750728399999
286,qDII-DR5-CLV3-LD_E25_170811_sam07_t10,E25,7,10,-12.1993934971,13.4324022005,-2.19930075467,0.0135491394991,0.000159754423725
287,qDII-DR5-CLV3-LD_E25_170811_sam07_t10,E25,7,10,33.9607197384,-16.9919998134,-16.2304465447,-0.000838267997376,-0.000383962635186
288,qDII-DR5-CLV3-LD_E25_170811_sam07_t10,E25,7,10,-25.7251586933,25.224933964499996,-10.579142427,0.020453054532099998,0.00040362749256000005
289,qDII-DR5-CLV3-LD_E25_170811_sam07_t10,E25,7,10,16.1946310266,-6.35311615117,-1.59122271599,0.0151309107385,0.00021623377609799997
290,qDII-DR5-CLV3-LD_E25_170811_sam07_t10,E25,7,10,-15.994751278099999,17.218744186400002,-3.7046095867,0.0138001493175,0.000159521273572
291,qDII-DR5-CLV3-LD_E25_170811_sam07_t10,E25,7,10,67.264042567,-36.8926934343,-31.5010785548,0.039923427656,0.0012215187437799998
292,qDII-DR5-CLV3-LD_E25_170811_sam07_t10,E25,7,10,-19.7781598246,21.2106072182,-6.3812950940699995,0.0163846793785,0.000245413265035
293,qDII-DR5-CLV3-LD_E25_170811_sam07_t10,E25,7,10,-29.376366584299998,29.589267794899996,-14.3966861599,0.0211752866255,0.00041090062080300006
294,qDII-DR5-CLV3-LD_E25_170811_sam07_t10,E25,7,10,8.090472969339999,0.271410573462,1.19048554639,0.0183756711664,0.000322080678874
295,qDII-DR5-CLV3-LD_E25_170811_sam07_t10,E25,7,10,50.8330593719,-26.127167906900002,-21.397706476,0.0212350736927,0.000254927909812
296,qDII-DR5-CLV3-LD_E25_170811_sam07_t10,E25,7,10,37.4248937816,-16.3921519967,-20.4030141949,-0.00608932652273,-0.0007353340386339999
297,qDII-DR5-CLV3-LD_E25_170811_sam07_t10,E25,7,10,32.3050538108,-13.639163633399999,-13.8718402005,0.005300058686180001,-0.00014405803549899998
298,qDII-DR5-CLV3-LD_E25_170811_sam07_t10,E25,7,10,-38.420546345700004,40.981086461,-33.9902712306,0.0243683209217,0.000123296271077
299,qDII-DR5-CLV3-LD_E25_170811_sam07_t10,E25,7,10,40.035358643,-17.1664734955,-23.617834318000003,-0.007364629951789999,-0.000885593923108
300,qDII-DR5-CLV3-LD_E25_170811_sam07_t10,E25,7,10,44.6225944492,-19.8302234932,-24.2856670877,-0.00244393003025,-0.000792045179801
301,qDII-DR5-CLV3-LD_E25_170811_sam07_t10,E25,7,10,62.61799584560001,-32.228989401,-25.948192138400003,0.0381595936639,0.00124787532425
302,qDII-DR5-CLV3-LD_E25_170811_sam07_t10,E25,7,10,13.624360017599999,-1.59846734896,-0.462092649305,0.0168877150858,0.000266738307227
303,qDII-DR5-CLV3-LD_E25_170811_sam07_t10,E25,7,10,71.9690541591,-36.698139315700004,-35.510492304,0.041257721098899997,0.0012815694692400001
304,qDII-DR5-CLV3-LD_E25_170811_sam07_t10,E25,7,10,-1.4701917532700002,10.4059328469,0.43341992772200005,0.016799134550299997,0.00026755756399500004
305,qDII-DR5-CLV3-LD_E25_170811_sam07_t10,E25,7,10,-34.1944554533,39.7318136663,-31.049481327600002,0.019431063972,9.06116298508e-05
306,qDII-DR5-CLV3-LD_E25_170811_sam07_t10,E25,7,10,6.284770624630001,5.401404371080001,0.08895766263520001,0.0185230973637,0.00032233111016900004
307,qDII-DR5-CLV3-LD_E25_170811_sam07_t10,E25,7,10,-11.6973556298,19.1179241281,-4.09190171381,0.013413755157099999,0.000149141013829
308,qDII-DR5-CLV3-LD_E25_170811_sam07_t10,E25,7,10,-21.6529057607,27.331940347600003,-9.79857842947,0.0195565724053,0.000360182342613
309,qDII-DR5-CLV3-LD_E25_170811_sam07_t10,E25,7,10,-32.2389311622,39.6558086825,-35.503756126999996,0.019637094361099998,4.34169005758e-07
310,qDII-DR5-CLV3-LD_E25_170811_sam07_t10,E25,7,10,58.128048248599995,-26.7817724775,-23.8789172983,0.0326325867842,0.000968475084597
311,qDII-DR5-CLV3-LD_E25_170811_sam07_t10,E25,7,10,29.226077105999998,-8.38423437396,-9.22212225973,0.0126195309693,0.00013143837584000002
312,qDII-DR5-CLV3-LD_E25_170811_sam07_t10,E25,7,10,21.9972655348,-4.114288310369999,-4.097077393309999,0.0156364525752,0.00022712667607799997
313,qDII-DR5-CLV3-LD_E25_170811_sam07_t10,E25,7,10,67.7767037611,-32.1138832642,-29.893048437399997,0.037238979552,0.00120838573648
314,qDII-DR5-CLV3-LD_E25_170811_sam07_t10,E25,7,10,52.9630631553,-22.6264026908,-22.006252106199998,0.0197072702382,0.00025845728139400003
315,qDII-DR5-CLV3-LD_E25_170811_sam07_t10,E25,7,10,-23.4548065627,30.8828125852,-12.200014635699999,0.020232004440000003,0.0003876633152869999
316,qDII-DR5-CLV3-LD_E25_170811_sam07_t10,E25,7,10,-16.8682272503,25.6284433769,-7.991605650589999,0.016886603544,0.000252047066515
317,qDII-DR5-CLV3-LD_E25_170811_sam07_t10,E25,7,10,35.722366173299996,-10.833840735399999,-14.3307308793,0.0037711408435900005,-0.00025003327130400003
318,qDII-DR5-CLV3-LD_E25_170811_sam07_t10,E25,7,10,17.7396730882,-0.117814487173,-2.0952973007700004,0.0166686793525,0.000253589869603
319,qDII-DR5-CLV3-LD_E25_170811_sam07_t10,E25,7,10,10.7134316714,4.6454958466,-0.46736296012199996,0.017582320056000002,0.000284884014638
320,qDII-DR5-CLV3-LD_E25_170811_sam07_t10,E25,7,10,-27.4893412782,35.4474878689,-18.438368119,0.0186642507939,0.00028946539554500005
321,qDII-DR5-CLV3-LD_E25_170811_sam07_t10,E25,7,10,4.48628071468,9.28848150989,0.08779115590389999,0.017526749132599998,0.00028535583997400007
322,qDII-DR5-CLV3-LD_E25_170811_sam07_t10,E25,7,10,38.344780269,-11.402641188399999,-18.7169276778,-0.00393891324786,-0.000610465380688
323,qDII-DR5-CLV3-LD_E25_170811_sam07_t10,E25,7,10,-24.7719001377,33.5223622738,-15.7792853653,0.0193305250791,0.000340626939652
324,qDII-DR5-CLV3-LD_E25_170811_sam07_t10,E25,7,10,45.0389026911,-14.8073209842,-25.0509087707,-0.008225755574039999,-0.0008715605249869999
325,qDII-DR5-CLV3-LD_E25_170811_sam07_t10,E25,7,10,-27.6858487253,37.5147941067,-21.8850033975,0.017220824295700002,0.00022368756717600002
326,qDII-DR5-CLV3-LD_E25_170811_sam07_t10,E25,7,10,50.222658803,-18.0847599226,-23.294411239200002,0.00407782246019,-0.000417586273647
327,qDII-DR5-CLV3-LD_E25_170811_sam07_t10,E25,7,10,-7.10577367459,19.8179382964,-3.33129451389,0.013898259331399999,0.000164654371451
328,qDII-DR5-CLV3-LD_E25_170811_sam07_t10,E25,7,10,-29.766185057199998,40.891231603200005,-27.9056239284,0.015737374169,0.000127273149146
329,qDII-DR5-CLV3-LD_E25_170811_sam07_t10,E25,7,10,71.8766567053,-31.174956349499997,-32.755146113,0.0374482060129,0.0012454252248399998
330,qDII-DR5-CLV3-LD_E25_170811_sam07_t10,E25,7,10,65.1360632531,-27.4801279335,-26.407666070500003,0.032782763687800004,0.00100172871226
331,qDII-DR5-CLV3-LD_E25_170811_sam07_t10,E25,7,10,-18.642818691400002,29.926562607399998,-10.335525508,0.018564580163,0.000315792477815
332,qDII-DR5-CLV3-LD_E25_170811_sam07_t10,E25,7,10,32.674500372,-6.41078604309,-10.9234049122,0.0116972841698,8.19545781307e-05
333,qDII-DR5-CLV3-LD_E25_170811_sam07_t10,E25,7,10,22.9602121602,0.248868976675,-4.82475952519,0.0166240461838,0.000255570570706
334,qDII-DR5-CLV3-LD_E25_170811_sam07_t10,E25,7,10,10.1020958456,9.66034456624,-1.39223799342,0.016080392205000002,0.00023819511322799997
335,qDII-DR5-CLV3-LD_E25_170811_sam07_t10,E25,7,10,3.58797101666,14.259579344,-0.884621827387,0.015813326288299998,0.00022376107233000004
336,qDII-DR5-CLV3-LD_E25_170811_sam07_t10,E25,7,10,49.522182459700005,-14.068735522899999,-25.492196695900002,-0.004882572192689999,-0.0006849269669310001
337,qDII-DR5-CLV3-LD_E25_170811_sam07_t10,E25,7,10,44.4620886609,-10.2881419305,-24.8179060782,-0.00991116031795,-0.0008367394560830001
338,qDII-DR5-CLV3-LD_E25_170811_sam07_t10,E25,7,10,14.8560541029,6.873395701310001,-2.0430512628,0.0161850081436,0.000235829993773
339,qDII-DR5-CLV3-LD_E25_170811_sam07_t10,E25,7,10,-1.4946953433399999,18.7413636481,-2.53958561085,0.0147191151525,0.000187974582108
340,qDII-DR5-CLV3-LD_E25_170811_sam07_t10,E25,7,10,27.2067906294,-0.9255666276369999,-6.626992672309999,0.0164981083498,0.000260019228587
341,qDII-DR5-CLV3-LD_E25_170811_sam07_t10,E25,7,10,54.9929124438,-17.3024235757,-23.6881612144,0.012693558371700001,2.96754636974e-05
342,qDII-DR5-CLV3-LD_E25_170811_sam07_t10,E25,7,10,18.8037094655,5.4496881656500005,-2.72144568458,0.0163012249189,0.00023774008565700003
343,qDII-DR5-CLV3-LD_E25_170811_sam07_t10,E25,7,10,38.539356687399994,-5.83570733662,-15.914043536800001,0.00449525807126,-0.00019616687813999998
344,qDII-DR5-CLV3-LD_E25_170811_sam07_t10,E25,7,10,-12.108987587,29.2328179427,-8.185808680360001,0.0164784600936,0.00023181946314400004
345,qDII-DR5-CLV3-LD_E25_170811_sam07_t10,E25,7,10,-17.6095025671,34.410613366,-13.4194599401,0.017732346952700002,0.00029918812295599996
346,qDII-DR5-CLV3-LD_E25_170811_sam07_t10,E25,7,10,-21.0748263378,37.6143527161,-17.290999471099997,0.0170840068109,0.000260130316567
347,qDII-DR5-CLV3-LD_E25_170811_sam07_t10,E25,7,10,-22.9785759687,41.849140293299996,-31.5382546285,0.0127858036384,0.000126074608309
348,qDII-DR5-CLV3-LD_E25_170811_sam07_t10,E25,7,10,-14.3918940733,32.115891169,-10.7093186856,0.017112583265799997,0.000263158573474
349,qDII-DR5-CLV3-LD_E25_170811_sam07_t10,E25,7,10,31.4342074294,-1.06260661896,-8.35821052112,0.0156695472531,0.00023749395453400002
350,qDII-DR5-CLV3-LD_E25_170811_sam07_t10,E25,7,10,-3.4824802656699996,23.452830365900002,-4.887026018969999,0.0148749259452,0.000188336900855
351,qDII-DR5-CLV3-LD_E25_170811_sam07_t10,E25,7,10,-24.1315989077,42.141025508,-25.7564903542,0.0147296591415,0.00016644582119499998
352,qDII-DR5-CLV3-LD_E25_170811_sam07_t10,E25,7,10,9.78494632673,13.4760275126,-1.16921369969,0.015092419570899998,0.00020914006608
353,qDII-DR5-CLV3-LD_E25_170811_sam07_t10,E25,7,10,-21.6047786873,39.9280566885,-20.77167375,0.0162071584261,0.00021436653329
354,qDII-DR5-CLV3-LD_E25_170811_sam07_t10,E25,7,10,71.4162925535,-24.9097059829,-31.191716648299998,0.029011716490400002,0.0008307939637999999
355,qDII-DR5-CLV3-LD_E25_170811_sam07_t10,E25,7,10,24.077932002399997,4.28330635063,-4.36404548148,0.017085871317399998,0.000269306447705
356,qDII-DR5-CLV3-LD_E25_170811_sam07_t10,E25,7,10,54.9401642358,-12.741799032100001,-25.746853371799997,0.004337235511100001,-0.000287279342209
357,qDII-DR5-CLV3-LD_E25_170811_sam07_t10,E25,7,10,48.9381559948,-8.30663981032,-26.3595553804,-0.0079780787758,-0.0007326679798619999
358,qDII-DR5-CLV3-LD_E25_170811_sam07_t10,E25,7,10,42.6632081004,-4.485738330299999,-21.118894562999998,-0.0005942254604310001,-0.00036996734589
359,qDII-DR5-CLV3-LD_E25_170811_sam07_t10,E25,7,10,36.2321610817,-1.44834974053,-12.3946221694,0.0121439334137,0.00011522345289299999
360,qDII-DR5-CLV3-LD_E25_170811_sam07_t10,E25,7,10,60.361012297799995,-16.021543366099998,-26.329588640300003,0.021579494986400004,0.00044354678519400005
361,qDII-DR5-CLV3-LD_E25_170811_sam07_t10,E25,7,10,52.3238128473,-9.61232807119,-28.3044023775,-0.00402427342711,-0.000607751863931
362,qDII-DR5-CLV3-LD_E25_170811_sam07_t10,E25,7,10,15.633116608,12.397147468599998,-2.7167375966000002,0.013328780575299999,0.000167932692027
363,qDII-DR5-CLV3-LD_E25_170811_sam07_t10,E25,7,10,-6.683793376080001,29.3168377746,-7.340103979249999,0.0163141595765,0.00022577540152900002
364,qDII-DR5-CLV3-LD_E25_170811_sam07_t10,E25,7,10,-16.1033284502,37.7778205299,-16.5098522202,0.0158453014016,0.00022297413458000003
365,qDII-DR5-CLV3-LD_E25_170811_sam07_t10,E25,7,10,45.874930067,-4.4253110651,-24.1811224374,-0.0047220921122600006,-0.0005436877151109999
366,qDII-DR5-CLV3-LD_E25_170811_sam07_t10,E25,7,10,19.4605205495,10.806490180199999,-3.42565046814,0.013693039866799999,0.000177228259553
367,qDII-DR5-CLV3-LD_E25_170811_sam07_t10,E25,7,10,9.59999746335,17.6641812576,-2.08704763155,0.0137769116787,0.00017377444951099998
368,qDII-DR5-CLV3-LD_E25_170811_sam07_t10,E25,7,10,24.346679462399997,8.39201211385,-5.21732196311,0.0168260501159,0.000265980767667
369,qDII-DR5-CLV3-LD_E25_170811_sam07_t10,E25,7,10,65.48387251,-16.5230003668,-26.7603149133,0.0244219449485,0.000572975939908
370,qDII-DR5-CLV3-LD_E25_170811_sam07_t10,E25,7,10,-7.946268229360001,33.450881449099995,-10.804342011300001,0.0159540585126,0.000221194328461
371,qDII-DR5-CLV3-LD_E25_170811_sam07_t10,E25,7,10,52.5187799163,-5.96072068084,-29.201696258400002,-0.0056429247454299995,-0.000654342930784
372,qDII-DR5-CLV3-LD_E25_170811_sam07_t10,E25,7,10,35.3099529148,3.11170600195,-11.024281802,0.0140798278361,0.000193156055915
373,qDII-DR5-CLV3-LD_E25_170811_sam07_t10,E25,7,10,-10.2291747156,36.3339546755,-13.327852016500001,0.015300197857800001,0.00020502439651499997
374,qDII-DR5-CLV3-LD_E25_170811_sam07_t10,E25,7,10,39.479340100900004,1.1439671235,-15.2708020479,0.00997785962027,6.03345438e-05
375,qDII-DR5-CLV3-LD_E25_170811_sam07_t10,E25,7,10,14.1608591656,17.2807435317,-3.78422647989,0.0113474949429,0.00012473966615700002
376,qDII-DR5-CLV3-LD_E25_170811_sam07_t10,E25,7,10,-15.4188173547,41.9665430759,-20.8567186769,0.0146267725079,0.000157294822599
377,qDII-DR5-CLV3-LD_E25_170811_sam07_t10,E25,7,10,-17.216916614000002,43.9382937534,-24.5580632055,0.0137137859796,0.000131887004762
378,qDII-DR5-CLV3-LD_E25_170811_sam07_t10,E25,7,10,61.8825465411,-12.1126102551,-28.1910878963,0.0182994149143,0.000283017526822
379,qDII-DR5-CLV3-LD_E25_170811_sam07_t10,E25,7,10,18.5349014906,15.030341021400002,-4.45557980023,0.0115334964266,0.000130145489203
380,qDII-DR5-CLV3-LD_E25_170811_sam07_t10,E25,7,10,31.2190829193,6.9849809578799995,-9.005482209260002,0.017703715639,0.000297076079289
381,qDII-DR5-CLV3-LD_E25_170811_sam07_t10,E25,7,10,-12.139377704300001,39.923398206,-16.9311833478,0.014165159113100002,0.00015413078274599998
382,qDII-DR5-CLV3-LD_E25_170811_sam07_t10,E25,7,10,42.3576171653,1.45079212324,-18.3670689227,0.0061233333475200005,-6.65289022948e-05
383,qDII-DR5-CLV3-LD_E25_170811_sam07_t10,E25,7,10,4.511053925540001,26.4164414852,-5.8142025219599995,0.013464650416999999,0.00016091107333899998
384,qDII-DR5-CLV3-LD_E25_170811_sam07_t10,E25,7,10,50.099871231899996,-1.8709966930000002,-29.284439715599998,-0.006684061049039999,-0.000619129675041
385,qDII-DR5-CLV3-LD_E25_170811_sam07_t10,E25,7,10,24.328453050100002,12.456966991500002,-6.11813639472,0.0153476533962,0.00022548283044299998
386,qDII-DR5-CLV3-LD_E25_170811_sam07_t10,E25,7,10,11.9670931968,21.162641078,-5.0348260617000005,0.010923671549799998,0.00011353897781200001
387,qDII-DR5-CLV3-LD_E25_170811_sam07_t10,E25,7,10,8.63264417399,23.6266184234,-5.37521606648,0.0118668026637,0.0001303733058
388,qDII-DR5-CLV3-LD_E25_170811_sam07_t10,E25,7,10,-12.895231846300002,44.3331893253,-30.9882867052,0.00850457737715,-3.12931645141e-05
389,qDII-DR5-CLV3-LD_E25_170811_sam07_t10,E25,7,10,57.1534220095,-5.88706003385,-30.8548577075,0.00121025336404,-0.000445349073453
390,qDII-DR5-CLV3-LD_E25_170811_sam07_t10,E25,7,10,45.5932376008,1.92226148008,-23.7720501478,0.00100281990072,-0.000231163911508
391,qDII-DR5-CLV3-LD_E25_170811_sam07_t10,E25,7,10,-8.102581824269999,39.4985149903,-16.3366673462,0.013460307492799998,0.000125435138818
392,qDII-DR5-CLV3-LD_E25_170811_sam07_t10,E25,7,10,54.2189858452,-1.9694653913,-32.217552689499996,-0.00531673110466,-0.000594121539312
393,qDII-DR5-CLV3-LD_E25_170811_sam07_t10,E25,7,10,34.1400294711,8.58077889764,-10.815339711199998,0.015577279276299998,0.000228625795323
394,qDII-DR5-CLV3-LD_E25_170811_sam07_t10,E25,7,10,71.1556322703,-13.5444105212,-32.7973191168,0.0183768448477,0.00031006656773900003
395,qDII-DR5-CLV3-LD_E25_170811_sam07_t10,E25,7,10,18.5559336737,20.0480639378,-6.47025455839,0.00975496707776,9.14741837267e-05
396,qDII-DR5-CLV3-LD_E25_170811_sam07_t10,E25,7,10,-9.33394577395,42.800684097600005,-21.0432973518,0.012174747539600001,6.51973172919e-05
397,qDII-DR5-CLV3-LD_E25_170811_sam07_t10,E25,7,10,40.136151185,6.50076913801,-15.975006831500002,0.0102168590715,8.26684247302e-05
398,qDII-DR5-CLV3-LD_E25_170811_sam07_t10,E25,7,10,13.3065448625,24.6530471092,-8.14223784208,0.008689101630700002,6.19677806198e-05
399,qDII-DR5-CLV3-LD_E25_170811_sam07_t10,E25,7,10,37.185028986599995,8.764405030119999,-13.8945870858,0.0124955443075,0.000140239246076
400,qDII-DR5-CLV3-LD_E25_170811_sam07_t10,E25,7,10,8.57989596609,28.187242967,-7.4339082239100005,0.0109644247745,0.000100863701717
401,qDII-DR5-CLV3-LD_E25_170811_sam07_t10,E25,7,10,67.8758019693,-9.58593918997,-33.022676424000004,0.0192190654592,0.00032654933742900003
402,qDII-DR5-CLV3-LD_E25_170811_sam07_t10,E25,7,10,25.062846067800002,16.6917458188,-8.07823210145,0.0138577289405,0.000167171632207
403,qDII-DR5-CLV3-LD_E25_170811_sam07_t10,E25,7,10,-3.08934970624,37.9233964794,-13.2972809924,0.0141493197147,0.00013736197546399998
404,qDII-DR5-CLV3-LD_E25_170811_sam07_t10,E25,7,10,3.8306745083800005,32.4226295366,-9.054833006889998,0.0139947515413,0.000141677446102
405,qDII-DR5-CLV3-LD_E25_170811_sam07_t10,E25,7,10,49.038249974799996,3.5595049096699993,-27.8736024997,-0.00113429894509,-0.000289468042758
406,qDII-DR5-CLV3-LD_E25_170811_sam07_t10,E25,7,10,57.733041810500005,-1.3235612934799998,-34.0033495898,-0.00250883832473,-0.0005019915194880001
407,qDII-DR5-CLV3-LD_E25_170811_sam07_t10,E25,7,10,62.021354510100004,-4.23658322247,-33.547343634099995,0.00766734124013,-0.00022245116811099998
408,qDII-DR5-CLV3-LD_E25_170811_sam07_t10,E25,7,10,52.401334266099994,2.9550073605000002,-32.1477038979,-0.00304263095945,-0.000381171181665
409,qDII-DR5-CLV3-LD_E25_170811_sam07_t10,E25,7,10,31.0969004695,14.452271294600001,-9.67975179643,0.0165139987674,0.00022088153593799998
410,qDII-DR5-CLV3-LD_E25_170811_sam07_t10,E25,7,10,-7.89168779815,46.6923418365,-32.4213611579,0.00668759203784,-9.78232728235e-05
411,qDII-DR5-CLV3-LD_E25_170811_sam07_t10,E25,7,10,44.0194997558,7.51683863875,-21.2408947572,0.005709592755989999,-3.1771027463000005e-05
412,qDII-DR5-CLV3-LD_E25_170811_sam07_t10,E25,7,10,-4.913823069509999,42.1754594286,-18.0279715998,0.0116594150886,4.2422817378e-05
413,qDII-DR5-CLV3-LD_E25_170811_sam07_t10,E25,7,10,-9.54487809065,47.353823653,-26.690655384299998,0.00849236596134,-5.66351609202e-05
414,qDII-DR5-CLV3-LD_E25_170811_sam07_t10,E25,7,10,16.1810203842,26.538993669,-9.938596394500001,0.0070671252053099995,7.69272064322e-06
415,qDII-DR5-CLV3-LD_E25_170811_sam07_t10,E25,7,10,23.1368923021,21.6547898637,-9.210278434960001,0.00956074843059,4.9800234171000005e-05
416,qDII-DR5-CLV3-LD_E25_170811_sam07_t10,E25,7,10,3.8090372040699996,36.151379513,-12.355917137999999,0.013121222019100001,6.82839791368e-05
417,qDII-DR5-CLV3-LD_E25_170811_sam07_t10,E25,7,10,12.660687241,30.1635654947,-10.2249906012,0.00846318182241,2.27311980737e-05
418,qDII-DR5-CLV3-LD_E25_170811_sam07_t10,E25,7,10,8.99279331594,32.8739405747,-10.5994196064,0.011016312311200002,4.71077610674e-05
419,qDII-DR5-CLV3-LD_E25_170811_sam07_t10,E25,7,10,47.1037578666,8.65323280996,-25.434002458400002,0.00336544943709,-9.42824870384e-05
420,qDII-DR5-CLV3-LD_E25_170811_sam07_t10,E25,7,10,36.4807511006,14.3595509899,-14.7924642201,0.0122124252323,8.16329204048e-05
421,qDII-DR5-CLV3-LD_E25_170811_sam07_t10,E25,7,10,27.849116329,20.6064273234,-12.1193308072,0.011216930177599999,2.42932735536e-05
422,qDII-DR5-CLV3-LD_E25_170811_sam07_t10,E25,7,10,-1.17121349647,42.949741986199996,-18.5813549252,0.010284807101,-2.03828030336e-05
423,qDII-DR5-CLV3-LD_E25_170811_sam07_t10,E25,7,10,-9.06634804154,50.712977027600004,-29.940681014699997,0.00648675962037,-0.00010642307624
424,qDII-DR5-CLV3-LD_E25_170811_sam07_t10,E25,7,10,51.1111594013,8.2571305034,-31.9692802569,0.00134893964294,-0.000175125100528
425,qDII-DR5-CLV3-LD_E25_170811_sam07_t10,E25,7,10,4.54723176449,38.8070367802,-15.6159211671,0.011052733751999999,-2.54014528374e-05
426,qDII-DR5-CLV3-LD_E25_170811_sam07_t10,E25,7,10,40.1926404207,14.050381653299999,-17.8036335937,0.0101122337288,3.70496081067e-05
427,qDII-DR5-CLV3-LD_E25_170811_sam07_t10,E25,7,10,33.142500535100005,18.4026498954,-13.8329459024,0.012404601319,2.01084670301e-05
428,qDII-DR5-CLV3-LD_E25_170811_sam07_t10,E25,7,10,-3.1897186717799997,46.57775680979999,-23.3865813816,0.00841586981116,-8.75862766311e-05
429,qDII-DR5-CLV3-LD_E25_170811_sam07_t10,E25,7,10,21.0096942895,27.2367024416,-11.5172219945,0.005267233878850001,-7.63765635795e-05
430,qDII-DR5-CLV3-LD_E25_170811_sam07_t10,E25,7,10,9.75829723725,36.2768448348,-13.8019072868,0.0100880261275,-5.21816220688e-05
431,qDII-DR5-CLV3-LD_E25_170811_sam07_t10,E25,7,10,25.2289633977,25.315019844400002,-13.376971490399999,0.00612412229588,-0.000101266177045
432,qDII-DR5-CLV3-LD_E25_170811_sam07_t10,E25,7,10,16.655748890599998,31.477268603699997,-11.8887137024,0.00596674350523,-7.44847019433e-05
433,qDII-DR5-CLV3-LD_E25_170811_sam07_t10,E25,7,10,4.07189813684,42.615234738299996,-18.9815627484,0.008949548626950002,-8.94172036857e-05
434,qDII-DR5-CLV3-LD_E25_170811_sam07_t10,E25,7,10,44.017568727,15.1510787283,-21.884645894699997,0.00774122068448,-1.17273454775e-05
435,qDII-DR5-CLV3-LD_E25_170811_sam07_t10,E25,7,10,31.3832692204,23.242495073,-14.947972735699999,0.009063302016190001,-0.00010637800277600001
436,qDII-DR5-CLV3-LD_E25_170811_sam07_t10,E25,7,10,49.5101121954,13.104460669200002,-29.4956412151,0.00480933758604,-7.35544480517e-05
437,qDII-DR5-CLV3-LD_E25_170811_sam07_t10,E25,7,10,9.65093030755,39.3429753925,-15.9756321418,0.00912036947369,-0.000114574579751
438,qDII-DR5-CLV3-LD_E25_170811_sam07_t10,E25,7,10,-2.06687137935,50.145305427,-28.8977834121,0.00925569043235,-4.31400433765e-05
439,qDII-DR5-CLV3-LD_E25_170811_sam07_t10,E25,7,10,1.6495785603400002,46.3687538249,-21.4645759051,0.007963005045229999,-0.000119565094751
440,qDII-DR5-CLV3-LD_E25_170811_sam07_t10,E25,7,10,-3.3029721286799996,51.9990368297,-31.3326753654,0.0112999131586,5.23658300797e-05
441,qDII-DR5-CLV3-LD_E25_170811_sam07_t10,E25,7,10,51.9931132009,13.4061060764,-33.841341165,0.00510368037592,-7.52002218985e-05
442,qDII-DR5-CLV3-LD_E25_170811_sam07_t10,E25,7,10,37.1303497499,20.9592696632,-16.597030380699998,0.0107449557006,-5.3717993493000006e-05
443,qDII-DR5-CLV3-LD_E25_170811_sam07_t10,E25,7,10,23.423261053,30.445013642,-14.4784993742,0.0034365766291999996,-0.00017762595022499997
444,qDII-DR5-CLV3-LD_E25_170811_sam07_t10,E25,7,10,41.2413166715,19.076158359,-19.6586750017,0.0102765427929,-1.76522708623e-05
445,qDII-DR5-CLV3-LD_E25_170811_sam07_t10,E25,7,10,17.1615883006,35.5836689712,-15.081222984000002,0.00587378266219,-0.00015030641636599998
446,qDII-DR5-CLV3-LD_E25_170811_sam07_t10,E25,7,10,8.140740177389999,44.386036220200005,-20.6012684504,0.0074711149616800004,-0.00015841406390600002
447,qDII-DR5-CLV3-LD_E25_170811_sam07_t10,E25,7,10,5.11716349559,47.304806542799994,-23.2368738559,0.007890462237869999,-0.00013392117600299997
448,qDII-DR5-CLV3-LD_E25_170811_sam07_t10,E25,7,10,3.32721192799,51.061199826099994,-26.809686737399996,0.00997839812604,-5.58227393513e-05
449,qDII-DR5-CLV3-LD_E25_170811_sam07_t10,E25,7,10,17.201782152899998,39.5639962746,-17.1669130405,0.00672348974731,-0.00019205351521700003
450,qDII-DR5-CLV3-LD_E25_170811_sam07_t10,E25,7,10,-1.1610191108399999,55.7053230916,-33.112597670999996,0.0152247099636,0.000204477077902
451,qDII-DR5-CLV3-LD_E25_170811_sam07_t10,E25,7,10,24.491098973000003,34.4333947348,-16.4045560805,0.00388549289672,-0.000195763651629
452,qDII-DR5-CLV3-LD_E25_170811_sam07_t10,E25,7,10,10.8557056827,45.1522649885,-21.314285125999998,0.008053745183239999,-0.000144472804026
453,qDII-DR5-CLV3-LD_E25_170811_sam07_t10,E25,7,10,46.071316484300006,20.886099935,-25.9093083535,0.0110622838599,5.3448519741e-06
454,qDII-DR5-CLV3-LD_E25_170811_sam07_t10,E25,7,10,41.3433416803,23.308062989499998,-20.5289709835,0.01109133932,-4.8300871253e-05
455,qDII-DR5-CLV3-LD_E25_170811_sam07_t10,E25,7,10,30.3775925927,31.2797234648,-18.094110574000002,0.006887350880720001,-0.000154564643694
456,qDII-DR5-CLV3-LD_E25_170811_sam07_t10,E25,7,10,36.0116341359,27.5866316435,-18.6733252917,0.0102616846707,-0.00010889349122600001
457,qDII-DR5-CLV3-LD_E25_170811_sam07_t10,E25,7,10,49.601123226800006,20.1584035185,-30.1663902515,0.011581289865700001,3.55165027609e-05
458,qDII-DR5-CLV3-LD_E25_170811_sam07_t10,E25,7,10,8.75961857369,49.902302999300005,-24.863620659200002,0.0101049041798,-6.5771260601e-05
459,qDII-DR5-CLV3-LD_E25_170811_sam07_t10,E25,7,10,4.45005922041,54.6287484433,-32.3208887679,0.012162530084799998,7.83174609604e-05
460,qDII-DR5-CLV3-LD_E25_170811_sam07_t10,E25,7,10,15.1330044048,45.0612812784,-20.6587322249,0.009630816750370001,-0.00010296045680200001
461,qDII-DR5-CLV3-LD_E25_170811_sam07_t10,E25,7,10,23.3642356673,39.2761141091,-18.6093826386,0.0062939458479,-0.00017707267698299997
462,qDII-DR5-CLV3-LD_E25_170811_sam07_t10,E25,7,10,27.152381013499998,36.7326887819,-18.204435183599998,0.00624811670545,-0.00014886220186700002
463,qDII-DR5-CLV3-LD_E25_170811_sam07_t10,E25,7,10,19.281904014200002,43.0187052096,-20.1622294206,0.00845959390336,-0.00015564023204700002
464,qDII-DR5-CLV3-LD_E25_170811_sam07_t10,E25,7,10,41.2321732079,27.9533151073,-21.4027875161,0.013229418546200002,-1.52475890298e-05
465,qDII-DR5-CLV3-LD_E25_170811_sam07_t10,E25,7,10,34.7060991446,32.3470288393,-19.7237946747,0.0121355277856,-2.82888307737e-05
466,qDII-DR5-CLV3-LD_E25_170811_sam07_t10,E25,7,10,45.1299466483,26.4835512904,-24.4679526878,0.014251998318499999,5.14140744536e-05
467,qDII-DR5-CLV3-LD_E25_170811_sam07_t10,E25,7,10,13.5643940101,50.1889696803,-24.099492908600002,0.013099962267200001,4.41247826566e-05
468,qDII-DR5-CLV3-LD_E25_170811_sam07_t10,E25,7,10,3.80079070685,59.803061927600005,-36.8039112265,0.011877913031799999,0.00014238478793599999
469,qDII-DR5-CLV3-LD_E25_170811_sam07_t10,E25,7,10,39.8135992303,31.3038458915,-21.3834139719,0.0146697179231,3.50188993631e-05
470,qDII-DR5-CLV3-LD_E25_170811_sam07_t10,E25,7,10,32.2287701956,36.5213804013,-18.6216625071,0.0125292259093,2.70787804777e-05
471,qDII-DR5-CLV3-LD_E25_170811_sam07_t10,E25,7,10,9.32861504784,55.3725134972,-31.512743618000002,0.0119587146606,6.25428924031e-05
472,qDII-DR5-CLV3-LD_E25_170811_sam07_t10,E25,7,10,48.4738692704,26.9164493542,-28.6710387878,0.014689167618599999,9.94683912703e-05
473,qDII-DR5-CLV3-LD_E25_170811_sam07_t10,E25,7,10,6.61591070707,58.7460767969,-36.4435644242,0.010680546659899998,9.40426651382e-05
474,qDII-DR5-CLV3-LD_E25_170811_sam07_t10,E25,7,10,50.728316668199994,27.0897163017,-34.2491523126,0.0142054793835,0.000125284157252
475,qDII-DR5-CLV3-LD_E25_170811_sam07_t10,E25,7,10,17.848905167,48.8550693114,-22.3435786304,0.0141928045039,8.27986826939e-05
476,qDII-DR5-CLV3-LD_E25_170811_sam07_t10,E25,7,10,12.348390186900001,54.032864734700006,-27.577229890100003,0.0137778324067,8.67281725182e-05
477,qDII-DR5-CLV3-LD_E25_170811_sam07_t10,E25,7,10,37.5029927325,35.3549985863,-20.264262304000003,0.0166508162643,0.00014091390582100002
478,qDII-DR5-CLV3-LD_E25_170811_sam07_t10,E25,7,10,29.8218107456,40.816625435,-19.8757826396,0.0147346733222,0.000133319967502
479,qDII-DR5-CLV3-LD_E25_170811_sam07_t10,E25,7,10,24.6188929646,45.1314599863,-21.561264872800002,0.013843067714200002,7.57636031767e-05
480,qDII-DR5-CLV3-LD_E25_170811_sam07_t10,E25,7,10,45.4997838601,31.7966024194,-25.219695421399997,0.0170627930515,0.00016410668682
481,qDII-DR5-CLV3-LD_E25_170811_sam07_t10,E25,7,10,10.9669898202,59.1121914597,-35.7439941238,0.010880938503,6.9880035122e-05
482,qDII-DR5-CLV3-LD_E25_170811_sam07_t10,E25,7,10,42.2698354813,35.8011300319,-23.0582819786,0.0192488938865,0.00024962419184999996
483,qDII-DR5-CLV3-LD_E25_170811_sam07_t10,E25,7,10,14.227267801400002,58.1064422028,-31.7474434964,0.0142769824523,0.000160322718118
484,qDII-DR5-CLV3-LD_E25_170811_sam07_t10,E25,7,10,48.8603925163,33.8834592337,-32.865896249,0.0178406597751,0.000286924712678
485,qDII-DR5-CLV3-LD_E25_170811_sam07_t10,E25,7,10,38.09797266,40.460223273800004,-22.1838611622,0.0226089282878,0.000435515875627
486,qDII-DR5-CLV3-LD_E25_170811_sam07_t10,E25,7,10,31.750570282199998,44.936259184300006,-21.659225495900003,0.022209877226400002,0.000464234526631
487,qDII-DR5-CLV3-LD_E25_170811_sam07_t10,E25,7,10,27.261013335799998,48.468149646499995,-23.2901286777,0.0221097354042,0.000461686307379
488,qDII-DR5-CLV3-LD_E25_170811_sam07_t10,E25,7,10,18.1151769919,55.655129438,-26.568954541500002,0.020330152190400002,0.00037269454716400006
489,qDII-DR5-CLV3-LD_E25_170811_sam07_t10,E25,7,10,45.322982688500005,37.7693987703,-26.0089977061,0.0217876058542,0.00040236548533
490,qDII-DR5-CLV3-LD_E25_170811_sam07_t10,E25,7,10,23.927499569899997,53.9596862566,-24.602348412399998,0.0252911735135,0.000605784053907
491,qDII-DR5-CLV3-LD_E25_170811_sam07_t10,E25,7,10,41.8644807019,41.645547923,-25.0799978382,0.0248246627618,0.000549788350072
492,qDII-DR5-CLV3-LD_E25_170811_sam07_t10,E25,7,10,47.5356958558,39.6812520425,-33.8453503338,0.0225572678872,0.000480902612845
493,qDII-DR5-CLV3-LD_E25_170811_sam07_t10,E25,7,10,29.2242946681,52.0921137299,-23.9156938081,0.027269602477799998,0.0007212066301910001
494,qDII-DR5-CLV3-LD_E25_170811_sam07_t10,E25,7,10,19.8785399849,61.0101948579,-33.0414246498,0.0181857523825,0.00035363646746199994
495,qDII-DR5-CLV3-LD_E25_170811_sam07_t10,E25,7,10,34.8856455721,49.146268901400006,-24.437392177,0.0286505256434,0.0007903297793750001
496,qDII-DR5-CLV3-LD_E25_170811_sam07_t10,E25,7,10,39.7598552506,46.5262697893,-25.057686996599998,0.028496443868,0.000756264064542
497,qDII-DR5-CLV3-LD_E25_170811_sam07_t10,E25,7,10,40.164995559299996,47.512998329700004,-32.051908048200005,0.028609800988699998,0.0007133773331539999
498,qDII-DR5-CLV3-LD_E25_170811_sam07_t10,E25,7,10,23.1115086052,59.257198608100005,-29.1023903712,0.023796251753700003,0.000580492408581
499,qDII-DR5-CLV3-LD_E25_170811_sam07_t10,E25,7,10,45.3248532024,43.824517299700005,-27.952657165999998,0.027066033511099995,0.000662078419519
500,qDII-DR5-CLV3-LD_E25_170811_sam07_t10,E25,7,10,29.056031838800003,57.934226225299994,-28.2766424677,0.027969408427400002,0.0007670080107489999
501,qDII-DR5-CLV3-LD_E25_170811_sam07_t10,E25,7,10,35.073400206399995,54.04079295060001,-26.435047434899996,0.0284363992861,0.0007721406298300002
502,qDII-DR5-CLV3-LD_E25_170811_sam07_t10,E25,7,10,41.1586624377,52.9596075109,-30.321804131799997,0.026838184325200003,0.000633577246816
503,qDII-DR5-CLV3-LD_E25_170811_sam07_t10,E25,7,10,33.2417144083,59.535772558599994,-32.2660994193,0.0262726852283,0.000667709313946
504,qDII-DR5-CLV3-LD_E25_170811_sam07_t10,E25,7,10,-64.8942722728,-32.7780458884,-49.2873760418,0.03477632934080001,0.0010533121379799999
505,qDII-DR5-CLV3-LD_E25_170811_sam07_t10,E25,7,10,-68.4641189118,-29.1724645879,-36.5160777735,0.0368573028202,0.00126550890241
506,qDII-DR5-CLV3-LD_E25_170811_sam07_t10,E25,7,10,-72.3860052916,-21.282596431199998,-40.1240961622,0.026384686737700003,0.000671759931751
507,qDII-DR5-CLV3-LD_E25_170811_sam07_t10,E25,7,10,-71.41699595899999,-14.358768636199999,-47.7955240983,0.0290394539596,0.000468588159397
508,qDII-DR5-CLV3-LD_E25_170811_sam07_t10,E25,7,10,-50.1598037922,14.4440906151,-42.4512748402,0.0125758954336,-0.000135541249364
509,qDII-DR5-CLV3-LD_E25_170811_sam07_t10,E25,7,10,3.1011998350599996,-11.4317874429,-1.60424356074,0.012918445715399999,0.000163221663075
510,qDII-DR5-CLV3-LD_E25_170811_sam07_t10,E25,7,10,-42.729654533499996,30.1028468248,-42.560306764,0.0172323607294,-5.78695646424e-05
511,qDII-DR5-CLV3-LD_E25_170811_sam07_t10,E25,7,10,-15.8188853634,8.21838857086,-1.9434775720200002,0.0135925858901,0.000164847566342
512,qDII-DR5-CLV3-LD_E25_170811_sam07_t10,E25,7,10,-3.6984190028099997,1.0941414401799998,0.612353217349,0.0179053973095,0.000317638778828
513,qDII-DR5-CLV3-LD_E25_170811_sam07_t10,E25,7,10,-1.11852043875,6.0945802346599995,1.3682733598199999,0.018433293183,0.000327679136808
514,qDII-DR5-CLV3-LD_E25_170811_sam07_t10,E25,7,10,25.3977379075,-9.82113635023,-7.54137965827,0.012958859516200003,0.000150496707852
515,qDII-DR5-CLV3-LD_E25_170811_sam07_t10,E25,7,10,60.59964462600001,-21.74276239,-24.324892280900002,0.027862420891499998,0.0007337898327130001
516,qDII-DR5-CLV3-LD_E25_170811_sam07_t10,E25,7,10,5.05582179515,19.701577733900002,-3.8329835109099997,0.014096029058,0.000175365913773
517,qDII-DR5-CLV3-LD_E25_170811_sam07_t10,E25,7,10,68.5935694678,-20.694477732,-28.952246805799998,0.025682778986299996,0.000642865952398
518,qDII-DR5-CLV3-LD_E25_170811_sam07_t10,E25,7,10,26.0337810646,61.9652293512,-35.584255624899995,0.0235748094776,0.0005914623550750001
519,qDII-DR5-CLV3-LD_E25_170811_sam07_t10,E25,7,10,-38.9423456387,-0.904462787643,-16.8640671376,0.000617292894505,-0.00019987176979700003
520,qDII-DR5-CLV3-LD_E25_170811_sam07_t10,E25,7,10,15.876144898699998,-39.8289876508,-17.0945370367,0.0158684251731,0.00022034243088
521,qDII-DR5-CLV3-LD_E25_170811_sam07_t10,E25,7,10,41.8641069388,-40.5447353025,-40.4444607047,0.028448598651400002,0.000318950620266
522,qDII-DR5-CLV3-LD_E25_170811_sam07_t10,E25,7,10,-0.505979735191,29.5706815562,-7.553680553239999,0.0157492794236,0.000209523512458
