,filename,experiment,sam_id,hour_time,aligned_x,aligned_y,aligned_z,mean_curvature,gaussian_curvature
0,qDII-DR5-CLV3-LD_E25_170811_sam05_t05,E25,5,5,72.6345305404,-29.043104087399996,-34.8704747333,0.0257155293628,0.0005528216782270001
1,qDII-DR5-CLV3-LD_E25_170811_sam05_t05,E25,5,5,71.6484761363,-20.6989614921,-36.1171206579,0.0249544464773,0.000509846532307
2,qDII-DR5-CLV3-LD_E25_170811_sam05_t05,E25,5,5,70.33962327340001,-35.6764690596,-34.014994294299996,0.023665421800500002,0.000464185652195
3,qDII-DR5-CLV3-LD_E25_170811_sam05_t05,E25,5,5,67.98627759060001,-41.8834211914,-34.3437089579,0.024312048934999997,0.00046006767507599997
4,qDII-DR5-CLV3-LD_E25_170811_sam05_t05,E25,5,5,67.7156406607,-30.0514277112,-30.7608901045,0.026203655441400003,0.000587953559517
5,qDII-DR5-CLV3-LD_E25_170811_sam05_t05,E25,5,5,66.4358887308,-13.769911161,-35.5315175079,0.014716684847799998,0.000159129376909
6,qDII-DR5-CLV3-LD_E25_170811_sam05_t05,E25,5,5,63.09175882270001,-48.0446770962,-36.163466278899996,0.0267578780626,0.00049589564531
7,qDII-DR5-CLV3-LD_E25_170811_sam05_t05,E25,5,5,62.3207292068,-16.4537790635,-31.3342465881,0.0112224765066,3.03912806938e-05
8,qDII-DR5-CLV3-LD_E25_170811_sam05_t05,E25,5,5,62.7358986212,-7.6753238761,-37.1254585407,0.00388350554252,-0.000234832061157
9,qDII-DR5-CLV3-LD_E25_170811_sam05_t05,E25,5,5,59.9720346296,-21.2333588798,-28.113771535700003,0.0148400105258,0.000131543674265
10,qDII-DR5-CLV3-LD_E25_170811_sam05_t05,E25,5,5,58.785167970799996,-43.6724492604,-29.584386177,0.0291877755111,0.000721196825643
11,qDII-DR5-CLV3-LD_E25_170811_sam05_t05,E25,5,5,59.2180335101,-12.0317999452,-32.8657912627,0.00199922039959,-0.00033181355159
12,qDII-DR5-CLV3-LD_E25_170811_sam05_t05,E25,5,5,57.4967629098,-35.5797877213,-24.9707687664,0.0281267747639,0.000708560269015
13,qDII-DR5-CLV3-LD_E25_170811_sam05_t05,E25,5,5,58.32769477,-7.21570521901,-35.3033417783,-0.00135202298622,-0.00043891866785600005
14,qDII-DR5-CLV3-LD_E25_170811_sam05_t05,E25,5,5,57.6192073811,-51.0774999826,-38.0338306975,0.0269041779157,0.000479923730728
15,qDII-DR5-CLV3-LD_E25_170811_sam05_t05,E25,5,5,56.334601176999996,-40.5460437698,-26.325202215100003,0.0306177063905,0.000833558893868
16,qDII-DR5-CLV3-LD_E25_170811_sam05_t05,E25,5,5,55.9773558627,-25.573499842100002,-25.0922475863,0.0187047364015,0.00023980263231000002
17,qDII-DR5-CLV3-LD_E25_170811_sam05_t05,E25,5,5,55.0891156011,-15.755542741700001,-28.6769412432,0.00119601399385,-0.000543154066205
18,qDII-DR5-CLV3-LD_E25_170811_sam05_t05,E25,5,5,56.1449530619,-0.528208664642,-35.527637278,-0.0031911595553600004,-0.000513996365919
19,qDII-DR5-CLV3-LD_E25_170811_sam05_t05,E25,5,5,55.7017525617,12.7909983153,-35.4957195525,0.009130586987709998,-2.28101724265e-05
20,qDII-DR5-CLV3-LD_E25_170811_sam05_t05,E25,5,5,54.5504586541,-10.7268823781,-32.2497911758,-0.00216365686727,-0.000574364613984
21,qDII-DR5-CLV3-LD_E25_170811_sam05_t05,E25,5,5,54.410062959399994,-5.73254677464,-32.2346607871,-0.00327854618281,-0.00057654545072
22,qDII-DR5-CLV3-LD_E25_170811_sam05_t05,E25,5,5,54.7011476912,5.50562885178,-33.3059885935,0.0061035338046100006,-0.000225411621341
23,qDII-DR5-CLV3-LD_E25_170811_sam05_t05,E25,5,5,52.298587087799994,-32.4047498915,-23.227917394699997,0.020898566423900002,0.000333721405213
24,qDII-DR5-CLV3-LD_E25_170811_sam05_t05,E25,5,5,53.7418179758,1.33988407037,-31.0909949337,0.00196330252999,-0.00041033859830400004
25,qDII-DR5-CLV3-LD_E25_170811_sam05_t05,E25,5,5,53.9958245093,19.4621597629,-34.4818717235,0.012120887900100002,-3.77416928623e-05
26,qDII-DR5-CLV3-LD_E25_170811_sam05_t05,E25,5,5,52.28011743020001,-19.270937578399998,-26.684504439,0.0033882219643899996,-0.000523366095936
27,qDII-DR5-CLV3-LD_E25_170811_sam05_t05,E25,5,5,53.114848147299995,11.5319395975,-29.9220663792,0.011472738344799999,-1.18759083885e-05
28,qDII-DR5-CLV3-LD_E25_170811_sam05_t05,E25,5,5,50.993931181899995,-37.3785327107,-23.4200773136,0.025376229733099998,0.000562123768781
29,qDII-DR5-CLV3-LD_E25_170811_sam05_t05,E25,5,5,51.2446531742,-45.872463647299995,-28.1635127487,0.0312380227819,0.0008129986052299999
30,qDII-DR5-CLV3-LD_E25_170811_sam05_t05,E25,5,5,51.927069072799995,5.70533109769,-27.7458360927,0.008436247322720001,-0.00017205479872099997
31,qDII-DR5-CLV3-LD_E25_170811_sam05_t05,E25,5,5,53.18318592399999,25.3076665005,-35.723437876,0.0159118622091,5.65506417773e-05
32,qDII-DR5-CLV3-LD_E25_170811_sam05_t05,E25,5,5,52.4260350275,26.7363203815,-31.0878444288,0.0172672888158,9.63413645083e-05
33,qDII-DR5-CLV3-LD_E25_170811_sam05_t05,E25,5,5,51.4487499701,11.5269759578,-26.5869853868,0.013035977994,2.10544079456e-05
34,qDII-DR5-CLV3-LD_E25_170811_sam05_t05,E25,5,5,51.8245436578,18.4052037999,-28.855954504499998,0.0134035576994,-1.27807236284e-05
35,qDII-DR5-CLV3-LD_E25_170811_sam05_t05,E25,5,5,51.1634278095,-11.1138441965,-30.307961469299997,-0.00286587016994,-0.000718093062542
36,qDII-DR5-CLV3-LD_E25_170811_sam05_t05,E25,5,5,51.7344702307,41.7327261867,-32.2553066585,0.026840881651499997,0.000621382108235
37,qDII-DR5-CLV3-LD_E25_170811_sam05_t05,E25,5,5,50.456659347700004,-6.9530630548,-29.1878741367,-0.0024730648853899997,-0.0006376529905040001
38,qDII-DR5-CLV3-LD_E25_170811_sam05_t05,E25,5,5,50.1199821696,-0.112469066037,-25.645475604899996,0.0033232673463899996,-0.00037380253202800006
39,qDII-DR5-CLV3-LD_E25_170811_sam05_t05,E25,5,5,49.2124616203,-42.3359804231,-24.850380560900003,0.029969132502099996,0.000780791584987
40,qDII-DR5-CLV3-LD_E25_170811_sam05_t05,E25,5,5,52.0395725647,42.1921822217,-38.1138858137,0.025926408345,0.0005761173108080001
41,qDII-DR5-CLV3-LD_E25_170811_sam05_t05,E25,5,5,49.2927329507,5.7045851354499995,-23.3496413019,0.0114572314804,-3.27397219377e-05
42,qDII-DR5-CLV3-LD_E25_170811_sam05_t05,E25,5,5,49.753175427200006,23.823924716,-26.715228158899997,0.0151303053076,-1.41404909916e-05
43,qDII-DR5-CLV3-LD_E25_170811_sam05_t05,E25,5,5,49.665061595699996,32.7697849168,-26.668098349,0.022556777304599998,0.00033956995679
44,qDII-DR5-CLV3-LD_E25_170811_sam05_t05,E25,5,5,49.247339554300005,27.565819788000002,-25.5732192536,0.0173575444856,6.797026820899999e-05
45,qDII-DR5-CLV3-LD_E25_170811_sam05_t05,E25,5,5,48.760825587700005,17.1624801888,-24.5204446598,0.0148178318389,4.12272277159e-05
46,qDII-DR5-CLV3-LD_E25_170811_sam05_t05,E25,5,5,48.2462018195,-6.127781325880001,-24.734362759899998,-0.000821613167833,-0.0005652171205490001
47,qDII-DR5-CLV3-LD_E25_170811_sam05_t05,E25,5,5,48.8964498426,41.9428913154,-27.882717620500003,0.0271773831907,0.0006529294392
48,qDII-DR5-CLV3-LD_E25_170811_sam05_t05,E25,5,5,48.1642301106,-51.6052791839,-34.477256231999995,0.0287555489486,0.000550601795575
49,qDII-DR5-CLV3-LD_E25_170811_sam05_t05,E25,5,5,46.8774652609,-30.4746258225,-21.520461036300002,0.00704544715703,-0.00028549476997400005
50,qDII-DR5-CLV3-LD_E25_170811_sam05_t05,E25,5,5,47.559288128199995,10.2959967949,-22.3526352736,0.014695018426500001,0.000106060299258
51,qDII-DR5-CLV3-LD_E25_170811_sam05_t05,E25,5,5,49.3425409026,48.2151838743,-32.5065762711,0.0261133756426,0.000613345068079
52,qDII-DR5-CLV3-LD_E25_170811_sam05_t05,E25,5,5,47.046823005600004,-23.593461868400002,-23.8147200869,0.00166175892937,-0.000523687553051
53,qDII-DR5-CLV3-LD_E25_170811_sam05_t05,E25,5,5,47.3751849856,-15.456921270799999,-27.261147586999996,-0.0036043589861899997,-0.0008201251564550001
54,qDII-DR5-CLV3-LD_E25_170811_sam05_t05,E25,5,5,46.746116678599996,-10.2667281178,-24.9450758913,-0.004101823868599999,-0.0007594906868130001
55,qDII-DR5-CLV3-LD_E25_170811_sam05_t05,E25,5,5,46.4121911775,-3.21815915023,-21.4009931794,0.00524928213704,-0.000224051926259
56,qDII-DR5-CLV3-LD_E25_170811_sam05_t05,E25,5,5,46.467224717700006,0.9413404259739999,-21.3673095781,0.00929475880591,-6.31182673353e-05
57,qDII-DR5-CLV3-LD_E25_170811_sam05_t05,E25,5,5,45.0822373142,-36.471948429,-22.959185184000003,0.015645658893600003,7.29009397309e-05
58,qDII-DR5-CLV3-LD_E25_170811_sam05_t05,E25,5,5,45.4506883866,-46.8301274042,-28.8800517697,0.0279960192309,0.0005387624428749999
59,qDII-DR5-CLV3-LD_E25_170811_sam05_t05,E25,5,5,44.8424016957,4.05600146839,-18.0069658847,0.0133220997147,0.000122133841829
60,qDII-DR5-CLV3-LD_E25_170811_sam05_t05,E25,5,5,45.4597499289,18.4288553183,-21.37757805,0.0138755874923,2.82284482318e-05
61,qDII-DR5-CLV3-LD_E25_170811_sam05_t05,E25,5,5,45.1662329045,-20.436949295199998,-25.2046302447,-0.004083526537230001,-0.000730903564403
62,qDII-DR5-CLV3-LD_E25_170811_sam05_t05,E25,5,5,44.8747686213,11.3455886094,-19.1355830452,0.014680377538600001,0.000142087403153
63,qDII-DR5-CLV3-LD_E25_170811_sam05_t05,E25,5,5,45.4701034384,24.054642628899998,-22.519668651,0.0137703101045,-4.67538071437e-05
64,qDII-DR5-CLV3-LD_E25_170811_sam05_t05,E25,5,5,45.4722019169,29.056505003,-23.6668117923,0.017025823048300002,7.40329728946e-05
65,qDII-DR5-CLV3-LD_E25_170811_sam05_t05,E25,5,5,44.469938286499996,-41.8524998886,-25.4286806571,0.0242651401494,0.000446338116513
66,qDII-DR5-CLV3-LD_E25_170811_sam05_t05,E25,5,5,44.9849745846,39.048112322,-23.661840947800002,0.0246912288757,0.0005256601474340001
67,qDII-DR5-CLV3-LD_E25_170811_sam05_t05,E25,5,5,43.2460078595,-7.3620695819,-18.2766253184,0.0042933298033,-0.00020486441571300002
68,qDII-DR5-CLV3-LD_E25_170811_sam05_t05,E25,5,5,44.5962145933,45.719646750699994,-24.8460905143,0.026482393284,0.0006273941307130001
69,qDII-DR5-CLV3-LD_E25_170811_sam05_t05,E25,5,5,43.934186329300005,32.8130806352,-22.6512525514,0.0183248996952,0.00017711486223900003
70,qDII-DR5-CLV3-LD_E25_170811_sam05_t05,E25,5,5,42.2068193436,-1.95802922599,-16.0094493084,0.0117020419687,8.496761021899999e-05
71,qDII-DR5-CLV3-LD_E25_170811_sam05_t05,E25,5,5,42.2921213309,4.48919511713,-15.957239726400001,0.013987826807200001,0.000156262285163
72,qDII-DR5-CLV3-LD_E25_170811_sam05_t05,E25,5,5,45.087184734,54.308116612700005,-32.9888236397,0.027294494021200003,0.000658047542073
73,qDII-DR5-CLV3-LD_E25_170811_sam05_t05,E25,5,5,42.673737757,-15.6362810915,-23.119536305,-0.007277383303050001,-0.0007613667227210001
74,qDII-DR5-CLV3-LD_E25_170811_sam05_t05,E25,5,5,44.1187477391,50.5298692528,-27.233061164200002,0.0266641264036,0.0006303617101699999
75,qDII-DR5-CLV3-LD_E25_170811_sam05_t05,E25,5,5,42.7106354537,24.2827974108,-20.4969166057,0.0115041750881,-8.32789720897e-05
76,qDII-DR5-CLV3-LD_E25_170811_sam05_t05,E25,5,5,41.6764775948,-11.9065034488,-19.6782702728,-0.00281574420232,-0.000475044371893
77,qDII-DR5-CLV3-LD_E25_170811_sam05_t05,E25,5,5,41.1889910453,9.90369835574,-14.877627179200001,0.0133461420089,0.000133726224081
78,qDII-DR5-CLV3-LD_E25_170811_sam05_t05,E25,5,5,41.333583696999995,14.9130875005,-17.1870438504,0.012233002151299998,6.39947755337e-05
79,qDII-DR5-CLV3-LD_E25_170811_sam05_t05,E25,5,5,41.0525788276,-28.926126951100002,-23.4043533593,-0.00750379901055,-0.0007706933210310001
80,qDII-DR5-CLV3-LD_E25_170811_sam05_t05,E25,5,5,40.7356360857,21.3795830625,-18.398267529800002,0.0101326540033,-6.36135401961e-05
81,qDII-DR5-CLV3-LD_E25_170811_sam05_t05,E25,5,5,40.160794807600006,-33.9057819943,-23.545933412399997,-0.000617106590411,-0.000602840190888
82,qDII-DR5-CLV3-LD_E25_170811_sam05_t05,E25,5,5,40.336902136300004,-20.5953833505,-23.4381458883,-0.00881674453426,-0.000734650811091
83,qDII-DR5-CLV3-LD_E25_170811_sam05_t05,E25,5,5,40.4005100918,-43.2316128461,-28.2961055679,0.0159588695071,-0.00010791285126200001
84,qDII-DR5-CLV3-LD_E25_170811_sam05_t05,E25,5,5,40.3496277713,28.25909247,-19.5808329163,0.0107998381018,-9.0744455483e-05
85,qDII-DR5-CLV3-LD_E25_170811_sam05_t05,E25,5,5,40.7446831981,36.5931451637,-21.838012773499997,0.018686834681400002,0.000268638877157
86,qDII-DR5-CLV3-LD_E25_170811_sam05_t05,E25,5,5,39.039982826999996,-1.3080522623200002,-14.033908768699998,0.0135243723016,0.000150233242566
87,qDII-DR5-CLV3-LD_E25_170811_sam05_t05,E25,5,5,39.1845153115,19.3023964053,-16.2423018679,0.009737575673870002,-2.39058766571e-05
88,qDII-DR5-CLV3-LD_E25_170811_sam05_t05,E25,5,5,39.1940623097,-39.7068740702,-24.8818136485,0.00895824599266,-0.000317957788803
89,qDII-DR5-CLV3-LD_E25_170811_sam05_t05,E25,5,5,40.1439839098,42.851665746799995,-23.050920633,0.0232392537998,0.000489908793519
90,qDII-DR5-CLV3-LD_E25_170811_sam05_t05,E25,5,5,38.1179303599,-8.57543207252,-14.1940148025,0.00940515822343,3.50376355961e-05
91,qDII-DR5-CLV3-LD_E25_170811_sam05_t05,E25,5,5,38.1515435154,4.72743980068,-12.923953748499999,0.014165391362299998,0.000166091039702
92,qDII-DR5-CLV3-LD_E25_170811_sam05_t05,E25,5,5,39.8985373617,-52.1117596388,-35.4939060874,0.027215192072400005,0.000253891433933
93,qDII-DR5-CLV3-LD_E25_170811_sam05_t05,E25,5,5,39.2631134521,-46.3260940854,-29.635381396,0.015691694176399998,-0.00020224976886400002
94,qDII-DR5-CLV3-LD_E25_170811_sam05_t05,E25,5,5,39.2976390233,-49.635704093,-32.0121652698,0.0211968112444,4.46662791085e-05
95,qDII-DR5-CLV3-LD_E25_170811_sam05_t05,E25,5,5,37.8267252938,11.388511346700001,-12.9206398522,0.012033862821,9.9084055426e-05
96,qDII-DR5-CLV3-LD_E25_170811_sam05_t05,E25,5,5,37.9530287892,-17.271465763800002,-18.9897142835,-0.00552928426659,-0.000479483494161
97,qDII-DR5-CLV3-LD_E25_170811_sam05_t05,E25,5,5,38.184489042399996,-27.221221552,-23.7449389792,-0.010860792613099999,-0.000814810756594
98,qDII-DR5-CLV3-LD_E25_170811_sam05_t05,E25,5,5,38.3540602671,33.4878280606,-19.7916277434,0.0128328968881,3.58240999549e-05
99,qDII-DR5-CLV3-LD_E25_170811_sam05_t05,E25,5,5,36.8560550562,-16.2348999629,-16.7579060549,-0.00127391265942,-0.000286228025343
100,qDII-DR5-CLV3-LD_E25_170811_sam05_t05,E25,5,5,38.4918431677,47.6690420385,-24.402067417399998,0.0242593115888,0.0005262421493980001
101,qDII-DR5-CLV3-LD_E25_170811_sam05_t05,E25,5,5,39.0128827056,54.76277163,-27.8316258849,0.0272561083319,0.000654796335357
102,qDII-DR5-CLV3-LD_E25_170811_sam05_t05,E25,5,5,35.5407262564,0.585183915589,-10.911279551600002,0.0144384427014,0.000179421237598
103,qDII-DR5-CLV3-LD_E25_170811_sam05_t05,E25,5,5,34.8030361489,7.2521276856800005,-10.9585455211,0.0131978124447,0.000144788283683
104,qDII-DR5-CLV3-LD_E25_170811_sam05_t05,E25,5,5,35.7576545917,25.591559674299997,-16.621705325,0.00707097697697,-0.00011675276231399999
105,qDII-DR5-CLV3-LD_E25_170811_sam05_t05,E25,5,5,34.966237341100005,18.5112290775,-14.405000253099999,0.008981274921690001,3.07843173875e-06
106,qDII-DR5-CLV3-LD_E25_170811_sam05_t05,E25,5,5,35.0081512649,-33.2084542569,-24.1731291942,-0.009409793250909999,-0.00083844208499
107,qDII-DR5-CLV3-LD_E25_170811_sam05_t05,E25,5,5,33.9568445753,-15.8062969728,-13.5711962996,0.005728738744890001,-2.84597160057e-05
108,qDII-DR5-CLV3-LD_E25_170811_sam05_t05,E25,5,5,33.6449324902,-7.09392817473,-10.0136401472,0.0147273439999,0.000202918771676
109,qDII-DR5-CLV3-LD_E25_170811_sam05_t05,E25,5,5,35.4825656064,39.7786458762,-21.2827248646,0.0163776886576,0.000223543727488
110,qDII-DR5-CLV3-LD_E25_170811_sam05_t05,E25,5,5,34.7220700014,30.192152651,-17.8986664908,0.00696568686002,-0.00011076383389700002
111,qDII-DR5-CLV3-LD_E25_170811_sam05_t05,E25,5,5,32.807468644699995,12.480863276300001,-11.169340348299999,0.011159865724,9.09590595488e-05
112,qDII-DR5-CLV3-LD_E25_170811_sam05_t05,E25,5,5,32.2625764295,-13.0971230053,-11.401784429100001,0.0113683472109,0.00012673182354
113,qDII-DR5-CLV3-LD_E25_170811_sam05_t05,E25,5,5,34.284737976799995,-49.1388245637,-33.803318761599996,0.0123343720447,-0.000271661702718
114,qDII-DR5-CLV3-LD_E25_170811_sam05_t05,E25,5,5,31.9362527608,-0.6307417059570001,-9.00147649829,0.014860939664000001,0.000196956782541
115,qDII-DR5-CLV3-LD_E25_170811_sam05_t05,E25,5,5,33.711356408600004,-44.583019229799994,-30.304736143299998,0.00451126289796,-0.0007145721546589999
116,qDII-DR5-CLV3-LD_E25_170811_sam05_t05,E25,5,5,32.2099005849,-24.073354692800002,-17.3782834207,-0.0034892411378499998,-0.00032875628547300004
117,qDII-DR5-CLV3-LD_E25_170811_sam05_t05,E25,5,5,33.3011302954,36.8783676399,-19.2093657216,0.011413830612899998,5.92144909637e-05
118,qDII-DR5-CLV3-LD_E25_170811_sam05_t05,E25,5,5,34.019044348099996,52.9330109736,-24.916341439099998,0.025549049517200002,0.000564828235695
119,qDII-DR5-CLV3-LD_E25_170811_sam05_t05,E25,5,5,32.075267461399996,-30.4816636172,-22.155456921,-0.010585738279,-0.0007156441227110001
120,qDII-DR5-CLV3-LD_E25_170811_sam05_t05,E25,5,5,33.2358821285,46.4766053133,-22.6945838271,0.0197459935966,0.00033416293174699997
121,qDII-DR5-CLV3-LD_E25_170811_sam05_t05,E25,5,5,32.1305602188,-38.1407585265,-26.9174455688,-0.00363695213411,-0.0008782285166439999
122,qDII-DR5-CLV3-LD_E25_170811_sam05_t05,E25,5,5,33.8265658402,57.758287017,-29.627859148800002,0.0265526369868,0.0006099457408130001
123,qDII-DR5-CLV3-LD_E25_170811_sam05_t05,E25,5,5,33.435933609,-53.0216996409,-41.0112788253,0.014166288774,-7.49854368504e-05
124,qDII-DR5-CLV3-LD_E25_170811_sam05_t05,E25,5,5,31.053001537600004,33.7805773075,-18.3252542215,0.00710133983991,-6.26623486944e-05
125,qDII-DR5-CLV3-LD_E25_170811_sam05_t05,E25,5,5,29.2871712408,-19.5032417799,-11.808053071400002,0.00780306225633,4.42726774389e-05
126,qDII-DR5-CLV3-LD_E25_170811_sam05_t05,E25,5,5,28.755064827800002,-11.827811763800002,-8.28420775219,0.0151253354745,0.00022042754888700002
127,qDII-DR5-CLV3-LD_E25_170811_sam05_t05,E25,5,5,29.7784150287,27.312054217800004,-13.8042394825,0.005150256285399999,-8.01266358498e-05
128,qDII-DR5-CLV3-LD_E25_170811_sam05_t05,E25,5,5,28.622863997,9.39150829891,-8.16300125137,0.012268960034100001,0.00013562998450100002
129,qDII-DR5-CLV3-LD_E25_170811_sam05_t05,E25,5,5,30.293403918400003,-42.4638184198,-29.5302597388,0.000505665833459,-0.0008176800427400001
130,qDII-DR5-CLV3-LD_E25_170811_sam05_t05,E25,5,5,32.362451550500005,60.105479986999995,-34.5113266166,0.022305851188500002,0.000430327470981
131,qDII-DR5-CLV3-LD_E25_170811_sam05_t05,E25,5,5,27.759903144099997,-3.09617174694,-5.990084861180001,0.015247460249600001,0.00021382958782499998
132,qDII-DR5-CLV3-LD_E25_170811_sam05_t05,E25,5,5,28.426781563600002,15.0202317215,-9.3303817853,0.00923926581736,6.32305136764e-05
133,qDII-DR5-CLV3-LD_E25_170811_sam05_t05,E25,5,5,29.351131559200002,31.071938943200003,-15.0120675699,0.00522996173953,-8.717405250700001e-05
134,qDII-DR5-CLV3-LD_E25_170811_sam05_t05,E25,5,5,28.7604334176,-30.2551633818,-19.0210112116,-0.00437869284117,-0.000361839997251
135,qDII-DR5-CLV3-LD_E25_170811_sam05_t05,E25,5,5,29.8213345138,44.0098937068,-20.7695959212,0.0159472034966,0.00018132051523700004
136,qDII-DR5-CLV3-LD_E25_170811_sam05_t05,E25,5,5,29.960589883,-48.2452662957,-34.3276706318,0.00123051308541,-0.0004240931728530001
137,qDII-DR5-CLV3-LD_E25_170811_sam05_t05,E25,5,5,27.380963798000003,-17.207081658,-9.667299493949999,0.0121411699016,0.00015141072441600002
138,qDII-DR5-CLV3-LD_E25_170811_sam05_t05,E25,5,5,27.965824771399998,21.078304096500002,-11.7072473548,0.0070085526149800004,-7.4920829237e-07
139,qDII-DR5-CLV3-LD_E25_170811_sam05_t05,E25,5,5,26.4304821451,-9.941729375449999,-6.197402400590001,0.0159298122171,0.000237169423324
140,qDII-DR5-CLV3-LD_E25_170811_sam05_t05,E25,5,5,28.030757672600004,39.439943416,-18.659130353,0.010685457260100001,1.86989496215e-05
141,qDII-DR5-CLV3-LD_E25_170811_sam05_t05,E25,5,5,27.0410061973,-36.4424713137,-22.811256531999998,-0.00626247850429,-0.0006617350257910001
142,qDII-DR5-CLV3-LD_E25_170811_sam05_t05,E25,5,5,28.119010387,49.877607775200005,-23.299885268,0.0216975804288,0.00033613350431500004
143,qDII-DR5-CLV3-LD_E25_170811_sam05_t05,E25,5,5,25.4942773115,-25.2736911698,-12.3104289051,0.0059890688464,2.06561748121e-07
144,qDII-DR5-CLV3-LD_E25_170811_sam05_t05,E25,5,5,28.735112390300003,58.237176893000004,-29.0691756479,0.023658249343400002,0.00046768334553800006
145,qDII-DR5-CLV3-LD_E25_170811_sam05_t05,E25,5,5,23.940738674600002,-4.93308619288,-4.11062428091,0.0153289545942,0.000217985290643
146,qDII-DR5-CLV3-LD_E25_170811_sam05_t05,E25,5,5,24.445207983200003,16.513853048599998,-7.449264256880001,0.00926574630126,7.51657099147e-05
147,qDII-DR5-CLV3-LD_E25_170811_sam05_t05,E25,5,5,26.526127330700003,-47.37391535850001,-33.5632993077,-0.00259129302861,-0.000498447945665
148,qDII-DR5-CLV3-LD_E25_170811_sam05_t05,E25,5,5,24.447945230300004,-33.3235925938,-18.3897990402,-0.00022123054306499997,-0.00021518066192400002
149,qDII-DR5-CLV3-LD_E25_170811_sam05_t05,E25,5,5,26.4162593002,-51.9104494735,-38.3253151874,-0.007339148810199999,-0.00033870989329000005
150,qDII-DR5-CLV3-LD_E25_170811_sam05_t05,E25,5,5,23.2418914296,-22.7741467277,-9.03100755052,0.0113226426816,0.00012500921515399999
151,qDII-DR5-CLV3-LD_E25_170811_sam05_t05,E25,5,5,23.1709408587,-17.3743240493,-7.824945338919999,0.0142403198711,0.00019527284442600001
152,qDII-DR5-CLV3-LD_E25_170811_sam05_t05,E25,5,5,25.015323558800002,35.9274846914,-16.6919834817,0.007122197498520001,-7.05820361075e-05
153,qDII-DR5-CLV3-LD_E25_170811_sam05_t05,E25,5,5,23.8942379311,30.2983882876,-13.3265055523,0.0055436299308299995,-5.60052719955e-05
154,qDII-DR5-CLV3-LD_E25_170811_sam05_t05,E25,5,5,25.778116692199998,54.29830532810001,-25.917833674,0.022999618711099998,0.00038944867048800006
155,qDII-DR5-CLV3-LD_E25_170811_sam05_t05,E25,5,5,23.3367733936,25.2948713669,-11.067668747,0.006390501099890001,5.23388795137e-06
156,qDII-DR5-CLV3-LD_E25_170811_sam05_t05,E25,5,5,24.5653734747,42.817456981599996,-19.0621123309,0.0130731156945,2.65405106664e-05
157,qDII-DR5-CLV3-LD_E25_170811_sam05_t05,E25,5,5,23.6783464644,-41.9823654129,-26.7987687754,0.0009541708242749999,-0.000616527125623
158,qDII-DR5-CLV3-LD_E25_170811_sam05_t05,E25,5,5,21.4029704649,-9.47330238223,-4.4511554369,0.015627328292700002,0.00022475267706400002
159,qDII-DR5-CLV3-LD_E25_170811_sam05_t05,E25,5,5,23.5146911237,-44.6651143721,-29.1957900418,0.0013866236856,-0.0005886774592810001
160,qDII-DR5-CLV3-LD_E25_170811_sam05_t05,E25,5,5,21.9671099894,-32.4849118702,-15.149141059000002,0.0058575369417,-1.3245397535999998e-05
161,qDII-DR5-CLV3-LD_E25_170811_sam05_t05,E25,5,5,25.7620047302,60.615385529899996,-35.3172361086,0.0147095890839,0.00016617512222499996
162,qDII-DR5-CLV3-LD_E25_170811_sam05_t05,E25,5,5,20.5029314139,-15.076882362000001,-4.597788030159999,0.015331756539000001,0.00021629010387599998
163,qDII-DR5-CLV3-LD_E25_170811_sam05_t05,E25,5,5,20.5227861843,-2.8138853827999997,-3.33614787644,0.0148044122021,0.000203319851712
164,qDII-DR5-CLV3-LD_E25_170811_sam05_t05,E25,5,5,25.7209286251,61.2782258851,-40.0371474867,0.0131103016992,9.46120672287e-05
165,qDII-DR5-CLV3-LD_E25_170811_sam05_t05,E25,5,5,21.1525864056,22.186618151799998,-8.99599378402,0.00789703999787,4.86471477198e-05
166,qDII-DR5-CLV3-LD_E25_170811_sam05_t05,E25,5,5,22.2246458514,-49.610444655200006,-32.9253504161,-0.00310911514227,-0.000363851868765
167,qDII-DR5-CLV3-LD_E25_170811_sam05_t05,E25,5,5,18.9666804905,-28.9442109686,-10.7748950729,0.011949786003799999,0.000128312228544
168,qDII-DR5-CLV3-LD_E25_170811_sam05_t05,E25,5,5,19.979662752,-45.4755529187,-26.095055165500003,0.00580043966869,-0.00034696553099999996
169,qDII-DR5-CLV3-LD_E25_170811_sam05_t05,E25,5,5,17.758727261300002,-19.6141624393,-4.96360911904,0.0149936435328,0.00020586235322500002
170,qDII-DR5-CLV3-LD_E25_170811_sam05_t05,E25,5,5,19.1123388706,28.8816414768,-10.3825628136,0.007772044093439999,1.65536651783e-05
171,qDII-DR5-CLV3-LD_E25_170811_sam05_t05,E25,5,5,20.291408765499998,42.6606774729,-18.407321638699997,0.012115376790700001,-6.2486877704e-05
172,qDII-DR5-CLV3-LD_E25_170811_sam05_t05,E25,5,5,19.2527803025,-41.7591742707,-21.4409357376,0.00634497760689,-0.000137492090294
173,qDII-DR5-CLV3-LD_E25_170811_sam05_t05,E25,5,5,18.8803313233,-37.6222550065,-17.9204315466,0.006946038175539999,-1.42678290244e-05
174,qDII-DR5-CLV3-LD_E25_170811_sam05_t05,E25,5,5,21.845026118200003,57.3046565789,-31.0997277961,0.014066149277,0.00015979672995200002
175,qDII-DR5-CLV3-LD_E25_170811_sam05_t05,E25,5,5,19.9447431994,-49.1906500012,-29.6627708622,0.0028137881845300004,-0.000308758757054
176,qDII-DR5-CLV3-LD_E25_170811_sam05_t05,E25,5,5,20.2213104432,47.0490777933,-20.7470807829,0.0170832726884,6.17895991133e-05
177,qDII-DR5-CLV3-LD_E25_170811_sam05_t05,E25,5,5,19.1620681069,36.4076561327,-15.0468962495,0.00768041744527,-0.00010231276497799998
178,qDII-DR5-CLV3-LD_E25_170811_sam05_t05,E25,5,5,16.5632260201,0.343535774744,-1.4415569075,0.0140822709803,0.00018809404802
179,qDII-DR5-CLV3-LD_E25_170811_sam05_t05,E25,5,5,16.9796416644,15.1352756943,-4.83409064554,0.0101477603034,9.63950487276e-05
180,qDII-DR5-CLV3-LD_E25_170811_sam05_t05,E25,5,5,16.3206844618,-24.9829694507,-7.5342643235899995,0.0144519160519,0.000185144325803
181,qDII-DR5-CLV3-LD_E25_170811_sam05_t05,E25,5,5,16.56611658,19.9350353137,-6.03349783261,0.00937236240783,8.09719655548e-05
182,qDII-DR5-CLV3-LD_E25_170811_sam05_t05,E25,5,5,19.2195982256,53.1339481578,-25.5496531437,0.0163316420779,0.00015063513755200002
183,qDII-DR5-CLV3-LD_E25_170811_sam05_t05,E25,5,5,16.3480207304,23.8999589058,-7.214351807060001,0.00913939237832,7.353589033399999e-05
184,qDII-DR5-CLV3-LD_E25_170811_sam05_t05,E25,5,5,16.0780827363,-34.7084151533,-13.5259481677,0.012913896535,0.000140251017356
185,qDII-DR5-CLV3-LD_E25_170811_sam05_t05,E25,5,5,14.228549045,-15.2147636329,-3.00833320395,0.015387298993500002,0.000221903281939
186,qDII-DR5-CLV3-LD_E25_170811_sam05_t05,E25,5,5,13.9593573951,6.41297961676,-1.72148481308,0.012785235614200002,0.000161956714306
187,qDII-DR5-CLV3-LD_E25_170811_sam05_t05,E25,5,5,19.2263519282,60.1034058321,-38.4814034937,0.00750205737199,-1.84171787164e-05
188,qDII-DR5-CLV3-LD_E25_170811_sam05_t05,E25,5,5,13.7550199306,11.4177781029,-2.8939178872099998,0.0114317163745,0.000128084613717
189,qDII-DR5-CLV3-LD_E25_170811_sam05_t05,E25,5,5,13.2783266092,-19.7680058359,-4.33410835969,0.0150144904775,0.00020975203310699998
190,qDII-DR5-CLV3-LD_E25_170811_sam05_t05,E25,5,5,14.631938218499998,28.7277980802,-9.75306205421,0.0104547543067,8.61874404468e-05
191,qDII-DR5-CLV3-LD_E25_170811_sam05_t05,E25,5,5,16.1829699657,-53.68479698229999,-33.692442071,0.00177081568998,-0.00010874968330100001
192,qDII-DR5-CLV3-LD_E25_170811_sam05_t05,E25,5,5,15.49801587,-51.6426810475,-27.8642326208,0.0109848395619,6.21551813196e-06
193,qDII-DR5-CLV3-LD_E25_170811_sam05_t05,E25,5,5,12.9333342329,2.0497227392400004,-0.69573879605,0.014141801959500001,0.000198254437492
194,qDII-DR5-CLV3-LD_E25_170811_sam05_t05,E25,5,5,14.2754520071,-42.3410850542,-18.5155462114,0.0142700830448,0.000174566811002
195,qDII-DR5-CLV3-LD_E25_170811_sam05_t05,E25,5,5,12.9313746373,16.4313849252,-4.14222075998,0.0108201921257,0.00011240806630700001
196,qDII-DR5-CLV3-LD_E25_170811_sam05_t05,E25,5,5,18.3815454674,62.4417904659,-43.2890011628,0.00509071772411,-9.02459202183e-05
197,qDII-DR5-CLV3-LD_E25_170811_sam05_t05,E25,5,5,12.587081196700002,-32.191254039,-10.3982664104,0.0153042788866,0.000186544743367
198,qDII-DR5-CLV3-LD_E25_170811_sam05_t05,E25,5,5,13.593601951300002,33.1204160781,-11.0317074001,0.0107038213607,4.79906931452e-05
199,qDII-DR5-CLV3-LD_E25_170811_sam05_t05,E25,5,5,14.410636543499999,41.0610991262,-16.7790762072,0.010504661276499998,-0.000118756868079
200,qDII-DR5-CLV3-LD_E25_170811_sam05_t05,E25,5,5,14.9041593113,46.075078929600004,-20.2254764754,0.0139092576431,-6.07925410543e-05
201,qDII-DR5-CLV3-LD_E25_170811_sam05_t05,E25,5,5,16.2602489505,56.5520316887,-31.7892927041,0.009252872332290002,2.85803032255e-05
202,qDII-DR5-CLV3-LD_E25_170811_sam05_t05,E25,5,5,12.6396222771,-40.0583239271,-15.161939238299999,0.0157273484872,0.00021116535382799997
203,qDII-DR5-CLV3-LD_E25_170811_sam05_t05,E25,5,5,14.931448171500001,-55.7184775621,-37.3984239244,0.000795817414349,-6.64722313488e-05
204,qDII-DR5-CLV3-LD_E25_170811_sam05_t05,E25,5,5,10.2937539739,-10.1855676661,-1.09858461443,0.0163390682974,0.000256804573462
205,qDII-DR5-CLV3-LD_E25_170811_sam05_t05,E25,5,5,14.404878090999999,53.0039666386,-27.3205692429,0.0114255268897,4.51918904134e-05
206,qDII-DR5-CLV3-LD_E25_170811_sam05_t05,E25,5,5,12.0784520283,37.529369182800004,-13.548496074500001,0.010552189691299998,-3.88281984058e-05
207,qDII-DR5-CLV3-LD_E25_170811_sam05_t05,E25,5,5,10.2927669611,-28.0174468837,-8.2929350781,0.0150279474611,0.000192233425195
208,qDII-DR5-CLV3-LD_E25_170811_sam05_t05,E25,5,5,9.49368771085,-24.914530289499996,-4.83143165316,0.014587423402499999,0.00019450346253
209,qDII-DR5-CLV3-LD_E25_170811_sam05_t05,E25,5,5,10.6898462693,-49.1258929143,-22.538453468,0.0207583761394,0.000408534113942
210,qDII-DR5-CLV3-LD_E25_170811_sam05_t05,E25,5,5,10.0172984243,29.190352849299998,-7.95623522475,0.012448550243599999,0.000141369984581
211,qDII-DR5-CLV3-LD_E25_170811_sam05_t05,E25,5,5,12.1228769605,48.421898918400004,-22.9108465477,0.013485323774700003,-2.41013320645e-05
212,qDII-DR5-CLV3-LD_E25_170811_sam05_t05,E25,5,5,13.8058832998,57.2396425057,-35.625119814,0.0072303750400000005,-2.1708830700999998e-05
213,qDII-DR5-CLV3-LD_E25_170811_sam05_t05,E25,5,5,9.49479917657,-37.7445471329,-13.1729252581,0.0157394485421,0.000199053457855
214,qDII-DR5-CLV3-LD_E25_170811_sam05_t05,E25,5,5,10.7809108278,-54.081313099,-27.278547775,0.0203077035049,0.000424358816601
215,qDII-DR5-CLV3-LD_E25_170811_sam05_t05,E25,5,5,8.221732544730001,0.027040645348200002,-0.10668559016200001,0.017108235673799998,0.00029435625593799997
216,qDII-DR5-CLV3-LD_E25_170811_sam05_t05,E25,5,5,13.8617690886,60.387719723900005,-39.1372575685,0.0053788326896499995,-4.94696386785e-05
217,qDII-DR5-CLV3-LD_E25_170811_sam05_t05,E25,5,5,10.4684386899,44.454947798599996,-18.4202015137,0.0128977977394,-7.71098994623e-05
218,qDII-DR5-CLV3-LD_E25_170811_sam05_t05,E25,5,5,6.532374721519999,-7.655007557010001,0.8162437471960001,0.0164995591863,0.000270036516944
219,qDII-DR5-CLV3-LD_E25_170811_sam05_t05,E25,5,5,8.11604704135,-44.551189342700006,-18.105206715799998,0.018945088507700002,0.000340993659591
220,qDII-DR5-CLV3-LD_E25_170811_sam05_t05,E25,5,5,6.51239961678,11.2841145095,-0.243349262604,0.015255775515299998,0.000233202797168
221,qDII-DR5-CLV3-LD_E25_170811_sam05_t05,E25,5,5,7.041040987150001,23.7956564327,-4.81668251126,0.012928640958700001,0.00015802427316299997
222,qDII-DR5-CLV3-LD_E25_170811_sam05_t05,E25,5,5,8.7108819728,42.3806972534,-16.289525784600002,0.0129530034981,-2.89435609367e-05
223,qDII-DR5-CLV3-LD_E25_170811_sam05_t05,E25,5,5,10.273407555,52.8547139005,-27.8280520806,0.0106931530786,6.8433631497e-06
224,qDII-DR5-CLV3-LD_E25_170811_sam05_t05,E25,5,5,7.53391055638,33.6035236315,-9.41191010076,0.014610570531299999,0.000179014060493
225,qDII-DR5-CLV3-LD_E25_170811_sam05_t05,E25,5,5,6.43317958493,-33.9854083698,-9.98455855462,0.014367737389499998,0.00016538412882
226,qDII-DR5-CLV3-LD_E25_170811_sam05_t05,E25,5,5,11.4120545433,62.502702856499994,-39.4238949625,0.00513413032043,-5.24618341887e-05
227,qDII-DR5-CLV3-LD_E25_170811_sam05_t05,E25,5,5,9.047924272460001,-57.5260308876,-35.771862673,0.019683676041000003,0.000438669070691
228,qDII-DR5-CLV3-LD_E25_170811_sam05_t05,E25,5,5,7.729903962819999,-56.5149815108,-30.0279439217,0.022253926593,0.000521761319935
229,qDII-DR5-CLV3-LD_E25_170811_sam05_t05,E25,5,5,6.08660716445,-40.8067311397,-14.790390347899999,0.016051752338000002,0.00022549631117200003
230,qDII-DR5-CLV3-LD_E25_170811_sam05_t05,E25,5,5,4.9425957050300005,-31.487145493200003,-7.79154093131,0.0140607841152,0.00016658943015799999
231,qDII-DR5-CLV3-LD_E25_170811_sam05_t05,E25,5,5,8.76736491163,56.8761695837,-33.885609570599996,0.011578523794400001,-3.06674818335e-05
232,qDII-DR5-CLV3-LD_E25_170811_sam05_t05,E25,5,5,5.68310177531,-53.006950822700006,-23.1774112784,0.0251765105222,0.000608585718469
233,qDII-DR5-CLV3-LD_E25_170811_sam05_t05,E25,5,5,3.79118146313,-23.802907141,-4.3435654107,0.014189950395100001,0.000190438330026
234,qDII-DR5-CLV3-LD_E25_170811_sam05_t05,E25,5,5,8.669749819189999,59.184820116000004,-36.242210515500005,0.0102237380192,-3.96590734235e-05
235,qDII-DR5-CLV3-LD_E25_170811_sam05_t05,E25,5,5,4.90603594115,-48.240234398000005,-19.702434413,0.0212411633915,0.0004395641660159999
236,qDII-DR5-CLV3-LD_E25_170811_sam05_t05,E25,5,5,5.179258476559999,36.9843462903,-12.038279407000001,0.0153520365935,0.00017438078773599999
237,qDII-DR5-CLV3-LD_E25_170811_sam05_t05,E25,5,5,4.30653714556,29.6780510613,-7.4734215225,0.014739908819,0.00019846855517600002
238,qDII-DR5-CLV3-LD_E25_170811_sam05_t05,E25,5,5,6.24485641548,47.0302955505,-21.2809169361,0.013719867884799999,-1.49487231732e-05
239,qDII-DR5-CLV3-LD_E25_170811_sam05_t05,E25,5,5,3.6553021097000005,-36.2245007975,-11.519417125599999,0.0136920223581,0.00014625976223
240,qDII-DR5-CLV3-LD_E25_170811_sam05_t05,E25,5,5,2.63452308437,-28.3532132319,-5.69463049932,0.013972183353,0.000174884488943
241,qDII-DR5-CLV3-LD_E25_170811_sam05_t05,E25,5,5,6.183865372740001,51.0311984493,-27.161444896,0.0127000806459,-2.09794598009e-05
242,qDII-DR5-CLV3-LD_E25_170811_sam05_t05,E25,5,5,1.58341544479,-7.16859091045,0.212653718184,0.015330451108899999,0.00023549799214
243,qDII-DR5-CLV3-LD_E25_170811_sam05_t05,E25,5,5,1.9722541518599999,21.1444587438,-3.09569824854,0.0143475139865,0.000192084618213
244,qDII-DR5-CLV3-LD_E25_170811_sam05_t05,E25,5,5,3.4549209336300004,41.188260528200004,-14.582042194400001,0.0150860086739,0.000128010162622
245,qDII-DR5-CLV3-LD_E25_170811_sam05_t05,E25,5,5,5.61218830163,53.5641590672,-30.7545049893,0.015051677627,-3.84144710359e-05
246,qDII-DR5-CLV3-LD_E25_170811_sam05_t05,E25,5,5,1.91316253757,26.3647589795,-5.428720672509999,0.0148208728351,0.000201846334335
247,qDII-DR5-CLV3-LD_E25_170811_sam05_t05,E25,5,5,0.474188773742,-12.9772097569,0.039047011972199994,0.014836172479399999,0.00021309693138900002
248,qDII-DR5-CLV3-LD_E25_170811_sam05_t05,E25,5,5,1.91071581493,-51.308290628900004,-21.269319637,0.0233732231486,0.0005078832145659999
249,qDII-DR5-CLV3-LD_E25_170811_sam05_t05,E25,5,5,3.0411679393299997,-57.8852861322,-32.9712386311,0.0269511993953,0.0007025628760519999
250,qDII-DR5-CLV3-LD_E25_170811_sam05_t05,E25,5,5,2.0127870815,-55.4318108984,-26.002677223800003,0.026654241299,0.000664051556695
251,qDII-DR5-CLV3-LD_E25_170811_sam05_t05,E25,5,5,0.126629340505,-37.630411744499995,-11.961135245,0.013480069891899999,0.00013934920955100002
252,qDII-DR5-CLV3-LD_E25_170811_sam05_t05,E25,5,5,3.87684405065,56.9361733899,-33.305004496900004,0.0183709340252,-5.94964967318e-05
253,qDII-DR5-CLV3-LD_E25_170811_sam05_t05,E25,5,5,-0.521700705534,-33.8960434432,-9.65685280978,0.013324367905600001,0.00013694676457299998
254,qDII-DR5-CLV3-LD_E25_170811_sam05_t05,E25,5,5,2.26688676072,47.7204694984,-22.943936583400003,0.014413550885100001,1.79706053557e-05
255,qDII-DR5-CLV3-LD_E25_170811_sam05_t05,E25,5,5,-1.34527140178,5.56192447758,-0.06396029109130001,0.0160269219788,0.00025638454063999996
256,qDII-DR5-CLV3-LD_E25_170811_sam05_t05,E25,5,5,-1.7324056117500002,-24.7739698927,-3.84725103602,0.014637914782100001,0.00019691014798599998
257,qDII-DR5-CLV3-LD_E25_170811_sam05_t05,E25,5,5,1.67827266764,-58.6501910737,-39.0422423298,0.030180560703599996,0.0008418719659169999
258,qDII-DR5-CLV3-LD_E25_170811_sam05_t05,E25,5,5,-1.26312950275,-45.268953869499995,-16.900153423,0.0182925686482,0.000309722744523
259,qDII-DR5-CLV3-LD_E25_170811_sam05_t05,E25,5,5,-1.23421318991,32.2530258321,-8.136039549500001,0.015570790967700001,0.000214871885561
260,qDII-DR5-CLV3-LD_E25_170811_sam05_t05,E25,5,5,0.040572368964900005,42.5040139591,-17.351702965599998,0.0158124449019,0.000146104030905
261,qDII-DR5-CLV3-LD_E25_170811_sam05_t05,E25,5,5,-1.15356230804,37.2728778596,-11.633019683499999,0.0157391389799,0.000205491813657
262,qDII-DR5-CLV3-LD_E25_170811_sam05_t05,E25,5,5,-2.75926247389,22.4598391936,-3.66726162441,0.0145322877089,0.000197123090683
263,qDII-DR5-CLV3-LD_E25_170811_sam05_t05,E25,5,5,0.45934570892899995,50.4790217673,-26.687052094000002,0.0172633780228,-3.8216066288e-05
264,qDII-DR5-CLV3-LD_E25_170811_sam05_t05,E25,5,5,-2.72069325852,-40.2749912471,-14.686925638900002,0.0152336121092,0.000193036096278
265,qDII-DR5-CLV3-LD_E25_170811_sam05_t05,E25,5,5,-3.96893463013,-16.2326881824,-1.70655192235,0.015263183164299999,0.00021804165033799999
266,qDII-DR5-CLV3-LD_E25_170811_sam05_t05,E25,5,5,1.24421242561,54.912582711700004,-36.0004524177,0.0230409092833,-8.529613403399998e-05
267,qDII-DR5-CLV3-LD_E25_170811_sam05_t05,E25,5,5,-2.47547462026,-49.1848721413,-19.4337294342,0.0229274454949,0.000474639445028
268,qDII-DR5-CLV3-LD_E25_170811_sam05_t05,E25,5,5,0.443034696888,53.0136369318,-31.391805851500003,0.0204543061516,-7.82012533502e-05
269,qDII-DR5-CLV3-LD_E25_170811_sam05_t05,E25,5,5,-4.30810426812,-21.418663657899998,-2.96150981964,0.0149967404553,0.000207888259102
270,qDII-DR5-CLV3-LD_E25_170811_sam05_t05,E25,5,5,-4.41979712992,7.26976598865,-0.429835843788,0.0154571645808,0.000232605772909
271,qDII-DR5-CLV3-LD_E25_170811_sam05_t05,E25,5,5,-4.2665698958,-30.1176334612,-7.73191936777,0.0139942124214,0.000156139344334
272,qDII-DR5-CLV3-LD_E25_170811_sam05_t05,E25,5,5,-3.64134618296,27.899858856199998,-6.09975959984,0.0152882276777,0.00021331401539
273,qDII-DR5-CLV3-LD_E25_170811_sam05_t05,E25,5,5,-3.3526480067,-54.136074648500006,-23.112709942800002,0.025364360145400004,0.000556588710643
274,qDII-DR5-CLV3-LD_E25_170811_sam05_t05,E25,5,5,-5.63843768286,-11.651739405599999,0.47801756872699996,0.0158040670125,0.000232314667595
275,qDII-DR5-CLV3-LD_E25_170811_sam05_t05,E25,5,5,-4.817465350819999,18.1112628763,-2.7679652717799996,0.0137113028621,0.00017884590756499997
276,qDII-DR5-CLV3-LD_E25_170811_sam05_t05,E25,5,5,-4.76703717886,-44.803090007200005,-17.3267139218,0.0199589913515,0.00035052309040900005
277,qDII-DR5-CLV3-LD_E25_170811_sam05_t05,E25,5,5,-5.3776959953,-37.1456496445,-11.4530316099,0.0143658931348,0.000156046217924
278,qDII-DR5-CLV3-LD_E25_170811_sam05_t05,E25,5,5,-3.5637020765900003,45.0705533749,-20.1365485894,0.0180546971681,0.00018366965324799998
279,qDII-DR5-CLV3-LD_E25_170811_sam05_t05,E25,5,5,-4.3301881626,-56.9866016023,-29.1499755763,0.025584578903099998,0.000540747089985
280,qDII-DR5-CLV3-LD_E25_170811_sam05_t05,E25,5,5,-6.50559137403,-33.6029212152,-10.3885766833,0.013971367013600001,0.00014366897448500003
281,qDII-DR5-CLV3-LD_E25_170811_sam05_t05,E25,5,5,-6.9792593713199995,-26.353904039499998,-5.68053626135,0.014721396530000002,0.0001824208429
282,qDII-DR5-CLV3-LD_E25_170811_sam05_t05,E25,5,5,-6.1913215933300005,-49.1320221246,-19.888948226,0.0257900226908,0.0005469989589169999
283,qDII-DR5-CLV3-LD_E25_170811_sam05_t05,E25,5,5,-7.803756913189999,-20.3288748592,-3.38301777829,0.0155912988797,0.00022128958147999998
284,qDII-DR5-CLV3-LD_E25_170811_sam05_t05,E25,5,5,-5.792768145349999,39.6461228568,-14.5459991517,0.016957807993700003,0.00022736368085900002
285,qDII-DR5-CLV3-LD_E25_170811_sam05_t05,E25,5,5,-3.42270923183,51.423612883400004,-34.2356250095,0.021363407180499998,-0.000105912094912
286,qDII-DR5-CLV3-LD_E25_170811_sam05_t05,E25,5,5,-7.60846244249,-40.0070124621,-14.1046363852,0.0171748068841,0.000237438280446
287,qDII-DR5-CLV3-LD_E25_170811_sam05_t05,E25,5,5,-6.905598741960001,34.640951389499996,-11.1754686822,0.0149569806663,0.00019538374307499998
288,qDII-DR5-CLV3-LD_E25_170811_sam05_t05,E25,5,5,-5.68758008026,-57.3355565862,-35.2176109148,0.025109911117,0.000496144076507
289,qDII-DR5-CLV3-LD_E25_170811_sam05_t05,E25,5,5,-5.432433221139999,48.0475435053,-25.0655433828,0.0200407874241,7.04136888428e-05
290,qDII-DR5-CLV3-LD_E25_170811_sam05_t05,E25,5,5,-8.562135491060001,25.6721378955,-5.5376805069,0.014417299723,0.00019384975257700005
291,qDII-DR5-CLV3-LD_E25_170811_sam05_t05,E25,5,5,-8.21661025048,30.2626409707,-7.82517560531,0.014483091787100002,0.00019194973652799998
292,qDII-DR5-CLV3-LD_E25_170811_sam05_t05,E25,5,5,-9.2320392346,-30.8790666875,-8.34561447717,0.014203978224599999,0.00015145442969100002
293,qDII-DR5-CLV3-LD_E25_170811_sam05_t05,E25,5,5,-9.10859332056,21.500520890100002,-3.27210698125,0.0136548682345,0.000176021884204
294,qDII-DR5-CLV3-LD_E25_170811_sam05_t05,E25,5,5,-8.82080756,-43.9229307339,-16.6382123964,0.0221994490234,0.00038689990385099997
295,qDII-DR5-CLV3-LD_E25_170811_sam05_t05,E25,5,5,-7.329732434380001,46.1737411684,-21.7709099438,0.020519976902599997,0.000227127659599
296,qDII-DR5-CLV3-LD_E25_170811_sam05_t05,E25,5,5,-10.3603141648,15.684375272899999,-2.28344015755,0.013686590631299999,0.00017547567930700002
297,qDII-DR5-CLV3-LD_E25_170811_sam05_t05,E25,5,5,-8.91541175827,-53.2248997082,-23.788801410300003,0.026050021790400002,0.000538806685241
298,qDII-DR5-CLV3-LD_E25_170811_sam05_t05,E25,5,5,-11.030597459800001,2.1538842209599998,-0.09365473479639999,0.0162507098649,0.00023609346525999998
299,qDII-DR5-CLV3-LD_E25_170811_sam05_t05,E25,5,5,-8.99242573604,41.5828651121,-17.2853174499,0.019967852888,0.000292766809313
300,qDII-DR5-CLV3-LD_E25_170811_sam05_t05,E25,5,5,-10.2395886205,-47.835912893599996,-19.1970783405,0.026415327891099998,0.000512331617495
301,qDII-DR5-CLV3-LD_E25_170811_sam05_t05,E25,5,5,-11.5098434081,-25.4574096594,-6.23017806447,0.015175376673600001,0.000190048334548
302,qDII-DR5-CLV3-LD_E25_170811_sam05_t05,E25,5,5,-8.50889135627,-52.0950765474,-35.5295654735,0.0231351669006,0.00039333970558
303,qDII-DR5-CLV3-LD_E25_170811_sam05_t05,E25,5,5,-12.220868994000002,-15.6992937432,-2.71478087746,0.017199561289,0.000270513534392
304,qDII-DR5-CLV3-LD_E25_170811_sam05_t05,E25,5,5,-7.69326906543,46.6809209582,-32.4303228159,0.0189041644841,-0.000119548117896
305,qDII-DR5-CLV3-LD_E25_170811_sam05_t05,E25,5,5,-12.1013752497,-35.1874460206,-11.0848783116,0.0153490966386,0.000174375341095
306,qDII-DR5-CLV3-LD_E25_170811_sam05_t05,E25,5,5,-11.592435337000001,34.4900441049,-10.5712578557,0.0159621389203,0.000234327101949
307,qDII-DR5-CLV3-LD_E25_170811_sam05_t05,E25,5,5,-12.2415117272,-42.0117049026,-15.865420172,0.0223341195284,0.00036224070492699997
308,qDII-DR5-CLV3-LD_E25_170811_sam05_t05,E25,5,5,-13.790399258699999,-20.24372761,-4.11642583184,0.016787660341100002,0.000254660113345
309,qDII-DR5-CLV3-LD_E25_170811_sam05_t05,E25,5,5,-13.099029393199999,-38.482375468,-13.5881118497,0.018413422341099998,0.000251227528213
310,qDII-DR5-CLV3-LD_E25_170811_sam05_t05,E25,5,5,-14.469057919,-3.19602455278,-1.72964580536,0.0179452122137,0.00027429149734700003
311,qDII-DR5-CLV3-LD_E25_170811_sam05_t05,E25,5,5,-14.521399949300001,8.45351037264,-1.6606216546299999,0.0159101377157,0.00022146167586400002
312,qDII-DR5-CLV3-LD_E25_170811_sam05_t05,E25,5,5,-12.1417338705,-54.379329598999995,-30.090782865,0.022110519774,0.00036001429011200004
313,qDII-DR5-CLV3-LD_E25_170811_sam05_t05,E25,5,5,-12.8156812582,-51.505313748999995,-24.255836694499997,0.024655231953099998,0.00044266535079400004
314,qDII-DR5-CLV3-LD_E25_170811_sam05_t05,E25,5,5,-13.5811930901,30.5469548625,-8.48102968015,0.015405872256200001,0.000227302496589
315,qDII-DR5-CLV3-LD_E25_170811_sam05_t05,E25,5,5,-14.876486618,12.8268571517,-1.67583373903,0.01466143247,0.000193813647204
316,qDII-DR5-CLV3-LD_E25_170811_sam05_t05,E25,5,5,-14.792051309200001,-29.7599167684,-9.02002176463,0.0144871029148,0.00016285933827899998
317,qDII-DR5-CLV3-LD_E25_170811_sam05_t05,E25,5,5,-15.374600324100001,-9.215554490119999,-1.8796467587599999,0.0182907591523,0.000300106061622
318,qDII-DR5-CLV3-LD_E25_170811_sam05_t05,E25,5,5,-14.0083706553,-46.940700078999996,-20.8331238749,0.0251010013661,0.00040349408849899997
319,qDII-DR5-CLV3-LD_E25_170811_sam05_t05,E25,5,5,-15.3010184105,16.7947168559,-2.8819776463599998,0.0144031371882,0.00019248254272099998
320,qDII-DR5-CLV3-LD_E25_170811_sam05_t05,E25,5,5,-12.6551385973,44.5758173682,-21.2543581764,0.0219658741541,0.00029828557691
321,qDII-DR5-CLV3-LD_E25_170811_sam05_t05,E25,5,5,-15.823304178299999,3.6877025322400003,-1.8510973934000001,0.0175700294015,0.00025683262907099996
322,qDII-DR5-CLV3-LD_E25_170811_sam05_t05,E25,5,5,-11.962582669100001,47.951513765200005,-28.2263424077,0.019890157757700002,6.93747014263e-05
323,qDII-DR5-CLV3-LD_E25_170811_sam05_t05,E25,5,5,-15.1939581055,37.2645584995,-13.3544192994,0.0201300777213,0.00035374807891100005
324,qDII-DR5-CLV3-LD_E25_170811_sam05_t05,E25,5,5,-13.492737207100001,45.3073072437,-33.150230197,0.0175066182356,-1.74904450271e-05
325,qDII-DR5-CLV3-LD_E25_170811_sam05_t05,E25,5,5,-17.7558567583,-24.5269635002,-8.16970279343,0.0153465972039,0.000205743880164
326,qDII-DR5-CLV3-LD_E25_170811_sam05_t05,E25,5,5,-18.1821532151,-2.9351995572600003,-2.18318041715,0.0176421787885,0.00026522845320400005
327,qDII-DR5-CLV3-LD_E25_170811_sam05_t05,E25,5,5,-17.2779316369,-37.3733154505,-15.2730530698,0.0191976375597,0.000258945360448
328,qDII-DR5-CLV3-LD_E25_170811_sam05_t05,E25,5,5,-15.2518323498,-51.5926977752,-35.1732014357,0.0166675652855,0.00014909800199399998
329,qDII-DR5-CLV3-LD_E25_170811_sam05_t05,E25,5,5,-17.856816559200002,-33.2334600742,-11.7778388116,0.0156705704985,0.00018223453624900002
330,qDII-DR5-CLV3-LD_E25_170811_sam05_t05,E25,5,5,-17.8428446942,21.6343004784,-5.52184762504,0.0158043200225,0.000241445661895
331,qDII-DR5-CLV3-LD_E25_170811_sam05_t05,E25,5,5,-17.149042536,31.0232816075,-10.0951536418,0.0182437781749,0.000321318732927
332,qDII-DR5-CLV3-LD_E25_170811_sam05_t05,E25,5,5,-18.6106227473,-20.7896590868,-5.8907102910899996,0.017001306076100002,0.000265006241371
333,qDII-DR5-CLV3-LD_E25_170811_sam05_t05,E25,5,5,-18.8323225224,-16.0212881155,-3.5274270897800006,0.0177754004097,0.000296715571678
334,qDII-DR5-CLV3-LD_E25_170811_sam05_t05,E25,5,5,-17.7092587506,25.811789708000003,-7.83800101645,0.016536629112,0.000270830346747
335,qDII-DR5-CLV3-LD_E25_170811_sam05_t05,E25,5,5,-17.527542163499998,-41.7094013574,-18.8711112395,0.022121235408900004,0.000300996153673
336,qDII-DR5-CLV3-LD_E25_170811_sam05_t05,E25,5,5,-19.2941315631,-8.95179338256,-2.35847130343,0.017644774991500002,0.000288286453037
337,qDII-DR5-CLV3-LD_E25_170811_sam05_t05,E25,5,5,-17.5196811138,-48.1101835111,-24.8105582697,0.020834855994500003,0.000215951280094
338,qDII-DR5-CLV3-LD_E25_170811_sam05_t05,E25,5,5,-19.8612176959,10.6095990738,-2.3013181088900003,0.0163775914973,0.00023490462642
339,qDII-DR5-CLV3-LD_E25_170811_sam05_t05,E25,5,5,-20.3841566622,2.29647214544,-2.41926517723,0.0168612231672,0.000241210764133
340,qDII-DR5-CLV3-LD_E25_170811_sam05_t05,E25,5,5,-20.5065970149,18.3344073913,-4.69000017073,0.0166573917802,0.000260819553442
341,qDII-DR5-CLV3-LD_E25_170811_sam05_t05,E25,5,5,-20.6279444505,-29.043317812199998,-10.9106508079,0.014375236841200002,0.000165195329557
342,qDII-DR5-CLV3-LD_E25_170811_sam05_t05,E25,5,5,-19.5965526985,-43.1074125526,-22.6732002843,0.0200995115237,0.000182673954342
343,qDII-DR5-CLV3-LD_E25_170811_sam05_t05,E25,5,5,-17.1198773173,47.221469187,-32.4027279055,0.0166609495193,1.82072406908e-05
344,qDII-DR5-CLV3-LD_E25_170811_sam05_t05,E25,5,5,-19.2722945298,40.0554080009,-17.375724071700002,0.0216094143737,0.000337746276143
345,qDII-DR5-CLV3-LD_E25_170811_sam05_t05,E25,5,5,-18.7167294207,43.839527584799995,-23.182066413,0.018629453341,0.000166067031234
346,qDII-DR5-CLV3-LD_E25_170811_sam05_t05,E25,5,5,-19.4296874136,-48.252818062799996,-29.764815764,0.0169314998231,9.03658481893e-05
347,qDII-DR5-CLV3-LD_E25_170811_sam05_t05,E25,5,5,-18.5238528128,46.579181616099994,-27.859846057600002,0.0168825387086,5.42718513074e-05
348,qDII-DR5-CLV3-LD_E25_170811_sam05_t05,E25,5,5,-21.1105021287,32.9613054282,-11.7480682087,0.0231008551216,0.0004726902664059999
349,qDII-DR5-CLV3-LD_E25_170811_sam05_t05,E25,5,5,-22.752506959899996,-10.9636396126,-5.15507895576,0.015013697481,0.00022718041919899998
350,qDII-DR5-CLV3-LD_E25_170811_sam05_t05,E25,5,5,-22.429115469699997,23.1651826777,-7.254000350760001,0.0188532808401,0.00034775413649499996
351,qDII-DR5-CLV3-LD_E25_170811_sam05_t05,E25,5,5,-21.2472938978,37.1521936525,-15.2770749958,0.0237048517014,0.000448064880366
352,qDII-DR5-CLV3-LD_E25_170811_sam05_t05,E25,5,5,-23.1131571498,8.594816731649999,-5.07263582833,0.0145867718197,0.00020205973876599996
353,qDII-DR5-CLV3-LD_E25_170811_sam05_t05,E25,5,5,-23.5877519927,-17.589104833,-7.65996944205,0.015242453481299998,0.000215837565813
354,qDII-DR5-CLV3-LD_E25_170811_sam05_t05,E25,5,5,-23.507420495100003,14.8504012027,-6.26025375495,0.0169434510424,0.000265997796368
355,qDII-DR5-CLV3-LD_E25_170811_sam05_t05,E25,5,5,-22.215425938400003,-44.091128336800004,-25.3602273048,0.0182658438854,0.000102024075173
356,qDII-DR5-CLV3-LD_E25_170811_sam05_t05,E25,5,5,-23.4615086644,-30.648022420700002,-13.628020301400001,0.015237906207299999,0.00016167735599100002
357,qDII-DR5-CLV3-LD_E25_170811_sam05_t05,E25,5,5,-23.8731343204,-24.6288654645,-11.2799219526,0.013635588301,0.00014749351357299997
358,qDII-DR5-CLV3-LD_E25_170811_sam05_t05,E25,5,5,-24.632504029699998,3.0000450880500003,-5.29513822024,0.0124036543894,0.00015571545516999998
359,qDII-DR5-CLV3-LD_E25_170811_sam05_t05,E25,5,5,-23.6655869117,-37.46181842,-19.5961256247,0.0171712443958,0.00016204071876499998
360,qDII-DR5-CLV3-LD_E25_170811_sam05_t05,E25,5,5,-26.0836520158,-8.20252421277,-6.725387003810001,0.010012266601,0.00010467468656400001
361,qDII-DR5-CLV3-LD_E25_170811_sam05_t05,E25,5,5,-25.0183734611,29.2630790557,-11.071328711800001,0.023111096737099997,0.000490787007785
362,qDII-DR5-CLV3-LD_E25_170811_sam05_t05,E25,5,5,-23.379288049699998,-46.4943166848,-34.9568149665,0.0142511140981,-2.69617216556e-05
363,qDII-DR5-CLV3-LD_E25_170811_sam05_t05,E25,5,5,-24.4687658546,41.2076011147,-22.7245154117,0.0181123566226,0.000162707492171
364,qDII-DR5-CLV3-LD_E25_170811_sam05_t05,E25,5,5,-27.0862164819,-1.1062314903200001,-7.982138008810001,0.0075811046514,7.0875782116e-05
365,qDII-DR5-CLV3-LD_E25_170811_sam05_t05,E25,5,5,-25.280844387,-42.7707842473,-29.2668716731,0.0151080663959,-2.25906698446e-05
366,qDII-DR5-CLV3-LD_E25_170811_sam05_t05,E25,5,5,-27.2360532704,-18.3501650782,-10.471761946900001,0.012607319445,0.00010073666083600001
367,qDII-DR5-CLV3-LD_E25_170811_sam05_t05,E25,5,5,-27.5024330762,-12.1155063725,-9.28425294791,0.00937635050587,5.65101337967e-05
368,qDII-DR5-CLV3-LD_E25_170811_sam05_t05,E25,5,5,-25.4033304769,38.9136311426,-20.494364131199998,0.020947942448400002,0.00030481261984400003
369,qDII-DR5-CLV3-LD_E25_170811_sam05_t05,E25,5,5,-26.216914456399998,-39.2594444661,-24.6397263581,0.012141871832900001,-6.53016794239e-05
370,qDII-DR5-CLV3-LD_E25_170811_sam05_t05,E25,5,5,-27.4244737042,-22.9046888467,-12.8839408339,0.012586181222299998,7.02968063757e-05
371,qDII-DR5-CLV3-LD_E25_170811_sam05_t05,E25,5,5,-26.2402800067,34.3110106382,-15.9076119059,0.024776247175199998,0.000504788173869
372,qDII-DR5-CLV3-LD_E25_170811_sam05_t05,E25,5,5,-23.1818621219,39.460472313400004,-40.2749357125,0.0142970837234,-0.00019197790245599998
373,qDII-DR5-CLV3-LD_E25_170811_sam05_t05,E25,5,5,-27.7881347882,8.2643870043,-8.007509637430001,0.0100901539894,9.60962761047e-05
374,qDII-DR5-CLV3-LD_E25_170811_sam05_t05,E25,5,5,-27.7165911859,13.6717364534,-7.96372095575,0.015166932683700002,0.00021899823955900003
375,qDII-DR5-CLV3-LD_E25_170811_sam05_t05,E25,5,5,-27.607390784,-27.0432626575,-15.292751360799999,0.0129741431561,5.1164215916000004e-05
376,qDII-DR5-CLV3-LD_E25_170811_sam05_t05,E25,5,5,-25.952235029,-42.9310354712,-34.0693895701,0.014749218719799999,-6.03578478333e-05
377,qDII-DR5-CLV3-LD_E25_170811_sam05_t05,E25,5,5,-27.6450620136,-30.966334718800002,-18.8621512375,0.0130349614273,9.47230254709e-06
378,qDII-DR5-CLV3-LD_E25_170811_sam05_t05,E25,5,5,-28.6529950696,-5.44269037836,-9.382098783130001,0.00580649147491,3.0303150071e-05
379,qDII-DR5-CLV3-LD_E25_170811_sam05_t05,E25,5,5,-25.9411351753,42.9308691482,-27.6130354196,0.015921821536,2.59083333724e-05
380,qDII-DR5-CLV3-LD_E25_170811_sam05_t05,E25,5,5,-28.947544844,3.50610593456,-9.360258906110001,0.00623043813905,2.13333075094e-05
381,qDII-DR5-CLV3-LD_E25_170811_sam05_t05,E25,5,5,-29.0039449484,24.5354406718,-11.590573578099999,0.020079909748599998,0.00037202596122199995
382,qDII-DR5-CLV3-LD_E25_170811_sam05_t05,E25,5,5,-29.2859825677,28.510827146700002,-13.9589910153,0.0218897964606,0.00042738351096499995
383,qDII-DR5-CLV3-LD_E25_170811_sam05_t05,E25,5,5,-25.6004559715,42.8517578549,-44.08886848149999,0.0163242854464,-7.66112318069e-05
384,qDII-DR5-CLV3-LD_E25_170811_sam05_t05,E25,5,5,-29.8648217527,-32.9957976211,-21.5070192925,0.00873058938994,-0.00018872763785700002
385,qDII-DR5-CLV3-LD_E25_170811_sam05_t05,E25,5,5,-29.8887345973,-35.8789947884,-25.0679982689,0.00700586654864,-0.000257992839457
386,qDII-DR5-CLV3-LD_E25_170811_sam05_t05,E25,5,5,-31.1528929996,-2.27736946904,-10.8478787395,0.00210252361312,-3.17504659988e-05
387,qDII-DR5-CLV3-LD_E25_170811_sam05_t05,E25,5,5,-31.2052350299,9.37216545638,-10.778854588800002,0.00912519287036,3.65691754502e-05
388,qDII-DR5-CLV3-LD_E25_170811_sam05_t05,E25,5,5,-31.0814095644,18.731039502799998,-10.7030664859,0.016554792878,0.00024353231733400003
389,qDII-DR5-CLV3-LD_E25_170811_sam05_t05,E25,5,5,-31.440373805700002,-14.3189924746,-13.3206881089,0.00692026605539,-0.000100827514225
390,qDII-DR5-CLV3-LD_E25_170811_sam05_t05,E25,5,5,-30.1369455811,35.227149218200005,-19.9187843658,0.0236269720837,0.000441963166051
391,qDII-DR5-CLV3-LD_E25_170811_sam05_t05,E25,5,5,-30.3172642967,-38.1323947952,-28.6745045709,0.0078771744787,-0.00025101236596999997
392,qDII-DR5-CLV3-LD_E25_170811_sam05_t05,E25,5,5,-31.0268301727,31.466891511700002,-16.512858883,0.0225183067485,0.0004320748904680001
393,qDII-DR5-CLV3-LD_E25_170811_sam05_t05,E25,5,5,-30.0810597923,38.3752264364,-23.430922120399998,0.0238243731678,0.000401675634201
394,qDII-DR5-CLV3-LD_E25_170811_sam05_t05,E25,5,5,-32.2006703607,-20.1230206625,-14.6312784121,0.009450260155799998,-0.000158500419829
395,qDII-DR5-CLV3-LD_E25_170811_sam05_t05,E25,5,5,-29.0469765305,40.1201661975,-35.0907638448,0.0193167623589,0.00010481554187600001
396,qDII-DR5-CLV3-LD_E25_170811_sam05_t05,E25,5,5,-30.108377512399997,40.0779416856,-28.1424125982,0.0222512549439,0.00029047340022
397,qDII-DR5-CLV3-LD_E25_170811_sam05_t05,E25,5,5,-32.7830203256,4.20380665309,-12.1855520834,0.00322124722791,-8.38675327156e-05
398,qDII-DR5-CLV3-LD_E25_170811_sam05_t05,E25,5,5,-32.8631527731,-24.4532343454,-18.2799164476,0.00788948792365,-0.000313217227459
399,qDII-DR5-CLV3-LD_E25_170811_sam05_t05,E25,5,5,-33.0528050069,15.0243777753,-12.1485545858,0.013006712498,9.40011689404e-05
400,qDII-DR5-CLV3-LD_E25_170811_sam05_t05,E25,5,5,-33.5708336506,-3.6799713228800006,-13.5129841873,-0.00112293230973,-0.00010936469302
401,qDII-DR5-CLV3-LD_E25_170811_sam05_t05,E25,5,5,-33.8515648729,-9.292359638719999,-13.583746981900001,0.0003908127393919999,-0.000159955688495
402,qDII-DR5-CLV3-LD_E25_170811_sam05_t05,E25,5,5,-33.4415649983,21.695912204000003,-13.3328041523,0.016257474286599998,0.00020743024026599995
403,qDII-DR5-CLV3-LD_E25_170811_sam05_t05,E25,5,5,-32.1743355347,-39.1173921448,-32.4479353227,0.00712357076362,-0.000289884251122
404,qDII-DR5-CLV3-LD_E25_170811_sam05_t05,E25,5,5,-32.3826709061,-40.3338533696,-36.0207307914,0.0077950160411800005,-0.00024716733857900003
405,qDII-DR5-CLV3-LD_E25_170811_sam05_t05,E25,5,5,-33.9217835295,26.2981597273,-15.7214589822,0.0174255254636,0.000237464831864
406,qDII-DR5-CLV3-LD_E25_170811_sam05_t05,E25,5,5,-34.2116364612,-28.9721517882,-23.1936719246,0.00401985750592,-0.00048444658989999997
407,qDII-DR5-CLV3-LD_E25_170811_sam05_t05,E25,5,5,-34.8794874635,-14.875013852999999,-16.1055065007,0.00255561534099,-0.00036671289587
408,qDII-DR5-CLV3-LD_E25_170811_sam05_t05,E25,5,5,-34.037368393899996,-32.482210004,-26.734413508299998,0.00250456931294,-0.000502745648993
409,qDII-DR5-CLV3-LD_E25_170811_sam05_t05,E25,5,5,-35.4453273664,10.6996633354,-13.6496750916,0.0075472849318999995,-0.000103259910059
410,qDII-DR5-CLV3-LD_E25_170811_sam05_t05,E25,5,5,-34.6166472975,-35.3670617178,-29.1836988206,0.0025629885606199996,-0.000485386366568
411,qDII-DR5-CLV3-LD_E25_170811_sam05_t05,E25,5,5,-34.9901891939,32.1855179956,-21.7132789859,0.020789966259599998,0.000335880697478
412,qDII-DR5-CLV3-LD_E25_170811_sam05_t05,E25,5,5,-36.4319146347,-7.364425719560001,-16.2471954815,-0.00287420952489,-0.000229804328455
413,qDII-DR5-CLV3-LD_E25_170811_sam05_t05,E25,5,5,-36.5447935593,-0.290340327967,-16.2152232921,-0.00226578284821,-0.000194470509497
414,qDII-DR5-CLV3-LD_E25_170811_sam05_t05,E25,5,5,-35.7458346433,27.8088621234,-19.4746795732,0.016830134769,0.000188752356925
415,qDII-DR5-CLV3-LD_E25_170811_sam05_t05,E25,5,5,-33.8625489136,41.0016070363,-33.3158585881,0.026288675542799997,0.00040700934486
416,qDII-DR5-CLV3-LD_E25_170811_sam05_t05,E25,5,5,-36.6659275149,6.15982012719,-16.188303643,0.00276011700193,-0.00021552267185499997
417,qDII-DR5-CLV3-LD_E25_170811_sam05_t05,E25,5,5,-36.4898201862,19.470218771,-16.0805161189,0.0126745460497,9.880365101119999e-08
418,qDII-DR5-CLV3-LD_E25_170811_sam05_t05,E25,5,5,-36.7790800866,-24.992920617,-22.302878168000003,0.00441943595512,-0.000571514233144
419,qDII-DR5-CLV3-LD_E25_170811_sam05_t05,E25,5,5,-35.561866265,34.7184786135,-25.3063390792,0.0233611703248,0.00039383918277699996
420,qDII-DR5-CLV3-LD_E25_170811_sam05_t05,E25,5,5,-37.5506425667,-19.810254234600002,-18.8245329424,0.00413182534544,-0.000562962425536
421,qDII-DR5-CLV3-LD_E25_170811_sam05_t05,E25,5,5,-35.2182404529,38.0895843519,-31.1413397135,0.026490776757299998,0.000431528060155
422,qDII-DR5-CLV3-LD_E25_170811_sam05_t05,E25,5,5,-37.6717765223,-13.3600937795,-18.7976132933,-0.00042682687027900006,-0.000466931114198
423,qDII-DR5-CLV3-LD_E25_170811_sam05_t05,E25,5,5,-38.424790629,13.673344372699999,-16.355282556600002,0.00927115913719,-0.000168002278998
424,qDII-DR5-CLV3-LD_E25_170811_sam05_t05,E25,5,5,-35.5150836371,38.7942762379,-40.6115049428,0.0291423038605,0.000496030248223
425,qDII-DR5-CLV3-LD_E25_170811_sam05_t05,E25,5,5,-38.213518960500004,-31.165175007600002,-28.4176705483,0.00327483507995,-0.000531141494251
426,qDII-DR5-CLV3-LD_E25_170811_sam05_t05,E25,5,5,-38.0364992162,-34.4672582446,-31.956727951999998,0.00313647935215,-0.000488694011438
427,qDII-DR5-CLV3-LD_E25_170811_sam05_t05,E25,5,5,-36.9962594017,-37.1002559211,-42.4643739949,0.0034645755167299996,-0.000402788695513
428,qDII-DR5-CLV3-LD_E25_170811_sam05_t05,E25,5,5,-39.5291069775,-2.5264966436300003,-17.775371795999998,-0.00289269273852,-0.00023494875453599997
429,qDII-DR5-CLV3-LD_E25_170811_sam05_t05,E25,5,5,-38.924924097899996,21.6136544397,-19.9045539683,0.0127454475035,-6.471996855899999e-05
430,qDII-DR5-CLV3-LD_E25_170811_sam05_t05,E25,5,5,-38.8195081229,28.5052812765,-23.3863764817,0.0162489310748,0.00012063139069
431,qDII-DR5-CLV3-LD_E25_170811_sam05_t05,E25,5,5,-39.9833141857,9.96081042111,-17.7501907907,0.0064300153508299995,-0.000262636652465
432,qDII-DR5-CLV3-LD_E25_170811_sam05_t05,E25,5,5,-40.2514730856,-16.2260472556,-20.3122344716,0.0016808717079000001,-0.00056506963016
433,qDII-DR5-CLV3-LD_E25_170811_sam05_t05,E25,5,5,-40.2667970849,4.14044712646,-17.8226377654,0.0019018338161500001,-0.00028227237242400003
434,qDII-DR5-CLV3-LD_E25_170811_sam05_t05,E25,5,5,-40.490336121300004,-7.911638761839999,-19.107883672,-0.00349122122602,-0.000304406947751
435,qDII-DR5-CLV3-LD_E25_170811_sam05_t05,E25,5,5,-40.4701619665,-23.068295791,-22.742939339299998,0.0061358192028,-0.0005909066321390001
436,qDII-DR5-CLV3-LD_E25_170811_sam05_t05,E25,5,5,-40.361067468899996,17.4642447651,-18.927703637,0.0110835450303,-0.00018344883802500002
437,qDII-DR5-CLV3-LD_E25_170811_sam05_t05,E25,5,5,-40.8705216973,-28.035833405,-25.183776519299997,0.00566366453726,-0.000531940870909
438,qDII-DR5-CLV3-LD_E25_170811_sam05_t05,E25,5,5,-39.1873018781,34.6097958409,-31.6504794994,0.0220253940484,0.00027639780772400005
439,qDII-DR5-CLV3-LD_E25_170811_sam05_t05,E25,5,5,-39.6168371388,-36.0611269893,-38.0597583038,0.00413406080398,-0.000420757009101
440,qDII-DR5-CLV3-LD_E25_170811_sam05_t05,E25,5,5,-41.8473340576,-1.2358866556399999,-19.2310194401,-0.0009051203291669999,-0.000247251001724
441,qDII-DR5-CLV3-LD_E25_170811_sam05_t05,E25,5,5,-38.8718460346,40.695039186399995,-38.6511492556,0.029303714418200004,0.000489654798363
442,qDII-DR5-CLV3-LD_E25_170811_sam05_t05,E25,5,5,-39.5552946832,36.9318453679,-35.2199338399,0.0261076671607,0.00038132942392999996
443,qDII-DR5-CLV3-LD_E25_170811_sam05_t05,E25,5,5,-42.5333955004,14.1764691072,-20.3951133096,0.0104686050002,-0.000271412887939
444,qDII-DR5-CLV3-LD_E25_170811_sam05_t05,E25,5,5,-42.0350225771,24.4002862636,-24.986972539,0.014427933931200001,-6.33187756973e-05
445,qDII-DR5-CLV3-LD_E25_170811_sam05_t05,E25,5,5,-43.5351864337,-14.723244611300002,-20.7050841372,0.00160556403693,-0.000466619625703
446,qDII-DR5-CLV3-LD_E25_170811_sam05_t05,E25,5,5,-41.798119137,30.4675399558,-29.6378053025,0.0165275613674,4.64392844285e-05
447,qDII-DR5-CLV3-LD_E25_170811_sam05_t05,E25,5,5,-42.9998556466,19.8185915245,-22.775347239200002,0.0128752795072,-0.00017524013944999998
448,qDII-DR5-CLV3-LD_E25_170811_sam05_t05,E25,5,5,-42.96344507680001,-32.3170417675,-32.546844540500004,0.00908574060854,-0.000280739202879
449,qDII-DR5-CLV3-LD_E25_170811_sam05_t05,E25,5,5,-43.7165980664,-24.6671281755,-25.510888698600002,0.010926436920200002,-0.00037776866487400005
450,qDII-DR5-CLV3-LD_E25_170811_sam05_t05,E25,5,5,-44.0807920147,-19.9062839748,-21.985331967399997,0.00809355282168,-0.00045683336126999994
451,qDII-DR5-CLV3-LD_E25_170811_sam05_t05,E25,5,5,-43.7040859113,-29.6405380136,-27.9011460129,0.011253782075499999,-0.00024495282695200004
452,qDII-DR5-CLV3-LD_E25_170811_sam05_t05,E25,5,5,-44.5777798251,-4.7332918389,-19.5884196286,-0.000334183020993,-0.00022279881944
453,qDII-DR5-CLV3-LD_E25_170811_sam05_t05,E25,5,5,-44.6748018862,8.38253082089,-20.6951696802,0.00763416647778,-0.000333998131882
454,qDII-DR5-CLV3-LD_E25_170811_sam05_t05,E25,5,5,-45.2548728712,-9.091958057789999,-19.699657208599998,-0.0009516309201989999,-0.000267390455048
455,qDII-DR5-CLV3-LD_E25_170811_sam05_t05,E25,5,5,-43.4906827858,31.1538692073,-34.560036143699996,0.017594292845,-1.75960248378e-05
456,qDII-DR5-CLV3-LD_E25_170811_sam05_t05,E25,5,5,-42.595095790100004,39.112541908699995,-42.6572419435,0.0244862062167,0.00017098205274100001
457,qDII-DR5-CLV3-LD_E25_170811_sam05_t05,E25,5,5,-45.543127210200005,14.8624253776,-23.1192467553,0.0133371986786,-0.000256986677964
458,qDII-DR5-CLV3-LD_E25_170811_sam05_t05,E25,5,5,-43.2923028238,34.3094731961,-39.2344474281,0.0205284200098,-7.39607854717e-06
459,qDII-DR5-CLV3-LD_E25_170811_sam05_t05,E25,5,5,-46.372414740399996,0.0765576820959,-19.7772928831,0.00398954879821,-0.000229466401103
460,qDII-DR5-CLV3-LD_E25_170811_sam05_t05,E25,5,5,-45.308336678500005,-34.1176039256,-37.5651553411,0.0123460250825,-0.00010350847716799999
461,qDII-DR5-CLV3-LD_E25_170811_sam05_t05,E25,5,5,-45.6274380661,26.7873032366,-31.3109027983,0.015548790088599999,-0.000134740050474
462,qDII-DR5-CLV3-LD_E25_170811_sam05_t05,E25,5,5,-47.4599618096,-26.6940279469,-25.982949291100002,0.0195710863748,9.74160790182e-05
463,qDII-DR5-CLV3-LD_E25_170811_sam05_t05,E25,5,5,-47.8510794966,-13.2057614068,-21.2243834673,0.00510235273136,-0.00020016625139799999
464,qDII-DR5-CLV3-LD_E25_170811_sam05_t05,E25,5,5,-48.228772612700006,-21.3033865857,-22.502919885500003,0.015376031388100002,-0.00010997591576200001
465,qDII-DR5-CLV3-LD_E25_170811_sam05_t05,E25,5,5,-48.31512178,-29.9814306236,-29.6484563592,0.0220528339505,0.00030440503646099996
466,qDII-DR5-CLV3-LD_E25_170811_sam05_t05,E25,5,5,-49.494372176300004,3.0427119487299996,-21.3206268182,0.009538618122879998,-0.00020800675503300002
467,qDII-DR5-CLV3-LD_E25_170811_sam05_t05,E25,5,5,-48.912795744200004,14.7118910741,-24.7131333243,0.0178947544092,-0.000167414822673
468,qDII-DR5-CLV3-LD_E25_170811_sam05_t05,E25,5,5,-49.520443666400006,10.7587119301,-23.6334390814,0.016621145466899998,-0.000186088213683
469,qDII-DR5-CLV3-LD_E25_170811_sam05_t05,E25,5,5,-47.584876073500006,27.9029814404,-37.442618675,0.0159955602178,-0.00020265118798900003
470,qDII-DR5-CLV3-LD_E25_170811_sam05_t05,E25,5,5,-49.2924484559,20.9959280812,-29.4381517064,0.0172541291809,-0.00015553817116
471,qDII-DR5-CLV3-LD_E25_170811_sam05_t05,E25,5,5,-51.0693456278,-17.5187313986,-22.8266637046,0.018116794498599997,0.000163141222826
472,qDII-DR5-CLV3-LD_E25_170811_sam05_t05,E25,5,5,-49.341140823500005,-33.8044645166,-43.9565072668,0.0147309682944,4.90487052622e-05
473,qDII-DR5-CLV3-LD_E25_170811_sam05_t05,E25,5,5,-49.866877204,23.320913720300002,-33.0328959798,0.0166664078936,-0.000171084925371
474,qDII-DR5-CLV3-LD_E25_170811_sam05_t05,E25,5,5,-51.2071244097,-31.1597223919,-33.5500209554,0.0228435925357,0.00041005638241
475,qDII-DR5-CLV3-LD_E25_170811_sam05_t05,E25,5,5,-51.283957886,16.84486386,-27.349607710900003,0.020209976272900002,-8.41942978179e-05
476,qDII-DR5-CLV3-LD_E25_170811_sam05_t05,E25,5,5,-52.8645735745,-23.516054005,-24.265387852399996,0.0260452494985,0.000440726735491
477,qDII-DR5-CLV3-LD_E25_170811_sam05_t05,E25,5,5,-53.014729747299995,-13.3403335846,-21.8583159694,0.0167593096553,0.000269582017893
478,qDII-DR5-CLV3-LD_E25_170811_sam05_t05,E25,5,5,-51.157575674899995,23.1694708325,-37.9112836755,0.0167201517831,-0.000152295941925
479,qDII-DR5-CLV3-LD_E25_170811_sam05_t05,E25,5,5,-50.5655855661,24.8633777456,-42.5469043546,0.016144957738999998,-0.00021262715099500001
480,qDII-DR5-CLV3-LD_E25_170811_sam05_t05,E25,5,5,-53.487406613100006,12.2807857932,-25.289722008400002,0.0226543837995,6.84115786624e-06
481,qDII-DR5-CLV3-LD_E25_170811_sam05_t05,E25,5,5,-54.2891773733,-0.425332114136,-21.9309263355,0.0169574014095,0.00015544834589200003
482,qDII-DR5-CLV3-LD_E25_170811_sam05_t05,E25,5,5,-54.1436121388,-27.629484373,-27.9882115064,0.029685350543299998,0.0006986375311550001
483,qDII-DR5-CLV3-LD_E25_170811_sam05_t05,E25,5,5,-54.57816362649999,-6.6616453664,-22.006741670300002,0.0181780000642,0.00035034820331
484,qDII-DR5-CLV3-LD_E25_170811_sam05_t05,E25,5,5,-53.6661411659,-31.8994838905,-40.9350377812,0.016991225142,0.000201740092099
485,qDII-DR5-CLV3-LD_E25_170811_sam05_t05,E25,5,5,-55.903327501499994,-19.1045377694,-24.6093690642,0.029357740161799997,0.000707657925368
486,qDII-DR5-CLV3-LD_E25_170811_sam05_t05,E25,5,5,-55.3423793726,16.2976508177,-30.2102959014,0.0232478822688,5.2010240495e-05
487,qDII-DR5-CLV3-LD_E25_170811_sam05_t05,E25,5,5,-55.162408901199996,16.986007596900002,-38.442317802199995,0.0197676564192,1.82247693866e-05
488,qDII-DR5-CLV3-LD_E25_170811_sam05_t05,E25,5,5,-54.9367256491,-31.606524284699997,-49.3474575722,0.0202698424274,0.000349016952685
489,qDII-DR5-CLV3-LD_E25_170811_sam05_t05,E25,5,5,-57.9416756079,-11.1901171076,-22.4484325579,0.025349749043299997,0.0006905902196529999
490,qDII-DR5-CLV3-LD_E25_170811_sam05_t05,E25,5,5,-58.195678022799996,-28.772169815599998,-34.3913526926,0.0273577644533,0.000676047097568
491,qDII-DR5-CLV3-LD_E25_170811_sam05_t05,E25,5,5,-59.1608906437,9.66684897646,-27.182007999899998,0.029938927812099995,0.00043896485100999996
492,qDII-DR5-CLV3-LD_E25_170811_sam05_t05,E25,5,5,-60.1491824091,-6.3743953625300005,-22.6878856781,0.0297002130867,0.000921747595198
493,qDII-DR5-CLV3-LD_E25_170811_sam05_t05,E25,5,5,-59.743120274300004,2.79155724644,-24.938328815,0.0327163592526,0.0008106281948969999
494,qDII-DR5-CLV3-LD_E25_170811_sam05_t05,E25,5,5,-60.0002724662,-22.563400515100003,-27.493635775599998,0.0360249397667,0.00111488792467
495,qDII-DR5-CLV3-LD_E25_170811_sam05_t05,E25,5,5,-58.867068664799994,-28.9324210396,-39.1938705896,0.022886487041500002,0.000493454447114
496,qDII-DR5-CLV3-LD_E25_170811_sam05_t05,E25,5,5,-59.4431231943,10.3999933985,-40.1895736846,0.026946583522299998,0.00038914847990099993
497,qDII-DR5-CLV3-LD_E25_170811_sam05_t05,E25,5,5,-59.6498327844,-27.8238966252,-46.3614103318,0.0227404251911,0.000478351613026
498,qDII-DR5-CLV3-LD_E25_170811_sam05_t05,E25,5,5,-61.4664852344,-25.2180699193,-31.2299601021,0.0332897647728,0.0009936609981649998
499,qDII-DR5-CLV3-LD_E25_170811_sam05_t05,E25,5,5,-63.0845586725,-15.6741741871,-25.467569834000003,0.039121796978500004,0.0014574965953
500,qDII-DR5-CLV3-LD_E25_170811_sam05_t05,E25,5,5,-63.6232757866,4.95554569935,-28.9393961946,0.0367940097504,0.00104378415231
501,qDII-DR5-CLV3-LD_E25_170811_sam05_t05,E25,5,5,-63.646869246899996,-25.3473054762,-37.3970709921,0.0282511477905,0.0007373436406830001
502,qDII-DR5-CLV3-LD_E25_170811_sam05_t05,E25,5,5,-65.29206547369999,-10.858452442,-25.7070229542,0.04414109893209999,0.00190648779122
503,qDII-DR5-CLV3-LD_E25_170811_sam05_t05,E25,5,5,-65.8480847313,-6.0662195932500005,-25.744156611399998,0.043808475283699994,0.00184976348049
504,qDII-DR5-CLV3-LD_E25_170811_sam05_t05,E25,5,5,-64.4170466142,5.2321701984199995,-36.1136726571,0.0314680183738,0.000787533310294
505,qDII-DR5-CLV3-LD_E25_170811_sam05_t05,E25,5,5,-66.205923077,-1.9008477929700003,-25.7610528758,0.04266859275090001,0.00166314389702
506,qDII-DR5-CLV3-LD_E25_170811_sam05_t05,E25,5,5,-66.28271081609999,-19.5427416851,-30.6038821667,0.040060616186300003,0.0015174251629
507,qDII-DR5-CLV3-LD_E25_170811_sam05_t05,E25,5,5,-65.222357014,-21.731336868000003,-44.645560305100005,0.027086250797,0.000623494130319
508,qDII-DR5-CLV3-LD_E25_170811_sam05_t05,E25,5,5,-66.6130925588,2.3034394260699997,-30.5029130586,0.039363816703199994,0.0013474764867600002
509,qDII-DR5-CLV3-LD_E25_170811_sam05_t05,E25,5,5,-67.249244264,-21.5613687236,-36.63441108,0.0333916388129,0.00100259783711
510,qDII-DR5-CLV3-LD_E25_170811_sam05_t05,E25,5,5,-68.1503947808,-14.3349318599,-28.4395500683,0.045447374290199995,0.00198263181608
511,qDII-DR5-CLV3-LD_E25_170811_sam05_t05,E25,5,5,-68.47940584060001,-17.1373620776,-41.4757468142,0.036122365025400005,0.00104556137191
512,qDII-DR5-CLV3-LD_E25_170811_sam05_t05,E25,5,5,-69.7997838459,-9.30958058941,-29.789012672600002,0.04508044035730001,0.0019692679295499997
513,qDII-DR5-CLV3-LD_E25_170811_sam05_t05,E25,5,5,-67.8813193464,-4.22033307941,-44.85814824,0.036406810092300006,0.00117851890095
514,qDII-DR5-CLV3-LD_E25_170811_sam05_t05,E25,5,5,-69.78366776520001,-15.086437806700001,-35.7234071627,0.0395586876058,0.00141815780234
515,qDII-DR5-CLV3-LD_E25_170811_sam05_t05,E25,5,5,-68.5914325166,-11.074699044,-44.989595980699995,0.0397453755194,0.00125887823332
516,qDII-DR5-CLV3-LD_E25_170811_sam05_t05,E25,5,5,-70.9259747275,-7.7896968761,-35.8162004577,0.038360462924,0.0014152500113200001
517,qDII-DR5-CLV3-LD_E25_170811_sam05_t05,E25,5,5,68.3198837075,-21.5123361507,-32.9910958488,0.0231058573325,0.000466151976608
518,qDII-DR5-CLV3-LD_E25_170811_sam05_t05,E25,5,5,63.7808455896,-25.0222317444,-28.851141514899997,0.024088001959000002,0.0005200848394419999
519,qDII-DR5-CLV3-LD_E25_170811_sam05_t05,E25,5,5,63.5407964911,-38.3221675056,-30.1464925019,0.0266021137125,0.000600373230482
520,qDII-DR5-CLV3-LD_E25_170811_sam05_t05,E25,5,5,60.7935814444,-31.2488280762,-25.718325521700002,0.0264931764256,0.000623406614931
521,qDII-DR5-CLV3-LD_E25_170811_sam05_t05,E25,5,5,55.0900881839,-47.9690841454,-32.4248097429,0.027893093182799998,0.0005975975795
522,qDII-DR5-CLV3-LD_E25_170811_sam05_t05,E25,5,5,51.507961918599996,-24.8954433235,-24.4560101067,0.011101348074399999,-0.00016397171107899997
523,qDII-DR5-CLV3-LD_E25_170811_sam05_t05,E25,5,5,52.9470745654,33.830049973099996,-34.5174028964,0.023473211893,0.000409784504645
524,qDII-DR5-CLV3-LD_E25_170811_sam05_t05,E25,5,5,38.7372006888,58.142685704499996,-33.742496317800004,0.0269164334898,0.0006347142144639999
525,qDII-DR5-CLV3-LD_E25_170811_sam05_t05,E25,5,5,28.6125104875,3.76572098833,-7.020910650319999,0.013849754374799999,0.000174368850738
526,qDII-DR5-CLV3-LD_E25_170811_sam05_t05,E25,5,5,24.2043066362,4.22533964543,-5.19879388798,0.0137848167962,0.00017924284865999997
527,qDII-DR5-CLV3-LD_E25_170811_sam05_t05,E25,5,5,22.0215649281,10.912836199800001,-5.4230893876,0.0111513393403,0.00011872967758000001
528,qDII-DR5-CLV3-LD_E25_170811_sam05_t05,E25,5,5,18.9841173982,5.7365776447300005,-3.4694159568400003,0.012755813595100002,0.000155999402356
529,qDII-DR5-CLV3-LD_E25_170811_sam05_t05,E25,5,5,16.1580161338,-9.83383919222,-2.73693512634,0.0156699067639,0.000226755072523
530,qDII-DR5-CLV3-LD_E25_170811_sam05_t05,E25,5,5,15.4097029884,-46.479285883900005,-23.1224541337,0.012404337109100001,1.04067900704e-05
531,qDII-DR5-CLV3-LD_E25_170811_sam05_t05,E25,5,5,12.0140334427,-5.009682092149999,-0.854160649768,0.0166271758714,0.000266188533085
532,qDII-DR5-CLV3-LD_E25_170811_sam05_t05,E25,5,5,8.44402535121,6.0658418014999995,-1.2201178981999998,0.0154618953751,0.000244671952177
533,qDII-DR5-CLV3-LD_E25_170811_sam05_t05,E25,5,5,7.73947570217,-15.9736337283,-1.44922085081,0.0151159840991,0.000222667635246
534,qDII-DR5-CLV3-LD_E25_170811_sam05_t05,E25,5,5,7.479984363210001,16.0737842273,-2.4532903823,0.013734554254000001,0.00018570963138799998
535,qDII-DR5-CLV3-LD_E25_170811_sam05_t05,E25,5,5,4.123935331409999,-2.42039974228,0.55486905424,0.017058405896000002,0.00029514020640099997
536,qDII-DR5-CLV3-LD_E25_170811_sam05_t05,E25,5,5,3.2045743741100003,6.12125494914,0.497470772482,0.0171176405663,0.00029347646206700004
537,qDII-DR5-CLV3-LD_E25_170811_sam05_t05,E25,5,5,1.1588234851700001,12.400328316500001,-0.892466617184,0.015669008020600003,0.00023792636779299998
538,qDII-DR5-CLV3-LD_E25_170811_sam05_t05,E25,5,5,0.673875132745,-19.4093805587,-2.3377096298599995,0.0144868820132,0.000200710453466
539,qDII-DR5-CLV3-LD_E25_170811_sam05_t05,E25,5,5,5.72736475471,55.2744010871,-36.628268997,0.0185690769178,-6.33740614554e-05
540,qDII-DR5-CLV3-LD_E25_170811_sam05_t05,E25,5,5,-0.8030105292380001,-0.27018326523200004,-0.035247534256199996,0.0156951134881,0.000250068048503
541,qDII-DR5-CLV3-LD_E25_170811_sam05_t05,E25,5,5,-3.91265485999,-6.05990387402,0.725809893517,0.0150280890781,0.00021984584704099998
542,qDII-DR5-CLV3-LD_E25_170811_sam05_t05,E25,5,5,-5.67702132815,1.03767041388,0.555462619784,0.014944429414399999,0.000218678139926
543,qDII-DR5-CLV3-LD_E25_170811_sam05_t05,E25,5,5,-9.86627708136,-3.4790568791600003,0.012612000745899998,0.0166155490068,0.00024758455677800003
544,qDII-DR5-CLV3-LD_E25_170811_sam05_t05,E25,5,5,-9.71218316875,8.167541934219999,0.106926084361,0.015155633314300001,0.000212655309996
545,qDII-DR5-CLV3-LD_E25_170811_sam05_t05,E25,5,5,-10.618318605299999,-8.6591601306,-1.2929257623000001,0.0172512550499,0.000268060764657
546,qDII-DR5-CLV3-LD_E25_170811_sam05_t05,E25,5,5,-22.463520706700002,-4.72732636036,-5.079263620940001,0.0147591126532,0.000206341387872
547,qDII-DR5-CLV3-LD_E25_170811_sam05_t05,E25,5,5,-26.2556827218,19.6929209373,-8.92541366651,0.018886201985400003,0.00033954519339300004
548,qDII-DR5-CLV3-LD_E25_170811_sam05_t05,E25,5,5,-50.1708120238,-6.109841665499999,-20.2830370769,0.00601215996009,-7.04339998229e-05
549,qDII-DR5-CLV3-LD_E25_170811_sam05_t05,E25,5,5,-68.9799975766,-1.1609225625200001,-35.5346972997,0.0373961424422,0.0013030556378599999
550,qDII-DR5-CLV3-LD_E25_170811_sam05_t05,E25,5,5,-13.120236298,24.4888824875,-6.104164110669999,0.0143511074589,0.000196973007503
551,qDII-DR5-CLV3-LD_E25_170811_sam05_t05,E25,5,5,-55.2999968704,6.047035671880001,-23.1927298807,0.0221952893467,0.000163183818769
