,filename,experiment,sam_id,hour_time,aligned_x,aligned_y,aligned_z,mean_curvature,gaussian_curvature
0,qDII-DR5-CLV3-LD_E33_171106_sam07_t10,E33,7,10,-79.6320183035,-24.8968389001,-38.9864156511,0.020234883034,0.00031984027449
1,qDII-DR5-CLV3-LD_E33_171106_sam07_t10,E33,7,10,-84.4962039653,-10.2448680803,-38.6437643065,0.026629982341100002,0.000600418369382
2,qDII-DR5-CLV3-LD_E33_171106_sam07_t10,E33,7,10,-79.9019994085,-15.134495037999999,-33.341224376999996,0.024921733508299997,0.00055885716831
3,qDII-DR5-CLV3-LD_E33_171106_sam07_t10,E33,7,10,-81.9320665872,-7.040140150599999,-34.8715766915,0.0315520347838,0.0008230851641989999
4,qDII-DR5-CLV3-LD_E33_171106_sam07_t10,E33,7,10,-74.8839924879,-21.7070689007,-31.7398888827,0.0262040916262,0.0006243111737150001
5,qDII-DR5-CLV3-LD_E33_171106_sam07_t10,E33,7,10,-72.24905363,-27.6530680133,-35.902930171,0.023438616342099997,0.000517094934866
6,qDII-DR5-CLV3-LD_E33_171106_sam07_t10,E33,7,10,-78.1111075457,-10.9872020266,-30.636538255999998,0.028949630883900002,0.0007523830409849999
7,qDII-DR5-CLV3-LD_E33_171106_sam07_t10,E33,7,10,-67.8738966232,-31.1095811673,-38.694934823800004,0.020083733545999998,0.00040211534053300005
8,qDII-DR5-CLV3-LD_E33_171106_sam07_t10,E33,7,10,-78.3302874294,-1.11339126198,-34.395422819699995,0.033457817149499997,0.000926018960885
9,qDII-DR5-CLV3-LD_E33_171106_sam07_t10,E33,7,10,-73.7396406048,-12.730416533900001,-28.558201429,0.0284113107699,0.0007415753705840001
10,qDII-DR5-CLV3-LD_E33_171106_sam07_t10,E33,7,10,-75.91096107060001,-4.24689491706,-30.0478995233,0.0322534386222,0.000900238314391
11,qDII-DR5-CLV3-LD_E33_171106_sam07_t10,E33,7,10,-67.5263434201,-25.5499248987,-31.112849032600003,0.0261013874695,0.000633914419373
12,qDII-DR5-CLV3-LD_E33_171106_sam07_t10,E33,7,10,-69.5528480404,-17.6225285077,-26.7758175035,0.027604738208300002,0.000691907322751
13,qDII-DR5-CLV3-LD_E33_171106_sam07_t10,E33,7,10,-63.7016093076,-32.2411788549,-38.9066356259,0.0164244867382,0.00027407111878900004
14,qDII-DR5-CLV3-LD_E33_171106_sam07_t10,E33,7,10,-72.0012699019,-5.937102846569999,-27.953026706,0.0318124602971,0.0009002856733920001
15,qDII-DR5-CLV3-LD_E33_171106_sam07_t10,E33,7,10,-62.8686798391,-29.7847715115,-33.9861621259,0.018408690817099997,0.000317864383084
16,qDII-DR5-CLV3-LD_E33_171106_sam07_t10,E33,7,10,-73.6184349048,3.5524142089599997,-32.890526114299995,0.028029074048700003,0.0006949812520769999
17,qDII-DR5-CLV3-LD_E33_171106_sam07_t10,E33,7,10,-67.6768716139,-10.0205296198,-24.920197295500003,0.028895928921900002,0.0007501076774089998
18,qDII-DR5-CLV3-LD_E33_171106_sam07_t10,E33,7,10,-60.708349392399995,-27.2649338111,-31.445988445900003,0.017043207577,0.000193387495588
19,qDII-DR5-CLV3-LD_E33_171106_sam07_t10,E33,7,10,-70.04196652649999,1.4981794022,-28.468752567600003,0.0272442368066,0.0006646026186290001
20,qDII-DR5-CLV3-LD_E33_171106_sam07_t10,E33,7,10,-66.9616422678,-2.8153943671399997,-25.4269694067,0.029269672535700002,0.00075036895452
21,qDII-DR5-CLV3-LD_E33_171106_sam07_t10,E33,7,10,-63.5136370401,-12.377845963,-24.0719788434,0.0226232608028,0.00039844466234199995
22,qDII-DR5-CLV3-LD_E33_171106_sam07_t10,E33,7,10,-56.2788711083,-30.261491842199998,-34.1954433186,0.007407217049479999,-0.000213032942134
23,qDII-DR5-CLV3-LD_E33_171106_sam07_t10,E33,7,10,-68.4665171528,6.39618100416,-31.570468959899998,0.022419518212599996,0.00043321985616400003
24,qDII-DR5-CLV3-LD_E33_171106_sam07_t10,E33,7,10,-57.445198203400004,-24.1257823852,-28.874114296,0.0128518526365,-0.000178852546004
25,qDII-DR5-CLV3-LD_E33_171106_sam07_t10,E33,7,10,-53.1097297173,-33.3491050986,-40.452309325,0.0036633558484,-0.00019552279936000002
26,qDII-DR5-CLV3-LD_E33_171106_sam07_t10,E33,7,10,-64.0045131412,3.1214394314300002,-27.2871940642,0.0208611049959,0.000354654032337
27,qDII-DR5-CLV3-LD_E33_171106_sam07_t10,E33,7,10,-51.7607031995,-30.485749210100003,-35.505822035,0.0005061055837730001,-0.00046949192075
28,qDII-DR5-CLV3-LD_E33_171106_sam07_t10,E33,7,10,-55.20883593479999,-19.376957464,-26.1230872748,0.00790802879174,-0.000488109972983
29,qDII-DR5-CLV3-LD_E33_171106_sam07_t10,E33,7,10,-59.8992000795,-5.907783631980001,-22.367602156599997,0.019626742172400003,5.08767192353e-05
30,qDII-DR5-CLV3-LD_E33_171106_sam07_t10,E33,7,10,-52.4489491561,-25.0575848185,-30.263905893,0.00350687210486,-0.0006939230984389998
31,qDII-DR5-CLV3-LD_E33_171106_sam07_t10,E33,7,10,-60.1491432497,0.971276379064,-25.234871027199997,0.0173855817365,0.000101694505107
32,qDII-DR5-CLV3-LD_E33_171106_sam07_t10,E33,7,10,-47.9505593409,-32.3855954465,-38.1352098069,-0.003914383740020001,-0.000501489348993
33,qDII-DR5-CLV3-LD_E33_171106_sam07_t10,E33,7,10,-62.548606509799995,10.177639860800001,-30.1799526753,0.0131809066255,4.07324311577e-05
34,qDII-DR5-CLV3-LD_E33_171106_sam07_t10,E33,7,10,-47.8148860684,-26.2421890838,-30.492142685300003,-0.00164752318634,-0.000905134339444
35,qDII-DR5-CLV3-LD_E33_171106_sam07_t10,E33,7,10,-46.2773627745,-30.3839313364,-34.4557039922,-0.0054087271673599994,-0.000718005541535
36,qDII-DR5-CLV3-LD_E33_171106_sam07_t10,E33,7,10,-49.4266410668,-21.2234582534,-28.7963963373,0.00101621027699,-0.0009116876088069999
37,qDII-DR5-CLV3-LD_E33_171106_sam07_t10,E33,7,10,-59.2926181141,7.271798185619999,-29.3615391332,0.00929275537437,-0.00010233107392
38,qDII-DR5-CLV3-LD_E33_171106_sam07_t10,E33,7,10,-43.4378391129,-34.517976683200004,-36.097527200100004,-0.004863248912149999,-0.000600606091448
39,qDII-DR5-CLV3-LD_E33_171106_sam07_t10,E33,7,10,-50.38469329229999,-14.9890936773,-25.8241907142,0.0013338369541800001,-0.0007055491358080001
40,qDII-DR5-CLV3-LD_E33_171106_sam07_t10,E33,7,10,-56.0493300237,4.33808978485,-26.1921066317,0.00622479034184,-0.00029698722726200004
41,qDII-DR5-CLV3-LD_E33_171106_sam07_t10,E33,7,10,-40.3647249762,-37.4667400262,-37.6320281775,-0.0019665713640999996,-0.000509159315332
42,qDII-DR5-CLV3-LD_E33_171106_sam07_t10,E33,7,10,-43.472382296599996,-27.8741785459,-29.5791517829,-0.0018698666521500002,-0.0008292140259610002
43,qDII-DR5-CLV3-LD_E33_171106_sam07_t10,E33,7,10,-41.7356793774,-32.6275376182,-31.2526754607,-0.0013835190377899998,-0.0006162338560090001
44,qDII-DR5-CLV3-LD_E33_171106_sam07_t10,E33,7,10,-58.5682935237,15.1872053771,-34.5074722731,0.00429504126211,-0.000261579022543
45,qDII-DR5-CLV3-LD_E33_171106_sam07_t10,E33,7,10,-51.6723680733,-2.90680438104,-24.6390075975,0.004276570155889999,-0.000720252287707
46,qDII-DR5-CLV3-LD_E33_171106_sam07_t10,E33,7,10,-56.5690794626,12.023349980299999,-31.3290860212,0.0022408429512800004,-0.0003013963154090001
47,qDII-DR5-CLV3-LD_E33_171106_sam07_t10,E33,7,10,-49.1244037278,-7.48823492466,-25.1396031108,0.0016174486077,-0.0007744917958099999
48,qDII-DR5-CLV3-LD_E33_171106_sam07_t10,E33,7,10,-43.4616144424,-22.5115906581,-25.537549105900002,-0.00046647552923400004,-0.000849389340619
49,qDII-DR5-CLV3-LD_E33_171106_sam07_t10,E33,7,10,-40.739786077199994,-28.7912649063,-26.204552620100003,0.00134720975568,-0.000667401043336
50,qDII-DR5-CLV3-LD_E33_171106_sam07_t10,E33,7,10,-37.6647819919,-36.5593026946,-30.552433459499998,0.00512124944266,-0.000342797217708
51,qDII-DR5-CLV3-LD_E33_171106_sam07_t10,E33,7,10,-51.8227214308,3.66644722014,-26.361257653499997,-0.00061260892095,-0.000550567133396
52,qDII-DR5-CLV3-LD_E33_171106_sam07_t10,E33,7,10,-53.3004332641,9.66082174757,-29.2824496641,-0.00134742643846,-0.000384016537528
53,qDII-DR5-CLV3-LD_E33_171106_sam07_t10,E33,7,10,-45.319707550100006,-11.2962050298,-24.4209295594,-0.00136481398226,-0.000719326517691
54,qDII-DR5-CLV3-LD_E33_171106_sam07_t10,E33,7,10,-41.239710094,-21.412054978,-21.9577832819,0.000578081249175,-0.000591686469804
55,qDII-DR5-CLV3-LD_E33_171106_sam07_t10,E33,7,10,-47.275543024300006,-4.078838720309999,-23.6834669149,-9.15382661891e-05,-0.000794897674202
56,qDII-DR5-CLV3-LD_E33_171106_sam07_t10,E33,7,10,-42.8804282615,-16.2820991024,-21.427382858599998,-0.0009247521305489998,-0.0005811431716180001
57,qDII-DR5-CLV3-LD_E33_171106_sam07_t10,E33,7,10,-49.061119539799996,2.12268909789,-25.4005543406,-0.00285985502521,-0.0006354536044179999
58,qDII-DR5-CLV3-LD_E33_171106_sam07_t10,E33,7,10,-35.571473127800004,-34.5272868427,-25.7037906002,0.00706105358243,-0.00025737784927
59,qDII-DR5-CLV3-LD_E33_171106_sam07_t10,E33,7,10,-37.0836383136,-29.8143644221,-22.8630254377,0.00508892459029,-0.000362967551396
60,qDII-DR5-CLV3-LD_E33_171106_sam07_t10,E33,7,10,-53.1012584649,15.9435617384,-33.3944773399,-0.00357689933136,-0.00042550316211199997
61,qDII-DR5-CLV3-LD_E33_171106_sam07_t10,E33,7,10,-38.570445391199996,-24.5302618335,-21.1450564197,0.0034062549425300003,-0.000405342467215
62,qDII-DR5-CLV3-LD_E33_171106_sam07_t10,E33,7,10,-33.1357563977,-39.3462224189,-28.5776277431,0.010335755345399999,-9.23776766805e-05
63,qDII-DR5-CLV3-LD_E33_171106_sam07_t10,E33,7,10,-32.2338728955,-41.7367143892,-32.358245058899996,0.0104105385639,-7.18014211749e-05
64,qDII-DR5-CLV3-LD_E33_171106_sam07_t10,E33,7,10,-48.2100420851,6.515087035680001,-26.1791611233,-0.00610306439408,-0.0004927027411810001
65,qDII-DR5-CLV3-LD_E33_171106_sam07_t10,E33,7,10,-41.1601630423,-11.940222726300002,-18.7023696275,0.000989479203025,-0.0005109935754359999
66,qDII-DR5-CLV3-LD_E33_171106_sam07_t10,E33,7,10,-49.6171272748,12.314878198399999,-29.120680244099997,-0.005847796436,-0.00044915030540099995
67,qDII-DR5-CLV3-LD_E33_171106_sam07_t10,E33,7,10,-27.5019351075,-47.3639962966,-36.5429849677,0.0145512675269,8.86459914022e-05
68,qDII-DR5-CLV3-LD_E33_171106_sam07_t10,E33,7,10,-34.2043836287,-28.6970469263,-19.2979000439,0.00782270203611,-0.000110291756236
69,qDII-DR5-CLV3-LD_E33_171106_sam07_t10,E33,7,10,-45.0174277085,1.92357158211,-24.343378107399996,-0.00490431469913,-0.000583154917615
70,qDII-DR5-CLV3-LD_E33_171106_sam07_t10,E33,7,10,-42.5708957955,-4.94257963359,-20.3527890428,-0.0005743430462560001,-0.000706002553602
71,qDII-DR5-CLV3-LD_E33_171106_sam07_t10,E33,7,10,-37.8643112896,-18.0353985196,-17.0126675023,0.0037324745070500005,-0.00025869408094999997
72,qDII-DR5-CLV3-LD_E33_171106_sam07_t10,E33,7,10,-30.4231131081,-38.4109183617,-23.8490519846,0.0116167733871,-5.063264367530001e-06
73,qDII-DR5-CLV3-LD_E33_171106_sam07_t10,E33,7,10,-27.4603566381,-46.4164611826,-30.570174453499998,0.0144490725524,0.000102546648582
74,qDII-DR5-CLV3-LD_E33_171106_sam07_t10,E33,7,10,-28.0164020496,-42.6031821759,-24.308993277600003,0.0137831899576,7.74358936562e-05
75,qDII-DR5-CLV3-LD_E33_171106_sam07_t10,E33,7,10,-49.3726839403,17.8318546566,-32.1302388855,-0.00591008578339,-0.00043810183204500005
76,qDII-DR5-CLV3-LD_E33_171106_sam07_t10,E33,7,10,-50.6059051104,21.9334021148,-35.2381660072,-0.005960388472899999,-0.000426197772628
77,qDII-DR5-CLV3-LD_E33_171106_sam07_t10,E33,7,10,-24.7621287662,-49.6458930833,-28.5921016667,0.015505215776200001,0.000171076605199
78,qDII-DR5-CLV3-LD_E33_171106_sam07_t10,E33,7,10,-46.05331669939999,9.717329949260002,-25.927129512399997,-0.006565434228789999,-0.00041003921881399997
79,qDII-DR5-CLV3-LD_E33_171106_sam07_t10,E33,7,10,-47.822587848599994,15.2643192799,-27.7070938284,-0.00514607641451,-0.0003877411392230001
80,qDII-DR5-CLV3-LD_E33_171106_sam07_t10,E33,7,10,-34.027004379299996,-23.1524455999,-16.4197477316,0.007942173771290001,-6.05983594773e-05
81,qDII-DR5-CLV3-LD_E33_171106_sam07_t10,E33,7,10,-30.258434164,-32.8941837609,-18.6198807128,0.010746686772399998,3.23156627134e-05
82,qDII-DR5-CLV3-LD_E33_171106_sam07_t10,E33,7,10,-37.6326107629,-12.0308420704,-14.0919654098,0.004993783181149999,-0.00024391147694
83,qDII-DR5-CLV3-LD_E33_171106_sam07_t10,E33,7,10,-42.1635311318,2.46970890989,-19.6554565691,-0.0028833591907,-0.000463991546428
84,qDII-DR5-CLV3-LD_E33_171106_sam07_t10,E33,7,10,-38.7445315757,-6.46607092403,-15.886570156,0.00331858840843,-0.0004375926221540001
85,qDII-DR5-CLV3-LD_E33_171106_sam07_t10,E33,7,10,-34.9850566047,-16.918081023800003,-13.447542108499999,0.00844716941383,-3.15559085265e-05
86,qDII-DR5-CLV3-LD_E33_171106_sam07_t10,E33,7,10,-20.6042568683,-54.9422267287,-31.5543054404,0.0171984555498,0.00030982105050200004
87,qDII-DR5-CLV3-LD_E33_171106_sam07_t10,E33,7,10,-48.0055094362,22.6312011394,-32.882831878299996,-0.0040963793440799996,-0.00035403735377800003
88,qDII-DR5-CLV3-LD_E33_171106_sam07_t10,E33,7,10,-25.9593514815,-38.064237419,-18.043496932300002,0.0120192153381,6.99828589473e-05
89,qDII-DR5-CLV3-LD_E33_171106_sam07_t10,E33,7,10,-23.3624285346,-45.124730142,-22.3119648911,0.015359126714700001,0.00014718155656600002
90,qDII-DR5-CLV3-LD_E33_171106_sam07_t10,E33,7,10,-38.5381466546,-1.5481413595299998,-15.4223136935,0.0035443722657199994,-0.000336145950431
91,qDII-DR5-CLV3-LD_E33_171106_sam07_t10,E33,7,10,-19.7260588645,-53.251582918000004,-25.5313629061,0.0200777349918,0.000419083340226
92,qDII-DR5-CLV3-LD_E33_171106_sam07_t10,E33,7,10,-44.747758599499996,16.4524251692,-24.1400728747,-0.00170714885519,-0.000239873259104
93,qDII-DR5-CLV3-LD_E33_171106_sam07_t10,E33,7,10,-29.186509041799997,-26.8289238281,-13.360904531,0.0119787512613,0.00010951057123100002
94,qDII-DR5-CLV3-LD_E33_171106_sam07_t10,E33,7,10,-31.2509870706,-20.5314677643,-12.708541447,0.011403580309600002,9.320342144700002e-05
95,qDII-DR5-CLV3-LD_E33_171106_sam07_t10,E33,7,10,-20.8307695554,-49.051622198100006,-22.749683514,0.0177511891125,0.000265371054985
96,qDII-DR5-CLV3-LD_E33_171106_sam07_t10,E33,7,10,-45.7147785617,20.430177656199998,-27.2664315465,-0.00046195496929699997,-0.00023006766791499998
97,qDII-DR5-CLV3-LD_E33_171106_sam07_t10,E33,7,10,-42.1219574885,10.3116008345,-20.0847113598,-0.000945458585374,-0.00016709142725400002
98,qDII-DR5-CLV3-LD_E33_171106_sam07_t10,E33,7,10,-35.3545850198,-7.36537546868,-12.526611423399999,0.00723885396366,-0.00017875105171900004
99,qDII-DR5-CLV3-LD_E33_171106_sam07_t10,E33,7,10,-25.9069201529,-32.785007850700005,-15.18756729,0.0117676747489,9.43598664803e-05
100,qDII-DR5-CLV3-LD_E33_171106_sam07_t10,E33,7,10,-38.963753961900004,3.92318655731,-16.0662129453,0.0014076780459300001,-0.00021891857037
101,qDII-DR5-CLV3-LD_E33_171106_sam07_t10,E33,7,10,-14.7658932771,-60.632600123900005,-33.4192028102,0.025126329920200002,0.000641319292584
102,qDII-DR5-CLV3-LD_E33_171106_sam07_t10,E33,7,10,-21.5299156999,-40.545348733400004,-17.213710030399998,0.0138458009344,0.00011840439066600001
103,qDII-DR5-CLV3-LD_E33_171106_sam07_t10,E33,7,10,-45.6858202187,27.213309421599998,-32.5031509267,0.00472976801682,-7.50741543921e-05
104,qDII-DR5-CLV3-LD_E33_171106_sam07_t10,E33,7,10,-18.7953870294,-46.7971562558,-20.231732504100002,0.017772181866,0.00025930496510099995
105,qDII-DR5-CLV3-LD_E33_171106_sam07_t10,E33,7,10,-16.026277498800003,-53.3138518218,-39.749437474400004,0.018397075013999998,0.000315594196203
106,qDII-DR5-CLV3-LD_E33_171106_sam07_t10,E33,7,10,-44.5594839882,25.8132742331,-27.9580432088,0.00648398778135,-2.39634189617e-05
107,qDII-DR5-CLV3-LD_E33_171106_sam07_t10,E33,7,10,-14.7642206672,-55.9802841749,-24.7384391046,0.024689713207999998,0.000658815332997
108,qDII-DR5-CLV3-LD_E33_171106_sam07_t10,E33,7,10,-42.8518292432,22.202033639499998,-23.6384292624,0.005656748976330001,-5.6148032316000006e-05
109,qDII-DR5-CLV3-LD_E33_171106_sam07_t10,E33,7,10,-40.9992736476,17.0037743866,-20.6505692415,0.0038345748952199996,-7.8880100352e-05
110,qDII-DR5-CLV3-LD_E33_171106_sam07_t10,E33,7,10,-24.4782142496,-28.890516671300002,-11.3213263643,0.0129936092221,0.000144299430814
111,qDII-DR5-CLV3-LD_E33_171106_sam07_t10,E33,7,10,-35.8400086139,3.14767698391,-12.6878226626,0.0073405573901800004,-4.86116483991e-05
112,qDII-DR5-CLV3-LD_E33_171106_sam07_t10,E33,7,10,-32.0678758401,-6.76101967351,-9.02057180007,0.0110898395826,5.30643432834e-05
113,qDII-DR5-CLV3-LD_E33_171106_sam07_t10,E33,7,10,-21.8143122227,-34.9477408291,-14.3190217279,0.012547973959200001,0.00010769967708
114,qDII-DR5-CLV3-LD_E33_171106_sam07_t10,E33,7,10,-33.5709457815,-1.33782531411,-10.818967666199999,0.0103236365231,1.7507950153499998e-07
115,qDII-DR5-CLV3-LD_E33_171106_sam07_t10,E33,7,10,-15.073975298099999,-50.9538564387,-20.7209546576,0.0217279177495,0.000472250210248
116,qDII-DR5-CLV3-LD_E33_171106_sam07_t10,E33,7,10,-17.6455401369,-43.322183547600005,-17.5752828432,0.0161771163865,0.000193478271453
117,qDII-DR5-CLV3-LD_E33_171106_sam07_t10,E33,7,10,-27.4753863956,-15.7875158634,-8.81955380166,0.013219809264400001,0.00015854014428600001
118,qDII-DR5-CLV3-LD_E33_171106_sam07_t10,E33,7,10,-36.664017674200004,10.357685257,-14.332555398,0.00820207603901,4.91309018854e-05
119,qDII-DR5-CLV3-LD_E33_171106_sam07_t10,E33,7,10,-10.7259340143,-58.6029722762,-23.9124433226,0.030097209281200004,0.0009416435988589999
120,qDII-DR5-CLV3-LD_E33_171106_sam07_t10,E33,7,10,-8.58529665607,-64.2177812695,-35.091678389,0.025449012675,0.0006909970009489999
121,qDII-DR5-CLV3-LD_E33_171106_sam07_t10,E33,7,10,-8.61782238359,-63.9395977279,-42.1244081573,0.0218075211639,0.0005254326547709999
122,qDII-DR5-CLV3-LD_E33_171106_sam07_t10,E33,7,10,-40.3094024097,23.6377294712,-20.0345452083,0.010942096950399998,8.00457155478e-05
123,qDII-DR5-CLV3-LD_E33_171106_sam07_t10,E33,7,10,-37.8212070223,16.688219936,-17.229629178499998,0.00925215814507,6.05273384152e-05
124,qDII-DR5-CLV3-LD_E33_171106_sam07_t10,E33,7,10,-27.5931715231,-10.007894520599999,-7.088315863869999,0.0128212484484,0.00014051293462
125,qDII-DR5-CLV3-LD_E33_171106_sam07_t10,E33,7,10,-17.933584223,-36.5267237135,-13.389494835299999,0.0134623535573,0.000110243639355
126,qDII-DR5-CLV3-LD_E33_171106_sam07_t10,E33,7,10,-29.9854246614,-2.16634146529,-7.45711337368,0.012520552786100002,0.000127123687803
127,qDII-DR5-CLV3-LD_E33_171106_sam07_t10,E33,7,10,-21.622517555500004,-25.2384035449,-8.69036644392,0.0141052947253,0.000178587688849
128,qDII-DR5-CLV3-LD_E33_171106_sam07_t10,E33,7,10,-33.6072514062,8.578907118310001,-12.224937710499999,0.0110804849819,0.00010257070594
129,qDII-DR5-CLV3-LD_E33_171106_sam07_t10,E33,7,10,-31.9665757412,3.96439795945,-9.176096359279999,0.012489017978999999,0.000123419566361
130,qDII-DR5-CLV3-LD_E33_171106_sam07_t10,E33,7,10,-15.4852096901,-40.8023458473,-15.0351091632,0.0152192852749,0.000148659032758
131,qDII-DR5-CLV3-LD_E33_171106_sam07_t10,E33,7,10,-13.607253483900001,-45.944871648900005,-16.749287061300002,0.0182844450764,0.00027598980397099994
132,qDII-DR5-CLV3-LD_E33_171106_sam07_t10,E33,7,10,-40.3148549167,28.6239624131,-23.088549189899997,0.013997235976200001,0.000173691873824
133,qDII-DR5-CLV3-LD_E33_171106_sam07_t10,E33,7,10,-23.196256643,-19.105179104,-6.889193425419999,0.0141053605092,0.000186418398345
134,qDII-DR5-CLV3-LD_E33_171106_sam07_t10,E33,7,10,-7.104069592999999,-62.969310765900005,-29.125926065199998,0.0310972812242,0.0009787666730860002
135,qDII-DR5-CLV3-LD_E33_171106_sam07_t10,E33,7,10,-18.1346962994,-30.5803857316,-9.286910827949999,0.0139381250418,0.000146562203832
136,qDII-DR5-CLV3-LD_E33_171106_sam07_t10,E33,7,10,-9.67031425845,-51.8831738558,-18.5905902505,0.0265368009322,0.0007195842926910001
137,qDII-DR5-CLV3-LD_E33_171106_sam07_t10,E33,7,10,-36.6985231814,23.3803934881,-17.7954870602,0.013347392645000001,0.000141219073571
138,qDII-DR5-CLV3-LD_E33_171106_sam07_t10,E33,7,10,-5.597484421799999,-61.1496600944,-24.2829698858,0.033812054968699996,0.0011295868364100002
139,qDII-DR5-CLV3-LD_E33_171106_sam07_t10,E33,7,10,-33.4407298421,16.686170801,-12.6319698311,0.014017712942600001,0.00016052399334200003
140,qDII-DR5-CLV3-LD_E33_171106_sam07_t10,E33,7,10,-13.3248792434,-38.2825081469,-12.494935483199999,0.014712906674899998,0.00011964793248799998
141,qDII-DR5-CLV3-LD_E33_171106_sam07_t10,E33,7,10,-9.95106321768,-47.4834178816,-16.9870016534,0.0211751283569,0.00040314742239499997
142,qDII-DR5-CLV3-LD_E33_171106_sam07_t10,E33,7,10,-34.520039922399995,20.9418649723,-14.552328357999999,0.014444346059000001,0.000167523030836
143,qDII-DR5-CLV3-LD_E33_171106_sam07_t10,E33,7,10,-21.983035731300003,-13.9445326174,-5.250113238430001,0.013830962419200002,0.00017619099592800001
144,qDII-DR5-CLV3-LD_E33_171106_sam07_t10,E33,7,10,-39.6611144673,36.2185062525,-31.793396994200002,0.022458734800900004,0.000467734230859
145,qDII-DR5-CLV3-LD_E33_171106_sam07_t10,E33,7,10,-14.712096508499998,-33.3042139681,-9.631947650589998,0.0138575373707,0.00012345352304200002
146,qDII-DR5-CLV3-LD_E33_171106_sam07_t10,E33,7,10,-36.4504747859,28.214964733000002,-18.5169036325,0.0167360955755,0.000235056676147
147,qDII-DR5-CLV3-LD_E33_171106_sam07_t10,E33,7,10,-29.5925652465,9.00646136445,-8.75386562751,0.013384718971200001,0.00015585546136200003
148,qDII-DR5-CLV3-LD_E33_171106_sam07_t10,E33,7,10,-17.5824732876,-24.2396691307,-6.34209050535,0.014060109615400001,0.000170673733699
149,qDII-DR5-CLV3-LD_E33_171106_sam07_t10,E33,7,10,-2.29060979967,-64.9749283006,-40.027115730700004,0.026854410723900005,0.0007153864294400001
150,qDII-DR5-CLV3-LD_E33_171106_sam07_t10,E33,7,10,-23.410116353299998,-5.776904320369999,-3.25841398893,0.013185104646299997,0.000157111062853
151,qDII-DR5-CLV3-LD_E33_171106_sam07_t10,E33,7,10,-25.362304264099997,0.242610059201,-3.8120510498400004,0.012745767354299999,0.000145943858759
152,qDII-DR5-CLV3-LD_E33_171106_sam07_t10,E33,7,10,-9.13804417645,-43.690066837399996,-14.291793332200001,0.0173824913138,0.00019591058366199998
153,qDII-DR5-CLV3-LD_E33_171106_sam07_t10,E33,7,10,-4.16337334018,-54.8315983295,-20.1855485088,0.030911506709400002,0.000935480729958
154,qDII-DR5-CLV3-LD_E33_171106_sam07_t10,E33,7,10,-17.5626526916,-17.6513625873,-3.36040708244,0.013756634257100001,0.000168627886908
155,qDII-DR5-CLV3-LD_E33_171106_sam07_t10,E33,7,10,-36.059330483400004,35.2508983306,-24.9151778175,0.0214890365331,0.00040011783826
156,qDII-DR5-CLV3-LD_E33_171106_sam07_t10,E33,7,10,-13.5985079119,-27.3223123549,-5.55864450364,0.0139226519664,0.00015233782561000002
157,qDII-DR5-CLV3-LD_E33_171106_sam07_t10,E33,7,10,-32.4955150818,25.758993270799998,-15.319561780999999,0.016739286348000003,0.000229491639732
158,qDII-DR5-CLV3-LD_E33_171106_sam07_t10,E33,7,10,-1.9268787378799999,-58.5234703692,-21.7701815062,0.0337044698376,0.00107253826322
159,qDII-DR5-CLV3-LD_E33_171106_sam07_t10,E33,7,10,-0.771451830701,-61.58107075310001,-26.7974531872,0.0341323414451,0.0010995634869000002
160,qDII-DR5-CLV3-LD_E33_171106_sam07_t10,E33,7,10,-19.056712393599998,-10.4870028556,-2.63948042819,0.013525976102200002,0.00016528216050700002
161,qDII-DR5-CLV3-LD_E33_171106_sam07_t10,E33,7,10,-28.4155601283,16.1585900394,-9.277173728960001,0.0142204886645,0.00016436428863400002
162,qDII-DR5-CLV3-LD_E33_171106_sam07_t10,E33,7,10,-8.76509036271,-38.074677117600004,-11.4117454599,0.0153662054048,0.000115508825393
163,qDII-DR5-CLV3-LD_E33_171106_sam07_t10,E33,7,10,-24.996560572199996,7.22281020546,-5.50828731584,0.012794409053799999,0.000146577951948
164,qDII-DR5-CLV3-LD_E33_171106_sam07_t10,E33,7,10,-4.56005998085,-48.9560487411,-16.084860061300002,0.0228097817975,0.000464985574441
165,qDII-DR5-CLV3-LD_E33_171106_sam07_t10,E33,7,10,-9.657921123,-34.4584664917,-8.691047398250001,0.0147281851421,0.00012765932114799998
166,qDII-DR5-CLV3-LD_E33_171106_sam07_t10,E33,7,10,-33.0949439062,32.4131181754,-19.376294806300002,0.0200417996575,0.00034362790927099996
167,qDII-DR5-CLV3-LD_E33_171106_sam07_t10,E33,7,10,-29.7846294071,23.0728748125,-12.1132661791,0.0155553411068,0.00019353644108799999
168,qDII-DR5-CLV3-LD_E33_171106_sam07_t10,E33,7,10,-24.8191388203,12.2519648151,-6.20937677804,0.013481531496299999,0.000158938348486
169,qDII-DR5-CLV3-LD_E33_171106_sam07_t10,E33,7,10,-4.04220531656,-44.927677680600006,-14.536566114700001,0.018150393996200002,0.00021922022374400003
170,qDII-DR5-CLV3-LD_E33_171106_sam07_t10,E33,7,10,-14.3501752163,-16.1700182143,-2.12218241808,0.013854132141799999,0.000170333760453
171,qDII-DR5-CLV3-LD_E33_171106_sam07_t10,E33,7,10,-5.10525253302,-40.8110752801,-12.9405597574,0.016005245853299998,0.000128290731895
172,qDII-DR5-CLV3-LD_E33_171106_sam07_t10,E33,7,10,-1.11210208176,-51.1086968096,-17.5526930284,0.0256117502158,0.000593173909766
173,qDII-DR5-CLV3-LD_E33_171106_sam07_t10,E33,7,10,-29.1870528549,27.6169344472,-15.2244603712,0.017101240876799997,0.000244884725127
174,qDII-DR5-CLV3-LD_E33_171106_sam07_t10,E33,7,10,-9.500494803330001,-27.061474747800002,-4.458918490219999,0.013575093857200002,0.000143951237639
175,qDII-DR5-CLV3-LD_E33_171106_sam07_t10,E33,7,10,-32.1623444461,40.427180486,-26.871351345700003,0.0230451929097,0.000410120578523
176,qDII-DR5-CLV3-LD_E33_171106_sam07_t10,E33,7,10,-14.7450617396,-7.18849282713,-0.0784555885209,0.0140386658232,0.000185254821902
177,qDII-DR5-CLV3-LD_E33_171106_sam07_t10,E33,7,10,-30.682874998000003,38.0542284741,-22.4278791785,0.022237504002099995,0.00040771405623500005
178,qDII-DR5-CLV3-LD_E33_171106_sam07_t10,E33,7,10,-0.9130122876540001,-43.7950633852,-14.5062371552,0.017035778419700002,0.00018490682976700002
179,qDII-DR5-CLV3-LD_E33_171106_sam07_t10,E33,7,10,4.6593674345,-58.8332322035,-27.8468465425,0.032755382389000005,0.000914642004162
180,qDII-DR5-CLV3-LD_E33_171106_sam07_t10,E33,7,10,-10.306483385,-16.36913573,-1.0650061848799999,0.0149609599235,0.00020945139681200002
181,qDII-DR5-CLV3-LD_E33_171106_sam07_t10,E33,7,10,-3.17675494668,-35.8550970682,-8.98542815129,0.014662460721799999,0.00011396896515200002
182,qDII-DR5-CLV3-LD_E33_171106_sam07_t10,E33,7,10,-40.164870536,67.5404254096,-31.144756767199997,0.034128794111099994,0.000739796716708
183,qDII-DR5-CLV3-LD_E33_171106_sam07_t10,E33,7,10,-28.2182801038,34.1549612863,-16.9778868476,0.0193991329887,0.000330238710754
184,qDII-DR5-CLV3-LD_E33_171106_sam07_t10,E33,7,10,1.9102060075599998,-47.2745702445,-16.0851834728,0.0208834573705,0.00035063793847800006
185,qDII-DR5-CLV3-LD_E33_171106_sam07_t10,E33,7,10,3.8298256882599997,-52.500454365699994,-18.9850344057,0.0271209666568,0.0005987968006909999
186,qDII-DR5-CLV3-LD_E33_171106_sam07_t10,E33,7,10,-24.848196646599998,27.182796915,-13.0203697635,0.0152764724253,0.000188855408135
187,qDII-DR5-CLV3-LD_E33_171106_sam07_t10,E33,7,10,-21.0851591172,16.563828318800002,-4.71395787238,0.0144656308422,0.00017660615942
188,qDII-DR5-CLV3-LD_E33_171106_sam07_t10,E33,7,10,-36.5865122091,60.666916157399996,-29.5363630826,0.030455771161700004,0.000411506575161
189,qDII-DR5-CLV3-LD_E33_171106_sam07_t10,E33,7,10,-15.637939828499999,3.83752132609,-0.18058105721599998,0.0137442227206,0.000172785094243
190,qDII-DR5-CLV3-LD_E33_171106_sam07_t10,E33,7,10,-17.1247044036,8.60617719794,-2.0418538137,0.0134113761571,0.000163511680352
191,qDII-DR5-CLV3-LD_E33_171106_sam07_t10,E33,7,10,-22.4741388233,24.8150567927,-9.77531550133,0.0140914737084,0.000151260148939
192,qDII-DR5-CLV3-LD_E33_171106_sam07_t10,E33,7,10,-6.085279970499999,-19.4643488803,-1.4653376580000002,0.0152895771514,0.00022308374794700002
193,qDII-DR5-CLV3-LD_E33_171106_sam07_t10,E33,7,10,1.6058565550900001,-39.824571922800004,-11.836518574600001,0.013899388560699999,8.95864191417e-05
194,qDII-DR5-CLV3-LD_E33_171106_sam07_t10,E33,7,10,-34.9658368025,65.3146009434,-27.956368666,0.0332558243855,0.0006664144713590001
195,qDII-DR5-CLV3-LD_E33_171106_sam07_t10,E33,7,10,8.38064683218,-54.5492354255,-24.0004086774,0.028065557223499998,0.000566518124415
196,qDII-DR5-CLV3-LD_E33_171106_sam07_t10,E33,7,10,-19.0895974458,21.4921816625,-6.64653722003,0.0144815953626,0.00016472770941899998
197,qDII-DR5-CLV3-LD_E33_171106_sam07_t10,E33,7,10,6.37405263914,-47.9587827353,-17.4381119695,0.0223837951138,0.00037814447591300005
198,qDII-DR5-CLV3-LD_E33_171106_sam07_t10,E33,7,10,-26.7224724391,44.4007376912,-28.980663955100002,-0.0034113580515900003,-0.0011486524070499998
199,qDII-DR5-CLV3-LD_E33_171106_sam07_t10,E33,7,10,-25.6595102277,41.3150287243,-23.4181867633,0.0156601035539,8.36089981191e-05
200,qDII-DR5-CLV3-LD_E33_171106_sam07_t10,E33,7,10,0.939321143098,-32.6273754332,-6.42629887159,0.014175048606100001,0.000132595477194
201,qDII-DR5-CLV3-LD_E33_171106_sam07_t10,E33,7,10,-37.3943057343,75.147636187,-30.487554464200002,0.034862133818099994,0.0010725831862
202,qDII-DR5-CLV3-LD_E33_171106_sam07_t10,E33,7,10,8.29907749822,-50.76109627100001,-20.1067824511,0.0250392732314,0.00042835402962
203,qDII-DR5-CLV3-LD_E33_171106_sam07_t10,E33,7,10,-21.7914777073,32.8138223037,-13.735575606400001,0.0151710724913,0.00019482488638900003
204,qDII-DR5-CLV3-LD_E33_171106_sam07_t10,E33,7,10,-23.12428869,37.2211781718,-17.9885215426,0.018846691345500002,0.000310493652533
205,qDII-DR5-CLV3-LD_E33_171106_sam07_t10,E33,7,10,-8.9014253036,-2.0145986758900003,2.62348751157,0.0165350312365,0.00026822353532
206,qDII-DR5-CLV3-LD_E33_171106_sam07_t10,E33,7,10,-35.199517109,72.0545691836,-27.3072726524,0.0384864367439,0.0011778493576900001
207,qDII-DR5-CLV3-LD_E33_171106_sam07_t10,E33,7,10,11.0263960468,-55.6480933671,-27.7010890631,0.0254138045652,0.00041917879184900003
208,qDII-DR5-CLV3-LD_E33_171106_sam07_t10,E33,7,10,-15.5927659504,17.8913648481,-4.72375908366,0.0159395587682,0.00021660008995099997
209,qDII-DR5-CLV3-LD_E33_171106_sam07_t10,E33,7,10,1.24164831331,-26.8174023486,-3.5259238891900004,0.0134165659948,0.00014042881528799998
210,qDII-DR5-CLV3-LD_E33_171106_sam07_t10,E33,7,10,-17.841923181600002,27.934280255999997,-10.769414206099999,0.013185237254600001,0.00013219147649700001
211,qDII-DR5-CLV3-LD_E33_171106_sam07_t10,E33,7,10,-8.6533769081,2.81997256908,1.9020709392500001,0.0164547177098,0.000259845636183
212,qDII-DR5-CLV3-LD_E33_171106_sam07_t10,E33,7,10,-11.8641440971,12.3698542389,-0.636697098878,0.015939991781299997,0.000234359060121
213,qDII-DR5-CLV3-LD_E33_171106_sam07_t10,E33,7,10,-4.12061391926,-9.09004932923,1.82935870618,0.018529942814599996,0.000341850476774
214,qDII-DR5-CLV3-LD_E33_171106_sam07_t10,E33,7,10,-0.011568289075200001,-20.3480177561,-1.7006326406299999,0.014308623404899998,0.00019098773998700003
215,qDII-DR5-CLV3-LD_E33_171106_sam07_t10,E33,7,10,-15.389986090199999,23.4916996258,-6.54764469031,0.0142225089324,0.00016212810622
216,qDII-DR5-CLV3-LD_E33_171106_sam07_t10,E33,7,10,4.56830585511,-30.4332741052,-6.3070792317499995,0.0144975462836,0.000146163332125
217,qDII-DR5-CLV3-LD_E33_171106_sam07_t10,E33,7,10,-28.4901183071,62.0098464982,-24.9026880958,0.030199315502999997,0.000606421334896
218,qDII-DR5-CLV3-LD_E33_171106_sam07_t10,E33,7,10,-20.6796090492,41.553211495300005,-21.1658596955,0.014742892034200001,0.00012667812630600002
219,qDII-DR5-CLV3-LD_E33_171106_sam07_t10,E33,7,10,7.48210372362,-35.9597547467,-9.26032925516,0.0133973525196,9.75577055682e-05
220,qDII-DR5-CLV3-LD_E33_171106_sam07_t10,E33,7,10,9.6643195512,-40.6270286259,-14.4667538074,0.0144206714639,0.00010438546407600001
221,qDII-DR5-CLV3-LD_E33_171106_sam07_t10,E33,7,10,-18.4558572548,38.3489194468,-16.820231959,0.0171745003379,0.000260109961191
222,qDII-DR5-CLV3-LD_E33_171106_sam07_t10,E33,7,10,-20.6723187484,46.0518644461,-30.150124411100002,-0.027123747265499997,-0.00252431291227
223,qDII-DR5-CLV3-LD_E33_171106_sam07_t10,E33,7,10,-19.866505003,44.315669106,-25.6291349233,-0.0017199021844999998,-0.000729160301548
224,qDII-DR5-CLV3-LD_E33_171106_sam07_t10,E33,7,10,2.2030834348700004,-17.3682249329,0.8820908196160001,0.0152816399188,0.000219691586734
225,qDII-DR5-CLV3-LD_E33_171106_sam07_t10,E33,7,10,-31.440179297800004,76.9376128553,-26.9346498912,0.035863854127300004,0.0011310752863800003
226,qDII-DR5-CLV3-LD_E33_171106_sam07_t10,E33,7,10,-11.663211683,22.2740167452,-3.2264446180400004,0.0160507784828,0.00022116172999400003
227,qDII-DR5-CLV3-LD_E33_171106_sam07_t10,E33,7,10,15.7002326604,-52.096781506599996,-26.3016190282,0.0178534122847,5.51083007886e-05
228,qDII-DR5-CLV3-LD_E33_171106_sam07_t10,E33,7,10,16.4029365373,-53.8756566571,-32.3722739731,0.013050352498000002,-0.00011591528698399999
229,qDII-DR5-CLV3-LD_E33_171106_sam07_t10,E33,7,10,-14.1586171923,30.5883367068,-10.607644786,0.0126071307859,0.000127278315421
230,qDII-DR5-CLV3-LD_E33_171106_sam07_t10,E33,7,10,-12.700858288800001,26.4463525969,-6.3324761797399995,0.013382191766,0.000147564830428
231,qDII-DR5-CLV3-LD_E33_171106_sam07_t10,E33,7,10,6.5421144793599995,-26.7585061427,-4.8287203658,0.0150296171597,0.000166529087864
232,qDII-DR5-CLV3-LD_E33_171106_sam07_t10,E33,7,10,-1.48040221669,-4.17178089546,2.23315788779,0.017582493182700002,0.00030615457687499997
233,qDII-DR5-CLV3-LD_E33_171106_sam07_t10,E33,7,10,5.95350083786,-22.151596877600003,-2.0210271837000002,0.014905049500500001,0.00017812115422799997
234,qDII-DR5-CLV3-LD_E33_171106_sam07_t10,E33,7,10,1.75387563438,-8.846654668560001,2.88326786895,0.017028124935,0.000284231910293
235,qDII-DR5-CLV3-LD_E33_171106_sam07_t10,E33,7,10,15.852253801700002,-47.123360348199995,-22.300670571399998,0.0141229948284,-0.00011175092782
236,qDII-DR5-CLV3-LD_E33_171106_sam07_t10,E33,7,10,12.902155134600001,-38.5745040849,-14.3513252874,0.014222249697,9.62304105903e-05
237,qDII-DR5-CLV3-LD_E33_171106_sam07_t10,E33,7,10,-24.897391891199998,66.7108767312,-23.3666149699,0.0330051670059,0.0008946142463230001
238,qDII-DR5-CLV3-LD_E33_171106_sam07_t10,E33,7,10,-1.9676259281400001,3.23529575842,4.12890826656,0.017392083699700002,0.00028848989369700004
239,qDII-DR5-CLV3-LD_E33_171106_sam07_t10,E33,7,10,-29.133147883099998,80.97640769510001,-27.7831917547,0.0317579282413,0.0009682416130930001
240,qDII-DR5-CLV3-LD_E33_171106_sam07_t10,E33,7,10,15.683752457899999,-42.4860993414,-18.3238403447,0.013943876676799999,-7.58196951889e-06
241,qDII-DR5-CLV3-LD_E33_171106_sam07_t10,E33,7,10,-18.9448482334,55.923287206400005,-29.250892346599997,-0.0226900525793,-0.0026944933181300003
242,qDII-DR5-CLV3-LD_E33_171106_sam07_t10,E33,7,10,-25.3719152973,74.1458201107,-23.8218835506,0.0380764433327,0.0012267632964
243,qDII-DR5-CLV3-LD_E33_171106_sam07_t10,E33,7,10,-8.792972063639999,28.544525679299998,-8.58270704954,0.0127748521753,0.000138657702954
244,qDII-DR5-CLV3-LD_E33_171106_sam07_t10,E33,7,10,1.82441244676,-1.1159877891399999,3.61935900295,0.017848308525499998,0.00031528653644900004
245,qDII-DR5-CLV3-LD_E33_171106_sam07_t10,E33,7,10,-10.2380731643,33.2298232316,-11.629652840799999,0.012897247337499999,0.00013971385361300002
246,qDII-DR5-CLV3-LD_E33_171106_sam07_t10,E33,7,10,19.687798271,-48.9674731333,-29.632096262199997,0.00890602415316,-0.00033976350466900004
247,qDII-DR5-CLV3-LD_E33_171106_sam07_t10,E33,7,10,-14.207500440899999,45.8252190739,-26.8023864993,-0.0166326322597,-0.00113611445514
248,qDII-DR5-CLV3-LD_E33_171106_sam07_t10,E33,7,10,6.88597279033,-12.5911944167,1.2216416004200001,0.0167417870926,0.000248041752848
249,qDII-DR5-CLV3-LD_E33_171106_sam07_t10,E33,7,10,18.5830450776,-44.2520656966,-23.271175095700002,0.00810329517163,-0.00039783099561400005
250,qDII-DR5-CLV3-LD_E33_171106_sam07_t10,E33,7,10,10.5803113012,-21.4559439998,-3.2463063397400003,0.0164085187427,0.000207319579309
251,qDII-DR5-CLV3-LD_E33_171106_sam07_t10,E33,7,10,-6.03681785352,25.092643688200003,-4.27394241333,0.015464123739400001,0.00021199901924500003
252,qDII-DR5-CLV3-LD_E33_171106_sam07_t10,E33,7,10,-4.65329065451,21.8276481562,-2.26658876603,0.0173011176875,0.00026306495539400005
253,qDII-DR5-CLV3-LD_E33_171106_sam07_t10,E33,7,10,1.9312075551900003,4.10775018522,2.93859665088,0.018428129805999997,0.000323487183933
254,qDII-DR5-CLV3-LD_E33_171106_sam07_t10,E33,7,10,-13.2078745721,47.4327464224,-30.203846913099998,-0.0323892221539,-0.0015834154750399999
255,qDII-DR5-CLV3-LD_E33_171106_sam07_t10,E33,7,10,22.4168744345,-50.233047713999994,-35.7041227176,0.0011913934828699999,-0.0007648930298619999
256,qDII-DR5-CLV3-LD_E33_171106_sam07_t10,E33,7,10,-19.680252674000002,66.9364895762,-22.298065376900002,0.031778156028,0.0009077984367070001
257,qDII-DR5-CLV3-LD_E33_171106_sam07_t10,E33,7,10,18.3529273296,-37.6790559528,-16.7546952384,0.0104908884292,-4.3134052928e-05
258,qDII-DR5-CLV3-LD_E33_171106_sam07_t10,E33,7,10,14.2601020606,-26.044732579899996,-6.12909723294,0.0148748786236,0.00017448401758400004
259,qDII-DR5-CLV3-LD_E33_171106_sam07_t10,E33,7,10,0.7830284463339999,12.179450236600001,2.56084539074,0.0188337092937,0.00031541328830000004
260,qDII-DR5-CLV3-LD_E33_171106_sam07_t10,E33,7,10,-4.90683888565,29.3891133804,-7.4219997057399985,0.0133818181983,0.000156167594859
261,qDII-DR5-CLV3-LD_E33_171106_sam07_t10,E33,7,10,-13.640734503800001,54.7843314824,-31.844788528600002,-0.0404680299891,-0.0005600447063230001
262,qDII-DR5-CLV3-LD_E33_171106_sam07_t10,E33,7,10,21.426083968900002,-41.1432660125,-21.868437990300002,0.00524796876958,-0.00044649297827999997
263,qDII-DR5-CLV3-LD_E33_171106_sam07_t10,E33,7,10,22.581510876,-44.2008663964,-26.8957096713,0.0022033199587800003,-0.0007933426298110001
264,qDII-DR5-CLV3-LD_E33_171106_sam07_t10,E33,7,10,-22.6719346366,81.4321675361,-26.723595911999997,0.04043328147630001,0.0014474298301100001
265,qDII-DR5-CLV3-LD_E33_171106_sam07_t10,E33,7,10,6.223037613180001,0.817953670294,2.51793806763,0.019623909813500002,0.000377275195747
266,qDII-DR5-CLV3-LD_E33_171106_sam07_t10,E33,7,10,-20.3412979025,75.5263632178,-23.815148771700002,0.035560209047199996,0.00116323397331
267,qDII-DR5-CLV3-LD_E33_171106_sam07_t10,E33,7,10,17.4871697898,-29.3547959267,-10.0552713901,0.011277504958299999,9.94470440582e-05
268,qDII-DR5-CLV3-LD_E33_171106_sam07_t10,E33,7,10,-14.2583538169,60.017912509300004,-26.6231994967,0.00465088788379,-0.000299556720996
269,qDII-DR5-CLV3-LD_E33_171106_sam07_t10,E33,7,10,9.06981389912,-5.19634881967,1.87315722349,0.019140730102099997,0.00034665438096900006
270,qDII-DR5-CLV3-LD_E33_171106_sam07_t10,E33,7,10,13.8235520629,-16.9798488733,-2.8996973685799996,0.015692647804799998,0.00019821460457499998
271,qDII-DR5-CLV3-LD_E33_171106_sam07_t10,E33,7,10,-5.76702123694,38.075157125,-14.808362504100002,0.012636504099700002,0.000127785947163
272,qDII-DR5-CLV3-LD_E33_171106_sam07_t10,E33,7,10,22.0435284458,-37.4207033618,-19.1751252291,0.005338973774999999,-0.000263170606909
273,qDII-DR5-CLV3-LD_E33_171106_sam07_t10,E33,7,10,-8.90883921835,49.6724962917,-32.4502866629,-0.044260939320400004,0.0006071235628860001
274,qDII-DR5-CLV3-LD_E33_171106_sam07_t10,E33,7,10,20.5729842319,-32.275692544,-13.940791326900001,0.00830670156432,-1.01668979587e-05
275,qDII-DR5-CLV3-LD_E33_171106_sam07_t10,E33,7,10,-7.791555729700001,47.046742447700005,-26.845259691,-0.0144201098088,-0.000382966079056
276,qDII-DR5-CLV3-LD_E33_171106_sam07_t10,E33,7,10,-16.5366017248,71.7183931127,-23.0964752203,0.032749250310000005,0.00103754377103
277,qDII-DR5-CLV3-LD_E33_171106_sam07_t10,E33,7,10,16.547180545499998,-20.1535473227,-5.623662500700001,0.0142958164757,0.00016917083128300002
278,qDII-DR5-CLV3-LD_E33_171106_sam07_t10,E33,7,10,13.609782183800002,-11.576824333800001,-0.025336176200900003,0.016324428827799997,0.000224941902147
279,qDII-DR5-CLV3-LD_E33_171106_sam07_t10,E33,7,10,-21.0512167274,85.5644056054,-28.722843269899997,0.0426763888124,0.00158964865162
280,qDII-DR5-CLV3-LD_E33_171106_sam07_t10,E33,7,10,-4.9666174960000005,40.80974801,-16.9206187725,0.011844303038000001,0.00010952931481899999
281,qDII-DR5-CLV3-LD_E33_171106_sam07_t10,E33,7,10,-5.975258430169999,44.3554120998,-22.440546184000002,0.0052391339144300005,-4.7268628877e-06
282,qDII-DR5-CLV3-LD_E33_171106_sam07_t10,E33,7,10,-2.07101011625,33.8627234909,-10.5955467387,0.0127071704707,0.00012520614263299997
283,qDII-DR5-CLV3-LD_E33_171106_sam07_t10,E33,7,10,4.250849444040001,16.0996619947,0.495454072042,0.0182627669468,0.000305860069963
284,qDII-DR5-CLV3-LD_E33_171106_sam07_t10,E33,7,10,0.7413128171629999,26.566968894099997,-5.47837040974,0.0152672688264,0.000198335367664
285,qDII-DR5-CLV3-LD_E33_171106_sam07_t10,E33,7,10,6.09979997867,11.583807955,1.1951720237799999,0.0188285153576,0.000331261164264
286,qDII-DR5-CLV3-LD_E33_171106_sam07_t10,E33,7,10,-12.778931697400001,65.0547640247,-25.0025508598,0.0303963018521,0.000993361299687
287,qDII-DR5-CLV3-LD_E33_171106_sam07_t10,E33,7,10,26.663261120900003,-43.8009370185,-29.312348542,-0.00423427366949,-0.0012749360492
288,qDII-DR5-CLV3-LD_E33_171106_sam07_t10,E33,7,10,25.9080360842,-39.3760411921,-25.3412049952,-0.00490900475647,-0.00107467379884
289,qDII-DR5-CLV3-LD_E33_171106_sam07_t10,E33,7,10,-16.1962161411,78.1274130909,-23.6699153418,0.0361922125423,0.00122501431624
290,qDII-DR5-CLV3-LD_E33_171106_sam07_t10,E33,7,10,0.752165676443,30.898663348400003,-8.59525128173,0.013963313578999999,0.000152062979282
291,qDII-DR5-CLV3-LD_E33_171106_sam07_t10,E33,7,10,25.326675067100002,-36.6493890702,-21.536469449400002,-0.0021710681781399997,-0.00065230513957
292,qDII-DR5-CLV3-LD_E33_171106_sam07_t10,E33,7,10,13.2312010268,-3.2498374341600003,1.95551376301,0.0191590943093,0.000341190645095
293,qDII-DR5-CLV3-LD_E33_171106_sam07_t10,E33,7,10,-8.57574876161,58.477220129799996,-30.441527373699998,-0.0351983288398,0.00172733154614
294,qDII-DR5-CLV3-LD_E33_171106_sam07_t10,E33,7,10,-0.7291512177770001,37.575443089000004,-13.804585361500001,0.0125413084471,0.000100442165603
295,qDII-DR5-CLV3-LD_E33_171106_sam07_t10,E33,7,10,22.3982444421,-25.816053992199997,-9.83957882997,0.00902453225782,5.12079307837e-05
296,qDII-DR5-CLV3-LD_E33_171106_sam07_t10,E33,7,10,29.9410025638,-45.4531933125,-31.904873213600002,-0.0055653409573199995,-0.0014803506318
297,qDII-DR5-CLV3-LD_E33_171106_sam07_t10,E33,7,10,25.228800366799998,-32.2067114281,-17.579966332799998,-0.0006861469203759999,-0.00040214831468699994
298,qDII-DR5-CLV3-LD_E33_171106_sam07_t10,E33,7,10,10.474914483,8.64274151772,1.98240914543,0.018576272992900003,0.000327813588748
299,qDII-DR5-CLV3-LD_E33_171106_sam07_t10,E33,7,10,24.4898806964,-28.4363540893,-13.671699676300001,0.00430520587976,-0.00012443405266600001
300,qDII-DR5-CLV3-LD_E33_171106_sam07_t10,E33,7,10,-10.8123756976,70.6097891304,-24.5212343576,0.036291792115099995,0.0013483881128900001
301,qDII-DR5-CLV3-LD_E33_171106_sam07_t10,E33,7,10,21.1540380791,-17.6055040274,-5.49496506102,0.0127471255188,0.000147191988069
302,qDII-DR5-CLV3-LD_E33_171106_sam07_t10,E33,7,10,-7.79534045297,63.579648149099995,-27.620565271900002,0.021547724952599996,0.0011440208482600002
303,qDII-DR5-CLV3-LD_E33_171106_sam07_t10,E33,7,10,-3.1375445383,50.9041045754,-34.8295383839,-0.041155113313500004,0.0014073579410699998
304,qDII-DR5-CLV3-LD_E33_171106_sam07_t10,E33,7,10,-2.11985086228,48.5841591412,-30.3695302264,-0.015072816589299999,6.98451651487e-05
305,qDII-DR5-CLV3-LD_E33_171106_sam07_t10,E33,7,10,4.91540025018,28.5413470052,-7.7470328297,0.014565025763700001,0.000161798046037
306,qDII-DR5-CLV3-LD_E33_171106_sam07_t10,E33,7,10,33.1137065132,-48.707765065299995,-32.2943553764,-0.00446262526844,-0.0014994076046
307,qDII-DR5-CLV3-LD_E33_171106_sam07_t10,E33,7,10,0.442491224534,41.7885544616,-18.1383156887,0.010942614142,4.41085059004e-05
308,qDII-DR5-CLV3-LD_E33_171106_sam07_t10,E33,7,10,20.427818714,-13.8072799629,-3.9377173640400005,0.0131199125031,0.000151189234321
309,qDII-DR5-CLV3-LD_E33_171106_sam07_t10,E33,7,10,-14.399834095,83.6673832543,-27.8925323186,0.041091220766,0.00146974328595
310,qDII-DR5-CLV3-LD_E33_171106_sam07_t10,E33,7,10,28.7854433229,-33.9548959677,-22.541941514,-0.0115174242386,-0.00119064741658
311,qDII-DR5-CLV3-LD_E33_171106_sam07_t10,E33,7,10,24.127562403200002,-20.2484589605,-8.17448485295,0.0120399194751,0.000136267787505
312,qDII-DR5-CLV3-LD_E33_171106_sam07_t10,E33,7,10,-11.261540995599999,78.6159126779,-26.0992990828,0.0360159052082,0.0012196202259100002
313,qDII-DR5-CLV3-LD_E33_171106_sam07_t10,E33,7,10,0.777514132375,45.2585571376,-22.522178036,0.00721597079466,-3.04102570594e-05
314,qDII-DR5-CLV3-LD_E33_171106_sam07_t10,E33,7,10,4.46627745474,36.032023836,-12.9043393294,0.0134030489551,8.87522780722e-05
315,qDII-DR5-CLV3-LD_E33_171106_sam07_t10,E33,7,10,15.6359748081,4.7869767243800005,1.4861288015799998,0.0179896005628,0.000296595374242
316,qDII-DR5-CLV3-LD_E33_171106_sam07_t10,E33,7,10,34.064331278000004,-44.10572882060001,-28.3487015701,-0.00634806893087,-0.0016227632138699998
317,qDII-DR5-CLV3-LD_E33_171106_sam07_t10,E33,7,10,21.2426378726,-6.90795312006,-3.29947066074,0.014454151108799999,0.000184578508274
318,qDII-DR5-CLV3-LD_E33_171106_sam07_t10,E33,7,10,28.1405759531,-24.473220663299998,-13.384176475599999,0.00250996388198,-0.000210036948925
319,qDII-DR5-CLV3-LD_E33_171106_sam07_t10,E33,7,10,29.8320528394,-28.976262919699998,-19.7394109622,-0.013773095986600002,-0.00119546751422
320,qDII-DR5-CLV3-LD_E33_171106_sam07_t10,E33,7,10,12.7855461325,18.8934879549,-2.9800559538,0.0143252981472,0.00019561924336
321,qDII-DR5-CLV3-LD_E33_171106_sam07_t10,E33,7,10,25.1289033843,-14.5040623798,-6.474423335580001,0.0149527367841,0.000225866464075
322,qDII-DR5-CLV3-LD_E33_171106_sam07_t10,E33,7,10,-3.9617284348000004,67.0702565261,-28.5593693262,0.044762386319300004,0.00240999233499
323,qDII-DR5-CLV3-LD_E33_171106_sam07_t10,E33,7,10,20.4258389343,-1.06275527338,-0.367919257921,0.016868262301,0.00025666088984599997
324,qDII-DR5-CLV3-LD_E33_171106_sam07_t10,E33,7,10,38.6169573655,-49.94289089229999,-29.0189721548,0.00572244456159,-0.000912080831322
325,qDII-DR5-CLV3-LD_E33_171106_sam07_t10,E33,7,10,2.42908033307,51.3546525269,-32.5715246361,-0.013246169262999999,-0.000258964101467
326,qDII-DR5-CLV3-LD_E33_171106_sam07_t10,E33,7,10,30.253922751999998,-25.324488662399997,-17.047993761,-0.008959098109530002,-0.000821380171837
327,qDII-DR5-CLV3-LD_E33_171106_sam07_t10,E33,7,10,35.659648576500004,-40.029224202600005,-25.645911009099997,-0.008688660179169999,-0.0016580042692999999
328,qDII-DR5-CLV3-LD_E33_171106_sam07_t10,E33,7,10,18.6040041227,7.645701449880001,-0.6681531974880001,0.0170422969856,0.000255849614781
329,qDII-DR5-CLV3-LD_E33_171106_sam07_t10,E33,7,10,7.60091816455,39.0727620001,-16.2220716932,0.0115468812378,-1.0252791707000002e-05
330,qDII-DR5-CLV3-LD_E33_171106_sam07_t10,E33,7,10,-8.10518974108,83.42568294,-29.248727885700003,0.039698497440199994,0.0013677395767899999
331,qDII-DR5-CLV3-LD_E33_171106_sam07_t10,E33,7,10,10.9655539409,30.192473760100004,-8.91649328575,0.0115081979577,8.45822283343e-05
332,qDII-DR5-CLV3-LD_E33_171106_sam07_t10,E33,7,10,16.7478009636,14.0418126328,-2.3649135129900003,0.015185734692700001,0.00021454542123500002
333,qDII-DR5-CLV3-LD_E33_171106_sam07_t10,E33,7,10,25.434878118,-9.891941225130001,-4.86514805854,0.015134352023200001,0.00021872080043699999
334,qDII-DR5-CLV3-LD_E33_171106_sam07_t10,E33,7,10,28.1024277084,-17.1470173129,-9.15394312751,0.015835118534899998,0.000261082129835
335,qDII-DR5-CLV3-LD_E33_171106_sam07_t10,E33,7,10,5.51296715017,46.874120261099996,-23.6623576316,0.00666976877457,-0.00017320557880200001
336,qDII-DR5-CLV3-LD_E33_171106_sam07_t10,E33,7,10,7.041352697200001,42.5375527865,-19.407516135399998,0.009870095462639998,-8.407030299099999e-05
337,qDII-DR5-CLV3-LD_E33_171106_sam07_t10,E33,7,10,14.830023902799999,21.8582258359,-5.10126597248,0.0119164812332,0.000125058470158
338,qDII-DR5-CLV3-LD_E33_171106_sam07_t10,E33,7,10,21.6391023485,3.5824444965,-2.3080808454299997,0.0171611606496,0.000257961555998
339,qDII-DR5-CLV3-LD_E33_171106_sam07_t10,E33,7,10,5.95122743412,48.8404625972,-28.1923008697,0.00292412412923,-0.00022707159169299998
340,qDII-DR5-CLV3-LD_E33_171106_sam07_t10,E33,7,10,13.5641920002,27.2688502693,-8.083439313460001,0.0100891759376,6.07577723406e-05
341,qDII-DR5-CLV3-LD_E33_171106_sam07_t10,E33,7,10,24.7140639313,-3.6701465751199995,-3.0767199102999996,0.0155509647196,0.000216100955162
342,qDII-DR5-CLV3-LD_E33_171106_sam07_t10,E33,7,10,33.5986857775,-26.4889231079,-21.9489876118,-0.021484221272900002,-0.00214210864998
343,qDII-DR5-CLV3-LD_E33_171106_sam07_t10,E33,7,10,34.5295324488,-28.9906401233,-24.5642590029,-0.0198375268076,-0.0023093645209299996
344,qDII-DR5-CLV3-LD_E33_171106_sam07_t10,E33,7,10,36.6320263885,-34.1736025767,-25.111195416399998,-0.0127626741169,-0.0019516041637
345,qDII-DR5-CLV3-LD_E33_171106_sam07_t10,E33,7,10,31.5793912792,-19.9263371433,-13.0356719444,0.0054926203721899994,-0.00014018111934999998
346,qDII-DR5-CLV3-LD_E33_171106_sam07_t10,E33,7,10,11.9054060254,36.3262789276,-15.414507461400001,0.00836688188209,-4.95136472433e-05
347,qDII-DR5-CLV3-LD_E33_171106_sam07_t10,E33,7,10,24.5003365546,1.21743124763,-3.7816004924300004,0.0165112877531,0.000236840426792
348,qDII-DR5-CLV3-LD_E33_171106_sam07_t10,E33,7,10,19.5908823574,16.6351656001,-4.54141818215,0.0129050465896,0.00015372730699399998
349,qDII-DR5-CLV3-LD_E33_171106_sam07_t10,E33,7,10,43.4682630596,-48.7722279495,-25.4977680517,0.0217627016726,0.00016002089630899998
350,qDII-DR5-CLV3-LD_E33_171106_sam07_t10,E33,7,10,10.2629254168,44.7291690983,-22.8084524996,0.007582193535229999,-0.000232290078721
351,qDII-DR5-CLV3-LD_E33_171106_sam07_t10,E33,7,10,28.187379938499998,-5.25161447559,-5.66734902186,0.017412537626,0.000291475134997
352,qDII-DR5-CLV3-LD_E33_171106_sam07_t10,E33,7,10,31.025145985100004,-13.0070823379,-8.8314523864,0.0189973845662,0.000369690858512
353,qDII-DR5-CLV3-LD_E33_171106_sam07_t10,E33,7,10,32.7582438434,-17.078036197,-12.793118133399998,0.008486747019989999,-4.50275656151e-05
354,qDII-DR5-CLV3-LD_E33_171106_sam07_t10,E33,7,10,34.1798719584,-20.2594315522,-17.8388213645,-0.013674172312399998,-0.00126384781816
355,qDII-DR5-CLV3-LD_E33_171106_sam07_t10,E33,7,10,17.8234113256,25.288130729499997,-8.37834411601,0.008273638971010001,1.74742186962e-05
356,qDII-DR5-CLV3-LD_E33_171106_sam07_t10,E33,7,10,8.04281635977,53.6299660275,-34.8472452464,0.0039048345322600002,-0.00024691433018
357,qDII-DR5-CLV3-LD_E33_171106_sam07_t10,E33,7,10,46.586688234300006,-53.00220154189999,-29.5090417692,0.0286757710823,0.0007013517732789999
358,qDII-DR5-CLV3-LD_E33_171106_sam07_t10,E33,7,10,12.6532886065,41.7068904884,-19.6262751278,0.0065977194976400005,-0.00018583238775300002
359,qDII-DR5-CLV3-LD_E33_171106_sam07_t10,E33,7,10,10.0039720073,49.867063736999995,-28.1950438906,0.00683824184627,-0.000280934636777
360,qDII-DR5-CLV3-LD_E33_171106_sam07_t10,E33,7,10,31.3311207188,-8.394961183260001,-7.22217710937,0.020636328239400002,0.00042348154012
361,qDII-DR5-CLV3-LD_E33_171106_sam07_t10,E33,7,10,21.3528535536,20.37823694,-6.5813197603299995,0.0105038612877,8.94433071128e-05
362,qDII-DR5-CLV3-LD_E33_171106_sam07_t10,E33,7,10,36.684367886,-20.9691227644,-21.49884753,-0.0237592772871,-0.0022344511369
363,qDII-DR5-CLV3-LD_E33_171106_sam07_t10,E33,7,10,15.916529626700001,36.920791670199996,-17.810819222,0.0044952343843999995,-0.000177533886222
364,qDII-DR5-CLV3-LD_E33_171106_sam07_t10,E33,7,10,38.147616972899996,-23.7184297223,-24.150982021500003,-0.023959477842,-0.00262124691644
365,qDII-DR5-CLV3-LD_E33_171106_sam07_t10,E33,7,10,24.4078622067,14.9780362858,-5.99598222949,0.0124894845453,0.000137084207845
366,qDII-DR5-CLV3-LD_E33_171106_sam07_t10,E33,7,10,28.2180533939,5.6683865220700005,-5.802546470939999,0.0169505062257,0.000247351857738
367,qDII-DR5-CLV3-LD_E33_171106_sam07_t10,E33,7,10,42.772674647399995,-33.538556170599996,-20.4964760292,0.00851196687303,-0.00107322759328
368,qDII-DR5-CLV3-LD_E33_171106_sam07_t10,E33,7,10,11.6826587572,53.2614049992,-31.4428411737,0.00996494507126,-0.00021328608148500004
369,qDII-DR5-CLV3-LD_E33_171106_sam07_t10,E33,7,10,41.3982001902,-29.0478419829,-23.5637489307,-0.013876519516200002,-0.00237504461356
370,qDII-DR5-CLV3-LD_E33_171106_sam07_t10,E33,7,10,14.324722731900001,46.981488893699996,-23.871114774699997,0.00683042440411,-0.00030826960065900004
371,qDII-DR5-CLV3-LD_E33_171106_sam07_t10,E33,7,10,32.6150107766,-3.9443447780800005,-9.182665807000001,0.020331794334,0.000395308366197
372,qDII-DR5-CLV3-LD_E33_171106_sam07_t10,E33,7,10,34.4223403393,-8.89228721507,-10.876516595,0.0175183116514,0.00028920640552
373,qDII-DR5-CLV3-LD_E33_171106_sam07_t10,E33,7,10,23.8627546595,22.0921163133,-10.0101654746,0.00824460399269,9.585190392389999e-06
374,qDII-DR5-CLV3-LD_E33_171106_sam07_t10,E33,7,10,27.6765509077,12.100061336300001,-7.5285876469,0.013433487072900001,0.000158820283805
375,qDII-DR5-CLV3-LD_E33_171106_sam07_t10,E33,7,10,36.9250361494,-12.707954225999998,-12.4795811426,0.00825948359156,-0.000107718264637
376,qDII-DR5-CLV3-LD_E33_171106_sam07_t10,E33,7,10,17.8034487436,40.929234768200004,-19.8284981301,0.0038460470099600003,-0.000268377020441
377,qDII-DR5-CLV3-LD_E33_171106_sam07_t10,E33,7,10,15.728155532,49.2739064715,-26.040561253499998,0.00776347024412,-0.000318186919208
378,qDII-DR5-CLV3-LD_E33_171106_sam07_t10,E33,7,10,47.899324122399996,-39.1912197875,-18.8100409745,0.0360276339883,0.0010890029754200001
379,qDII-DR5-CLV3-LD_E33_171106_sam07_t10,E33,7,10,22.1586576468,32.4307552211,-14.8644608823,0.00275475099821,-0.000201774215185
380,qDII-DR5-CLV3-LD_E33_171106_sam07_t10,E33,7,10,34.759078359499995,-1.28541530689,-10.1588570111,0.019802592474,0.00036146263356999996
381,qDII-DR5-CLV3-LD_E33_171106_sam07_t10,E33,7,10,54.694067329300005,-55.768273707700004,-32.327907673,0.0383343288009,0.00128283179216
382,qDII-DR5-CLV3-LD_E33_171106_sam07_t10,E33,7,10,15.7009924804,52.4911073154,-29.262868796,0.010979155633399998,-0.00022118964028099999
383,qDII-DR5-CLV3-LD_E33_171106_sam07_t10,E33,7,10,21.2876224362,36.7851045114,-19.1339428087,0.00243694643322,-0.00028045503952900007
384,qDII-DR5-CLV3-LD_E33_171106_sam07_t10,E33,7,10,14.3392183285,57.0096882286,-34.6811606569,0.017360821172900002,1.91969283283e-05
385,qDII-DR5-CLV3-LD_E33_171106_sam07_t10,E33,7,10,40.9761081128,-16.3336690352,-21.1630878692,-0.0207396633598,-0.0017793604899100002
386,qDII-DR5-CLV3-LD_E33_171106_sam07_t10,E33,7,10,32.0100444402,8.72690650187,-9.13491926495,0.0149493758249,0.000194631838907
387,qDII-DR5-CLV3-LD_E33_171106_sam07_t10,E33,7,10,19.934858523699997,43.044850796999995,-22.0329121492,0.00420646509239,-0.00033588359071900006
388,qDII-DR5-CLV3-LD_E33_171106_sam07_t10,E33,7,10,25.675442072,26.9775479892,-14.2956593417,0.00368607614687,-0.00018300131885499998
389,qDII-DR5-CLV3-LD_E33_171106_sam07_t10,E33,7,10,45.9869522401,-28.9512359988,-21.3152129828,0.00230852630618,-0.0013183677969600001
390,qDII-DR5-CLV3-LD_E33_171106_sam07_t10,E33,7,10,29.4475748458,17.0688513317,-10.628408479199999,0.0100200594181,5.46921770635e-05
391,qDII-DR5-CLV3-LD_E33_171106_sam07_t10,E33,7,10,37.7398553081,-5.808627383130001,-11.8413344393,0.015571441343600001,0.00019406335330200003
392,qDII-DR5-CLV3-LD_E33_171106_sam07_t10,E33,7,10,56.3221228679,-54.547186215100005,-40.4885962162,0.035639009212800006,0.0010452832671199999
393,qDII-DR5-CLV3-LD_E33_171106_sam07_t10,E33,7,10,29.4747330713,20.7460072985,-13.8081662415,0.0068988175305499996,-5.87856981065e-05
394,qDII-DR5-CLV3-LD_E33_171106_sam07_t10,E33,7,10,35.48156033,4.03946280269,-9.668586758630001,0.017861110499,0.000281702499407
395,qDII-DR5-CLV3-LD_E33_171106_sam07_t10,E33,7,10,52.2454754577,-42.021061179600004,-19.1881497776,0.042912479653400004,0.00177948536676
396,qDII-DR5-CLV3-LD_E33_171106_sam07_t10,E33,7,10,45.6989931589,-23.1866695982,-24.287908523899997,-0.015403712740200002,-0.0019164170220500002
397,qDII-DR5-CLV3-LD_E33_171106_sam07_t10,E33,7,10,23.5892486725,38.4003287656,-20.2136651235,0.00286371001253,-0.00031255368032200004
398,qDII-DR5-CLV3-LD_E33_171106_sam07_t10,E33,7,10,32.96075421,12.298049313,-12.3477490077,0.0118252927259,9.81112511686e-05
399,qDII-DR5-CLV3-LD_E33_171106_sam07_t10,E33,7,10,26.0249229001,34.096839906199996,-19.5082604918,0.0026460526686700003,-0.000275207007213
400,qDII-DR5-CLV3-LD_E33_171106_sam07_t10,E33,7,10,38.417068743200005,0.282014259173,-12.453533221099999,0.0178849172425,0.000283675597994
401,qDII-DR5-CLV3-LD_E33_171106_sam07_t10,E33,7,10,27.957157881100002,29.9297159441,-17.6006468352,0.00280170771169,-0.000247991571952
402,qDII-DR5-CLV3-LD_E33_171106_sam07_t10,E33,7,10,20.5468929962,51.238199672700006,-25.9728451442,0.0115958738212,-0.000142015094804
403,qDII-DR5-CLV3-LD_E33_171106_sam07_t10,E33,7,10,42.1530707284,-8.66609364347,-18.107154196099998,0.000549188532388,-0.000419272341088
404,qDII-DR5-CLV3-LD_E33_171106_sam07_t10,E33,7,10,43.603662012600005,-11.9587140438,-21.987511502600004,-0.0137604270981,-0.00110412057039
405,qDII-DR5-CLV3-LD_E33_171106_sam07_t10,E33,7,10,24.3733470472,41.789458138200004,-22.2630445015,0.00445214736075,-0.000319477529949
406,qDII-DR5-CLV3-LD_E33_171106_sam07_t10,E33,7,10,30.197257544299998,25.5554386913,-16.897137763499998,0.00413987703577,-0.000189422240345
407,qDII-DR5-CLV3-LD_E33_171106_sam07_t10,E33,7,10,41.0066965631,-4.38277460398,-14.1398017692,0.0123269830295,6.90746586978e-05
408,qDII-DR5-CLV3-LD_E33_171106_sam07_t10,E33,7,10,51.1479700626,-32.2915540754,-18.2322515521,0.0318104200838,0.0008672555361260001
409,qDII-DR5-CLV3-LD_E33_171106_sam07_t10,E33,7,10,19.0456656747,59.2519231141,-33.4074444027,0.0261564091286,0.000350542652379
410,qDII-DR5-CLV3-LD_E33_171106_sam07_t10,E33,7,10,54.365942547399996,-36.311889360900004,-17.5192646806,0.0406254510644,0.00163205293156
411,qDII-DR5-CLV3-LD_E33_171106_sam07_t10,E33,7,10,35.122927276700004,17.4084160954,-15.44377872,0.00895619646966,-2.14448899286e-05
412,qDII-DR5-CLV3-LD_E33_171106_sam07_t10,E33,7,10,37.4409062079,10.9592983347,-13.7635543947,0.0134243577269,0.000109912248502
413,qDII-DR5-CLV3-LD_E33_171106_sam07_t10,E33,7,10,47.844860859300006,-17.4217643283,-27.321061345900002,-0.0194696574689,-0.00147326087232
414,qDII-DR5-CLV3-LD_E33_171106_sam07_t10,E33,7,10,39.9671600087,4.60883569311,-14.4324534689,0.0162617511053,0.00022280383406099997
415,qDII-DR5-CLV3-LD_E33_171106_sam07_t10,E33,7,10,34.1685651172,21.929482024699997,-17.3419145768,0.00626914615891,-0.000112075352904
416,qDII-DR5-CLV3-LD_E33_171106_sam07_t10,E33,7,10,46.1715319592,-10.9827314775,-26.664907141999997,-0.0182973833825,-0.00124282411768
417,qDII-DR5-CLV3-LD_E33_171106_sam07_t10,E33,7,10,21.749298725,58.446061798900004,-31.1981911646,0.025212100008299997,0.000408952747768
418,qDII-DR5-CLV3-LD_E33_171106_sam07_t10,E33,7,10,44.854898835200004,-5.68357394674,-20.243004645,0.00246976603898,-0.00029886345991299995
419,qDII-DR5-CLV3-LD_E33_171106_sam07_t10,E33,7,10,32.5260420062,30.8478189123,-21.1566178406,0.00460278857011,-0.00024245588753099998
420,qDII-DR5-CLV3-LD_E33_171106_sam07_t10,E33,7,10,62.3268380131,-50.0685090605,-28.4435586086,0.0351553498263,0.00113338076895
421,qDII-DR5-CLV3-LD_E33_171106_sam07_t10,E33,7,10,40.8435955716,9.57241379893,-16.3338563961,0.0145378459666,0.00012370448348200002
422,qDII-DR5-CLV3-LD_E33_171106_sam07_t10,E33,7,10,26.0718968956,51.2566592269,-26.108400136100002,0.0165469242438,0.00012612302905
423,qDII-DR5-CLV3-LD_E33_171106_sam07_t10,E33,7,10,44.329659212799996,0.609009096727,-18.4526809368,0.0129114670044,0.00011894063688099999
424,qDII-DR5-CLV3-LD_E33_171106_sam07_t10,E33,7,10,49.253698837799995,-12.7057761649,-29.2593273735,-0.0195696171784,-0.0013669387123800003
425,qDII-DR5-CLV3-LD_E33_171106_sam07_t10,E33,7,10,24.8929970028,55.818161808,-29.1737774776,0.02251621187,0.00040061426177999995
426,qDII-DR5-CLV3-LD_E33_171106_sam07_t10,E33,7,10,31.5933903914,37.137916939600004,-22.886450136500002,0.00562873838246,-0.00022942822176599999
427,qDII-DR5-CLV3-LD_E33_171106_sam07_t10,E33,7,10,66.5464538228,-58.8469315932,-44.6831373363,0.0218780715711,0.000273701714866
428,qDII-DR5-CLV3-LD_E33_171106_sam07_t10,E33,7,10,35.4778132831,26.9512785979,-20.4251994189,0.00580149724027,-0.00020170212942299996
429,qDII-DR5-CLV3-LD_E33_171106_sam07_t10,E33,7,10,37.9171350742,21.449937808599998,-21.0108944927,0.00885019746063,-0.00016685407342999998
430,qDII-DR5-CLV3-LD_E33_171106_sam07_t10,E33,7,10,29.210189995,46.2051886505,-24.3151669004,0.012946124162000002,-1.31814827265e-05
431,qDII-DR5-CLV3-LD_E33_171106_sam07_t10,E33,7,10,53.5926023747,-20.5497172245,-24.2324132354,0.00471617771672,-0.00041812830433
432,qDII-DR5-CLV3-LD_E33_171106_sam07_t10,E33,7,10,48.4259997115,-3.78246924518,-26.033718629000003,-0.00196339165805,-0.0005428641879500001
433,qDII-DR5-CLV3-LD_E33_171106_sam07_t10,E33,7,10,57.8391687235,-29.9681070173,-19.353475548,0.0364170380361,0.00133801778565
434,qDII-DR5-CLV3-LD_E33_171106_sam07_t10,E33,7,10,44.342269687,8.56212606648,-20.0472816522,0.0131337665974,9.31138762603e-05
435,qDII-DR5-CLV3-LD_E33_171106_sam07_t10,E33,7,10,36.3959123204,31.8314983842,-23.512275381,0.00738186248825,-0.00024327382272899999
436,qDII-DR5-CLV3-LD_E33_171106_sam07_t10,E33,7,10,64.5088790045,-45.7796392621,-25.735081367600003,0.0341322890417,0.0011060817321300001
437,qDII-DR5-CLV3-LD_E33_171106_sam07_t10,E33,7,10,41.7345315572,17.6698344291,-22.643239900700003,0.0113821653054,-0.00013893115851700002
438,qDII-DR5-CLV3-LD_E33_171106_sam07_t10,E33,7,10,47.1311196347,2.77027366684,-23.0227543457,0.010140050947999999,1.40559780493e-05
439,qDII-DR5-CLV3-LD_E33_171106_sam07_t10,E33,7,10,53.20144842,-13.796937200799999,-30.6382696602,-0.0124242502699,-0.00117264168001
440,qDII-DR5-CLV3-LD_E33_171106_sam07_t10,E33,7,10,51.146023133199996,-6.27376248141,-31.045825830300004,-0.0123316366851,-0.00124365404875
441,qDII-DR5-CLV3-LD_E33_171106_sam07_t10,E33,7,10,68.952990045,-54.0830517298,-37.2281768362,0.0262038180523,0.000504478801322
442,qDII-DR5-CLV3-LD_E33_171106_sam07_t10,E33,7,10,34.5577721425,41.194493595,-23.7496324302,0.0120815264218,-2.05560858226e-05
443,qDII-DR5-CLV3-LD_E33_171106_sam07_t10,E33,7,10,52.7885414181,-8.29774255833,-33.6331878714,-0.012045564613999998,-0.00131347383553
444,qDII-DR5-CLV3-LD_E33_171106_sam07_t10,E33,7,10,59.389259988999996,-25.6412855833,-21.3323957958,0.0312759461057,0.00101367598939
445,qDII-DR5-CLV3-LD_E33_171106_sam07_t10,E33,7,10,28.7519671291,59.879950353000005,-31.2353776764,0.025826446217900003,0.0005991402645110001
446,qDII-DR5-CLV3-LD_E33_171106_sam07_t10,E33,7,10,30.8453658244,53.9867159608,-27.1431530612,0.0223098039895,0.00043067323811199997
447,qDII-DR5-CLV3-LD_E33_171106_sam07_t10,E33,7,10,50.1010388979,0.809723946918,-27.9904162067,0.002591524194,-0.00044333231485900004
448,qDII-DR5-CLV3-LD_E33_171106_sam07_t10,E33,7,10,68.6758461468,-50.3657009688,-33.33644617,0.026535778950900004,0.000528434254909
449,qDII-DR5-CLV3-LD_E33_171106_sam07_t10,E33,7,10,41.2853662592,25.6759579766,-24.2213046259,0.0112865918282,-0.00024765847275
450,qDII-DR5-CLV3-LD_E33_171106_sam07_t10,E33,7,10,47.670727346199996,8.052230108589999,-24.885398612600003,0.00999765410251,1.25642524102e-05
451,qDII-DR5-CLV3-LD_E33_171106_sam07_t10,E33,7,10,54.800455784499995,-11.433731229500001,-32.805820579,-0.0102479925315,-0.00119625509124
452,qDII-DR5-CLV3-LD_E33_171106_sam07_t10,E33,7,10,34.1032016662,46.777046557,-25.5588776066,0.0169738936925,0.000176127740972
453,qDII-DR5-CLV3-LD_E33_171106_sam07_t10,E33,7,10,40.5464890913,28.9308685987,-23.892279743899998,0.010559366353599999,-0.000256940257876
454,qDII-DR5-CLV3-LD_E33_171106_sam07_t10,E33,7,10,43.213996179300004,22.1912392277,-24.601833038400002,0.011876386267600002,-0.00021392989065500002
455,qDII-DR5-CLV3-LD_E33_171106_sam07_t10,E33,7,10,46.533448425299994,13.0458210869,-25.5572072143,0.00955195453245,-4.97445028493e-05
456,qDII-DR5-CLV3-LD_E33_171106_sam07_t10,E33,7,10,45.3255428608,18.2339954299,-26.208688706,0.0103033641305,-0.000139690836491
457,qDII-DR5-CLV3-LD_E33_171106_sam07_t10,E33,7,10,68.54900827739999,-45.811798281499996,-30.5452889781,0.027681675295700002,0.000628233666728
458,qDII-DR5-CLV3-LD_E33_171106_sam07_t10,E33,7,10,52.775793784099996,-0.915805756597,-34.1049924423,-0.00356118078292,-0.00104779765688
459,qDII-DR5-CLV3-LD_E33_171106_sam07_t10,E33,7,10,38.7500123879,38.21050549,-25.315309828,0.0145361557298,-2.66033534239e-05
460,qDII-DR5-CLV3-LD_E33_171106_sam07_t10,E33,7,10,50.6986154501,5.35378358158,-31.101610398800002,0.00250019745469,-0.00038976654993999995
461,qDII-DR5-CLV3-LD_E33_171106_sam07_t10,E33,7,10,58.18499716189999,-14.756606359700001,-29.677042297699998,0.00327346336558,-0.0005267085438069999
462,qDII-DR5-CLV3-LD_E33_171106_sam07_t10,E33,7,10,44.508786424899995,23.5637465598,-26.856379077600003,0.0119529356448,-0.00021003597454299997
463,qDII-DR5-CLV3-LD_E33_171106_sam07_t10,E33,7,10,60.9357461937,-20.6320589362,-25.5994581128,0.0224589095884,0.000492325076253
464,qDII-DR5-CLV3-LD_E33_171106_sam07_t10,E33,7,10,65.4847720463,-32.6811726053,-22.1558054617,0.0341635989236,0.001122621196
465,qDII-DR5-CLV3-LD_E33_171106_sam07_t10,E33,7,10,57.1781563452,-8.10496647122,-37.2539313271,-0.00315145099808,-0.00124958942657
466,qDII-DR5-CLV3-LD_E33_171106_sam07_t10,E33,7,10,68.4311806474,-39.5167302219,-25.2348092658,0.03139318755,0.0009036475245439999
467,qDII-DR5-CLV3-LD_E33_171106_sam07_t10,E33,7,10,50.381650697299996,11.7450217441,-31.6604100901,0.00357628437142,-0.000131382143783
468,qDII-DR5-CLV3-LD_E33_171106_sam07_t10,E33,7,10,34.3457975547,56.5978507438,-29.3342981606,0.0231915683925,0.000476563682815
469,qDII-DR5-CLV3-LD_E33_171106_sam07_t10,E33,7,10,56.2237941858,-3.58390054185,-39.1520671839,-0.000552382914581,-0.00121825857513
470,qDII-DR5-CLV3-LD_E33_171106_sam07_t10,E33,7,10,36.5062178325,51.1924382001,-27.550542724699998,0.0214576515301,0.000377567797969
471,qDII-DR5-CLV3-LD_E33_171106_sam07_t10,E33,7,10,74.57041613770001,-53.5210368759,-44.374238926400004,0.0399129532075,0.0016542339044400003
472,qDII-DR5-CLV3-LD_E33_171106_sam07_t10,E33,7,10,48.596031679300005,18.4619962791,-29.7982557413,0.007412309965,-0.000104795350727
473,qDII-DR5-CLV3-LD_E33_171106_sam07_t10,E33,7,10,63.9001752734,-23.9852858081,-23.639816876100003,0.030635752181299998,0.000943107362353
474,qDII-DR5-CLV3-LD_E33_171106_sam07_t10,E33,7,10,53.34981234560001,6.16304950875,-38.1503521078,-0.000976487108366,-0.0004660508124680001
475,qDII-DR5-CLV3-LD_E33_171106_sam07_t10,E33,7,10,55.3527164727,1.28589546522,-39.8423073358,-0.00018964004990000002,-0.0009248299270830001
476,qDII-DR5-CLV3-LD_E33_171106_sam07_t10,E33,7,10,52.3247810401,11.3941455196,-36.44891908,0.00113498640221,-0.000147847406002
477,qDII-DR5-CLV3-LD_E33_171106_sam07_t10,E33,7,10,66.5314240653,-28.2179862741,-22.932516684499998,0.0327410816719,0.00104251234648
478,qDII-DR5-CLV3-LD_E33_171106_sam07_t10,E33,7,10,40.334472001,44.849672464300006,-25.8977036998,0.019798014447000002,0.000253275707073
479,qDII-DR5-CLV3-LD_E33_171106_sam07_t10,E33,7,10,44.501443969300006,33.3692539471,-27.0970031973,0.0150734640885,-0.00016490724437
480,qDII-DR5-CLV3-LD_E33_171106_sam07_t10,E33,7,10,46.2671100576,28.5046698296,-27.605180950500003,0.013092157067,-0.00019886146389599997
481,qDII-DR5-CLV3-LD_E33_171106_sam07_t10,E33,7,10,62.8190602497,-15.941210625,-29.90527909,0.014086893677700002,-7.173672840189999e-06
482,qDII-DR5-CLV3-LD_E33_171106_sam07_t10,E33,7,10,72.8480436312,-43.572048412200004,-32.7917287279,0.0259968550704,0.000490102557842
483,qDII-DR5-CLV3-LD_E33_171106_sam07_t10,E33,7,10,74.52682021220001,-48.102957394200004,-36.795944255100004,0.028684768061000003,0.0006884716002419999
484,qDII-DR5-CLV3-LD_E33_171106_sam07_t10,E33,7,10,51.6908988632,16.7668183173,-34.7436949322,0.00415665305181,-7.35795583123e-05
485,qDII-DR5-CLV3-LD_E33_171106_sam07_t10,E33,7,10,36.3196486814,59.7571719896,-31.435181069099997,0.0231060125208,0.00047036868369999997
486,qDII-DR5-CLV3-LD_E33_171106_sam07_t10,E33,7,10,48.9780807374,24.787657937800002,-31.557368897600004,0.00955985127374,-0.000121105594159
487,qDII-DR5-CLV3-LD_E33_171106_sam07_t10,E33,7,10,60.4866610747,-6.76247201161,-40.738071691799995,0.00226923694866,-0.0011391674916400002
488,qDII-DR5-CLV3-LD_E33_171106_sam07_t10,E33,7,10,76.111412159,-49.9044873807,-41.7139981456,0.0365113915801,0.00138339918405
489,qDII-DR5-CLV3-LD_E33_171106_sam07_t10,E33,7,10,50.6695151212,20.800062398199998,-34.3333616098,0.00665446581597,-9.23855740602e-05
490,qDII-DR5-CLV3-LD_E33_171106_sam07_t10,E33,7,10,41.085959643,49.5478788119,-27.8213292972,0.0221014146912,0.00037641946172800003
491,qDII-DR5-CLV3-LD_E33_171106_sam07_t10,E33,7,10,63.8784550766,-11.9656042849,-36.6122510468,0.0073038968779,-0.0005139021794009999
492,qDII-DR5-CLV3-LD_E33_171106_sam07_t10,E33,7,10,40.522746612199995,54.2105215282,-29.715674034,0.0217531762578,0.00037629462317000003
493,qDII-DR5-CLV3-LD_E33_171106_sam07_t10,E33,7,10,49.742226182299994,30.0291777278,-32.2527716799,0.0111748522841,-8.88945877619e-05
494,qDII-DR5-CLV3-LD_E33_171106_sam07_t10,E33,7,10,75.3923130846,-39.5458234985,-34.8240480662,0.0270309223834,0.000518615071559
495,qDII-DR5-CLV3-LD_E33_171106_sam07_t10,E33,7,10,48.3930248282,36.121965517,-29.284357176700002,0.016478510079799998,1.4910447471e-06
496,qDII-DR5-CLV3-LD_E33_171106_sam07_t10,E33,7,10,40.0356079058,60.5867047486,-34.9784072043,0.023040687351900003,0.00046039392643899997
497,qDII-DR5-CLV3-LD_E33_171106_sam07_t10,E33,7,10,47.0438659767,41.6993065894,-29.8951844481,0.021001900904599996,0.00022538310541900003
498,qDII-DR5-CLV3-LD_E33_171106_sam07_t10,E33,7,10,69.2459476513,-18.313243041099998,-33.821451397800004,0.019388267577,0.00032238447474299995
499,qDII-DR5-CLV3-LD_E33_171106_sam07_t10,E33,7,10,45.466521828299996,48.5149362435,-30.3821534988,0.023397655596500002,0.00040192119634099995
500,qDII-DR5-CLV3-LD_E33_171106_sam07_t10,E33,7,10,66.5676253805,-9.526398030569998,-39.9763243107,0.00598922461843,-0.000566890927903
501,qDII-DR5-CLV3-LD_E33_171106_sam07_t10,E33,7,10,78.7733344062,-43.217186848999994,-41.1418954031,0.030097526232599998,0.0007468743585209999
502,qDII-DR5-CLV3-LD_E33_171106_sam07_t10,E33,7,10,75.9481836599,-34.4029588276,-33.170327449,0.0264088877555,0.000518317140515
503,qDII-DR5-CLV3-LD_E33_171106_sam07_t10,E33,7,10,50.5860510126,36.3018328088,-34.0284208264,0.013556224795899999,-3.30989322796e-06
504,qDII-DR5-CLV3-LD_E33_171106_sam07_t10,E33,7,10,43.6193714111,56.13676608189999,-33.138833068400004,0.0212138212872,0.0003501512085480001
505,qDII-DR5-CLV3-LD_E33_171106_sam07_t10,E33,7,10,50.5515928339,41.9147375125,-34.6685289582,0.0163710419363,0.000133633825545
506,qDII-DR5-CLV3-LD_E33_171106_sam07_t10,E33,7,10,75.091563867,-25.8838735794,-34.6893064038,0.0201501532116,0.00036043237371699994
507,qDII-DR5-CLV3-LD_E33_171106_sam07_t10,E33,7,10,79.55013765390001,-37.4323536166,-40.6090753704,0.029280116664400002,0.0006390725849069999
508,qDII-DR5-CLV3-LD_E33_171106_sam07_t10,E33,7,10,71.8355281426,-15.5682283769,-38.3305434762,0.0169941344383,0.00022383635800200002
509,qDII-DR5-CLV3-LD_E33_171106_sam07_t10,E33,7,10,50.1549486958,47.2748403842,-34.1470822853,0.0211061207057,0.00032345649249699996
510,qDII-DR5-CLV3-LD_E33_171106_sam07_t10,E33,7,10,80.3450463853,-29.196083073,-42.1960938459,0.0211332625212,0.000367370836729
511,qDII-DR5-CLV3-LD_E33_171106_sam07_t10,E33,7,10,-63.8974012106,-22.840376853899997,-27.414387618200003,0.024680481823299998,0.0005196026947769999
512,qDII-DR5-CLV3-LD_E33_171106_sam07_t10,E33,7,10,-58.984219271,-33.5924997593,-41.506218487800005,0.009188409523540001,1.63053063611e-05
513,qDII-DR5-CLV3-LD_E33_171106_sam07_t10,E33,7,10,-61.6736967448,-18.6348653751,-25.8915834121,0.0196729408828,0.00022387684164900003
514,qDII-DR5-CLV3-LD_E33_171106_sam07_t10,E33,7,10,-57.63914748649999,-12.1344513023,-23.018069680700002,0.0120913123101,-0.000170501149326
515,qDII-DR5-CLV3-LD_E33_171106_sam07_t10,E33,7,10,-53.278538231000006,-11.3150034533,-24.2249172866,0.00489157007783,-0.0005514936516369999
516,qDII-DR5-CLV3-LD_E33_171106_sam07_t10,E33,7,10,-55.632775458299996,-2.35895678757,-24.4882881258,0.0116757293742,-0.0003811559651619999
517,qDII-DR5-CLV3-LD_E33_171106_sam07_t10,E33,7,10,-29.2838215571,-42.875767125100005,-43.1304138732,0.0108998031525,-2.11794973934e-05
518,qDII-DR5-CLV3-LD_E33_171106_sam07_t10,E33,7,10,-31.9881066236,-13.6551346268,-10.857236408399999,0.0107079000709,6.35899548998e-05
519,qDII-DR5-CLV3-LD_E33_171106_sam07_t10,E33,7,10,-14.3819117678,-59.641659627299994,-41.5709376031,0.0226009788642,0.000529095783927
520,qDII-DR5-CLV3-LD_E33_171106_sam07_t10,E33,7,10,-26.2638332677,-22.1735421364,-9.459172015410001,0.013782155130399999,0.000176724689771
521,qDII-DR5-CLV3-LD_E33_171106_sam07_t10,E33,7,10,-2.12593085556,-59.4581936998,-34.7979444589,0.0296141895181,0.0008515408049319999
522,qDII-DR5-CLV3-LD_E33_171106_sam07_t10,E33,7,10,-21.4671183442,2.31291641595,-3.7112629601599996,0.0127663870837,0.00014453770317800001
523,qDII-DR5-CLV3-LD_E33_171106_sam07_t10,E33,7,10,-18.8123115616,-4.45457968066,-2.0697972951400003,0.0130658699141,0.00015175481725
524,qDII-DR5-CLV3-LD_E33_171106_sam07_t10,E33,7,10,1.76929756681,-57.903334059799995,-38.2763981437,0.028730772006200004,0.0007710669878410001
525,qDII-DR5-CLV3-LD_E33_171106_sam07_t10,E33,7,10,-11.3784510096,-21.918948946100002,-2.74474059213,0.0134738954861,0.0001518011928
526,qDII-DR5-CLV3-LD_E33_171106_sam07_t10,E33,7,10,4.358967889290001,-63.0835696397,-43.5419084663,0.028317611205500002,0.000758745877027
527,qDII-DR5-CLV3-LD_E33_171106_sam07_t10,E33,7,10,-24.1871939206,19.108369990099998,-7.924044594189999,0.014078561815799999,0.000159042810713
528,qDII-DR5-CLV3-LD_E33_171106_sam07_t10,E33,7,10,-20.5726198002,10.243378549700001,-4.15326262111,0.0132065828097,0.000155300456536
529,qDII-DR5-CLV3-LD_E33_171106_sam07_t10,E33,7,10,-4.84647878582,-30.098469430599998,-6.04113187821,0.0139712637819,0.000142899879821
530,qDII-DR5-CLV3-LD_E33_171106_sam07_t10,E33,7,10,-15.5401076307,-0.0897095992372,-0.5578423992930001,0.013636025367100001,0.00016885377415600002
531,qDII-DR5-CLV3-LD_E33_171106_sam07_t10,E33,7,10,-10.6578589877,-11.774796391099999,0.5589095223789999,0.016221999321899997,0.00025953226732099995
532,qDII-DR5-CLV3-LD_E33_171106_sam07_t10,E33,7,10,-33.0823430842,54.154948766400004,-33.7750261314,-0.0049804552429499995,-0.0022017162618000003
533,qDII-DR5-CLV3-LD_E33_171106_sam07_t10,E33,7,10,6.58799252842,-55.4235941418,-34.6294402599,0.0253730972848,0.00041115522249100003
534,qDII-DR5-CLV3-LD_E33_171106_sam07_t10,E33,7,10,-4.61477825914,-24.0939129813,-3.1204297856800003,0.013444282984799999,0.00015498661273500002
535,qDII-DR5-CLV3-LD_E33_171106_sam07_t10,E33,7,10,-11.7590592749,6.5623661704,-0.016916077187700003,0.0151366511782,0.000216742913912
536,qDII-DR5-CLV3-LD_E33_171106_sam07_t10,E33,7,10,-29.2288631413,56.8240601594,-28.9093232325,-0.00103863395785,-0.00193848768599
537,qDII-DR5-CLV3-LD_E33_171106_sam07_t10,E33,7,10,-6.97279538357,-5.49931742478,2.24295909907,0.017805314731999998,0.000315082368072
538,qDII-DR5-CLV3-LD_E33_171106_sam07_t10,E33,7,10,9.91610534133,-44.915559555,-17.235688329200002,0.017770155015900003,0.000185184491801
539,qDII-DR5-CLV3-LD_E33_171106_sam07_t10,E33,7,10,-30.4749169504,69.3384378529,-25.330571375999998,0.0374536004561,0.00106824144955
540,qDII-DR5-CLV3-LD_E33_171106_sam07_t10,E33,7,10,-9.855924622829999,17.841521025,-1.3410536315000001,0.017667324967,0.00027399932959900003
541,qDII-DR5-CLV3-LD_E33_171106_sam07_t10,E33,7,10,-20.8353299087,52.0818026048,-33.1005972822,-0.0452776225041,-0.0045438308287099995
542,qDII-DR5-CLV3-LD_E33_171106_sam07_t10,E33,7,10,-5.44274687891,8.605144670780001,2.3744336911099997,0.0174141767172,0.000279348084067
543,qDII-DR5-CLV3-LD_E33_171106_sam07_t10,E33,7,10,-22.467080339499997,59.4683705696,-26.471632564,0.0116259722052,-0.000630084643992
544,qDII-DR5-CLV3-LD_E33_171106_sam07_t10,E33,7,10,10.2925318823,-31.5418780875,-7.731838369119999,0.014676883208700002,0.00015127268536899998
545,qDII-DR5-CLV3-LD_E33_171106_sam07_t10,E33,7,10,18.594157778099998,-49.9074083535,-41.4614413098,0.00327549904584,-0.0005630416461529999
546,qDII-DR5-CLV3-LD_E33_171106_sam07_t10,E33,7,10,-12.628436354000002,36.2521018415,-14.8118302126,0.014247887269600001,0.000175470091183
547,qDII-DR5-CLV3-LD_E33_171106_sam07_t10,E33,7,10,-4.88142862276,15.6561332105,0.680092985079,0.0185354764187,0.00030394345278200003
548,qDII-DR5-CLV3-LD_E33_171106_sam07_t10,E33,7,10,14.834300284400001,-34.816377802800005,-11.6872933867,0.0131550580207,0.00010561161166700001
549,qDII-DR5-CLV3-LD_E33_171106_sam07_t10,E33,7,10,-13.1898067649,43.5052736397,-22.3423783419,0.00423292120905,-0.000132007384636
550,qDII-DR5-CLV3-LD_E33_171106_sam07_t10,E33,7,10,-12.085181079000002,40.3362063533,-17.9655741849,0.013000074540600001,0.000155625562664
551,qDII-DR5-CLV3-LD_E33_171106_sam07_t10,E33,7,10,5.08769596945,-6.417533324169999,1.85557313428,0.0179251354072,0.000311475266408
552,qDII-DR5-CLV3-LD_E33_171106_sam07_t10,E33,7,10,8.92689282832,-16.3538548499,-0.36488695700900003,0.016408154377899997,0.000218790197802
553,qDII-DR5-CLV3-LD_E33_171106_sam07_t10,E33,7,10,-1.39004963434,17.0415493379,-0.451132860197,0.0187224008692,0.00030832176225
554,qDII-DR5-CLV3-LD_E33_171106_sam07_t10,E33,7,10,3.8633952075300004,7.350429750499999,2.0233867771200003,0.0193358854412,0.00034777306446499997
555,qDII-DR5-CLV3-LD_E33_171106_sam07_t10,E33,7,10,2.1483980069,20.7671777314,-2.53685128902,0.0172323964981,0.000264069511903
556,qDII-DR5-CLV3-LD_E33_171106_sam07_t10,E33,7,10,10.0312915232,3.7373818793,2.7019301577900006,0.019980690778700003,0.00038448444541800005
557,qDII-DR5-CLV3-LD_E33_171106_sam07_t10,E33,7,10,8.752711986569999,16.5299431144,-0.752047754092,0.016741605035000003,0.000267387801858
558,qDII-DR5-CLV3-LD_E33_171106_sam07_t10,E33,7,10,8.091709260539998,24.6043700392,-5.8483729233899995,0.013972524828700001,0.000166552135093
559,qDII-DR5-CLV3-LD_E33_171106_sam07_t10,E33,7,10,12.981168025499999,11.554472821,-0.155336863445,0.0168211075349,0.00026589107278
560,qDII-DR5-CLV3-LD_E33_171106_sam07_t10,E33,7,10,36.2049686362,-49.7205378139,-39.5279366365,0.00035331849193300007,-0.00107119787289
561,qDII-DR5-CLV3-LD_E33_171106_sam07_t10,E33,7,10,-3.2951930228099995,59.87306003649999,-33.9695890291,-0.015811199999200002,0.00196690441155
562,qDII-DR5-CLV3-LD_E33_171106_sam07_t10,E33,7,10,-3.32253091069,72.046404558,-29.276994778600002,0.0593317011466,0.00367424114915
563,qDII-DR5-CLV3-LD_E33_171106_sam07_t10,E33,7,10,-5.486598752030001,78.6496690317,-29.7696505091,0.045111960480800004,0.00208990433591
564,qDII-DR5-CLV3-LD_E33_171106_sam07_t10,E33,7,10,41.7625407657,-50.495708518,-36.2100036347,0.0114843785822,-0.00038182604472099995
565,qDII-DR5-CLV3-LD_E33_171106_sam07_t10,E33,7,10,40.8243139624,-44.5673942092,-23.854049283800002,0.012519290986299999,-0.000565719414959
566,qDII-DR5-CLV3-LD_E33_171106_sam07_t10,E33,7,10,21.5720334373,10.504426175399999,-2.8224351965599994,0.015899416046100002,0.00022056331056900002
567,qDII-DR5-CLV3-LD_E33_171106_sam07_t10,E33,7,10,41.2389312506,-39.0353628088,-22.159674446300002,0.012787233963,-0.0006547757140160001
568,qDII-DR5-CLV3-LD_E33_171106_sam07_t10,E33,7,10,16.7712594709,33.220980867399994,-13.4784604052,0.0055774808559899995,-8.18650719878e-05
569,qDII-DR5-CLV3-LD_E33_171106_sam07_t10,E33,7,10,29.1470999477,0.060693707913300005,-6.360856244190001,0.0178381373295,0.000287667781649
570,qDII-DR5-CLV3-LD_E33_171106_sam07_t10,E33,7,10,21.0449840452,27.4797470413,-11.779280480299999,0.0051095123821300005,-9.31510429802e-05
571,qDII-DR5-CLV3-LD_E33_171106_sam07_t10,E33,7,10,49.3554104161,-47.9855198464,-23.215636073899997,0.0398437937176,0.0014904834577700002
572,qDII-DR5-CLV3-LD_E33_171106_sam07_t10,E33,7,10,38.5929125425,-14.1607541349,-16.189739328199998,-0.0063705128731899995,-0.000843674735171
573,qDII-DR5-CLV3-LD_E33_171106_sam07_t10,E33,7,10,56.0231409174,-51.0525274017,-26.0274437873,0.041908124181400004,0.0016185517775100002
574,qDII-DR5-CLV3-LD_E33_171106_sam07_t10,E33,7,10,57.473557365299996,-45.389004124399996,-21.992899300700003,0.042713562607199995,0.00177173145664
575,qDII-DR5-CLV3-LD_E33_171106_sam07_t10,E33,7,10,61.173513567200004,-54.407416705799996,-44.1258756621,0.0244911540695,0.00042631307548500003
576,qDII-DR5-CLV3-LD_E33_171106_sam07_t10,E33,7,10,62.3287704642,-55.4032302227,-34.8361802451,0.0294054027813,0.0006823848779470001
577,qDII-DR5-CLV3-LD_E33_171106_sam07_t10,E33,7,10,51.750951793199995,-25.3239238552,-21.1122652929,0.0169958289196,0.00010716258798599999
578,qDII-DR5-CLV3-LD_E33_171106_sam07_t10,E33,7,10,59.3621915946,-37.243691794200004,-18.9090562776,0.038453928033,0.0014899517540199999
579,qDII-DR5-CLV3-LD_E33_171106_sam07_t10,E33,7,10,62.955050344300005,-40.983358521999996,-21.708643170300004,0.0356405104298,0.00126223088907
580,qDII-DR5-CLV3-LD_E33_171106_sam07_t10,E33,7,10,43.7136507026,38.5877800318,-26.579347644299997,0.0190553317865,7.1677418094e-05
581,qDII-DR5-CLV3-LD_E33_171106_sam07_t10,E33,7,10,71.2289935058,-36.1576137219,-28.5137829693,0.0293146501846,0.0007240974060060001
582,qDII-DR5-CLV3-LD_E33_171106_sam07_t10,E33,7,10,70.9409919222,-29.8776006045,-27.9072367359,0.0288553165839,0.000751684085868
583,qDII-DR5-CLV3-LD_E33_171106_sam07_t10,E33,7,10,68.8312453581,-22.8143810079,-28.3573426862,0.025610782617299998,0.000637881065828
584,qDII-DR5-CLV3-LD_E33_171106_sam07_t10,E33,7,10,48.260729625799996,52.5564579567,-35.9492692714,0.0214328685653,0.00033957792423799997
585,qDII-DR5-CLV3-LD_E33_171106_sam07_t10,E33,7,10,76.2885644174,-21.0995820387,-40.145832875500005,0.0170261173294,0.000253507470494
586,qDII-DR5-CLV3-LD_E33_171106_sam07_t10,E33,7,10,12.8609263376,-57.4343265541,-36.1539393879,0.0204200393813,0.000143464062836
587,qDII-DR5-CLV3-LD_E33_171106_sam07_t10,E33,7,10,39.3469518016,-56.485307037,-42.6050448806,0.006782867939959999,-0.000540167949035
