,filename,experiment,sam_id,hour_time,aligned_x,aligned_y,aligned_z,mean_curvature,gaussian_curvature
0,qDII-DR5-CLV3-LD_E25_170811_sam04_t00,E25,4,0,-73.7722042129,-21.8241388534,-39.4408766477,0.0292303538534,0.0007793808630319999
1,qDII-DR5-CLV3-LD_E25_170811_sam04_t00,E25,4,0,-74.36359138739999,-14.6393316327,-43.242188975299996,0.027904514207900005,0.0007315841039969999
2,qDII-DR5-CLV3-LD_E25_170811_sam04_t00,E25,4,0,-74.1509542882,-10.9371361562,-37.5249568549,0.0302053388136,0.000886938488857
3,qDII-DR5-CLV3-LD_E25_170811_sam04_t00,E25,4,0,-70.62886545159999,-25.2683333908,-36.9343943677,0.0317994026815,0.0008661790779450001
4,qDII-DR5-CLV3-LD_E25_170811_sam04_t00,E25,4,0,-69.6771407896,-26.616769038,-43.904867628000005,0.0300377368027,0.000644706977268
5,qDII-DR5-CLV3-LD_E25_170811_sam04_t00,E25,4,0,-71.5901636692,-17.4059109996,-32.561898984,0.0365175280531,0.0012777006121
6,qDII-DR5-CLV3-LD_E25_170811_sam04_t00,E25,4,0,-72.6392753937,-11.9370632869,-33.9565424097,0.033663252302099995,0.0010921635253900001
7,qDII-DR5-CLV3-LD_E25_170811_sam04_t00,E25,4,0,-72.8979874293,-7.117875993189999,-40.0064857904,0.0279934889057,0.000760854100492
8,qDII-DR5-CLV3-LD_E25_170811_sam04_t00,E25,4,0,-67.3861048087,-29.1431714094,-40.2699109306,0.030354950707999998,0.000754459559651
9,qDII-DR5-CLV3-LD_E25_170811_sam04_t00,E25,4,0,-71.3655236252,-6.358541281749999,-35.3345502723,0.028666546417400005,0.0007814439266489999
10,qDII-DR5-CLV3-LD_E25_170811_sam04_t00,E25,4,0,-64.8613639328,-28.0586329529,-33.2578487627,0.0335415526682,0.00105720393863
11,qDII-DR5-CLV3-LD_E25_170811_sam04_t00,E25,4,0,-65.9577367546,-23.3097205263,-31.1090310877,0.0367642509008,0.00128828573484
12,qDII-DR5-CLV3-LD_E25_170811_sam04_t00,E25,4,0,-68.2745714669,-11.425115688499998,-30.4213990904,0.0357574342578,0.00114523030584
13,qDII-DR5-CLV3-LD_E25_170811_sam04_t00,E25,4,0,-63.0575623091,-33.0978194029,-41.2486652808,0.028767686156000002,0.000761557146596
14,qDII-DR5-CLV3-LD_E25_170811_sam04_t00,E25,4,0,-62.8346171308,-32.214209887399996,-36.5933653257,0.030015435687799998,0.0008520451154450001
15,qDII-DR5-CLV3-LD_E25_170811_sam04_t00,E25,4,0,-66.368031456,-16.9093109839,-29.0184378832,0.0362771726241,0.0012582730294900001
16,qDII-DR5-CLV3-LD_E25_170811_sam04_t00,E25,4,0,-67.15161077350001,-5.19344577927,-30.6542969727,0.0295253858477,0.0007181404034139999
17,qDII-DR5-CLV3-LD_E25_170811_sam04_t00,E25,4,0,-67.5821816798,0.370144067056,-33.2190037233,0.0233765394258,0.000457176858898
18,qDII-DR5-CLV3-LD_E25_170811_sam04_t00,E25,4,0,-58.1677652816,-36.7095910785,-42.2357374125,0.025933747721899998,0.000618897381359
19,qDII-DR5-CLV3-LD_E25_170811_sam04_t00,E25,4,0,-62.3097522993,-17.844028651400002,-27.773514524699998,0.0294136223767,0.000894140587312
20,qDII-DR5-CLV3-LD_E25_170811_sam04_t00,E25,4,0,-63.681005265,-10.055188336,-28.0895902221,0.0295793439553,0.0007189829147320001
21,qDII-DR5-CLV3-LD_E25_170811_sam04_t00,E25,4,0,-57.1344270954,-33.788305795,-34.1367897348,0.024380672587200003,0.000560065466986
22,qDII-DR5-CLV3-LD_E25_170811_sam04_t00,E25,4,0,-59.519590700600006,-22.5323815948,-27.565569986999996,0.0274727567494,0.000785099150602
23,qDII-DR5-CLV3-LD_E25_170811_sam04_t00,E25,4,0,-63.9143155898,-3.4967367629000004,-28.347441449,0.0271348752044,0.000502412483696
24,qDII-DR5-CLV3-LD_E25_170811_sam04_t00,E25,4,0,-65.2266990837,2.18782067882,-43.8161158995,0.018430127936,0.000185122386477
25,qDII-DR5-CLV3-LD_E25_170811_sam04_t00,E25,4,0,-64.7289308287,4.65497743305,-33.360406009,0.0204685561672,0.00023456647525200002
26,qDII-DR5-CLV3-LD_E25_170811_sam04_t00,E25,4,0,-56.3292166607,-28.029599482800002,-28.494417648000002,0.0254051592755,0.0005918605195190001
27,qDII-DR5-CLV3-LD_E25_170811_sam04_t00,E25,4,0,-53.50688759649999,-36.555867380500004,-38.6839585302,0.0187885057409,0.00029258183023900004
28,qDII-DR5-CLV3-LD_E25_170811_sam04_t00,E25,4,0,-52.545137741400005,-38.8723724981,-43.27271623319999,0.015798865719,0.00018709296155700002
29,qDII-DR5-CLV3-LD_E25_170811_sam04_t00,E25,4,0,-59.2433556442,-8.93455766281,-25.7494635723,0.021420181065599998,0.000319636535832
30,qDII-DR5-CLV3-LD_E25_170811_sam04_t00,E25,4,0,-53.5334208513,-30.8930656969,-30.7014597937,0.0204167710836,0.000285854615753
31,qDII-DR5-CLV3-LD_E25_170811_sam04_t00,E25,4,0,-61.4556429691,3.42184827699,-29.7670382192,0.0224453533814,0.00023782184999900002
32,qDII-DR5-CLV3-LD_E25_170811_sam04_t00,E25,4,0,-62.712040468299996,8.863903733189998,-35.850252726,0.018478839062999998,0.000101192429481
33,qDII-DR5-CLV3-LD_E25_170811_sam04_t00,E25,4,0,-55.1338189781,-22.1116886449,-26.3705533175,0.017108387428899998,0.00021412655014400002
34,qDII-DR5-CLV3-LD_E25_170811_sam04_t00,E25,4,0,-56.2039984983,-16.5515862836,-25.425070093400002,0.013205296122900001,8.79420280448e-05
35,qDII-DR5-CLV3-LD_E25_170811_sam04_t00,E25,4,0,-59.403720275,-1.7674230149,-27.2023314686,0.0229134329875,0.000238198507933
36,qDII-DR5-CLV3-LD_E25_170811_sam04_t00,E25,4,0,-50.591959472700005,-35.3121243983,-35.1904041185,0.014650348442,-2.43536848787e-05
37,qDII-DR5-CLV3-LD_E25_170811_sam04_t00,E25,4,0,-52.55122604,-24.976317354000003,-27.4075321382,0.0173930597033,0.000160189782128
38,qDII-DR5-CLV3-LD_E25_170811_sam04_t00,E25,4,0,-60.550501948100006,9.67235325399,-33.5184438577,0.017979945097400002,5.69422577929e-05
39,qDII-DR5-CLV3-LD_E25_170811_sam04_t00,E25,4,0,-58.067556710299996,4.46540938934,-28.605292675799998,0.020585106478099996,9.06835029539e-05
40,qDII-DR5-CLV3-LD_E25_170811_sam04_t00,E25,4,0,-49.6881187472,-29.0559872227,-28.394604269899997,0.0144122228968,-7.49748288837e-05
41,qDII-DR5-CLV3-LD_E25_170811_sam04_t00,E25,4,0,-52.0884330513,-17.7344381353,-25.341892278299998,0.00742065002816,-0.00014042557797699999
42,qDII-DR5-CLV3-LD_E25_170811_sam04_t00,E25,4,0,-53.7196412808,-9.74425345508,-24.4962224323,0.008693434923740001,-5.98380449271e-05
43,qDII-DR5-CLV3-LD_E25_170811_sam04_t00,E25,4,0,-55.5792030805,-1.68960638282,-25.9989970177,0.0166090281938,9.2169013792e-06
44,qDII-DR5-CLV3-LD_E25_170811_sam04_t00,E25,4,0,-46.039680204,-39.311237221,-38.509285118499996,0.0120210316762,-0.000360740913084
45,qDII-DR5-CLV3-LD_E25_170811_sam04_t00,E25,4,0,-46.0399630901,-37.4607207302,-35.065637395900005,0.0124181099258,-0.000397545453303
46,qDII-DR5-CLV3-LD_E25_170811_sam04_t00,E25,4,0,-58.148832731700004,14.9885559873,-37.2199428072,0.0127156005305,-0.00010468397590999999
47,qDII-DR5-CLV3-LD_E25_170811_sam04_t00,E25,4,0,-56.7470525493,9.84142453463,-29.974982757,0.018328210453,-2.18580391056e-05
48,qDII-DR5-CLV3-LD_E25_170811_sam04_t00,E25,4,0,-48.8045542266,-23.6366697431,-26.254104376399997,0.008726895445559999,-0.000222423389531
49,qDII-DR5-CLV3-LD_E25_170811_sam04_t00,E25,4,0,-45.2087851726,-33.6637831201,-30.5184686004,0.010639208017299999,-0.000415584985811
50,qDII-DR5-CLV3-LD_E25_170811_sam04_t00,E25,4,0,-56.0396808146,14.1746256388,-32.481465037,0.0136561005235,-0.00012888829545
51,qDII-DR5-CLV3-LD_E25_170811_sam04_t00,E25,4,0,-48.6068420076,-17.095890742799998,-24.1635111719,0.0033978672505999997,-0.000248895552586
52,qDII-DR5-CLV3-LD_E25_170811_sam04_t00,E25,4,0,-51.656281414,-3.88731752411,-23.5341036452,0.00534402778701,-0.00021189236842500002
53,qDII-DR5-CLV3-LD_E25_170811_sam04_t00,E25,4,0,-56.6983224052,17.9521613864,-40.8382639415,0.00946751926543,-0.00015180953921899997
54,qDII-DR5-CLV3-LD_E25_170811_sam04_t00,E25,4,0,-53.9933923312,7.1604676176,-27.501771603,0.01682535172,-0.00010482831393299999
55,qDII-DR5-CLV3-LD_E25_170811_sam04_t00,E25,4,0,-44.8659160891,-29.601038753,-27.157998692899998,0.00864113989248,-0.00038819323663199997
56,qDII-DR5-CLV3-LD_E25_170811_sam04_t00,E25,4,0,-49.630043316700004,-8.96533660464,-23.3178413259,0.00171926488354,-0.00022402453606400002
57,qDII-DR5-CLV3-LD_E25_170811_sam04_t00,E25,4,0,-55.607415042700005,18.7747959949,-37.3447095298,0.009701815056110001,-0.000161291259224
58,qDII-DR5-CLV3-LD_E25_170811_sam04_t00,E25,4,0,-51.1932055393,1.5040452038799998,-24.9121115079,0.007404530134729999,-0.000266755953887
59,qDII-DR5-CLV3-LD_E25_170811_sam04_t00,E25,4,0,-53.0471331284,11.3835790054,-28.8298727766,0.016603838891499998,-0.000121985727735
60,qDII-DR5-CLV3-LD_E25_170811_sam04_t00,E25,4,0,-41.456930786,-36.0451660535,-31.5637652027,0.0130180499572,-0.00053925055725
61,qDII-DR5-CLV3-LD_E25_170811_sam04_t00,E25,4,0,-40.2824867644,-39.2829508221,-33.770807348299996,0.017749328980400002,-0.0006614153797220001
62,qDII-DR5-CLV3-LD_E25_170811_sam04_t00,E25,4,0,-45.483836518400004,-16.7534298488,-22.976812284,0.00140039440438,-0.000280490537548
63,qDII-DR5-CLV3-LD_E25_170811_sam04_t00,E25,4,0,-41.0829687138,-33.0417458053,-28.161706387600002,0.00934405031799,-0.000464398052676
64,qDII-DR5-CLV3-LD_E25_170811_sam04_t00,E25,4,0,-52.937008597600006,18.3037419642,-32.6145495412,0.010314900660299999,-0.00019790413420400004
65,qDII-DR5-CLV3-LD_E25_170811_sam04_t00,E25,4,0,-46.133018688,-10.2429305899,-22.0646001859,-0.000625844114819,-0.000254486464447
66,qDII-DR5-CLV3-LD_E25_170811_sam04_t00,E25,4,0,-47.2861690952,-4.3234418331599995,-22.305815849699997,1.59745982621e-05,-0.00028098002144700006
67,qDII-DR5-CLV3-LD_E25_170811_sam04_t00,E25,4,0,-49.1300714912,4.58802249806,-23.8418615611,0.00595233591525,-0.000310855750918
68,qDII-DR5-CLV3-LD_E25_170811_sam04_t00,E25,4,0,-51.6020311938,15.295256312000001,-30.141338387199998,0.0123779321003,-0.00020554937901400006
69,qDII-DR5-CLV3-LD_E25_170811_sam04_t00,E25,4,0,-50.1997423067,11.0705670053,-26.448157219200002,0.0136431134251,-0.000215234105649
70,qDII-DR5-CLV3-LD_E25_170811_sam04_t00,E25,4,0,-42.2104915916,-22.6100341323,-22.7189610571,0.00371837462955,-0.000363204122969
71,qDII-DR5-CLV3-LD_E25_170811_sam04_t00,E25,4,0,-52.0269678895,22.6837328876,-35.1210318212,0.00961724869881,-0.000142934943597
72,qDII-DR5-CLV3-LD_E25_170811_sam04_t00,E25,4,0,-42.5167476103,-16.660265634,-21.7817956145,0.00107478611655,-0.000261014508289
73,qDII-DR5-CLV3-LD_E25_170811_sam04_t00,E25,4,0,-39.5189602836,-27.7958179392,-23.664444281199998,0.0062525087343500005,-0.000380213150494
74,qDII-DR5-CLV3-LD_E25_170811_sam04_t00,E25,4,0,-36.2439751079,-40.1320460397,-40.7329628271,0.025981114168400002,-0.00098857333625
75,qDII-DR5-CLV3-LD_E25_170811_sam04_t00,E25,4,0,-36.4374675463,-35.5953558571,-28.0203041019,0.0128836719993,-0.000365661304107
76,qDII-DR5-CLV3-LD_E25_170811_sam04_t00,E25,4,0,-44.3188543683,-1.45731898159,-21.2189303399,9.132384770289999e-06,-0.000267387479719
77,qDII-DR5-CLV3-LD_E25_170811_sam04_t00,E25,4,0,-47.2431872963,11.2093585444,-24.0830772249,0.00957998424259,-0.00025555311024900003
78,qDII-DR5-CLV3-LD_E25_170811_sam04_t00,E25,4,0,-48.614157376,17.147682369,-27.8428006449,0.011470424297,-0.00023923716782700002
79,qDII-DR5-CLV3-LD_E25_170811_sam04_t00,E25,4,0,-45.601728055100004,5.02406303067,-22.655162673200003,0.0034209151106699997,-0.000290881180975
80,qDII-DR5-CLV3-LD_E25_170811_sam04_t00,E25,4,0,-51.7758516579,32.6917760494,-42.5406652831,0.020164374404,0.000170040555738
81,qDII-DR5-CLV3-LD_E25_170811_sam04_t00,E25,4,0,-35.1685013303,-37.3932700534,-37.314268449000004,0.0234097730314,-0.000810065167525
82,qDII-DR5-CLV3-LD_E25_170811_sam04_t00,E25,4,0,-38.6459296608,-22.3308731354,-20.3538810628,0.004895726395,-0.00024192645013499997
83,qDII-DR5-CLV3-LD_E25_170811_sam04_t00,E25,4,0,-48.9874419921,22.4631380311,-31.5692529389,0.010694256007900001,-0.000135267991572
84,qDII-DR5-CLV3-LD_E25_170811_sam04_t00,E25,4,0,-39.451028411399996,-16.0696705558,-19.4333511832,0.00211135742105,-0.00019759307987599997
85,qDII-DR5-CLV3-LD_E25_170811_sam04_t00,E25,4,0,-34.0575435817,-38.5067743855,-29.0572829227,0.016665208645,-0.000359370722862
86,qDII-DR5-CLV3-LD_E25_170811_sam04_t00,E25,4,0,-49.4904498876,28.3404869487,-36.4907219023,0.0167817738096,9.01616666109e-05
87,qDII-DR5-CLV3-LD_E25_170811_sam04_t00,E25,4,0,-35.039909594899996,-30.553097345900003,-22.3446608892,0.009239917642620001,-0.000224004707091
88,qDII-DR5-CLV3-LD_E25_170811_sam04_t00,E25,4,0,-35.642565190700005,-27.0180635837,-21.3159998499,0.007174729250630001,-0.000243547984402
89,qDII-DR5-CLV3-LD_E25_170811_sam04_t00,E25,4,0,-40.271334928200005,-5.119367961580001,-18.6958124969,0.00129860243988,-0.00014662737673199998
90,qDII-DR5-CLV3-LD_E25_170811_sam04_t00,E25,4,0,-49.5205825341,35.8681704872,-40.3003520114,0.027572311859599997,0.000294593213805
91,qDII-DR5-CLV3-LD_E25_170811_sam04_t00,E25,4,0,-33.0185711848,-33.7606023728,-23.373321928400003,0.012055964158299999,-0.00015748057327599998
92,qDII-DR5-CLV3-LD_E25_170811_sam04_t00,E25,4,0,-35.6269628543,-21.5377711973,-18.013754413,0.0061640634576000004,-0.000136721604151
93,qDII-DR5-CLV3-LD_E25_170811_sam04_t00,E25,4,0,-40.6294688453,0.130462813475,-18.9037570347,0.00268421930811,-0.00015032755041999998
94,qDII-DR5-CLV3-LD_E25_170811_sam04_t00,E25,4,0,-44.421029434,16.5535160293,-24.266068418200003,0.0100198521489,-0.00019269359687799998
95,qDII-DR5-CLV3-LD_E25_170811_sam04_t00,E25,4,0,-42.3590815468,10.3961752671,-19.3196461102,0.00649897938094,-9.86837360301e-05
96,qDII-DR5-CLV3-LD_E25_170811_sam04_t00,E25,4,0,-44.9712984267,21.710929660700003,-25.6440762808,0.0119912011264,-4.87567597156e-05
97,qDII-DR5-CLV3-LD_E25_170811_sam04_t00,E25,4,0,-46.0617541517,26.4342123258,-29.353893011799997,0.014993744191900001,8.44271637692e-05
98,qDII-DR5-CLV3-LD_E25_170811_sam04_t00,E25,4,0,-46.404171597799994,27.9173852323,-32.9306252386,0.019187579159,0.000170178451474
99,qDII-DR5-CLV3-LD_E25_170811_sam04_t00,E25,4,0,-30.7478114088,-37.1238244404,-24.3936651861,0.0155079986449,-0.000113572425878
100,qDII-DR5-CLV3-LD_E25_170811_sam04_t00,E25,4,0,-40.733055890500005,6.12702113115,-17.966591592100002,0.00540790422069,-0.00010616070542
101,qDII-DR5-CLV3-LD_E25_170811_sam04_t00,E25,4,0,-29.469328704499997,-40.8122502531,-27.754135093600002,0.017916951637299998,-0.00018689987035099998
102,qDII-DR5-CLV3-LD_E25_170811_sam04_t00,E25,4,0,-46.605880229099995,34.3389548326,-36.698666440100006,0.032141762129199995,0.000354011532706
103,qDII-DR5-CLV3-LD_E25_170811_sam04_t00,E25,4,0,-35.8497963486,-10.401471820900001,-16.1061524018,0.0023987039869099998,-0.000121051691577
104,qDII-DR5-CLV3-LD_E25_170811_sam04_t00,E25,4,0,-38.229042856999996,0.828822617946,-15.39356706,0.00548750281807,-5.07070813828e-05
105,qDII-DR5-CLV3-LD_E25_170811_sam04_t00,E25,4,0,-31.729951603299998,-26.397188764000003,-17.7891743122,0.00965986744314,-4.69119061002e-05
106,qDII-DR5-CLV3-LD_E25_170811_sam04_t00,E25,4,0,-34.5094105528,-14.3580293805,-15.939796771600001,0.00386605759502,-0.000110046959404
107,qDII-DR5-CLV3-LD_E25_170811_sam04_t00,E25,4,0,-27.971500213400002,-41.7521846954,-38.2514338916,0.015322237948700001,-0.000321430812883
108,qDII-DR5-CLV3-LD_E25_170811_sam04_t00,E25,4,0,-36.514637921799995,-4.74778982102,-15.160669177699999,0.00400689498803,-5.59402920456e-05
109,qDII-DR5-CLV3-LD_E25_170811_sam04_t00,E25,4,0,-32.7015008327,-20.3396555393,-15.690263326199998,0.0075647803806400005,-5.70582711068e-05
110,qDII-DR5-CLV3-LD_E25_170811_sam04_t00,E25,4,0,-39.7660117781,12.1093943611,-18.1911716929,0.007971131828310002,-2.01481158288e-05
111,qDII-DR5-CLV3-LD_E25_170811_sam04_t00,E25,4,0,-29.9685684569,-29.4033494261,-17.656089808,0.0112365896567,1.97068490716e-05
112,qDII-DR5-CLV3-LD_E25_170811_sam04_t00,E25,4,0,-42.1860935824,23.516565898400003,-23.3455385386,0.0136550299304,0.000115806110608
113,qDII-DR5-CLV3-LD_E25_170811_sam04_t00,E25,4,0,-26.2214425556,-43.784643688500005,-29.9528594577,0.0138523139301,-0.000153190177692
114,qDII-DR5-CLV3-LD_E25_170811_sam04_t00,E25,4,0,-40.913527974699996,19.8537698472,-20.8473740401,0.0114953833037,6.39126075647e-05
115,qDII-DR5-CLV3-LD_E25_170811_sam04_t00,E25,4,0,-26.658439263400002,-39.1178662268,-23.10715292,0.0180951627451,2.20954600367e-05
116,qDII-DR5-CLV3-LD_E25_170811_sam04_t00,E25,4,0,-27.858850767800003,-33.9183127561,-19.8049074831,0.0135995997878,5.41321779018e-05
117,qDII-DR5-CLV3-LD_E25_170811_sam04_t00,E25,4,0,-42.6834672673,31.218801545300003,-30.6819941854,0.0269376920053,0.000366692201105
118,qDII-DR5-CLV3-LD_E25_170811_sam04_t00,E25,4,0,-36.4513228507,6.998355125160001,-15.6181471608,0.008320248788010002,1.11276749506e-05
119,qDII-DR5-CLV3-LD_E25_170811_sam04_t00,E25,4,0,-41.3800915569,28.347197866,-24.698593056700002,0.017120423657799998,0.000228512477464
120,qDII-DR5-CLV3-LD_E25_170811_sam04_t00,E25,4,0,-28.5550682158,-25.3547901467,-15.4573654439,0.0108859361973,3.72900498046e-05
121,qDII-DR5-CLV3-LD_E25_170811_sam04_t00,E25,4,0,-38.3157843377,16.923516251,-18.3658451046,0.010643888628799999,6.89713595139e-05
122,qDII-DR5-CLV3-LD_E25_170811_sam04_t00,E25,4,0,-37.199135311,13.0114235206,-15.8593628246,0.009432719852299999,4.54717227295e-05
123,qDII-DR5-CLV3-LD_E25_170811_sam04_t00,E25,4,0,-22.7865468371,-47.5670645636,-32.1183126958,0.008917566784620001,-6.26028030909e-05
124,qDII-DR5-CLV3-LD_E25_170811_sam04_t00,E25,4,0,-31.0175684973,-11.914592821500001,-12.4878312674,0.0061724425697700005,-4.8592312102e-06
125,qDII-DR5-CLV3-LD_E25_170811_sam04_t00,E25,4,0,-31.7966997651,-7.61515894406,-12.662504679200001,0.00639713922362,1.42226122693e-05
126,qDII-DR5-CLV3-LD_E25_170811_sam04_t00,E25,4,0,-23.374334619899997,-42.2471391979,-24.1274961777,0.0194005890451,8.03559691364e-05
127,qDII-DR5-CLV3-LD_E25_170811_sam04_t00,E25,4,0,-33.8068268212,3.8655946689999996,-13.1283004438,0.010060566937799999,8.24658204495e-05
128,qDII-DR5-CLV3-LD_E25_170811_sam04_t00,E25,4,0,-28.882166211399998,-16.5408083629,-12.288204511199998,0.00872939440206,3.85426643106e-05
129,qDII-DR5-CLV3-LD_E25_170811_sam04_t00,E25,4,0,-23.3070802039,-38.8398677248,-19.572009600799998,0.01837753102,0.00017371917524
130,qDII-DR5-CLV3-LD_E25_170811_sam04_t00,E25,4,0,-34.461134496599996,9.47364934458,-13.3528805446,0.010559263853,8.56586075927e-05
131,qDII-DR5-CLV3-LD_E25_170811_sam04_t00,E25,4,0,-40.2823067556,35.612562132600004,-30.8317142526,0.034851334794300005,0.000491989305879
132,qDII-DR5-CLV3-LD_E25_170811_sam04_t00,E25,4,0,-23.8111055089,-34.8074030993,-17.3899207997,0.014724987067100001,0.00014729617482899998
133,qDII-DR5-CLV3-LD_E25_170811_sam04_t00,E25,4,0,-31.3546916861,-2.13254156752,-11.700385892,0.009659287502790001,9.40151253358e-05
134,qDII-DR5-CLV3-LD_E25_170811_sam04_t00,E25,4,0,-24.642397561,-29.3573904544,-15.2660564692,0.012592929822,0.00011642455191200001
135,qDII-DR5-CLV3-LD_E25_170811_sam04_t00,E25,4,0,-20.2512720635,-46.52815343140001,-26.2763138528,0.017238105239099997,7.47495840248e-05
136,qDII-DR5-CLV3-LD_E25_170811_sam04_t00,E25,4,0,-19.2376443101,-48.144720825600004,-29.7199615754,0.014506657570200001,8.72725778963e-05
137,qDII-DR5-CLV3-LD_E25_170811_sam04_t00,E25,4,0,-33.4162450031,14.1941915958,-13.527553956300002,0.0117555812451,0.000122811572238
138,qDII-DR5-CLV3-LD_E25_170811_sam04_t00,E25,4,0,-36.2260053506,26.3646007534,-18.715191928,0.0162817680975,0.000239255369488
139,qDII-DR5-CLV3-LD_E25_170811_sam04_t00,E25,4,0,-37.8096695968,33.224204229,-24.8566309054,0.0227863523933,0.000360699846161
140,qDII-DR5-CLV3-LD_E25_170811_sam04_t00,E25,4,0,-24.8241128735,-20.2484846672,-10.935149993,0.0107506939456,8.38831392446e-05
141,qDII-DR5-CLV3-LD_E25_170811_sam04_t00,E25,4,0,-27.4527807479,-8.86247318779,-10.2308824327,0.008506934424909999,6.28952269096e-05
142,qDII-DR5-CLV3-LD_E25_170811_sam04_t00,E25,4,0,-34.8337416565,23.1079809171,-17.4037263175,0.015161057945600001,0.00021098764258400003
143,qDII-DR5-CLV3-LD_E25_170811_sam04_t00,E25,4,0,-36.5319784833,30.463852761,-21.221674208099998,0.0177845577039,0.000273266945222
144,qDII-DR5-CLV3-LD_E25_170811_sam04_t00,E25,4,0,-23.177019421599997,-24.608893451700002,-11.922222124700001,0.011960843475799999,0.000114263153116
145,qDII-DR5-CLV3-LD_E25_170811_sam04_t00,E25,4,0,-17.881939063900003,-44.770469508000005,-22.8077127856,0.020605151059099998,0.00021909624671200004
146,qDII-DR5-CLV3-LD_E25_170811_sam04_t00,E25,4,0,-30.350977441599998,9.238869400419999,-10.9628472057,0.0134708494554,0.000177905434833
147,qDII-DR5-CLV3-LD_E25_170811_sam04_t00,E25,4,0,-19.4723119976,-36.9571619263,-16.0950907521,0.0160802048376,0.000204107365146
148,qDII-DR5-CLV3-LD_E25_170811_sam04_t00,E25,4,0,-27.145904340300003,-1.8698906482700002,-8.15692479128,0.0132026190113,0.00018471406198900003
149,qDII-DR5-CLV3-LD_E25_170811_sam04_t00,E25,4,0,-17.7106459652,-41.8138390791,-19.4056539706,0.020527836763400004,0.000255928958277
150,qDII-DR5-CLV3-LD_E25_170811_sam04_t00,E25,4,0,-36.33274015,39.7719581995,-29.786417650300002,0.041349624646,0.000592550364554
151,qDII-DR5-CLV3-LD_E25_170811_sam04_t00,E25,4,0,-20.0644907629,-28.8442803609,-12.9009764748,0.013085581503999999,0.00015020521121700002
152,qDII-DR5-CLV3-LD_E25_170811_sam04_t00,E25,4,0,-23.6130557871,-13.473756570299999,-8.84455678856,0.0103848296239,8.88632762142e-05
153,qDII-DR5-CLV3-LD_E25_170811_sam04_t00,E25,4,0,-31.233187049899996,20.4573037416,-13.752134057100001,0.014638260180000001,0.00019727633022900002
154,qDII-DR5-CLV3-LD_E25_170811_sam04_t00,E25,4,0,-34.8418461652,37.0127692266,-27.3215242779,0.0371196090605,0.000560812716092
155,qDII-DR5-CLV3-LD_E25_170811_sam04_t00,E25,4,0,-21.4516860184,-20.0617408138,-9.7401333236,0.0109257743322,9.47937787046e-05
156,qDII-DR5-CLV3-LD_E25_170811_sam04_t00,E25,4,0,-14.4627027491,-49.4097076421,-24.9398948977,0.0193170781558,0.000293139454472
157,qDII-DR5-CLV3-LD_E25_170811_sam04_t00,E25,4,0,-26.895805518200003,6.29326822147,-8.47300048869,0.015296605601299999,0.00023250467671000002
158,qDII-DR5-CLV3-LD_E25_170811_sam04_t00,E25,4,0,-32.1567406586,30.9301730352,-18.8565942137,0.0179381374476,0.000288839737686
159,qDII-DR5-CLV3-LD_E25_170811_sam04_t00,E25,4,0,-12.648650113599999,-52.6440049256,-30.657127018,0.020900640496400003,0.00040579871260599994
160,qDII-DR5-CLV3-LD_E25_170811_sam04_t00,E25,4,0,-16.8117049269,-33.6871878499,-13.8547774805,0.0143086322062,0.00018476846184999998
161,qDII-DR5-CLV3-LD_E25_170811_sam04_t00,E25,4,0,-27.1758682354,13.0542266545,-8.73916949704,0.015337479353100002,0.00022664191898199998
162,qDII-DR5-CLV3-LD_E25_170811_sam04_t00,E25,4,0,-27.980684099899996,17.4649127434,-11.2622873401,0.0147780624426,0.000202310014694
163,qDII-DR5-CLV3-LD_E25_170811_sam04_t00,E25,4,0,-14.270681807999999,-40.0703402435,-17.0987984468,0.017878004014299998,0.000259105908996
164,qDII-DR5-CLV3-LD_E25_170811_sam04_t00,E25,4,0,-21.3264678559,-8.58372761463,-6.670785768969999,0.012959421429899998,0.000164198767262
165,qDII-DR5-CLV3-LD_E25_170811_sam04_t00,E25,4,0,-31.1688545693,34.048332979899996,-21.3131698047,0.0198485172663,0.000315615853041
166,qDII-DR5-CLV3-LD_E25_170811_sam04_t00,E25,4,0,-29.060154289699998,27.6884853578,-16.3584297152,0.017719128831,0.000285968986668
167,qDII-DR5-CLV3-LD_E25_170811_sam04_t00,E25,4,0,-23.0820480402,3.64375354105,-5.991471553209999,0.016548041146200003,0.000265671098673
168,qDII-DR5-CLV3-LD_E25_170811_sam04_t00,E25,4,0,-9.55183792594,-53.1127339663,-28.267093679099997,0.023895994475699997,0.000521768289394
169,qDII-DR5-CLV3-LD_E25_170811_sam04_t00,E25,4,0,-10.236672817999999,-50.1463881533,-35.4205581327,0.021635208026799996,0.00043695318451799996
170,qDII-DR5-CLV3-LD_E25_170811_sam04_t00,E25,4,0,-21.1755080293,-1.8404417543400002,-4.5885103460100005,0.0162502122896,0.00026060026345599995
171,qDII-DR5-CLV3-LD_E25_170811_sam04_t00,E25,4,0,-9.41186363465,-51.8697380552,-24.798492611999997,0.0236692493989,0.00049056924368
172,qDII-DR5-CLV3-LD_E25_170811_sam04_t00,E25,4,0,-13.8081717054,-30.977944534000002,-11.589510864300001,0.013174660312,0.00016104701398199998
173,qDII-DR5-CLV3-LD_E25_170811_sam04_t00,E25,4,0,-23.0348440104,8.98716395471,-6.199416090980001,0.0160157223201,0.00024699680364
174,qDII-DR5-CLV3-LD_E25_170811_sam04_t00,E25,4,0,-9.48486639593,-47.8549460025,-20.2679593796,0.0227555499436,0.00039452896990499996
175,qDII-DR5-CLV3-LD_E25_170811_sam04_t00,E25,4,0,-25.6262759806,22.0611801906,-11.420325188800001,0.0157898682245,0.000221753837814
176,qDII-DR5-CLV3-LD_E25_170811_sam04_t00,E25,4,0,-15.008357391099999,-23.0054324265,-8.39539658697,0.0115464808672,0.00011324744511799998
177,qDII-DR5-CLV3-LD_E25_170811_sam04_t00,E25,4,0,-26.1922043771,26.3617765631,-12.7650619254,0.0173930545053,0.00027085946438
178,qDII-DR5-CLV3-LD_E25_170811_sam04_t00,E25,4,0,-17.0657455445,-12.2446140996,-5.31773125083,0.0132407104936,0.000157708609249
179,qDII-DR5-CLV3-LD_E25_170811_sam04_t00,E25,4,0,-9.68759243671,-43.2782606943,-16.932442816600002,0.0190385093558,0.00030139935202099996
180,qDII-DR5-CLV3-LD_E25_170811_sam04_t00,E25,4,0,-28.7047735567,40.0188461123,-25.039622098699997,0.0340480541812,0.0005234235237019999
181,qDII-DR5-CLV3-LD_E25_170811_sam04_t00,E25,4,0,-27.7741166904,38.7616651136,-29.6699687092,0.042823977604,0.000614545412079
182,qDII-DR5-CLV3-LD_E25_170811_sam04_t00,E25,4,0,-12.1141571097,-28.144426414,-9.34087981108,0.0122984857771,0.00013469681812399998
183,qDII-DR5-CLV3-LD_E25_170811_sam04_t00,E25,4,0,-5.331950910280001,-56.5967433528,-32.7809913485,0.026962490122400002,0.000653795243155
184,qDII-DR5-CLV3-LD_E25_170811_sam04_t00,E25,4,0,-26.2118031258,33.8438327773,-17.7447553594,0.0182023197312,0.00029813797493000003
185,qDII-DR5-CLV3-LD_E25_170811_sam04_t00,E25,4,0,-10.2589862924,-33.4061172867,-12.634807466500002,0.0135699173921,0.00017022565523700002
186,qDII-DR5-CLV3-LD_E25_170811_sam04_t00,E25,4,0,-13.6416095425,-18.7543662872,-6.204990004369999,0.0121089271286,0.000120829416468
187,qDII-DR5-CLV3-LD_E25_170811_sam04_t00,E25,4,0,-8.81968731985,-38.7157604737,-14.758671797,0.0156184210137,0.000226143783687
188,qDII-DR5-CLV3-LD_E25_170811_sam04_t00,E25,4,0,-26.4137375758,37.4924437408,-21.4046654013,0.0232574181292,0.000371613248819
189,qDII-DR5-CLV3-LD_E25_170811_sam04_t00,E25,4,0,-5.39521136451,-51.6995042796,-22.4250948361,0.0243567789978,0.000517854031951
190,qDII-DR5-CLV3-LD_E25_170811_sam04_t00,E25,4,0,-17.2261672425,-0.45400432416299996,-3.43508258413,0.016928466187499998,0.000280288269385
191,qDII-DR5-CLV3-LD_E25_170811_sam04_t00,E25,4,0,-20.2388794495,13.5201315049,-5.17907283328,0.014985252882100002,0.000219370683851
192,qDII-DR5-CLV3-LD_E25_170811_sam04_t00,E25,4,0,-4.15294715481,-55.231050556599996,-26.963945850100004,0.0268316454999,0.0006674436358780001
193,qDII-DR5-CLV3-LD_E25_170811_sam04_t00,E25,4,0,-23.9364265486,30.460613146900002,-14.076527535999999,0.01766963735,0.00028815901422900005
194,qDII-DR5-CLV3-LD_E25_170811_sam04_t00,E25,4,0,-18.711484084000002,8.753546505569998,-4.9794460770199995,0.0162625066114,0.000261539708661
195,qDII-DR5-CLV3-LD_E25_170811_sam04_t00,E25,4,0,-3.0288549173000003,-56.4014466104,-40.971434622800004,0.028157404501999998,0.000629924687239
196,qDII-DR5-CLV3-LD_E25_170811_sam04_t00,E25,4,0,-3.9662775383800004,-49.567086378,-20.1515104384,0.0224019242367,0.00043161695996800007
197,qDII-DR5-CLV3-LD_E25_170811_sam04_t00,E25,4,0,-4.87051528446,-44.725756807799996,-16.8326294385,0.018473477508599997,0.00029889675706200005
198,qDII-DR5-CLV3-LD_E25_170811_sam04_t00,E25,4,0,-11.8122374566,-14.6578546934,-5.17632896515,0.0133944074521,0.000158171168576
199,qDII-DR5-CLV3-LD_E25_170811_sam04_t00,E25,4,0,-5.0627074274199995,-40.1946988239,-14.6671762004,0.015426616213400001,0.00022175444552200002
200,qDII-DR5-CLV3-LD_E25_170811_sam04_t00,E25,4,0,-8.486957564039999,-24.437996381199998,-7.10888432092,0.012359551371200001,0.00012641505814100002
201,qDII-DR5-CLV3-LD_E25_170811_sam04_t00,E25,4,0,-20.434502232699998,27.312505108000003,-11.5783630375,0.0156328852888,0.00022492706048700002
202,qDII-DR5-CLV3-LD_E25_170811_sam04_t00,E25,4,0,-0.197632204034,-58.4937180154,-35.0046690572,0.026445260209999998,0.0006257326532590001
203,qDII-DR5-CLV3-LD_E25_170811_sam04_t00,E25,4,0,-5.410816151410001,-35.9129375192,-12.4934051808,0.013455840045900001,0.00016515366870400002
204,qDII-DR5-CLV3-LD_E25_170811_sam04_t00,E25,4,0,-19.338412297,24.414109172199996,-10.2835329899,0.0144626023394,0.00019084515052000004
205,qDII-DR5-CLV3-LD_E25_170811_sam04_t00,E25,4,0,-6.257767607230001,-31.319742133200002,-10.3362697243,0.012555181378799999,0.00013647335725600003
206,qDII-DR5-CLV3-LD_E25_170811_sam04_t00,E25,4,0,-23.404061438899998,42.949015932100004,-25.106164350700002,0.036958466761,0.000526653698936
207,qDII-DR5-CLV3-LD_E25_170811_sam04_t00,E25,4,0,-18.0553127915,20.7056857968,-8.955431816319999,0.0136345157371,0.000172453151559
208,qDII-DR5-CLV3-LD_E25_170811_sam04_t00,E25,4,0,-9.998524774380002,-11.418160358699998,-4.114396799890001,0.0144615314794,0.000194921042781
209,qDII-DR5-CLV3-LD_E25_170811_sam04_t00,E25,4,0,-12.637726546600001,0.0134784450502,-2.2400659147,0.016616062758,0.000273410581448
210,qDII-DR5-CLV3-LD_E25_170811_sam04_t00,E25,4,0,-13.5727743954,4.0636156433199995,-2.40642154491,0.017182430052,0.00029650383423799996
211,qDII-DR5-CLV3-LD_E25_170811_sam04_t00,E25,4,0,-20.5943581587,35.402081902,-16.583009816,0.0176206083368,0.000278431278576
212,qDII-DR5-CLV3-LD_E25_170811_sam04_t00,E25,4,0,-21.331353835199998,39.519006482399995,-21.4379365273,0.025704666437300003,0.00040092889478699997
213,qDII-DR5-CLV3-LD_E25_170811_sam04_t00,E25,4,0,-15.2189075051,14.8923838474,-5.18739061479,0.014986650533399998,0.000225829229769
214,qDII-DR5-CLV3-LD_E25_170811_sam04_t00,E25,4,0,0.9289278810449999,-54.1269299611,-23.4454380938,0.024607949536299998,0.000570484101421
215,qDII-DR5-CLV3-LD_E25_170811_sam04_t00,E25,4,0,-10.237243491000001,-3.91163687801,-2.06539250297,0.015813543285999997,0.00024425371889300003
216,qDII-DR5-CLV3-LD_E25_170811_sam04_t00,E25,4,0,-18.6513738345,32.5339657077,-14.109798662000001,0.015704502255599998,0.00023126099433400002
217,qDII-DR5-CLV3-LD_E25_170811_sam04_t00,E25,4,0,2.29089017716,-57.2523000233,-29.170987995700003,0.0259741758715,0.000655180696872
218,qDII-DR5-CLV3-LD_E25_170811_sam04_t00,E25,4,0,-6.87056253071,-17.569688645699998,-5.01829111644,0.013563267384799998,0.00016178124189300002
219,qDII-DR5-CLV3-LD_E25_170811_sam04_t00,E25,4,0,-13.4056464603,12.586160908599998,-3.90919613025,0.0162037130371,0.000268144390317
220,qDII-DR5-CLV3-LD_E25_170811_sam04_t00,E25,4,0,1.78629910008,-49.5188024163,-20.1016037494,0.020887758854000002,0.000388777330918
221,qDII-DR5-CLV3-LD_E25_170811_sam04_t00,E25,4,0,-4.308754502209999,-22.1935791971,-7.15879100998,0.0132736256524,0.00015078704021700002
222,qDII-DR5-CLV3-LD_E25_170811_sam04_t00,E25,4,0,0.845559973362,-42.6700768198,-14.5174561332,0.0160677336023,0.00023179489973400002
223,qDII-DR5-CLV3-LD_E25_170811_sam04_t00,E25,4,0,0.289656769996,-39.3375499176,-13.4804773125,0.014176381816200002,0.000180714815418
224,qDII-DR5-CLV3-LD_E25_170811_sam04_t00,E25,4,0,5.4827903312199995,-59.9821914732,-40.7551723035,0.014563997275200002,0.000212423874215
225,qDII-DR5-CLV3-LD_E25_170811_sam04_t00,E25,4,0,5.11338799286,-58.3821341567,-36.133143474499995,0.019051057790400002,0.00037688026763300003
226,qDII-DR5-CLV3-LD_E25_170811_sam04_t00,E25,4,0,-15.1962019111,29.5883645288,-11.619951945,0.013655820324600002,0.00017461581202200002
227,qDII-DR5-CLV3-LD_E25_170811_sam04_t00,E25,4,0,-0.583262168643,-32.7825858295,-10.2281385646,0.0126430540646,0.00013569937976299997
228,qDII-DR5-CLV3-LD_E25_170811_sam04_t00,E25,4,0,-10.2050214087,8.89383218705,-2.56445939362,0.016683879046,0.000283855053721
229,qDII-DR5-CLV3-LD_E25_170811_sam04_t00,E25,4,0,0.29500809461800004,-35.6621466975,-12.451816273299999,0.0131893618404,0.00015065011456999997
230,qDII-DR5-CLV3-LD_E25_170811_sam04_t00,E25,4,0,-1.07675357585,-28.7957485283,-9.21611308842,0.012501023850000001,0.000133098683152
231,qDII-DR5-CLV3-LD_E25_170811_sam04_t00,E25,4,0,-8.033400628189998,4.11073711001,-1.1864515309499999,0.0162852232438,0.00026620672858599997
232,qDII-DR5-CLV3-LD_E25_170811_sam04_t00,E25,4,0,-12.07928227,22.56002142,-7.8020040544399984,0.012429832617899999,0.00014161053307700002
233,qDII-DR5-CLV3-LD_E25_170811_sam04_t00,E25,4,0,3.75051997138,-45.0817394948,-16.7411338419,0.0178082115152,0.00027438635196
234,qDII-DR5-CLV3-LD_E25_170811_sam04_t00,E25,4,0,-16.3162815779,42.7617728784,-22.6911776673,0.028063971225099998,0.00041382845761600003
235,qDII-DR5-CLV3-LD_E25_170811_sam04_t00,E25,4,0,-17.147290744,46.3612690326,-24.0109610594,0.0333102831887,0.000487460345791
236,qDII-DR5-CLV3-LD_E25_170811_sam04_t00,E25,4,0,-3.8822370755,-10.1713453152,-2.93601569348,0.015184575970399999,0.00022421365060299998
237,qDII-DR5-CLV3-LD_E25_170811_sam04_t00,E25,4,0,6.640160519,-54.824211047,-25.71070471,0.0235980093921,0.0005379920171390001
238,qDII-DR5-CLV3-LD_E25_170811_sam04_t00,E25,4,0,-15.147754653,39.5496178713,-19.039585407,0.0178014859027,0.000254042956037
239,qDII-DR5-CLV3-LD_E25_170811_sam04_t00,E25,4,0,6.00590322973,-51.152295312,-21.171853696099998,0.0216983737997,0.00041365836903300003
240,qDII-DR5-CLV3-LD_E25_170811_sam04_t00,E25,4,0,-9.554710145580001,16.2481261122,-4.01732728989,0.015225115051899999,0.000232094213861
241,qDII-DR5-CLV3-LD_E25_170811_sam04_t00,E25,4,0,-11.943698961099999,26.5959735306,-9.130105228049999,0.0122518805439,0.00013486467077
242,qDII-DR5-CLV3-LD_E25_170811_sam04_t00,E25,4,0,-0.8063785488959999,-19.7957699624,-4.87688883076,0.014162344836299998,0.00018261898244099998
243,qDII-DR5-CLV3-LD_E25_170811_sam04_t00,E25,4,0,-7.2271727840199995,11.714327714300001,-2.64763720873,0.016070457511,0.000260745004646
244,qDII-DR5-CLV3-LD_E25_170811_sam04_t00,E25,4,0,-15.130343316300001,45.9467202052,-29.8363243394,0.0397433914863,0.000528528000797
245,qDII-DR5-CLV3-LD_E25_170811_sam04_t00,E25,4,0,9.68696087587,-59.699542991099996,-41.9002822839,0.011864683563600001,0.0001204032853
246,qDII-DR5-CLV3-LD_E25_170811_sam04_t00,E25,4,0,1.61517230229,-23.812139934,-7.04234206883,0.013331986180799999,0.000159343294899
247,qDII-DR5-CLV3-LD_E25_170811_sam04_t00,E25,4,0,10.3098356092,-57.7742819296,-34.938126805100005,0.0156530588319,0.000236951565313
248,qDII-DR5-CLV3-LD_E25_170811_sam04_t00,E25,4,0,-2.68661357412,-1.48047584046,-0.9202825226010001,0.015193751811600001,0.00022280486655200003
249,qDII-DR5-CLV3-LD_E25_170811_sam04_t00,E25,4,0,-10.5397152083,32.535044426300004,-12.8648753035,0.012423124340600002,0.00013426252808899998
250,qDII-DR5-CLV3-LD_E25_170811_sam04_t00,E25,4,0,5.86570066923,-33.9013907129,-11.2983885114,0.014260239668100002,0.0001613656069
251,qDII-DR5-CLV3-LD_E25_170811_sam04_t00,E25,4,0,-5.5480830685199996,17.3864293582,-4.0256450714,0.0146801331955,0.00021191876664099996
252,qDII-DR5-CLV3-LD_E25_170811_sam04_t00,E25,4,0,7.95463344872,-40.1756158852,-14.5507272592,0.0169416599528,0.00023380223382700002
253,qDII-DR5-CLV3-LD_E25_170811_sam04_t00,E25,4,0,5.51759194524,-29.6196294082,-9.124617491799999,0.013091350590600001,0.000139137575151
254,qDII-DR5-CLV3-LD_E25_170811_sam04_t00,E25,4,0,0.197052809525,-6.57384250369,-0.6957024218089999,0.0151146424232,0.000221052997343
255,qDII-DR5-CLV3-LD_E25_170811_sam04_t00,E25,4,0,-11.5457309994,44.289742261499995,-22.7078132304,0.022415813475599997,0.000275824869893
256,qDII-DR5-CLV3-LD_E25_170811_sam04_t00,E25,4,0,11.499090376500002,-54.603699966899995,-26.8474969089,0.0198827673216,0.000350820896435
257,qDII-DR5-CLV3-LD_E25_170811_sam04_t00,E25,4,0,11.2182931358,-51.538142316700004,-23.4537558754,0.0197933222428,0.000309348302651
258,qDII-DR5-CLV3-LD_E25_170811_sam04_t00,E25,4,0,10.2411096958,-47.3054958213,-18.939858206,0.0189154987094,0.000274960737451
259,qDII-DR5-CLV3-LD_E25_170811_sam04_t00,E25,4,0,-10.174535101,41.124377073699996,-19.05622097,0.016661406928,0.00019771368225999998
260,qDII-DR5-CLV3-LD_E25_170811_sam04_t00,E25,4,0,-5.25658317862,21.671678148,-5.36206402651,0.0130323982359,0.00015721871945
261,qDII-DR5-CLV3-LD_E25_170811_sam04_t00,E25,4,0,-7.0950771827,29.635070571700002,-9.204965261649999,0.011569030423900001,0.00011258343665599999
262,qDII-DR5-CLV3-LD_E25_170811_sam04_t00,E25,4,0,10.1424223377,-43.179451557200004,-16.7577694049,0.0178274044345,0.000247283970058
263,qDII-DR5-CLV3-LD_E25_170811_sam04_t00,E25,4,0,-2.9087125448799998,13.351224318800002,-2.6725905532599996,0.015315910566700001,0.000235460066961
264,qDII-DR5-CLV3-LD_E25_170811_sam04_t00,E25,4,0,-10.7186611783,49.0291195805,-26.4009943983,0.0256359461997,0.000205991810308
265,qDII-DR5-CLV3-LD_E25_170811_sam04_t00,E25,4,0,-9.803437896950001,49.688079959700005,-31.1062010424,0.025873874638299998,3.05436355305e-05
266,qDII-DR5-CLV3-LD_E25_170811_sam04_t00,E25,4,0,4.42696501827,-11.0259213605,-2.82788453384,0.014992281923,0.000216366202584
267,qDII-DR5-CLV3-LD_E25_170811_sam04_t00,E25,4,0,-6.42882362982,35.995665265,-14.134752006600001,0.0131598657925,0.000139210722799
268,qDII-DR5-CLV3-LD_E25_170811_sam04_t00,E25,4,0,-9.52703163872,49.415478508999996,-39.296644316700004,0.025166252582200004,-0.00016013176274100001
269,qDII-DR5-CLV3-LD_E25_170811_sam04_t00,E25,4,0,15.101453983399999,-56.337567195,-37.2948890179,0.0121766570196,4.0299254231e-05
270,qDII-DR5-CLV3-LD_E25_170811_sam04_t00,E25,4,0,14.664231457,-54.44374837,-30.3410513206,0.0159440664791,0.00013736089557299998
271,qDII-DR5-CLV3-LD_E25_170811_sam04_t00,E25,4,0,3.19056083794,-2.89652971744,-0.8121513629610001,0.014628473998100001,0.000203350701851
272,qDII-DR5-CLV3-LD_E25_170811_sam04_t00,E25,4,0,15.9386060649,-57.1897344739,-41.9418711914,0.0109502587866,1.05050731522e-06
273,qDII-DR5-CLV3-LD_E25_170811_sam04_t00,E25,4,0,8.66160816276,-24.7449480352,-6.942528690700001,0.0133507694025,0.00015577587895500002
274,qDII-DR5-CLV3-LD_E25_170811_sam04_t00,E25,4,0,2.56734615124,1.65220083926,-0.995142556199,0.014561816611600002,0.00019960510727
275,qDII-DR5-CLV3-LD_E25_170811_sam04_t00,E25,4,0,-0.886696678583,18.4625952021,-4.0256450714,0.0138287158847,0.00018752544191199999
276,qDII-DR5-CLV3-LD_E25_170811_sam04_t00,E25,4,0,5.53916599514,-7.52158276382,-1.7825879316,0.0147036445018,0.000208004708411
277,qDII-DR5-CLV3-LD_E25_170811_sam04_t00,E25,4,0,-2.7144309661199997,29.1533189383,-9.14674079107,0.0113285432324,0.00010023682110400001
278,qDII-DR5-CLV3-LD_E25_170811_sam04_t00,E25,4,0,-6.499565753400001,46.473184538699996,-23.9194654628,0.0208810166156,9.11262870412e-05
279,qDII-DR5-CLV3-LD_E25_170811_sam04_t00,E25,4,0,15.115698957000001,-46.228167482299995,-20.1099215309,0.015341935304100001,8.56730530915e-05
280,qDII-DR5-CLV3-LD_E25_170811_sam04_t00,E25,4,0,9.04120444562,-19.9166410577,-5.955456559040001,0.0138458119411,0.000177126414579
281,qDII-DR5-CLV3-LD_E25_170811_sam04_t00,E25,4,0,1.19141931706,14.0845138449,-2.6642727717500003,0.0147796547279,0.000219834447327
282,qDII-DR5-CLV3-LD_E25_170811_sam04_t00,E25,4,0,-4.95189418304,42.543419235500004,-19.064538751500002,0.0165720278252,0.00015542875838199998
283,qDII-DR5-CLV3-LD_E25_170811_sam04_t00,E25,4,0,3.2487504030900003,7.947170645510001,-2.40642154491,0.014976636791399999,0.00021742617312900002
284,qDII-DR5-CLV3-LD_E25_170811_sam04_t00,E25,4,0,15.053230093599998,-42.259002753800004,-16.7494516234,0.012877154284899998,9.07879920198e-05
285,qDII-DR5-CLV3-LD_E25_170811_sam04_t00,E25,4,0,11.987339692699999,-28.9791724494,-9.09134636575,0.0132191171454,0.00014216073389899998
286,qDII-DR5-CLV3-LD_E25_170811_sam04_t00,E25,4,0,17.3661825282,-50.428209246099996,-25.785564743600002,0.015200504627200002,-1.11342198246e-05
287,qDII-DR5-CLV3-LD_E25_170811_sam04_t00,E25,4,0,-0.012648646330799998,25.772424298,-7.818639617460001,0.011603186453200002,0.000107670587302
288,qDII-DR5-CLV3-LD_E25_170811_sam04_t00,E25,4,0,-1.7576378655400002,33.3308030019,-11.6449052896,0.011689394391700001,0.00010408881570899999
289,qDII-DR5-CLV3-LD_E25_170811_sam04_t00,E25,4,0,13.520369268900001,-31.920870719499998,-11.3067062929,0.0113920512723,0.000109507039513
290,qDII-DR5-CLV3-LD_E25_170811_sam04_t00,E25,4,0,1.3534217461899998,21.704614526999997,-5.303839555940001,0.0125919405983,0.000146160478342
291,qDII-DR5-CLV3-LD_E25_170811_sam04_t00,E25,4,0,12.0758877231,-22.890196988200003,-6.984117598260001,0.013995116876,0.000177964681447
292,qDII-DR5-CLV3-LD_E25_170811_sam04_t00,E25,4,0,-1.5336752777,36.0592968094,-14.093163099000002,0.0130756654957,0.00012717285337
293,qDII-DR5-CLV3-LD_E25_170811_sam04_t00,E25,4,0,-2.49440772327,40.220686219,-16.6079631605,0.0151912968412,0.00015211116482700002
294,qDII-DR5-CLV3-LD_E25_170811_sam04_t00,E25,4,0,20.796970150299998,-53.268190412299994,-36.191367945100005,0.0112387757809,-0.00017435928370200003
295,qDII-DR5-CLV3-LD_E25_170811_sam04_t00,E25,4,0,8.36154967624,0.595533357831,-2.0737102844799997,0.013940294948,0.000181880665314
296,qDII-DR5-CLV3-LD_E25_170811_sam04_t00,E25,4,0,4.67864457141,16.5479479667,-3.90087834873,0.0137255196768,0.00018785276466
297,qDII-DR5-CLV3-LD_E25_170811_sam04_t00,E25,4,0,21.5198325373,-55.474605813500006,-41.9585067545,0.0101284351623,-0.000120245805979
298,qDII-DR5-CLV3-LD_E25_170811_sam04_t00,E25,4,0,9.54601889093,-3.6103208810500003,-1.89903687275,0.013641152770400001,0.000177862404604
299,qDII-DR5-CLV3-LD_E25_170811_sam04_t00,E25,4,0,-2.9540367993000003,50.5333687684,-33.4213743477,0.0229657311589,-0.00021355312695400003
300,qDII-DR5-CLV3-LD_E25_170811_sam04_t00,E25,4,0,18.8158441966,-41.9130543748,-19.0729427101,0.00791881262247,-0.00010969510974200002
301,qDII-DR5-CLV3-LD_E25_170811_sam04_t00,E25,4,0,7.847499178139999,5.596067453659999,-2.27333704074,0.014540405942200001,0.00019746862529400002
302,qDII-DR5-CLV3-LD_E25_170811_sam04_t00,E25,4,0,12.606218013800001,-14.0915627872,-3.80663888399,0.013721998699199999,0.000175645066782
303,qDII-DR5-CLV3-LD_E25_170811_sam04_t00,E25,4,0,18.1715617143,-37.2730691695,-16.9158072536,0.00564598157887,-5.14422503345e-05
304,qDII-DR5-CLV3-LD_E25_170811_sam04_t00,E25,4,0,6.86079924975,11.7192255654,-3.6929338109599996,0.0143832399361,0.000201752487597
305,qDII-DR5-CLV3-LD_E25_170811_sam04_t00,E25,4,0,17.5478383228,-33.6467807588,-13.547019564600001,0.0064137105815000005,1.19090576727e-05
306,qDII-DR5-CLV3-LD_E25_170811_sam04_t00,E25,4,0,3.01758658145,30.215299694699997,-10.308486334500001,0.010759783422299999,7.95885053664e-05
307,qDII-DR5-CLV3-LD_E25_170811_sam04_t00,E25,4,0,20.7647456175,-44.8068003305,-22.4583659622,0.0101336131918,-0.00018775324432299999
308,qDII-DR5-CLV3-LD_E25_170811_sam04_t00,E25,4,0,-0.388403560418,46.8175549989,-23.877876555300002,0.0189530899729,5.26572975503e-05
309,qDII-DR5-CLV3-LD_E25_170811_sam04_t00,E25,4,0,16.3216851543,-23.7124999493,-9.25770199597,0.014199852641,0.00018866552974800002
310,qDII-DR5-CLV3-LD_E25_170811_sam04_t00,E25,4,0,3.34017946006,33.4412243656,-11.603316382000001,0.0110495186133,8.36552461759e-05
311,qDII-DR5-CLV3-LD_E25_170811_sam04_t00,E25,4,0,15.5733639893,-18.6218736999,-5.94713877753,0.014611329663200001,0.000201708728438
312,qDII-DR5-CLV3-LD_E25_170811_sam04_t00,E25,4,0,6.0047829430499995,23.7488498413,-7.6855551132899995,0.0113674566031,0.00010847483521799999
313,qDII-DR5-CLV3-LD_E25_170811_sam04_t00,E25,4,0,-0.501732912724,51.9316662962,-28.766074392600004,0.0216513169517,-7.65980060666e-05
314,qDII-DR5-CLV3-LD_E25_170811_sam04_t00,E25,4,0,18.2806117683,-27.574315375300003,-10.2614096907,0.0110534038834,0.00011505989023299999
315,qDII-DR5-CLV3-LD_E25_170811_sam04_t00,E25,4,0,2.7798852742699998,39.5667074674,-15.363039802000001,0.0141711537376,0.000119992331396
316,qDII-DR5-CLV3-LD_E25_170811_sam04_t00,E25,4,0,1.87643911896,43.479962692799994,-19.039585407,0.0163622854507,0.00012016634872000001
317,qDII-DR5-CLV3-LD_E25_170811_sam04_t00,E25,4,0,21.9755768852,-40.8050308704,-20.2596415981,0.00472200777,-0.00021735553374
318,qDII-DR5-CLV3-LD_E25_170811_sam04_t00,E25,4,0,10.7785954104,8.61906984087,-2.3648326373599997,0.014072703080000002,0.000185290251438
319,qDII-DR5-CLV3-LD_E25_170811_sam04_t00,E25,4,0,4.5045412213,35.794984194899996,-12.856557522000001,0.0116954309501,8.98343094178e-05
320,qDII-DR5-CLV3-LD_E25_170811_sam04_t00,E25,4,0,25.3078483512,-53.3893931551,-38.4899056873,0.009477155878569999,-0.000278996326434
321,qDII-DR5-CLV3-LD_E25_170811_sam04_t00,E25,4,0,19.922805533,-30.064210106199997,-12.4934051808,0.00607509133613,4.4438838143e-06
322,qDII-DR5-CLV3-LD_E25_170811_sam04_t00,E25,4,0,12.8153674055,3.4954234360600003,-3.3186336429799996,0.012981607658,0.000154290885694
323,qDII-DR5-CLV3-LD_E25_170811_sam04_t00,E25,4,0,1.4011506392,52.9358279832,-35.819725468099996,0.0226825473196,8.39982786072e-05
324,qDII-DR5-CLV3-LD_E25_170811_sam04_t00,E25,4,0,10.239086134199999,16.5038147848,-5.02103498457,0.0125647696083,0.00015291972650100002
325,qDII-DR5-CLV3-LD_E25_170811_sam04_t00,E25,4,0,26.097173563400002,-51.2604627386,-32.7061313149,0.012032067562799998,-0.00040168340247199996
326,qDII-DR5-CLV3-LD_E25_170811_sam04_t00,E25,4,0,15.8701581365,-6.03774656257,-2.91938013046,0.012345551661100001,0.00014754084137699999
327,qDII-DR5-CLV3-LD_E25_170811_sam04_t00,E25,4,0,14.6545959331,-0.772568204822,-3.13564244974,0.012463978456600001,0.000145075993574
328,qDII-DR5-CLV3-LD_E25_170811_sam04_t00,E25,4,0,22.4640544706,-33.674403863,-15.8455573068,0.000787926051097,-0.000160457060465
329,qDII-DR5-CLV3-LD_E25_170811_sam04_t00,E25,4,0,25.9255405113,-47.7431015492,-29.3290258444,0.012315532454,-0.000463524012603
330,qDII-DR5-CLV3-LD_E25_170811_sam04_t00,E25,4,0,12.722540076800001,12.219313066199998,-3.65966268492,0.013260650268299999,0.00016547255482799998
331,qDII-DR5-CLV3-LD_E25_170811_sam04_t00,E25,4,0,8.240227499369999,31.6343418565,-10.316804116,0.0096924681561,5.72170120867e-05
332,qDII-DR5-CLV3-LD_E25_170811_sam04_t00,E25,4,0,3.3595114811299998,52.7750455387,-29.9361377175,0.0213612727624,7.32265055018e-05
333,qDII-DR5-CLV3-LD_E25_170811_sam04_t00,E25,4,0,20.8895667594,-22.231320385500002,-9.27433755899,0.0135763320371,0.00018326392375400002
334,qDII-DR5-CLV3-LD_E25_170811_sam04_t00,E25,4,0,24.2154124239,-35.7124950548,-18.09418836,0.00022391536721299998,-0.000227484553371
335,qDII-DR5-CLV3-LD_E25_170811_sam04_t00,E25,4,0,4.8342373575,48.2365971608,-23.8861943368,0.0186224002085,0.00011082843333700001
336,qDII-DR5-CLV3-LD_E25_170811_sam04_t00,E25,4,0,10.2091793064,26.8044569601,-8.9387962533,0.010273378203999999,8.1563542281e-05
337,qDII-DR5-CLV3-LD_E25_170811_sam04_t00,E25,4,0,25.805728290300003,-38.902327509,-21.4712938305,0.00232664903387,-0.000292519862533
338,qDII-DR5-CLV3-LD_E25_170811_sam04_t00,E25,4,0,8.77602324928,34.861429022399996,-12.781697488399999,0.009706758946389999,4.91787492432e-05
339,qDII-DR5-CLV3-LD_E25_170811_sam04_t00,E25,4,0,23.2124873198,-26.745121220500003,-12.5932185589,0.0050325548754,-3.26486770986e-05
340,qDII-DR5-CLV3-LD_E25_170811_sam04_t00,E25,4,0,15.5075761697,6.6285155396,-4.5885103460100005,0.012817865177,0.00014821225675999998
341,qDII-DR5-CLV3-LD_E25_170811_sam04_t00,E25,4,0,20.0687515378,-12.2034599373,-4.9850199904000005,0.0149612356868,0.00021934326013699998
342,qDII-DR5-CLV3-LD_E25_170811_sam04_t00,E25,4,0,27.5052083453,-41.6403564241,-24.8650348641,0.0074352883078600005,-0.00040309720361300004
343,qDII-DR5-CLV3-LD_E25_170811_sam04_t00,E25,4,0,24.9430603635,-30.542474254499997,-15.9453706849,-0.000918315622166,-0.000211738831963
344,qDII-DR5-CLV3-LD_E25_170811_sam04_t00,E25,4,0,12.9263952112,21.5074209419,-7.5358350461,0.0110496526037,0.00011384760417899998
345,qDII-DR5-CLV3-LD_E25_170811_sam04_t00,E25,4,0,8.69891239159,39.818660784,-16.4915142194,0.0126322193282,5.68796599321e-05
346,qDII-DR5-CLV3-LD_E25_170811_sam04_t00,E25,4,0,7.24497142484,46.1163710042,-21.4379365273,0.017502773247,0.000117929610465
347,qDII-DR5-CLV3-LD_E25_170811_sam04_t00,E25,4,0,22.1784692269,-16.7184232674,-7.13383766545,0.0154376611638,0.000233530121941
348,qDII-DR5-CLV3-LD_E25_170811_sam04_t00,E25,4,0,8.48644404376,43.5128990718,-18.9813609364,0.0154264811824,8.52022945269e-05
349,qDII-DR5-CLV3-LD_E25_170811_sam04_t00,E25,4,0,6.69008563097,51.2937821984,-27.504515471100003,0.019888593117500002,0.000160091418626
350,qDII-DR5-CLV3-LD_E25_170811_sam04_t00,E25,4,0,20.1210810736,-5.9576049404299996,-4.05617232931,0.0126186383979,0.000156520833875
351,qDII-DR5-CLV3-LD_E25_170811_sam04_t00,E25,4,0,18.4847473382,1.13013515654,-4.34729468219,0.012213537761099999,0.00013869548081799998
352,qDII-DR5-CLV3-LD_E25_170811_sam04_t00,E25,4,0,5.87141936298,55.7644609757,-44.0933465575,0.0184719996228,0.000212535341801
353,qDII-DR5-CLV3-LD_E25_170811_sam04_t00,E25,4,0,29.240906894899997,-44.53526487479999,-27.0803947912,0.011217890995,-0.000464024587925
354,qDII-DR5-CLV3-LD_E25_170811_sam04_t00,E25,4,0,15.0045112069,17.1293395847,-6.17446274645,0.0118338275879,0.00013147742395
355,qDII-DR5-CLV3-LD_E25_170811_sam04_t00,E25,4,0,6.607849267380001,55.3485693768,-32.3511244009,0.020384414543999998,0.00020604745007099997
356,qDII-DR5-CLV3-LD_E25_170811_sam04_t00,E25,4,0,30.815563357600002,-48.581914588000004,-30.424229135700003,0.0145629755064,-0.00044574777065300005
357,qDII-DR5-CLV3-LD_E25_170811_sam04_t00,E25,4,0,31.9440465775,-52.5452668414,-39.6350156677,0.01063078986,-0.00030018758916799997
358,qDII-DR5-CLV3-LD_E25_170811_sam04_t00,E25,4,0,12.9432407758,31.6055562573,-11.4452785333,0.00868834352072,3.86382902848e-05
359,qDII-DR5-CLV3-LD_E25_170811_sam04_t00,E25,4,0,28.3573969911,-33.311198335,-19.3224761555,-0.0028440473744299997,-0.00032971039711699997
360,qDII-DR5-CLV3-LD_E25_170811_sam04_t00,E25,4,0,32.7644647785,-51.4756605437,-33.8096523877,0.0150082742678,-0.000356568820068
361,qDII-DR5-CLV3-LD_E25_170811_sam04_t00,E25,4,0,19.4206984619,8.17183250541,-4.613463690540001,0.0125878742655,0.000143090770908
362,qDII-DR5-CLV3-LD_E25_170811_sam04_t00,E25,4,0,27.894941505300004,-25.7602100251,-14.933345208699999,-0.0009587919910850001,-0.000193428467666
363,qDII-DR5-CLV3-LD_E25_170811_sam04_t00,E25,4,0,14.1337958386,34.7705060213,-13.9018541243,0.007685217816270001,5.26876974123e-07
364,qDII-DR5-CLV3-LD_E25_170811_sam04_t00,E25,4,0,10.7221714861,49.5478745963,-25.056257661700002,0.019360770492400002,0.00020222799145599998
365,qDII-DR5-CLV3-LD_E25_170811_sam04_t00,E25,4,0,32.85762961,-45.406682645299995,-27.0138525391,0.0141760631889,-0.00040276888328199997
366,qDII-DR5-CLV3-LD_E25_170811_sam04_t00,E25,4,0,25.312460251300003,-10.875672424100001,-7.3334644217100005,0.0151409423902,0.000221788033512
367,qDII-DR5-CLV3-LD_E25_170811_sam04_t00,E25,4,0,19.754051057,14.125088488900001,-7.1864882226399995,0.012344447989,0.000140098559658
368,qDII-DR5-CLV3-LD_E25_170811_sam04_t00,E25,4,0,27.9105438418,-20.2799176386,-11.6310997718,0.0076144740727,3.06480294254e-05
369,qDII-DR5-CLV3-LD_E25_170811_sam04_t00,E25,4,0,30.1400166846,-29.0121798813,-18.3021328978,-0.005450408322640001,-0.000350401498552
370,qDII-DR5-CLV3-LD_E25_170811_sam04_t00,E25,4,0,35.040292993099996,-49.312962900600006,-30.3576868836,0.018406929332700002,-0.000297017470199
371,qDII-DR5-CLV3-LD_E25_170811_sam04_t00,E25,4,0,23.229613319899997,2.76935675101,-6.71237467653,0.013011296899000001,0.000162223139171
372,qDII-DR5-CLV3-LD_E25_170811_sam04_t00,E25,4,0,19.359698645399998,19.5317987995,-8.572813866819999,0.011499365611799999,0.00012286458139700002
373,qDII-DR5-CLV3-LD_E25_170811_sam04_t00,E25,4,0,14.3012066597,41.4425347958,-18.8482764322,0.0131826019967,6.19950307691e-05
374,qDII-DR5-CLV3-LD_E25_170811_sam04_t00,E25,4,0,31.7146731473,-33.0588295945,-21.645967242199998,-0.00369552271917,-0.00037666976573100003
375,qDII-DR5-CLV3-LD_E25_170811_sam04_t00,E25,4,0,27.437837344200002,-14.5338184952,-9.51555322281,0.0134274989273,0.00017100663991199998
376,qDII-DR5-CLV3-LD_E25_170811_sam04_t00,E25,4,0,15.277598509,38.137962645100004,-16.3667474967,0.00851398420368,-9.24078150937e-06
377,qDII-DR5-CLV3-LD_E25_170811_sam04_t00,E25,4,0,11.8765080543,52.8697038959,-28.691214359,0.0196562814233,0.00024478053295599997
378,qDII-DR5-CLV3-LD_E25_170811_sam04_t00,E25,4,0,13.8755354405,45.135610588599995,-20.168059824300002,0.0168819876997,0.00013869890140600003
379,qDII-DR5-CLV3-LD_E25_170811_sam04_t00,E25,4,0,11.6126705129,56.786446606400006,-35.8779499387,0.018494786741,0.000243824483134
380,qDII-DR5-CLV3-LD_E25_170811_sam04_t00,E25,4,0,19.4590634596,23.7246304458,-11.0792961468,0.010148784264,8.39995104863e-05
381,qDII-DR5-CLV3-LD_E25_170811_sam04_t00,E25,4,0,18.6126207085,29.240267977800002,-12.4739395725,0.00784903831386,1.89947074742e-05
382,qDII-DR5-CLV3-LD_E25_170811_sam04_t00,E25,4,0,31.517298431100002,-24.806741066199997,-17.2817896401,-0.005815829228350001,-0.000349238740603
383,qDII-DR5-CLV3-LD_E25_170811_sam04_t00,E25,4,0,38.0446748727,-52.155269056899996,-38.4233634352,0.0203867094761,-0.00021100690141599997
384,qDII-DR5-CLV3-LD_E25_170811_sam04_t00,E25,4,0,34.3907708703,-36.3284720235,-22.666310499899996,0.0034150846393,-0.000282190910514
385,qDII-DR5-CLV3-LD_E25_170811_sam04_t00,E25,4,0,13.2178541922,55.3815057558,-32.2928999304,0.0195123168252,0.000276697135103
386,qDII-DR5-CLV3-LD_E25_170811_sam04_t00,E25,4,0,23.2567098964,14.6723812328,-8.34823376603,0.012770281236399998,0.00015295904094299998
387,qDII-DR5-CLV3-LD_E25_170811_sam04_t00,E25,4,0,28.2075638077,-4.92283186444,-8.711472284380001,0.014175127632500001,0.00018649194105099998
388,qDII-DR5-CLV3-LD_E25_170811_sam04_t00,E25,4,0,26.8412105292,0.9954943973270001,-7.7826246233,0.0138322335218,0.00018449129448400002
389,qDII-DR5-CLV3-LD_E25_170811_sam04_t00,E25,4,0,39.3639358054,-51.397096840399996,-32.581364592199996,0.0224504420989,-7.96565783605e-05
390,qDII-DR5-CLV3-LD_E25_170811_sam04_t00,E25,4,0,25.843976703000003,7.16427983334,-8.03215806862,0.013593299718,0.000176826288713
391,qDII-DR5-CLV3-LD_E25_170811_sam04_t00,E25,4,0,13.7390079479,59.5966599549,-41.828079941300004,0.0183648002828,0.00027862284764499994
392,qDII-DR5-CLV3-LD_E25_170811_sam04_t00,E25,4,0,39.1868943615,-46.9316637436,-26.897403598,0.0231122951756,1.20466658202e-05
393,qDII-DR5-CLV3-LD_E25_170811_sam04_t00,E25,4,0,34.5781750102,-26.969107062,-19.5137851302,-0.0075846195443699995,-0.00042670214064699996
394,qDII-DR5-CLV3-LD_E25_170811_sam04_t00,E25,4,0,30.836683319499997,-10.762926070299999,-9.632002163960001,0.0118417550318,9.70875108432e-05
395,qDII-DR5-CLV3-LD_E25_170811_sam04_t00,E25,4,0,18.8328697701,43.0805938953,-20.0432931016,0.015060846605499998,0.000134073171076
396,qDII-DR5-CLV3-LD_E25_170811_sam04_t00,E25,4,0,35.944754107399994,-30.114474686999998,-20.5507639509,-0.00539832234294,-0.0003937416526619999
397,qDII-DR5-CLV3-LD_E25_170811_sam04_t00,E25,4,0,32.7853589217,-16.4296306628,-12.9092942564,0.00408657506763,-0.000150756890309
398,qDII-DR5-CLV3-LD_E25_170811_sam04_t00,E25,4,0,22.406553619,31.2998508748,-14.863972911400001,0.00688306474868,-1.91787020429e-05
399,qDII-DR5-CLV3-LD_E25_170811_sam04_t00,E25,4,0,21.492573565900003,35.2587334245,-17.3704551914,0.0073501681744899995,-1.95177465501e-05
400,qDII-DR5-CLV3-LD_E25_170811_sam04_t00,E25,4,0,20.568059615,39.2632432985,-18.706874146500002,0.010651903838500001,4.34622844254e-05
401,qDII-DR5-CLV3-LD_E25_170811_sam04_t00,E25,4,0,26.8683071056,12.898518879100001,-9.4184837128,0.013162942809600002,0.000162051659745
402,qDII-DR5-CLV3-LD_E25_170811_sam04_t00,E25,4,0,23.8504693927,25.970210125,-12.299266160799998,0.0092799146366,4.639405351699999e-05
403,qDII-DR5-CLV3-LD_E25_170811_sam04_t00,E25,4,0,34.9161444065,-21.0358486414,-17.398238581199998,-0.00541614186682,-0.000395674791146
404,qDII-DR5-CLV3-LD_E25_170811_sam04_t00,E25,4,0,25.3516714567,20.392435191,-10.8963049536,0.0115333366662,0.000111664775703
405,qDII-DR5-CLV3-LD_E25_170811_sam04_t00,E25,4,0,29.5647381008,5.84222101878,-9.11904357841,0.013775214655200001,0.00018093783236099997
406,qDII-DR5-CLV3-LD_E25_170811_sam04_t00,E25,4,0,39.150787551,-34.7548753161,-21.5128827381,0.00715334741931,-0.000137799575647
407,qDII-DR5-CLV3-LD_E25_170811_sam04_t00,E25,4,0,41.3381248025,-43.3046282617,-23.5036625644,0.021431822739300003,0.000160914743062
408,qDII-DR5-CLV3-LD_E25_170811_sam04_t00,E25,4,0,20.4444221836,47.195940556800004,-22.533139818600002,0.020759079467,0.000317803309425
409,qDII-DR5-CLV3-LD_E25_170811_sam04_t00,E25,4,0,43.2508647961,-50.664969809300004,-31.4029834858,0.0264492535563,0.00022243394264500002
410,qDII-DR5-CLV3-LD_E25_170811_sam04_t00,E25,4,0,19.2455367934,55.16282046560001,-29.8862310285,0.0237529465157,0.000501576766672
411,qDII-DR5-CLV3-LD_E25_170811_sam04_t00,E25,4,0,19.272238799700002,56.896452546300004,-34.6413443617,0.0232861621245,0.0005152088342940001
412,qDII-DR5-CLV3-LD_E25_170811_sam04_t00,E25,4,0,41.8631037686,-38.181397280700004,-21.3548448894,0.0143543912045,5.03254664445e-05
413,qDII-DR5-CLV3-LD_E25_170811_sam04_t00,E25,4,0,39.577362045,-27.356116561700002,-20.6256239845,-0.00114234712474,-0.000315516826455
414,qDII-DR5-CLV3-LD_E25_170811_sam04_t00,E25,4,0,32.9839744156,1.20298288473,-11.2512256904,0.0135816918545,0.00016604900120200004
415,qDII-DR5-CLV3-LD_E25_170811_sam04_t00,E25,4,0,36.9327518808,-14.976405850499999,-16.4444375756,-0.0019767616845,-0.00041416409999
416,qDII-DR5-CLV3-LD_E25_170811_sam04_t00,E25,4,0,29.9607283108,15.222746038099999,-11.8251526147,0.0124323734285,0.0001314669692
417,qDII-DR5-CLV3-LD_E25_170811_sam04_t00,E25,4,0,31.145197525500002,11.016891799200002,-11.650479203,0.012937953317100001,0.000150751053022
418,qDII-DR5-CLV3-LD_E25_170811_sam04_t00,E25,4,0,25.177342287800002,36.8665127824,-19.7438529673,0.0120420636877,0.000107584167922
419,qDII-DR5-CLV3-LD_E25_170811_sam04_t00,E25,4,0,23.6244881443,44.5173086298,-22.400055314499998,0.020021079291,0.00031783995485000006
420,qDII-DR5-CLV3-LD_E25_170811_sam04_t00,E25,4,0,39.2554466225,-22.2631653223,-19.6551874159,-0.00447290483186,-0.000441440561141
421,qDII-DR5-CLV3-LD_E25_170811_sam04_t00,E25,4,0,38.4968744457,-18.977428239400002,-18.6182085952,-0.00540486619325,-0.0004903091278640001
422,qDII-DR5-CLV3-LD_E25_170811_sam04_t00,E25,4,0,35.488270335100005,-5.94573211921,-12.121848880999998,0.0102402189984,1.22828003248e-05
423,qDII-DR5-CLV3-LD_E25_170811_sam04_t00,E25,4,0,27.561431416199998,28.3891794175,-15.8759983876,0.00835186062775,-1.03860240792e-05
424,qDII-DR5-CLV3-LD_E25_170811_sam04_t00,E25,4,0,24.600879993600003,41.2127364791,-19.918526379,0.016322144695899998,0.00022090179940499998
425,qDII-DR5-CLV3-LD_E25_170811_sam04_t00,E25,4,0,36.8497239265,-9.99354432743,-14.2956199005,0.005685072867489999,-0.000190321690064
426,qDII-DR5-CLV3-LD_E25_170811_sam04_t00,E25,4,0,29.6287876953,21.2837667478,-13.2364316034,0.011065884487700002,7.13018231218e-05
427,qDII-DR5-CLV3-LD_E25_170811_sam04_t00,E25,4,0,28.7042737443,25.288276621799998,-14.572850558499999,0.00981492720114,2.76305534202e-05
428,qDII-DR5-CLV3-LD_E25_170811_sam04_t00,E25,4,0,27.6035099402,32.8301452479,-17.2207351242,0.00872572562149,3.77317832276e-06
429,qDII-DR5-CLV3-LD_E25_170811_sam04_t00,E25,4,0,46.36327932020001,-45.653406463500005,-25.71070471,0.028343815405700003,0.000516569860359
430,qDII-DR5-CLV3-LD_E25_170811_sam04_t00,E25,4,0,48.1616725519,-49.744521005900005,-31.3946657043,0.0295781585893,0.000541173955711
431,qDII-DR5-CLV3-LD_E25_170811_sam04_t00,E25,4,0,44.513685646199995,-33.943353734,-21.496247175,0.014424769709100001,0.00013137851788700002
432,qDII-DR5-CLV3-LD_E25_170811_sam04_t00,E25,4,0,37.879179835,-3.35686069838,-14.5451533459,0.009751394320680002,-1.34134811352e-05
433,qDII-DR5-CLV3-LD_E25_170811_sam04_t00,E25,4,0,42.6489412733,-22.1676761175,-20.8002973963,2.45189293471e-05,-0.000392770532344
434,qDII-DR5-CLV3-LD_E25_170811_sam04_t00,E25,4,0,25.102152114499997,54.7604633832,-30.989752101300002,0.027142040710200002,0.0006805184727600001
435,qDII-DR5-CLV3-LD_E25_170811_sam04_t00,E25,4,0,33.8170730175,17.9366393341,-14.240139298099999,0.011889697165299999,8.17923602019e-05
436,qDII-DR5-CLV3-LD_E25_170811_sam04_t00,E25,4,0,37.7599333861,1.7828803603299999,-13.5747167772,0.0120315244506,9.40981717555e-05
437,qDII-DR5-CLV3-LD_E25_170811_sam04_t00,E25,4,0,27.267629979699997,47.2300394308,-23.644978673,0.0248422536961,0.000534366007994
438,qDII-DR5-CLV3-LD_E25_170811_sam04_t00,E25,4,0,47.361133535200004,-38.8798408616,-22.4500481807,0.023618423514999997,0.00044505293615699994
439,qDII-DR5-CLV3-LD_E25_170811_sam04_t00,E25,4,0,29.5998412097,38.0527683427,-20.9222340737,0.017327114606,0.000307172580051
440,qDII-DR5-CLV3-LD_E25_170811_sam04_t00,E25,4,0,41.8284089377,-13.9903321601,-19.9546275503,-0.00036846875389199993,-0.00050568482189
441,qDII-DR5-CLV3-LD_E25_170811_sam04_t00,E25,4,0,25.4466043796,56.9670590609,-41.6201354035,0.030614497113099996,0.000940100873297
442,qDII-DR5-CLV3-LD_E25_170811_sam04_t00,E25,4,0,50.46425984020001,-50.4716664096,-36.0333300964,0.0299348063,0.0006457716005390001
443,qDII-DR5-CLV3-LD_E25_170811_sam04_t00,E25,4,0,41.1217146592,-10.0046573538,-17.772538749200002,0.0032621053597800004,-0.00037898893196800003
444,qDII-DR5-CLV3-LD_E25_170811_sam04_t00,E25,4,0,35.8433111148,12.8586202536,-14.0238769788,0.012485837505499999,0.000114776582891
445,qDII-DR5-CLV3-LD_E25_170811_sam04_t00,E25,4,0,33.1889586436,24.355883944400002,-15.6680538498,0.0112508445608,2.85756740395e-05
446,qDII-DR5-CLV3-LD_E25_170811_sam04_t00,E25,4,0,32.5138660586,28.2046767777,-16.9961550234,0.0114039357496,3.80489725981e-05
447,qDII-DR5-CLV3-LD_E25_170811_sam04_t00,E25,4,0,29.3457459753,42.8519580736,-22.2836063733,0.023303011726199998,0.0005212228153749999
448,qDII-DR5-CLV3-LD_E25_170811_sam04_t00,E25,4,0,41.0179017952,-6.781057672949999,-16.727242147000002,0.0062999126460900005,-0.000209413423292
449,qDII-DR5-CLV3-LD_E25_170811_sam04_t00,E25,4,0,31.584452420399998,34.0797007053,-19.577497337,0.014405681593899999,0.000187805026793
450,qDII-DR5-CLV3-LD_E25_170811_sam04_t00,E25,4,0,40.1920181351,-2.2791169355500003,-16.9102333402,0.00887227394216,-6.23348220366e-05
451,qDII-DR5-CLV3-LD_E25_170811_sam04_t00,E25,4,0,27.6426094614,52.0783439711,-27.3464776224,0.02771249131,0.000691065302894
452,qDII-DR5-CLV3-LD_E25_170811_sam04_t00,E25,4,0,43.709490170500004,-16.5903166073,-21.008241934,0.000173026661508,-0.000487508887992
453,qDII-DR5-CLV3-LD_E25_170811_sam04_t00,E25,4,0,38.363266438000004,6.566722508580001,-14.9277712954,0.012596530585300001,0.00011474651735200001
454,qDII-DR5-CLV3-LD_E25_170811_sam04_t00,E25,4,0,27.2801416292,55.497655818199995,-35.6866409639,0.026803987644700003,0.0006937484521989999
455,qDII-DR5-CLV3-LD_E25_170811_sam04_t00,E25,4,0,33.829018894899995,29.905288703000004,-19.3945061438,0.015069245952999999,0.000154228494623
456,qDII-DR5-CLV3-LD_E25_170811_sam04_t00,E25,4,0,50.8116886575,-41.8054444778,-24.6487725448,0.0282009068623,0.000637925676213
457,qDII-DR5-CLV3-LD_E25_170811_sam04_t00,E25,4,0,38.919847097600005,11.553071516700001,-16.289143595,0.0133312038876,0.000119435743338
458,qDII-DR5-CLV3-LD_E25_170811_sam04_t00,E25,4,0,37.4237705395,18.033291034,-16.5553126034,0.0133222276338,8.60121229965e-05
459,qDII-DR5-CLV3-LD_E25_170811_sam04_t00,E25,4,0,47.263349452,-23.6619620504,-20.7004840181,0.00837609106216,-0.00014974967453699998
460,qDII-DR5-CLV3-LD_E25_170811_sam04_t00,E25,4,0,52.4955093088,-45.400290651800006,-28.0092424523,0.030626690496999998,0.000730666605351
461,qDII-DR5-CLV3-LD_E25_170811_sam04_t00,E25,4,0,49.616628477700004,-32.9304877871,-20.317866068599997,0.019609870458400003,0.000346344065509
462,qDII-DR5-CLV3-LD_E25_170811_sam04_t00,E25,4,0,48.894783500200006,-28.8791880938,-21.6542850238,0.0157679224446,0.000183333484657
463,qDII-DR5-CLV3-LD_E25_170811_sam04_t00,E25,4,0,36.7332443695,23.7982252452,-17.958273810599998,0.013531816384299998,6.24315591526e-05
464,qDII-DR5-CLV3-LD_E25_170811_sam04_t00,E25,4,0,45.0299943315,-11.214301462,-22.3779320152,0.00354592368843,-0.000440665276245
465,qDII-DR5-CLV3-LD_E25_170811_sam04_t00,E25,4,0,41.6686646958,6.11915352574,-18.3963723625,0.012259052236600001,7.74351759607e-05
466,qDII-DR5-CLV3-LD_E25_170811_sam04_t00,E25,4,0,43.8454680495,-2.3849720956000002,-19.217088863900003,0.007693817746270001,-0.000140702924091
467,qDII-DR5-CLV3-LD_E25_170811_sam04_t00,E25,4,0,33.9444947504,40.500854881799995,-22.150521869099997,0.029139473950099998,0.0008430846730980001
468,qDII-DR5-CLV3-LD_E25_170811_sam04_t00,E25,4,0,32.1889716333,48.1048609099,-24.8067242164,0.029872363941799998,0.0008316151210549999
469,qDII-DR5-CLV3-LD_E25_170811_sam04_t00,E25,4,0,44.9264072863,-5.21774314433,-21.4407665726,0.0054206603812399995,-0.000301871281455
470,qDII-DR5-CLV3-LD_E25_170811_sam04_t00,E25,4,0,43.2222533628,2.1637584611,-19.4000800572,0.010168363389200002,-1.69602601103e-05
471,qDII-DR5-CLV3-LD_E25_170811_sam04_t00,E25,4,0,55.3131645046,-49.2830858592,-39.5518378526,0.031485607444599994,0.0008689508266769998
472,qDII-DR5-CLV3-LD_E25_170811_sam04_t00,E25,4,0,36.6925778251,31.3715361079,-20.5978405947,0.0217475564396,0.000377256953851
473,qDII-DR5-CLV3-LD_E25_170811_sam04_t00,E25,4,0,47.7371850432,-15.5432680099,-23.356686365300003,0.00545152332588,-0.000381505879649
474,qDII-DR5-CLV3-LD_E25_170811_sam04_t00,E25,4,0,55.660424570500005,-48.013297691700004,-31.3946657043,0.0314780833583,0.0008118270777389999
475,qDII-DR5-CLV3-LD_E25_170811_sam04_t00,E25,4,0,41.4977661672,13.331915497899999,-18.679176933900003,0.0146301453526,0.000118842820088
476,qDII-DR5-CLV3-LD_E25_170811_sam04_t00,E25,4,0,36.0488040475,36.9339634592,-21.9924840204,0.0286198446319,0.000778912561408
477,qDII-DR5-CLV3-LD_E25_170811_sam04_t00,E25,4,0,32.0820680824,54.1157845917,-39.105335342,0.025639513782799998,0.0006300306228840001
478,qDII-DR5-CLV3-LD_E25_170811_sam04_t00,E25,4,0,39.0149896808,25.9352931269,-20.3649427124,0.0181952688363,0.00016385533739399997
479,qDII-DR5-CLV3-LD_E25_170811_sam04_t00,E25,4,0,41.0723207668,19.7979499275,-20.107091485599998,0.0157618231689,0.00010443315453799999
480,qDII-DR5-CLV3-LD_E25_170811_sam04_t00,E25,4,0,35.213121013,45.1769323037,-24.665321930700003,0.032899650607,0.0010283107480299999
481,qDII-DR5-CLV3-LD_E25_170811_sam04_t00,E25,4,0,34.777424600799996,49.8380775668,-28.3668208801,0.0313571336613,0.0009400434357100001
482,qDII-DR5-CLV3-LD_E25_170811_sam04_t00,E25,4,0,34.0884816123,53.746863088599994,-43.7606352971,0.0259626971231,0.000647493220998
483,qDII-DR5-CLV3-LD_E25_170811_sam04_t00,E25,4,0,34.674403327600004,52.133602903,-34.3169508827,0.028344558273,0.0007707233385610002
484,qDII-DR5-CLV3-LD_E25_170811_sam04_t00,E25,4,0,50.7926532304,-16.7575620981,-23.2818263317,0.00783184658608,-0.000296267043111
485,qDII-DR5-CLV3-LD_E25_170811_sam04_t00,E25,4,0,49.5097795436,-10.2761800859,-24.718058665,0.005305725596189999,-0.00042004788102199993
486,qDII-DR5-CLV3-LD_E25_170811_sam04_t00,E25,4,0,55.7435071417,-36.3527751954,-23.645064850100002,0.0264179492246,0.000633668590882
487,qDII-DR5-CLV3-LD_E25_170811_sam04_t00,E25,4,0,48.637143491,-5.57173248857,-24.909367639699997,0.0050041138674700005,-0.00040908550792300005
488,qDII-DR5-CLV3-LD_E25_170811_sam04_t00,E25,4,0,46.51221803560001,3.6323308560900003,-22.9435411579,0.009958377358110001,-6.56596580315e-05
489,qDII-DR5-CLV3-LD_E25_170811_sam04_t00,E25,4,0,45.436913009499996,8.2899886341,-23.1348501327,0.0126369097704,3.01086878137e-05
490,qDII-DR5-CLV3-LD_E25_170811_sam04_t00,E25,4,0,57.0998352272,-41.3030319869,-26.955628068499998,0.0304533899455,0.000822523871296
491,qDII-DR5-CLV3-LD_E25_170811_sam04_t00,E25,4,0,48.0033949065,-0.977374607591,-23.9222955081,0.00691981336957,-0.000251195627661
492,qDII-DR5-CLV3-LD_E25_170811_sam04_t00,E25,4,0,44.4653637801,14.347521858699999,-21.035939146700002,0.0157618246147,0.00011479427624400002
493,qDII-DR5-CLV3-LD_E25_170811_sam04_t00,E25,4,0,38.4086205587,40.5821589989,-24.4573773929,0.0343186922261,0.00107764047415
494,qDII-DR5-CLV3-LD_E25_170811_sam04_t00,E25,4,0,44.3358663194,17.682373751,-22.3390869758,0.0167603915374,0.00011375496172600002
495,qDII-DR5-CLV3-LD_E25_170811_sam04_t00,E25,4,0,42.855449165,25.019410527199998,-22.6385271102,0.0199596995203,0.000157722429901
496,qDII-DR5-CLV3-LD_E25_170811_sam04_t00,E25,4,0,41.7439256443,29.8339478408,-24.0082171913,0.023859553057400004,0.000325802753934
497,qDII-DR5-CLV3-LD_E25_170811_sam04_t00,E25,4,0,55.5620747153,-29.094385899000002,-22.7578060966,0.020699664235900004,0.000390494285208
498,qDII-DR5-CLV3-LD_E25_170811_sam04_t00,E25,4,0,52.061279493,-12.081484676199999,-25.7966263933,0.007172278608359999,-0.000384615809801
499,qDII-DR5-CLV3-LD_E25_170811_sam04_t00,E25,4,0,60.139926896599995,-45.22465982479999,-30.2911446315,0.0326026840112,0.000962243234583
500,qDII-DR5-CLV3-LD_E25_170811_sam04_t00,E25,4,0,46.8976743479,13.058483199600001,-24.479586869299997,0.0158924275427,6.56219974471e-05
501,qDII-DR5-CLV3-LD_E25_170811_sam04_t00,E25,4,0,38.9813693267,47.3477674121,-29.4037997008,0.0322593605681,0.0010105859841
502,qDII-DR5-CLV3-LD_E25_170811_sam04_t00,E25,4,0,49.6254812178,3.0923447296599997,-27.58220555,0.007736021472829999,-0.00032871519323799997
503,qDII-DR5-CLV3-LD_E25_170811_sam04_t00,E25,4,0,45.9004405216,19.2272686357,-24.7291203146,0.0182220301164,9.93001606328e-05
504,qDII-DR5-CLV3-LD_E25_170811_sam04_t00,E25,4,0,45.5539149792,21.652881251,-36.5462025048,0.020815964142599997,7.41336754857e-05
505,qDII-DR5-CLV3-LD_E25_170811_sam04_t00,E25,4,0,39.1909728064,49.213811762,-42.3659918714,0.026790006454799998,0.000677623927065
506,qDII-DR5-CLV3-LD_E25_170811_sam04_t00,E25,4,0,62.0631437207,-48.0071535692,-36.025012314899996,0.0321501096734,0.0009694500773069998
507,qDII-DR5-CLV3-LD_E25_170811_sam04_t00,E25,4,0,48.0893038874,13.4448421282,-37.3752367877,0.023273066835199998,-0.00015312750554499999
508,qDII-DR5-CLV3-LD_E25_170811_sam04_t00,E25,4,0,43.0038270094,35.472462534499996,-39.4519382973,0.0237750311418,0.000426860214737
509,qDII-DR5-CLV3-LD_E25_170811_sam04_t00,E25,4,0,41.5894210429,41.5989278548,-27.9842029306,0.0318211440931,0.0009184898905
510,qDII-DR5-CLV3-LD_E25_170811_sam04_t00,E25,4,0,55.6670166729,-18.4531923959,-24.343758497,0.013511339350700001,-2.96954253523e-05
511,qDII-DR5-CLV3-LD_E25_170811_sam04_t00,E25,4,0,49.5167686666,8.1864584641,-27.7818323062,0.0111830124554,-0.000213828042541
512,qDII-DR5-CLV3-LD_E25_170811_sam04_t00,E25,4,0,52.7688770464,-4.97532493524,-28.411239832899998,0.005395384168689999,-0.0005156196308999999
513,qDII-DR5-CLV3-LD_E25_170811_sam04_t00,E25,4,0,51.9273339825,-1.3302014568,-28.560959900100002,0.00519701749333,-0.000508906717832
514,qDII-DR5-CLV3-LD_E25_170811_sam04_t00,E25,4,0,43.4803016501,35.2579153004,-26.5479705974,0.026848469901700003,0.000494043988418
515,qDII-DR5-CLV3-LD_E25_170811_sam04_t00,E25,4,0,55.4440144272,-14.713326783800001,-25.6635418891,0.0112598649613,-0.00019706114138599997
516,qDII-DR5-CLV3-LD_E25_170811_sam04_t00,E25,4,0,46.561059863900006,23.762976599699996,-27.2439203762,0.0199860449202,0.000106721879798
517,qDII-DR5-CLV3-LD_E25_170811_sam04_t00,E25,4,0,58.1402196037,-24.542583281,-25.255970595100003,0.019558916683,0.00032434938935100004
518,qDII-DR5-CLV3-LD_E25_170811_sam04_t00,E25,4,0,54.2964982306,-6.968951297769999,-28.3197442363,0.0065676802588100006,-0.00047525956393499995
519,qDII-DR5-CLV3-LD_E25_170811_sam04_t00,E25,4,0,48.686211138000004,17.331871891800002,-29.317878017600002,0.019880987689499998,-7.864986489850001e-07
520,qDII-DR5-CLV3-LD_E25_170811_sam04_t00,E25,4,0,42.6977968094,44.1951896696,-38.6229040144,0.026060775718799997,0.000638929900967
521,qDII-DR5-CLV3-LD_E25_170811_sam04_t00,E25,4,0,50.09441712180001,13.0815528237,-31.4833312557,0.019822136272200003,-0.000166657404869
522,qDII-DR5-CLV3-LD_E25_170811_sam04_t00,E25,4,0,46.2607209418,29.687115336599998,-32.1653893396,0.021356801454699998,0.00016778851545299996
523,qDII-DR5-CLV3-LD_E25_170811_sam04_t00,E25,4,0,52.1360888041,6.0873923653499995,-31.1922089028,0.010141199684299999,-0.00038950221866
524,qDII-DR5-CLV3-LD_E25_170811_sam04_t00,E25,4,0,44.5516673312,38.9391309956,-31.3696261827,0.0261325359474,0.0005370255274949999
525,qDII-DR5-CLV3-LD_E25_170811_sam04_t00,E25,4,0,61.7149208621,-34.4784420094,-27.1802081693,0.0279646828198,0.0007659317739310001
526,qDII-DR5-CLV3-LD_E25_170811_sam04_t00,E25,4,0,56.5099717164,-10.0840391812,-28.1783419506,0.00987603955217,-0.00032489325062199997
527,qDII-DR5-CLV3-LD_E25_170811_sam04_t00,E25,4,0,54.063696610600005,0.511942421407,-32.1293743454,0.0053415890821,-0.000534573672459
528,qDII-DR5-CLV3-LD_E25_170811_sam04_t00,E25,4,0,63.419300604300005,-39.086984978000004,-29.3290258444,0.0321667899511,0.0010035846205
529,qDII-DR5-CLV3-LD_E25_170811_sam04_t00,E25,4,0,65.5290182934,-43.601948308100006,-31.4778435194,0.0337584881873,0.00108275125531
530,qDII-DR5-CLV3-LD_E25_170811_sam04_t00,E25,4,0,56.131787413199994,-2.8980694654900003,-33.1497176031,0.004682784074479999,-0.000508451080723
531,qDII-DR5-CLV3-LD_E25_170811_sam04_t00,E25,4,0,53.5555061419,10.110321883300001,-34.852118944699995,0.0165819652716,-0.000326092082606
532,qDII-DR5-CLV3-LD_E25_170811_sam04_t00,E25,4,0,55.1818146842,3.99065125665,-36.9427121492,0.00689284900612,-0.0005029389358030001
533,qDII-DR5-CLV3-LD_E25_170811_sam04_t00,E25,4,0,67.2290070531,-45.4175350771,-38.4233634352,0.0306217385786,0.000809278846278
534,qDII-DR5-CLV3-LD_E25_170811_sam04_t00,E25,4,0,60.204313993999996,-14.9902465672,-27.9537618498,0.0167165219433,5.77353112251e-05
535,qDII-DR5-CLV3-LD_E25_170811_sam04_t00,E25,4,0,63.710969245600005,-27.4053024239,-27.4380593962,0.024062322333900002,0.000550372543687
536,qDII-DR5-CLV3-LD_E25_170811_sam04_t00,E25,4,0,62.3551498649,-21.5326034864,-27.67927506,0.021336656752800002,0.000389663454351
537,qDII-DR5-CLV3-LD_E25_170811_sam04_t00,E25,4,0,58.3935394057,-3.4483377706800002,-43.6553341827,0.0031497504167000002,-0.00030038366064999997
538,qDII-DR5-CLV3-LD_E25_170811_sam04_t00,E25,4,0,60.443935985500005,-11.404935500699999,-30.4352907853,0.014337892100299999,-8.05834209557e-05
539,qDII-DR5-CLV3-LD_E25_170811_sam04_t00,E25,4,0,58.3878481277,-0.64974937243,-37.9048309363,0.00246665398781,-0.00042982802511499997
540,qDII-DR5-CLV3-LD_E25_170811_sam04_t00,E25,4,0,66.0233559082,-31.873475934699997,-29.5868770712,0.0278787751845,0.000753495849884
541,qDII-DR5-CLV3-LD_E25_170811_sam04_t00,E25,4,0,67.9407127029,-39.253815045100005,-32.797626911500004,0.0322621661547,0.00097361210102
542,qDII-DR5-CLV3-LD_E25_170811_sam04_t00,E25,4,0,60.9797317354,-8.177848334730001,-32.900184157800005,0.0109225648636,-0.00018838524171
543,qDII-DR5-CLV3-LD_E25_170811_sam04_t00,E25,4,0,59.5722602751,-0.232128483779,-34.3946409616,0.00391138741365,-0.000483712213949
544,qDII-DR5-CLV3-LD_E25_170811_sam04_t00,E25,4,0,70.3889655604,-41.536552936,-39.718193482800004,0.0294613250865,0.000671732493853
545,qDII-DR5-CLV3-LD_E25_170811_sam04_t00,E25,4,0,62.3054184696,-6.52286373374,-36.4685986031,0.00957507644469,-0.00015103676079
546,qDII-DR5-CLV3-LD_E25_170811_sam04_t00,E25,4,0,68.8866890197,-33.1801871665,-30.6820803625,0.0288244172358,0.000786383880824
547,qDII-DR5-CLV3-LD_E25_170811_sam04_t00,E25,4,0,65.79049722090001,-19.769107088,-30.0609906173,0.0238460923836,0.000491809964244
548,qDII-DR5-CLV3-LD_E25_170811_sam04_t00,E25,4,0,64.87674298649999,-13.037265901400001,-32.675604057,0.0199034882655,0.000268472095614
549,qDII-DR5-CLV3-LD_E25_170811_sam04_t00,E25,4,0,69.6356305736,-25.328462378,-30.9815204969,0.0261127735684,0.000633453999882
550,qDII-DR5-CLV3-LD_E25_170811_sam04_t00,E25,4,0,66.8009201528,-9.35140022619,-42.1775129419,0.0143437693435,9.36259271618e-05
551,qDII-DR5-CLV3-LD_E25_170811_sam04_t00,E25,4,0,68.47268079199999,-15.667945514100001,-33.7125828777,0.0238899991212,0.000489402506482
552,qDII-DR5-CLV3-LD_E25_170811_sam04_t00,E25,4,0,70.9772025302,-20.043701881300002,-34.6913372279,0.026572957297200002,0.000646299368447
553,qDII-DR5-CLV3-LD_E25_170811_sam04_t00,E25,4,0,70.6822720001,-15.0676350519,-41.919661715,0.0232207725838,0.000476258681268
554,qDII-DR5-CLV3-LD_E25_170811_sam04_t00,E25,4,0,73.3674345739,-25.7737063708,-36.7902482139,0.026370890723900003,0.0006330170015599999
555,qDII-DR5-CLV3-LD_E25_170811_sam04_t00,E25,4,0,74.04354456850001,-27.7776149121,-42.5657048048,0.025302169475099997,0.000564509960389
556,qDII-DR5-CLV3-LD_E25_170811_sam04_t00,E25,4,0,72.7657963876,-20.393788316600002,-42.8651449391,0.0257746400366,0.000597451995485
557,qDII-DR5-CLV3-LD_E25_170811_sam04_t00,E25,4,0,-67.9764770242,1.15337925021,-37.940845930500004,0.0200398417733,0.000349186451851
558,qDII-DR5-CLV3-LD_E25_170811_sam04_t00,E25,4,0,-15.402598118699999,-5.578813224,-3.21882026485,0.015873972229500002,0.000244652715713
559,qDII-DR5-CLV3-LD_E25_170811_sam04_t00,E25,4,0,-9.587835502799999,-7.64917750003,-3.0857357606700004,0.015306577800100002,0.00022549641035699998
560,qDII-DR5-CLV3-LD_E25_170811_sam04_t00,E25,4,0,-5.24859035404,-4.253019053419999,-2.00716803239,0.0154135737829,0.00023034559844299998
561,qDII-DR5-CLV3-LD_E25_170811_sam04_t00,E25,4,0,-13.1217994417,36.322115281500004,-15.3796753651,0.0140666670435,0.00017086593242800002
562,qDII-DR5-CLV3-LD_E25_170811_sam04_t00,E25,4,0,0.0253080733474,-15.0763902062,-3.88149891759,0.0149133515943,0.00021393071644
563,qDII-DR5-CLV3-LD_E25_170811_sam04_t00,E25,4,0,-1.9378978389400003,3.5982903112800004,-1.11159149735,0.0151730603165,0.00022415447866299998
564,qDII-DR5-CLV3-LD_E25_170811_sam04_t00,E25,4,0,7.445988892060001,-14.8562945499,-3.8232744470099997,0.014494769148600001,0.00019692493173
565,qDII-DR5-CLV3-LD_E25_170811_sam04_t00,E25,4,0,11.5203790899,-9.3882776849,-2.82788453384,0.013243958429399998,0.000168290629696
566,qDII-DR5-CLV3-LD_E25_170811_sam04_t00,E25,4,0,40.8318662756,46.72954922979999,-34.0507818744,0.0285544766401,0.000784081696246
567,qDII-DR5-CLV3-LD_E25_170811_sam04_t00,E25,4,0,71.9999522018,-33.7201732929,-35.3207447546,0.0283639592179,0.0006979993471939998
568,qDII-DR5-CLV3-LD_E25_170811_sam04_t00,E25,4,0,73.28919462260001,-34.6812677931,-39.959409146599995,0.028261359674400004,0.000637882129215
569,qDII-DR5-CLV3-LD_E25_170811_sam04_t00,E25,4,0,21.3649967895,51.53030415600001,-26.2096854236,0.024113870352099998,0.000485547524622
