,filename,experiment,sam_id,hour_time,aligned_x,aligned_y,aligned_z,mean_curvature,gaussian_curvature
0,qDII-DR5-CLV3-LD_E33_171106_sam01_t05,E33,1,5,-12.065175415899999,87.4778085027,-33.0135109129,0.025842504451099996,0.000627911457725
1,qDII-DR5-CLV3-LD_E33_171106_sam01_t05,E33,1,5,-30.5837187824,84.4562398058,-31.9453488485,0.0295464586632,0.000793777494516
2,qDII-DR5-CLV3-LD_E33_171106_sam01_t05,E33,1,5,-20.7183165055,84.5792568439,-27.921861713800002,0.029776905361099996,0.000848529527546
3,qDII-DR5-CLV3-LD_E33_171106_sam01_t05,E33,1,5,-15.004667239100002,84.27678265680001,-27.1716654548,0.0306420534821,0.000912884699555
4,qDII-DR5-CLV3-LD_E33_171106_sam01_t05,E33,1,5,-5.34041279734,85.36781349569999,-34.833038816999995,0.020836449355299998,0.00038671314659900004
5,qDII-DR5-CLV3-LD_E33_171106_sam01_t05,E33,1,5,-9.19224459011,83.3468019286,-28.833300732199998,0.028187434350999997,0.0007939056578450001
6,qDII-DR5-CLV3-LD_E33_171106_sam01_t05,E33,1,5,-27.877729567,80.8381873955,-26.5351429261,0.0294947663232,0.00082737266466
7,qDII-DR5-CLV3-LD_E33_171106_sam01_t05,E33,1,5,-17.8854545236,79.9201050257,-24.958234489200002,0.0335753510148,0.00110224366559
8,qDII-DR5-CLV3-LD_E33_171106_sam01_t05,E33,1,5,-33.9049716667,78.5141698442,-28.648832376599998,0.0249398770684,0.000556605991622
9,qDII-DR5-CLV3-LD_E33_171106_sam01_t05,E33,1,5,2.5896530901599997,78.8836136534,-35.906600844,0.0218488046692,0.00039380809456399996
10,qDII-DR5-CLV3-LD_E33_171106_sam01_t05,E33,1,5,-29.032184756,75.5690562402,-24.5158821492,0.0313928929673,0.000986866771587
11,qDII-DR5-CLV3-LD_E33_171106_sam01_t05,E33,1,5,-37.3625610069,72.3429951278,-27.715987494,0.024731514646099996,0.000581329826536
12,qDII-DR5-CLV3-LD_E33_171106_sam01_t05,E33,1,5,-4.2838884456,73.7538202965,-25.2294795152,0.032206242402,0.00106336407731
13,qDII-DR5-CLV3-LD_E33_171106_sam01_t05,E33,1,5,-10.494627618500001,72.4780193941,-22.536879473600003,0.0314435030628,0.00095530890856
14,qDII-DR5-CLV3-LD_E33_171106_sam01_t05,E33,1,5,-42.6014045938,70.3716651462,-33.3901275148,0.019601415567999998,0.00031752992445300003
15,qDII-DR5-CLV3-LD_E33_171106_sam01_t05,E33,1,5,-24.0870691536,70.4414259253,-21.738503523200002,0.033232734171,0.00112334899897
16,qDII-DR5-CLV3-LD_E33_171106_sam01_t05,E33,1,5,-0.0833201245878,70.9333870813,-28.1046369473,0.023376161414400003,0.0006276672085700001
17,qDII-DR5-CLV3-LD_E33_171106_sam01_t05,E33,1,5,6.47785773203,70.648017171,-36.8335222225,0.011105713094500001,6.56903678464e-05
18,qDII-DR5-CLV3-LD_E33_171106_sam01_t05,E33,1,5,-43.755434243900005,65.9226024833,-33.6610832094,0.0197882537344,0.000330793984613
19,qDII-DR5-CLV3-LD_E33_171106_sam01_t05,E33,1,5,-7.838170936419999,67.0616175771,-23.153506794299997,0.0186368919787,0.00010731751236
20,qDII-DR5-CLV3-LD_E33_171106_sam01_t05,E33,1,5,-14.8910016192,65.9318487867,-20.3898820295,0.0191089343584,0.000189534204532
21,qDII-DR5-CLV3-LD_E33_171106_sam01_t05,E33,1,5,-27.1285573529,63.1520988254,-22.10118791,0.021497584113099998,0.000452414874086
22,qDII-DR5-CLV3-LD_E33_171106_sam01_t05,E33,1,5,-44.7144228996,60.546992789899996,-35.1967818071,0.0191082468114,0.00032650712290700003
23,qDII-DR5-CLV3-LD_E33_171106_sam01_t05,E33,1,5,7.218756481000001,62.8049437837,-37.507131074,-0.0178735487236,-0.0009446534244939999
24,qDII-DR5-CLV3-LD_E33_171106_sam01_t05,E33,1,5,-39.6086063824,58.3520119437,-29.8432878286,0.0166295534822,0.000246226675259
25,qDII-DR5-CLV3-LD_E33_171106_sam01_t05,E33,1,5,-29.4399260392,58.191179572799996,-24.6861248463,0.0106767914371,-0.000126549492523
26,qDII-DR5-CLV3-LD_E33_171106_sam01_t05,E33,1,5,2.2496544960400002,60.800220871,-32.604791274899995,-0.0139809404923,-0.00105316259788
27,qDII-DR5-CLV3-LD_E33_171106_sam01_t05,E33,1,5,4.9168514840099995,59.1142286937,-35.2818177233,-0.018089597933200002,-0.0011385837087899999
28,qDII-DR5-CLV3-LD_E33_171106_sam01_t05,E33,1,5,24.128754905500003,59.998853920600006,-37.745789746199996,0.025318486286999998,8.47769334284e-05
29,qDII-DR5-CLV3-LD_E33_171106_sam01_t05,E33,1,5,-35.5613555188,55.0176679666,-29.215606628200003,0.0073636702965299995,-0.000164454420365
30,qDII-DR5-CLV3-LD_E33_171106_sam01_t05,E33,1,5,15.1591371355,59.2310850889,-38.3508757572,-0.00784339043161,-0.00140747369874
31,qDII-DR5-CLV3-LD_E33_171106_sam01_t05,E33,1,5,26.431037979,59.2607604969,-32.0789409086,0.0314787866805,0.000669188295841
32,qDII-DR5-CLV3-LD_E33_171106_sam01_t05,E33,1,5,-2.53637595457,56.927212816899996,-30.2185244962,-0.013657706770500001,-0.0013184760421199998
33,qDII-DR5-CLV3-LD_E33_171106_sam01_t05,E33,1,5,18.953068005,58.7990084199,-35.1202536329,0.00845357169519,-0.000590115546695
34,qDII-DR5-CLV3-LD_E33_171106_sam01_t05,E33,1,5,31.8980334858,59.2350184778,-34.8221312915,0.0292301550776,0.00063691658006
35,qDII-DR5-CLV3-LD_E33_171106_sam01_t05,E33,1,5,-40.5671694992,53.7964707428,-33.6692028979,0.00034440369420699995,-0.00026295685644000004
36,qDII-DR5-CLV3-LD_E33_171106_sam01_t05,E33,1,5,22.8428409474,57.2478227691,-28.4523264038,0.0236230472148,0.0003797176916630001
37,qDII-DR5-CLV3-LD_E33_171106_sam01_t05,E33,1,5,34.1375854117,58.5455090656,-39.7451750595,0.023238928201200004,0.000348572787493
38,qDII-DR5-CLV3-LD_E33_171106_sam01_t05,E33,1,5,1.8550728970400003,55.477301659700004,-31.821017435300003,-0.0173161778932,-0.0012842196008900002
39,qDII-DR5-CLV3-LD_E33_171106_sam01_t05,E33,1,5,-31.363292968499998,52.5257008033,-28.5318438906,-0.00762398109297,-0.000956795367722
40,qDII-DR5-CLV3-LD_E33_171106_sam01_t05,E33,1,5,32.0215494038,56.882248137,-29.1293568764,0.028256062585400005,0.000714458549615
41,qDII-DR5-CLV3-LD_E33_171106_sam01_t05,E33,1,5,-18.6819622489,52.953637021999995,-25.8605979693,-0.014742021709700001,-0.0013469754415999999
42,qDII-DR5-CLV3-LD_E33_171106_sam01_t05,E33,1,5,27.231784028200003,56.1263776637,-26.4958991732,0.026704269045000003,0.000616905022225
43,qDII-DR5-CLV3-LD_E33_171106_sam01_t05,E33,1,5,-25.7744362368,52.1157914799,-26.603772632,-0.0136966709207,-0.0013528406413399999
44,qDII-DR5-CLV3-LD_E33_171106_sam01_t05,E33,1,5,8.83888427414,54.8523810879,-31.186045051599997,-0.013250486182299999,-0.0011286212600799999
45,qDII-DR5-CLV3-LD_E33_171106_sam01_t05,E33,1,5,16.234210789400002,54.586308728599995,-27.018978069699997,0.00519282279816,-0.000350467737676
46,qDII-DR5-CLV3-LD_E33_171106_sam01_t05,E33,1,5,-11.7522694077,52.007367639499996,-26.424834961,-0.013236215114,-0.00127270565742
47,qDII-DR5-CLV3-LD_E33_171106_sam01_t05,E33,1,5,38.911173401,55.407833510399996,-30.9101768241,0.025965940214999997,0.000635624570419
48,qDII-DR5-CLV3-LD_E33_171106_sam01_t05,E33,1,5,3.7334458333800007,52.6185534204,-28.6473768418,-0.013833864254399999,-0.00110601595968
49,qDII-DR5-CLV3-LD_E33_171106_sam01_t05,E33,1,5,-37.3198610695,49.987769577600005,-33.0226177161,-0.013372942540200002,-0.000851998434488
50,qDII-DR5-CLV3-LD_E33_171106_sam01_t05,E33,1,5,19.616200981800002,52.9753153547,-25.0302340721,0.014514293099400001,6.25001482492e-05
51,qDII-DR5-CLV3-LD_E33_171106_sam01_t05,E33,1,5,40.4479015825,55.5850634055,-39.2476609207,0.0278896981699,0.000741383303003
52,qDII-DR5-CLV3-LD_E33_171106_sam01_t05,E33,1,5,-8.53471505504,50.5808623776,-26.7650153914,-0.0135305509986,-0.0012326530670499999
53,qDII-DR5-CLV3-LD_E33_171106_sam01_t05,E33,1,5,29.773337403899998,52.6928133653,-23.414617678800003,0.025210732919400004,0.0005935197661069999
54,qDII-DR5-CLV3-LD_E33_171106_sam01_t05,E33,1,5,-33.5519493521,48.8207512311,-31.0259521285,-0.0171087937153,-0.00119086182844
55,qDII-DR5-CLV3-LD_E33_171106_sam01_t05,E33,1,5,7.1836042537,51.122112423900006,-25.476797049600002,-0.006821467648189999,-0.000697368324541
56,qDII-DR5-CLV3-LD_E33_171106_sam01_t05,E33,1,5,-19.9603588947,49.217207715200004,-27.2438951358,-0.0177015113449,-0.00147259160569
57,qDII-DR5-CLV3-LD_E33_171106_sam01_t05,E33,1,5,-1.45421052724,50.4769698089,-27.273170846,-0.012783748605299999,-0.00107165918788
58,qDII-DR5-CLV3-LD_E33_171106_sam01_t05,E33,1,5,35.5436109769,52.383221937200005,-25.0241322141,0.0281481197059,0.0007616349765439999
59,qDII-DR5-CLV3-LD_E33_171106_sam01_t05,E33,1,5,-27.7420324739,48.219236554700004,-29.1286672362,-0.018977492893999998,-0.0015400227511
60,qDII-DR5-CLV3-LD_E33_171106_sam01_t05,E33,1,5,13.2005315864,50.5357888278,-23.592924943000003,0.00564318401067,-0.000215082810514
61,qDII-DR5-CLV3-LD_E33_171106_sam01_t05,E33,1,5,24.268353285,51.0418755962,-23.1567139499,0.0201456567508,0.00034132884870300003
62,qDII-DR5-CLV3-LD_E33_171106_sam01_t05,E33,1,5,43.4691383242,52.624899697,-31.4524490333,0.029567923062299998,0.000836208978991
63,qDII-DR5-CLV3-LD_E33_171106_sam01_t05,E33,1,5,-8.21573260375,48.1216134987,-24.6272003509,-0.013119102349,-0.00109707768043
64,qDII-DR5-CLV3-LD_E33_171106_sam01_t05,E33,1,5,1.70629397988,48.2375132957,-22.963424010500002,-0.00700697473498,-0.0005313725470819999
65,qDII-DR5-CLV3-LD_E33_171106_sam01_t05,E33,1,5,19.177390075,49.4213199877,-22.925635792399998,0.01396620259,7.75098594893e-05
66,qDII-DR5-CLV3-LD_E33_171106_sam01_t05,E33,1,5,-3.6338287604,47.22215590689999,-22.6668123253,-0.00949586677548,-0.00074203024835
67,qDII-DR5-CLV3-LD_E33_171106_sam01_t05,E33,1,5,-30.5678501447,45.8240447191,-30.2964598384,-0.018997252446400003,-0.00137980870299
68,qDII-DR5-CLV3-LD_E33_171106_sam01_t05,E33,1,5,-36.6789648573,45.5608742603,-34.5961242764,-0.0195838789684,-0.00109230762053
69,qDII-DR5-CLV3-LD_E33_171106_sam01_t05,E33,1,5,-7.97939361119,44.9345401834,-21.3636310528,-0.007667891313709999,-0.0006523921067359999
70,qDII-DR5-CLV3-LD_E33_171106_sam01_t05,E33,1,5,12.0580458574,46.2083957834,-20.3223340486,0.0057114984433599995,-0.000101315227519
71,qDII-DR5-CLV3-LD_E33_171106_sam01_t05,E33,1,5,-18.4662527904,43.945881412,-23.0566633589,-0.011980846249100001,-0.0010486399728599999
72,qDII-DR5-CLV3-LD_E33_171106_sam01_t05,E33,1,5,-38.8978008567,43.418052099099995,-35.7867816549,-0.016914943307,-0.000955131476548
73,qDII-DR5-CLV3-LD_E33_171106_sam01_t05,E33,1,5,-23.502671925500003,43.4667431066,-23.9165922976,-0.014509314902200001,-0.00125564573134
74,qDII-DR5-CLV3-LD_E33_171106_sam01_t05,E33,1,5,-13.5265268059,43.903991714300005,-21.053606581900002,-0.00717311743629,-0.000694147393155
75,qDII-DR5-CLV3-LD_E33_171106_sam01_t05,E33,1,5,7.7529753895,45.2689937963,-20.0927862917,0.0024786657149899996,-0.000133509889341
76,qDII-DR5-CLV3-LD_E33_171106_sam01_t05,E33,1,5,40.917222719099996,47.8992458419,-24.5811692117,0.0315524709149,0.0009569301528380001
77,qDII-DR5-CLV3-LD_E33_171106_sam01_t05,E33,1,5,-1.7554558240599998,44.3634076676,-19.4931717318,-0.00160938704401,-0.00026042911600599995
78,qDII-DR5-CLV3-LD_E33_171106_sam01_t05,E33,1,5,3.9441437503500003,44.267729913900006,-18.7256018922,0.00236400038973,-9.87328086142e-05
79,qDII-DR5-CLV3-LD_E33_171106_sam01_t05,E33,1,5,-32.4953775379,42.455635038000004,-31.604771486599997,-0.0166797361647,-0.00112795341493
80,qDII-DR5-CLV3-LD_E33_171106_sam01_t05,E33,1,5,15.1508076755,44.674455385200005,-19.484639479400002,0.00803168914409,-8.14604046431e-05
81,qDII-DR5-CLV3-LD_E33_171106_sam01_t05,E33,1,5,46.761101600500005,47.86734318,-34.4169047632,0.0350944619883,0.00111560800476
82,qDII-DR5-CLV3-LD_E33_171106_sam01_t05,E33,1,5,23.0453043292,44.8381235711,-20.029072495999998,0.0123810905343,3.99911731392e-05
83,qDII-DR5-CLV3-LD_E33_171106_sam01_t05,E33,1,5,-30.868244363800002,41.3506195626,-27.096893667399996,-0.0122886301537,-0.00103580765726
84,qDII-DR5-CLV3-LD_E33_171106_sam01_t05,E33,1,5,-22.2193112006,41.297363303800005,-19.4687568105,-0.00287164399153,-0.000611357165904
85,qDII-DR5-CLV3-LD_E33_171106_sam01_t05,E33,1,5,-6.41877397197,41.7463692941,-17.0160762547,0.00251584151447,-0.000132260103248
86,qDII-DR5-CLV3-LD_E33_171106_sam01_t05,E33,1,5,-27.9990484629,40.3367505693,-22.6694925622,-0.007205366857220001,-0.0008505756054410001
87,qDII-DR5-CLV3-LD_E33_171106_sam01_t05,E33,1,5,-14.050061403399999,40.770706455,-16.5545503465,0.00365793753409,-0.000186264598936
88,qDII-DR5-CLV3-LD_E33_171106_sam01_t05,E33,1,5,36.0890431926,44.646627088,-22.142781691,0.025160332908000002,0.000609967551428
89,qDII-DR5-CLV3-LD_E33_171106_sam01_t05,E33,1,5,47.202370815600005,45.8439954892,-29.8980445527,0.035239036384,0.0011155816709300002
90,qDII-DR5-CLV3-LD_E33_171106_sam01_t05,E33,1,5,-0.152687108959,40.5548474783,-15.1977376758,0.007502278574899999,3.48034428636e-05
91,qDII-DR5-CLV3-LD_E33_171106_sam01_t05,E33,1,5,6.05762652508,41.0105798883,-15.600121245699999,0.007495960429380001,2.02522592642e-05
92,qDII-DR5-CLV3-LD_E33_171106_sam01_t05,E33,1,5,11.564690875899998,41.5129831132,-17.1267286727,0.00696749957638,-6.96214231032e-05
93,qDII-DR5-CLV3-LD_E33_171106_sam01_t05,E33,1,5,-39.4052055303,38.929435862300004,-32.573802698200005,-0.00179421329369,-0.000502328142458
94,qDII-DR5-CLV3-LD_E33_171106_sam01_t05,E33,1,5,-22.0932895118,38.616126911100004,-17.334902565,0.0073553731357,-0.000124797317793
95,qDII-DR5-CLV3-LD_E33_171106_sam01_t05,E33,1,5,-36.2323060242,38.4517859523,-29.3029422169,-0.00132139119256,-0.00050409231078
96,qDII-DR5-CLV3-LD_E33_171106_sam01_t05,E33,1,5,20.3293784233,41.1170263204,-17.776933574,0.007999995480640001,-0.000104806615831
97,qDII-DR5-CLV3-LD_E33_171106_sam01_t05,E33,1,5,-34.8402826885,37.7451722633,-24.7469044507,0.00301093219101,-0.000334776316591
98,qDII-DR5-CLV3-LD_E33_171106_sam01_t05,E33,1,5,-27.5156301719,37.6930135784,-18.2027530937,0.00745576102772,-0.000150863021025
99,qDII-DR5-CLV3-LD_E33_171106_sam01_t05,E33,1,5,44.4417900631,43.0717535903,-24.034864719,0.033505131917599996,0.0010420944917900001
100,qDII-DR5-CLV3-LD_E33_171106_sam01_t05,E33,1,5,-10.5978227511,38.1257309144,-14.6526742523,0.008450588396,1.47237553258e-05
101,qDII-DR5-CLV3-LD_E33_171106_sam01_t05,E33,1,5,1.58726913968,38.615529028400005,-13.119064973599999,0.009662095086209998,7.81719695286e-05
102,qDII-DR5-CLV3-LD_E33_171106_sam01_t05,E33,1,5,32.7239865394,41.293549463000005,-19.8156572506,0.016160710055700002,0.00019679778846200003
103,qDII-DR5-CLV3-LD_E33_171106_sam01_t05,E33,1,5,-17.9940003441,36.751666289,-14.239308291099999,0.013281623177399999,0.000141165537926
104,qDII-DR5-CLV3-LD_E33_171106_sam01_t05,E33,1,5,-3.73880390864,37.3933752063,-12.839826869000001,0.0105528288514,9.70175699273e-05
105,qDII-DR5-CLV3-LD_E33_171106_sam01_t05,E33,1,5,25.6310870127,39.6356354285,-18.2686154417,0.0094217525988,-5.08754794954e-05
106,qDII-DR5-CLV3-LD_E33_171106_sam01_t05,E33,1,5,-31.818620408,35.6050770471,-19.2419090349,0.0100103149509,-3.74396855511e-05
107,qDII-DR5-CLV3-LD_E33_171106_sam01_t05,E33,1,5,10.780027288,38.0431579629,-13.8134690269,0.008185054862159999,-2.44021797883e-05
108,qDII-DR5-CLV3-LD_E33_171106_sam01_t05,E33,1,5,-42.4781024996,35.9909077022,-34.9447654707,0.00489728686013,-0.000238848703096
109,qDII-DR5-CLV3-LD_E33_171106_sam01_t05,E33,1,5,40.620563425,40.308683104699995,-21.6287939652,0.0278999664029,0.000724391569894
110,qDII-DR5-CLV3-LD_E33_171106_sam01_t05,E33,1,5,5.3291617051,36.713569004499995,-12.3563559227,0.00966535906944,6.62800021545e-05
111,qDII-DR5-CLV3-LD_E33_171106_sam01_t05,E33,1,5,-22.6147438773,34.3343071077,-14.1045500276,0.014960212686700001,0.000195172220946
112,qDII-DR5-CLV3-LD_E33_171106_sam01_t05,E33,1,5,-13.5488584955,34.803035450100005,-12.3523753833,0.0136372078192,0.00016176153573700002
113,qDII-DR5-CLV3-LD_E33_171106_sam01_t05,E33,1,5,16.799460391500002,37.128368315,-15.4885170899,0.006956063879310001,-0.00011321685241999999
114,qDII-DR5-CLV3-LD_E33_171106_sam01_t05,E33,1,5,30.932795602,38.1542445366,-18.760297309400002,0.012450649763299999,4.21940040166e-05
115,qDII-DR5-CLV3-LD_E33_171106_sam01_t05,E33,1,5,-40.4092745715,33.6826130284,-28.208243912600004,0.0100103481012,-6.4892426948e-05
116,qDII-DR5-CLV3-LD_E33_171106_sam01_t05,E33,1,5,37.3100508465,38.0970227829,-20.392676621099998,0.0204366545871,0.000339584789218
117,qDII-DR5-CLV3-LD_E33_171106_sam01_t05,E33,1,5,-2.13560965467,34.4048835093,-10.8346092846,0.011716686203299999,0.000121715990526
118,qDII-DR5-CLV3-LD_E33_171106_sam01_t05,E33,1,5,-8.524834359260002,33.520367152199995,-10.4535600903,0.0129262085823,0.000144779361745
119,qDII-DR5-CLV3-LD_E33_171106_sam01_t05,E33,1,5,25.6062970148,36.1120222221,-16.1908427333,0.007210830098939999,-0.000114770851942
120,qDII-DR5-CLV3-LD_E33_171106_sam01_t05,E33,1,5,-38.7540420135,32.164004686300004,-23.735113254699996,0.013749914798700002,9.28267477635e-05
121,qDII-DR5-CLV3-LD_E33_171106_sam01_t05,E33,1,5,-28.780828203600002,32.1096508534,-15.0229908978,0.0134625157062,0.000126784896557
122,qDII-DR5-CLV3-LD_E33_171106_sam01_t05,E33,1,5,46.5739085324,38.1308065353,-25.754381521,0.0320742561512,0.0008783733059199999
123,qDII-DR5-CLV3-LD_E33_171106_sam01_t05,E33,1,5,-35.0849036786,31.624492881,-19.326616130799998,0.014573199415400001,0.000151786038669
124,qDII-DR5-CLV3-LD_E33_171106_sam01_t05,E33,1,5,-17.452303053399998,32.1322090205,-11.110766843499999,0.0157321842038,0.00022568355475
125,qDII-DR5-CLV3-LD_E33_171106_sam01_t05,E33,1,5,8.174418685880001,33.8162237895,-10.4316150523,0.010040566947,6.32729578066e-05
126,qDII-DR5-CLV3-LD_E33_171106_sam01_t05,E33,1,5,-45.5233256238,31.818718183,-35.060258933,0.00726646526262,-0.000113161737415
127,qDII-DR5-CLV3-LD_E33_171106_sam01_t05,E33,1,5,14.5657236224,33.5522056024,-12.0813679446,0.00824413688025,-3.95402275545e-05
128,qDII-DR5-CLV3-LD_E33_171106_sam01_t05,E33,1,5,21.7710206848,33.5557481699,-13.767398398800001,0.00594352178768,-0.00012724305939799997
129,qDII-DR5-CLV3-LD_E33_171106_sam01_t05,E33,1,5,48.776322924,37.4047543196,-37.7431448862,0.028776838183,0.000576784958997
130,qDII-DR5-CLV3-LD_E33_171106_sam01_t05,E33,1,5,49.3944229778,36.95872512,-31.934246601999998,0.029459464213099997,0.0006065221852779999
131,qDII-DR5-CLV3-LD_E33_171106_sam01_t05,E33,1,5,30.3150736247,34.1714652225,-16.6770334054,0.00997085239792,-4.55299336568e-05
132,qDII-DR5-CLV3-LD_E33_171106_sam01_t05,E33,1,5,36.153940964499995,34.7964946642,-19.3949286176,0.0165222307522,0.00014206107892700002
133,qDII-DR5-CLV3-LD_E33_171106_sam01_t05,E33,1,5,43.24892072310001,35.3058741544,-22.2106741245,0.0266836469905,0.000571003625237
134,qDII-DR5-CLV3-LD_E33_171106_sam01_t05,E33,1,5,-23.7972984502,29.4787688192,-12.0505420893,0.015606451704100001,0.000222326727209
135,qDII-DR5-CLV3-LD_E33_171106_sam01_t05,E33,1,5,-12.7580016744,29.5783799618,-9.28936746331,0.0133986246523,0.00015875781335400002
136,qDII-DR5-CLV3-LD_E33_171106_sam01_t05,E33,1,5,12.5794916906,31.3394477065,-9.76126510041,0.00974386543212,3.15662317158e-05
137,qDII-DR5-CLV3-LD_E33_171106_sam01_t05,E33,1,5,-18.4014024809,28.8468719821,-10.1264316257,0.0149312272291,0.000204148051123
138,qDII-DR5-CLV3-LD_E33_171106_sam01_t05,E33,1,5,2.7673568718700006,29.8976424944,-8.00510991657,0.0115120170144,0.000120949568222
139,qDII-DR5-CLV3-LD_E33_171106_sam01_t05,E33,1,5,-44.6804304987,28.063946049699997,-29.5293379396,0.0106862141549,-5.51233539686e-05
140,qDII-DR5-CLV3-LD_E33_171106_sam01_t05,E33,1,5,-37.026906302600004,27.6428111409,-18.3273377268,0.0163679763894,0.00021826491257799998
141,qDII-DR5-CLV3-LD_E33_171106_sam01_t05,E33,1,5,-43.274357471,27.150535927399996,-24.990673754099998,0.013992009449799999,4.61179144725e-05
142,qDII-DR5-CLV3-LD_E33_171106_sam01_t05,E33,1,5,-49.050737884899995,27.5015941258,-36.3307626186,0.007920598159369999,-0.00011225859438400001
143,qDII-DR5-CLV3-LD_E33_171106_sam01_t05,E33,1,5,-30.6385326758,26.8871905132,-14.127953977799999,0.0148682770043,0.000192497565242
144,qDII-DR5-CLV3-LD_E33_171106_sam01_t05,E33,1,5,18.0059928145,29.965491950900002,-11.4308219678,0.0074131781613500005,-5.46176015962e-05
145,qDII-DR5-CLV3-LD_E33_171106_sam01_t05,E33,1,5,42.2998212956,32.020537116,-21.226338906800002,0.022502059640200002,0.000306370254421
146,qDII-DR5-CLV3-LD_E33_171106_sam01_t05,E33,1,5,9.39334610788,28.415154028499998,-7.412806284310001,0.011902691412200002,0.00012118761328599999
147,qDII-DR5-CLV3-LD_E33_171106_sam01_t05,E33,1,5,33.2450542961,30.853409899699997,-17.1467504906,0.0114386646538,-2.61970411613e-05
148,qDII-DR5-CLV3-LD_E33_171106_sam01_t05,E33,1,5,-7.23565847746,27.085315224499997,-7.5216192258,0.011512694209799999,0.000114118855683
149,qDII-DR5-CLV3-LD_E33_171106_sam01_t05,E33,1,5,38.3521474299,31.118634530700003,-18.6639059269,0.0163145737909,8.54469730797e-05
150,qDII-DR5-CLV3-LD_E33_171106_sam01_t05,E33,1,5,-15.1702239751,26.393501794499997,-8.19376916521,0.012596691633200001,0.00013890899259
151,qDII-DR5-CLV3-LD_E33_171106_sam01_t05,E33,1,5,28.801141601599998,30.0133692097,-15.721954153399999,0.00724124345892,-0.00010149688995500001
152,qDII-DR5-CLV3-LD_E33_171106_sam01_t05,E33,1,5,-40.045684736,25.0256317916,-19.4990911239,0.0158283999002,0.000160449143315
153,qDII-DR5-CLV3-LD_E33_171106_sam01_t05,E33,1,5,-26.63551112,25.321770380300002,-12.1794483373,0.0143275546946,0.00018214719188499998
154,qDII-DR5-CLV3-LD_E33_171106_sam01_t05,E33,1,5,23.2936517119,28.690897492399998,-11.9051302549,0.005891265407270001,-9.45725800076e-05
155,qDII-DR5-CLV3-LD_E33_171106_sam01_t05,E33,1,5,47.865590185,31.3672885558,-26.3813608261,0.026510892160099997,0.00041832313882199997
156,qDII-DR5-CLV3-LD_E33_171106_sam01_t05,E33,1,5,15.619789665799999,27.515555460999998,-9.10126713299,0.00976858370924,3.56247844594e-05
157,qDII-DR5-CLV3-LD_E33_171106_sam01_t05,E33,1,5,-19.8731854282,24.068386669200002,-9.223473115700001,0.012807919163,0.000142236792826
158,qDII-DR5-CLV3-LD_E33_171106_sam01_t05,E33,1,5,0.5357003346729999,25.172945237600004,-5.86666446925,0.0120461633788,0.000135077910573
159,qDII-DR5-CLV3-LD_E33_171106_sam01_t05,E33,1,5,-47.711603930900004,23.684960097199998,-29.662204982600002,0.010975311367200001,-0.00011280679279200002
160,qDII-DR5-CLV3-LD_E33_171106_sam01_t05,E33,1,5,36.9609277095,28.216508198400003,-17.6179979764,0.013679876580100002,-8.24625455488e-06
161,qDII-DR5-CLV3-LD_E33_171106_sam01_t05,E33,1,5,-35.629067810100004,22.670525326999996,-15.2871945831,0.0150378949609,0.00019322808279
162,qDII-DR5-CLV3-LD_E33_171106_sam01_t05,E33,1,5,-9.826791848780001,23.471653110100004,-6.4473553034,0.011128087546299998,0.000104810196011
163,qDII-DR5-CLV3-LD_E33_171106_sam01_t05,E33,1,5,49.8861621964,29.7208499524,-32.542321925799996,0.022911825152500002,0.000137925668772
164,qDII-DR5-CLV3-LD_E33_171106_sam01_t05,E33,1,5,21.156608093499997,25.6357627827,-9.64110894775,0.00777752643912,-1.97719845313e-05
165,qDII-DR5-CLV3-LD_E33_171106_sam01_t05,E33,1,5,49.4465476743,29.7755946067,-36.0396693627,0.0225638422742,0.00010233778744700001
166,qDII-DR5-CLV3-LD_E33_171106_sam01_t05,E33,1,5,-50.9791163558,22.49304746,-33.0586413237,0.010153098102200001,-0.00014229186360799998
167,qDII-DR5-CLV3-LD_E33_171106_sam01_t05,E33,1,5,11.6056022652,24.5304974617,-6.69915717423,0.0132112034409,0.000157013779501
168,qDII-DR5-CLV3-LD_E33_171106_sam01_t05,E33,1,5,-43.0904823214,21.6735107648,-21.904801057800004,0.013987731029799999,1.89896034942e-05
169,qDII-DR5-CLV3-LD_E33_171106_sam01_t05,E33,1,5,28.293736928,25.5247529729,-12.508975196700002,0.00649785633285,-8.04164267882e-05
170,qDII-DR5-CLV3-LD_E33_171106_sam01_t05,E33,1,5,44.81786129,27.5235650884,-22.9379341187,0.0222920534222,0.00017976101972
171,qDII-DR5-CLV3-LD_E33_171106_sam01_t05,E33,1,5,-14.585952069600001,21.9737237183,-7.40756493117,0.011160064742900001,0.00010130871690399999
172,qDII-DR5-CLV3-LD_E33_171106_sam01_t05,E33,1,5,-3.3536945313,22.2953223746,-4.64242951013,0.0119558692982,0.000131896335287
173,qDII-DR5-CLV3-LD_E33_171106_sam01_t05,E33,1,5,-23.9129664419,21.1684554848,-10.3455361652,0.0124272105737,0.000131274813816
174,qDII-DR5-CLV3-LD_E33_171106_sam01_t05,E33,1,5,33.553721980300004,25.4838198735,-15.238752794000002,0.009360091318200002,-8.53195578522e-05
175,qDII-DR5-CLV3-LD_E33_171106_sam01_t05,E33,1,5,-48.592535130600005,20.5141754362,-27.4960339702,0.011603972291299999,-0.000136543076937
176,qDII-DR5-CLV3-LD_E33_171106_sam01_t05,E33,1,5,-30.659587748699998,20.2464397261,-12.297372194000001,0.0133270455201,0.00016008153341999997
177,qDII-DR5-CLV3-LD_E33_171106_sam01_t05,E33,1,5,25.6583742489,23.6800147028,-10.113886834199999,0.007478208552540001,-2.23009935489e-05
178,qDII-DR5-CLV3-LD_E33_171106_sam01_t05,E33,1,5,-38.7565088542,18.590579863800002,-16.5671502594,0.012752276299,7.50299235791e-05
179,qDII-DR5-CLV3-LD_E33_171106_sam01_t05,E33,1,5,-19.5785674358,18.9055930763,-7.2981018384,0.0110038370034,9.43462851315e-05
180,qDII-DR5-CLV3-LD_E33_171106_sam01_t05,E33,1,5,40.3751777496,23.8948528695,-18.201408536400002,0.015605924062299999,-1.16541483236e-05
181,qDII-DR5-CLV3-LD_E33_171106_sam01_t05,E33,1,5,49.5717182854,25.4542212293,-29.3253821741,0.0204618466881,4.75257414432e-05
182,qDII-DR5-CLV3-LD_E33_171106_sam01_t05,E33,1,5,-6.81501879638,19.241285239,-3.4623937030300005,0.011823488192499999,0.000127919976139
183,qDII-DR5-CLV3-LD_E33_171106_sam01_t05,E33,1,5,9.13883588962,20.2042019913,-4.51255177989,0.014565293029200002,0.000204663922176
184,qDII-DR5-CLV3-LD_E33_171106_sam01_t05,E33,1,5,36.5522964185,23.1003854204,-16.8168505561,0.01210528408,-6.08852589092e-05
185,qDII-DR5-CLV3-LD_E33_171106_sam01_t05,E33,1,5,47.9833773387,24.6271764716,-25.7460276225,0.020860151797900003,7.02025660668e-05
186,qDII-DR5-CLV3-LD_E33_171106_sam01_t05,E33,1,5,-52.0935027008,17.7520615488,-29.822797590700002,0.0106701485617,-0.000172612517696
187,qDII-DR5-CLV3-LD_E33_171106_sam01_t05,E33,1,5,-43.073123243299996,17.529508258299998,-19.879149091400002,0.0115940120823,-7.43987750652e-05
188,qDII-DR5-CLV3-LD_E33_171106_sam01_t05,E33,1,5,2.41780819595,19.1970594176,-2.9402148003299997,0.0138916898175,0.000187832609677
189,qDII-DR5-CLV3-LD_E33_171106_sam01_t05,E33,1,5,-35.0993399794,17.1093299477,-13.4099832528,0.0124017388738,0.000122241062475
190,qDII-DR5-CLV3-LD_E33_171106_sam01_t05,E33,1,5,31.9009477307,21.4250851577,-13.088424961600001,0.00866155081526,-6.06407562355e-05
191,qDII-DR5-CLV3-LD_E33_171106_sam01_t05,E33,1,5,-54.354062237200004,17.04969718,-33.2515506987,0.00990863517665,-0.000166365103396
192,qDII-DR5-CLV3-LD_E33_171106_sam01_t05,E33,1,5,22.5143777421,20.1353317247,-7.81754876013,0.01083434611,8.92771803642e-05
193,qDII-DR5-CLV3-LD_E33_171106_sam01_t05,E33,1,5,-46.147674905600006,16.5595831348,-23.2716246375,0.0110831887796,-0.00017073583622400002
194,qDII-DR5-CLV3-LD_E33_171106_sam01_t05,E33,1,5,28.2024333953,19.9179843526,-10.5915255094,0.00887472202241,-4.5712564167700006e-07
195,qDII-DR5-CLV3-LD_E33_171106_sam01_t05,E33,1,5,15.710706589700001,18.4003647147,-5.11945752297,0.014227785066700001,0.00019204667168799998
196,qDII-DR5-CLV3-LD_E33_171106_sam01_t05,E33,1,5,-24.8463614844,15.7077189766,-8.35706175462,0.0114127797926,0.00010888723110900001
197,qDII-DR5-CLV3-LD_E33_171106_sam01_t05,E33,1,5,-49.5259301731,15.0534389279,-25.5075595596,0.011192811204899998,-0.00021690953416599997
198,qDII-DR5-CLV3-LD_E33_171106_sam01_t05,E33,1,5,-15.8771692533,15.6554193159,-5.46175927195,0.010691112035700001,9.22995604207e-05
199,qDII-DR5-CLV3-LD_E33_171106_sam01_t05,E33,1,5,-9.29540932505,15.9418546943,-3.54863119959,0.0117731664933,0.000126448489958
200,qDII-DR5-CLV3-LD_E33_171106_sam01_t05,E33,1,5,49.9097619702,22.1312438134,-34.3227810536,0.014638365790899999,-0.000103208183293
201,qDII-DR5-CLV3-LD_E33_171106_sam01_t05,E33,1,5,43.375832419700004,20.3628838723,-21.048209996500002,0.017112493136499998,-2.91238381413e-05
202,qDII-DR5-CLV3-LD_E33_171106_sam01_t05,E33,1,5,-39.9105385043,14.1415172009,-16.838105954,0.00916432483593,-6.62186047424e-05
203,qDII-DR5-CLV3-LD_E33_171106_sam01_t05,E33,1,5,-2.65745062898,15.401104339200002,-1.70499744995,0.013322862483700001,0.000169782434331
204,qDII-DR5-CLV3-LD_E33_171106_sam01_t05,E33,1,5,-54.0495550167,13.9771762421,-28.806145605999998,0.0110454867835,-0.000189301764979
205,qDII-DR5-CLV3-LD_E33_171106_sam01_t05,E33,1,5,20.584344578099998,17.0953880954,-5.5669402387,0.0134773551159,0.000169482150128
206,qDII-DR5-CLV3-LD_E33_171106_sam01_t05,E33,1,5,34.4028578012,18.2834441076,-13.5139428948,0.0106262934019,-2.61389692387e-05
207,qDII-DR5-CLV3-LD_E33_171106_sam01_t05,E33,1,5,39.1244549488,18.9247622036,-17.3292363927,0.013724397310299999,-2.86558438059e-05
208,qDII-DR5-CLV3-LD_E33_171106_sam01_t05,E33,1,5,-31.7838633218,13.4151811599,-11.581562276400001,0.011386364114600001,0.00010384898785499999
209,qDII-DR5-CLV3-LD_E33_171106_sam01_t05,E33,1,5,-21.4222222161,13.4763363026,-6.42043849911,0.0111204513019,0.00010180099670200001
210,qDII-DR5-CLV3-LD_E33_171106_sam01_t05,E33,1,5,49.647781902,20.1545669376,-30.928144700100002,0.012833748840399999,-0.00014607703190399997
211,qDII-DR5-CLV3-LD_E33_171106_sam01_t05,E33,1,5,-57.8558808851,12.6474463079,-30.997881376,0.010823668335599999,-0.000148737644534
212,qDII-DR5-CLV3-LD_E33_171106_sam01_t05,E33,1,5,-58.2669704844,13.1086665878,-36.8201924459,0.009368531822930001,-0.000144667659098
213,qDII-DR5-CLV3-LD_E33_171106_sam01_t05,E33,1,5,31.104314682800002,17.013521896500002,-11.0264954333,0.010638341476200002,2.25617117408e-05
214,qDII-DR5-CLV3-LD_E33_171106_sam01_t05,E33,1,5,26.0108457021,15.7214323399,-7.236497106080001,0.0126347960571,0.00013106566598200002
215,qDII-DR5-CLV3-LD_E33_171106_sam01_t05,E33,1,5,47.0099134521,18.6382947193,-24.9741361679,0.014945906660799998,-0.000146509544365
216,qDII-DR5-CLV3-LD_E33_171106_sam01_t05,E33,1,5,-42.818574095,11.8385694213,-19.1703607702,0.00806909729777,-0.000175517594132
217,qDII-DR5-CLV3-LD_E33_171106_sam01_t05,E33,1,5,-48.9156391156,11.3686025292,-23.4873987888,0.010561541853,-0.00024882818002299996
218,qDII-DR5-CLV3-LD_E33_171106_sam01_t05,E33,1,5,-14.756589675,11.701924588499999,-2.3213354392400003,0.0115906369095,0.00011940819996300001
219,qDII-DR5-CLV3-LD_E33_171106_sam01_t05,E33,1,5,10.0701896303,12.9115821694,-1.6232796667299998,0.015877303435,0.000248122966585
220,qDII-DR5-CLV3-LD_E33_171106_sam01_t05,E33,1,5,-37.4797279713,10.3937213329,-12.5963230406,0.00907740911568,3.53549942776e-06
221,qDII-DR5-CLV3-LD_E33_171106_sam01_t05,E33,1,5,-56.95844168520001,10.0340914777,-26.5579674789,0.013835810790899999,-0.00010244725610999999
222,qDII-DR5-CLV3-LD_E33_171106_sam01_t05,E33,1,5,47.6273437455,18.3968686788,-41.5228980944,0.0030612258913600005,-0.00018697164317700002
223,qDII-DR5-CLV3-LD_E33_171106_sam01_t05,E33,1,5,-19.6120175077,10.503035686,-4.42863370032,0.0117521903879,0.00012082976998799999
224,qDII-DR5-CLV3-LD_E33_171106_sam01_t05,E33,1,5,-8.80783057024,11.001048615,-1.61929912727,0.0130211917802,0.000159854608282
225,qDII-DR5-CLV3-LD_E33_171106_sam01_t05,E33,1,5,-0.031173562726699997,11.546829933,-1.0181739112100001,0.0149929058478,0.000219848859042
226,qDII-DR5-CLV3-LD_E33_171106_sam01_t05,E33,1,5,-52.1976267713,9.56341783295,-24.576245077600003,0.012810046647099999,-0.00019646246210199998
227,qDII-DR5-CLV3-LD_E33_171106_sam01_t05,E33,1,5,-27.5721766185,9.896349070860001,-8.62495664801,0.012118472796,0.00012862218817799999
228,qDII-DR5-CLV3-LD_E33_171106_sam01_t05,E33,1,5,18.8774517925,12.7153045689,-4.61582178168,0.0145086324971,0.00020261194142099997
229,qDII-DR5-CLV3-LD_E33_171106_sam01_t05,E33,1,5,-40.1402587247,9.45417837005,-16.015624157999998,0.00691051296091,-0.000107743313041
230,qDII-DR5-CLV3-LD_E33_171106_sam01_t05,E33,1,5,41.5862961754,15.2549759094,-18.971337281900002,0.014040174527799999,-1.80926656263e-05
231,qDII-DR5-CLV3-LD_E33_171106_sam01_t05,E33,1,5,45.4798515052,15.835529684,-22.732979637199996,0.0142234016744,-0.000127152132056
232,qDII-DR5-CLV3-LD_E33_171106_sam01_t05,E33,1,5,-61.1502635397,9.08045500847,-31.0478413106,0.014652647523100002,5.62444372969e-05
233,qDII-DR5-CLV3-LD_E33_171106_sam01_t05,E33,1,5,35.1800904692,14.0856535451,-12.723777865799999,0.0126896724997,6.81886089587e-05
234,qDII-DR5-CLV3-LD_E33_171106_sam01_t05,E33,1,5,-61.7543139015,9.31968777469,-36.8741131755,0.012664939327200002,3.30401223913e-05
235,qDII-DR5-CLV3-LD_E33_171106_sam01_t05,E33,1,5,-46.1125312107,9.09164661425,-21.5105371763,0.008545262619140001,-0.000245351866135
236,qDII-DR5-CLV3-LD_E33_171106_sam01_t05,E33,1,5,38.4381392047,14.0073620197,-14.1375918117,0.013159305898200002,6.02055307589e-05
237,qDII-DR5-CLV3-LD_E33_171106_sam01_t05,E33,1,5,-59.6879917442,7.339859152689999,-26.5786714478,0.017800274553900004,6.66402051492e-05
238,qDII-DR5-CLV3-LD_E33_171106_sam01_t05,E33,1,5,-5.258898767330001,8.877101077419999,-0.860550871406,0.014446079708499999,0.000201402551135
239,qDII-DR5-CLV3-LD_E33_171106_sam01_t05,E33,1,5,22.9370976551,11.142767195,-5.02702693542,0.0143063912856,0.00018999428044200002
240,qDII-DR5-CLV3-LD_E33_171106_sam01_t05,E33,1,5,-24.9620294761,7.39740564225,-6.652055830519999,0.012878447026,0.00014949833469499998
241,qDII-DR5-CLV3-LD_E33_171106_sam01_t05,E33,1,5,28.072290172800002,10.994398959300002,-6.57892953306,0.014532094287,0.00018113051445099997
242,qDII-DR5-CLV3-LD_E33_171106_sam01_t05,E33,1,5,31.772884740100004,11.3529652202,-10.3445326833,0.014184380569599999,0.000150393904973
243,qDII-DR5-CLV3-LD_E33_171106_sam01_t05,E33,1,5,48.713961320600006,13.873761937000001,-26.6494538179,0.00978228808557,-0.000343338636082
244,qDII-DR5-CLV3-LD_E33_171106_sam01_t05,E33,1,5,-42.7991347851,6.54603237066,-18.4134125019,0.00519113116195,-0.000194716412355
245,qDII-DR5-CLV3-LD_E33_171106_sam01_t05,E33,1,5,-33.7080813289,6.109565405720001,-10.8468483776,0.0103829819918,7.27139113689e-05
246,qDII-DR5-CLV3-LD_E33_171106_sam01_t05,E33,1,5,-54.1255797033,5.37493965947,-23.594340254299997,0.0185157412569,-4.34970726004e-06
247,qDII-DR5-CLV3-LD_E33_171106_sam01_t05,E33,1,5,36.7572655712,10.3622201707,-11.952516818,0.0146481081674,0.00016426232308800002
248,qDII-DR5-CLV3-LD_E33_171106_sam01_t05,E33,1,5,-64.81651802729999,4.86269224831,-31.1230964159,0.0242785823558,0.000525717365669
249,qDII-DR5-CLV3-LD_E33_171106_sam01_t05,E33,1,5,45.4290423553,11.5769748002,-21.8891634654,0.0129030532147,-0.00011309442414299999
250,qDII-DR5-CLV3-LD_E33_171106_sam01_t05,E33,1,5,50.6923842561,12.847712633699999,-32.758294175500005,0.00396905372085,-0.000459022528425
251,qDII-DR5-CLV3-LD_E33_171106_sam01_t05,E33,1,5,18.729949492,7.9357216820700005,-2.62887777168,0.0147117361567,0.000209007368692
252,qDII-DR5-CLV3-LD_E33_171106_sam01_t05,E33,1,5,-39.5419371272,4.8276038605,-15.246793504700001,0.00499815000773,-0.000106305537418
253,qDII-DR5-CLV3-LD_E33_171106_sam01_t05,E33,1,5,-11.272516713900002,5.52621860039,-0.701397430988,0.014138661517399998,0.00019125077062799998
254,qDII-DR5-CLV3-LD_E33_171106_sam01_t05,E33,1,5,42.0598252382,10.5209662635,-17.0246316289,0.013143606992699999,5.77652538838e-05
255,qDII-DR5-CLV3-LD_E33_171106_sam01_t05,E33,1,5,-49.54367586,4.47548206771,-21.633952228600002,0.0112182548048,-0.00016520782916
256,qDII-DR5-CLV3-LD_E33_171106_sam01_t05,E33,1,5,-61.201923767299995,3.1817631398699997,-25.623592195700002,0.0242353123895,0.000321133748089
257,qDII-DR5-CLV3-LD_E33_171106_sam01_t05,E33,1,5,-45.3757929255,3.5456423152800007,-19.6467386317,0.0043079071804399995,-0.00022890992875299998
258,qDII-DR5-CLV3-LD_E33_171106_sam01_t05,E33,1,5,1.81086545458,5.04279886893,0.6916928016859999,0.0165366980215,0.00026827427462799996
259,qDII-DR5-CLV3-LD_E33_171106_sam01_t05,E33,1,5,-30.8628243482,3.21222019072,-8.92210750713,0.011606538677399999,0.000117017401403
260,qDII-DR5-CLV3-LD_E33_171106_sam01_t05,E33,1,5,49.712679673900006,10.3044345138,-28.1802916268,0.00697473432721,-0.000511322679976
261,qDII-DR5-CLV3-LD_E33_171106_sam01_t05,E33,1,5,-57.669121888199996,2.4131465798,-23.5787666611,0.0227748435739,0.000199116879949
262,qDII-DR5-CLV3-LD_E33_171106_sam01_t05,E33,1,5,11.5825058905,5.13639034451,0.00917113340759,0.0166181207138,0.000267698611694
263,qDII-DR5-CLV3-LD_E33_171106_sam01_t05,E33,1,5,47.8694978949,10.9441232386,-39.7752234189,-0.0012894878540199999,-0.00040949786832
264,qDII-DR5-CLV3-LD_E33_171106_sam01_t05,E33,1,5,25.1373843523,6.31637251741,-5.56470794273,0.014263182481200001,0.00018722137541099998
265,qDII-DR5-CLV3-LD_E33_171106_sam01_t05,E33,1,5,-26.4738812673,2.0907750852599998,-6.96568027654,0.013027883045099999,0.000155503800991
266,qDII-DR5-CLV3-LD_E33_171106_sam01_t05,E33,1,5,14.8827037019,4.43770951903,-1.45676355461,0.0158908212624,0.000244465470503
267,qDII-DR5-CLV3-LD_E33_171106_sam01_t05,E33,1,5,46.8417816175,8.038029537669999,-23.446826845700002,0.0110007344438,-0.00026107407875999996
268,qDII-DR5-CLV3-LD_E33_171106_sam01_t05,E33,1,5,40.3930012966,6.6690279811,-14.856930215899999,0.0137444508969,0.00014556853238100002
269,qDII-DR5-CLV3-LD_E33_171106_sam01_t05,E33,1,5,43.665525263,7.204008514710001,-18.5783342141,0.011982000767399999,2.44058110442e-05
270,qDII-DR5-CLV3-LD_E33_171106_sam01_t05,E33,1,5,30.3428253299,5.1340221148500005,-7.20347844377,0.0148613612328,0.000199531646696
271,qDII-DR5-CLV3-LD_E33_171106_sam01_t05,E33,1,5,-67.5444133933,0.199856886778,-30.122287611199997,0.033782737712300004,0.0009387632637899999
272,qDII-DR5-CLV3-LD_E33_171106_sam01_t05,E33,1,5,35.920563679299995,5.42251166541,-11.107170245699999,0.0155327553516,0.000215337480007
273,qDII-DR5-CLV3-LD_E33_171106_sam01_t05,E33,1,5,-69.1694663355,0.156337817975,-35.898869128499996,0.0341197059258,0.000953083804714
274,qDII-DR5-CLV3-LD_E33_171106_sam01_t05,E33,1,5,19.867084533,3.44696446949,-3.0647476893,0.0146557002517,0.00020628947717099997
275,qDII-DR5-CLV3-LD_E33_171106_sam01_t05,E33,1,5,-41.674394743,0.295468554892,-17.8103960653,0.000786732208752,-0.00021297689922
276,qDII-DR5-CLV3-LD_E33_171106_sam01_t05,E33,1,5,-48.9172548786,-0.564685308567,-20.8998687367,0.005285641068189999,-0.00019233496098
277,qDII-DR5-CLV3-LD_E33_171106_sam01_t05,E33,1,5,-34.0865330041,-0.568684783114,-11.349151816700001,0.008049938893050002,3.30473150007e-05
278,qDII-DR5-CLV3-LD_E33_171106_sam01_t05,E33,1,5,52.3704129726,7.3482381739,-35.6675683622,0.0016408525811700003,-0.0006094973886699999
279,qDII-DR5-CLV3-LD_E33_171106_sam01_t05,E33,1,5,-64.5909193407,-2.05479070675,-25.7991279901,0.0318967057613,0.0007940532692960001
280,qDII-DR5-CLV3-LD_E33_171106_sam01_t05,E33,1,5,-23.821585049,-1.02855764343,-5.04490020109,0.0135108178367,0.000170091108176
281,qDII-DR5-CLV3-LD_E33_171106_sam01_t05,E33,1,5,-20.5519923923,-0.9851795503949999,-2.9171675581,0.014195027687,0.000191652518949
282,qDII-DR5-CLV3-LD_E33_171106_sam01_t05,E33,1,5,27.695493190700002,2.34754573389,-6.05972019864,0.0141723487164,0.00018539302113400002
283,qDII-DR5-CLV3-LD_E33_171106_sam01_t05,E33,1,5,-60.8792063911,-2.39462331977,-23.7329680798,0.0256156300483,0.00046132938178
284,qDII-DR5-CLV3-LD_E33_171106_sam01_t05,E33,1,5,-17.4046864994,-1.3777026454799999,-3.17048008511,0.0145570207312,0.00020384093782200002
285,qDII-DR5-CLV3-LD_E33_171106_sam01_t05,E33,1,5,17.8267340653,0.9128577628899999,-1.9438542204900002,0.015774478151399998,0.000240127954685
286,qDII-DR5-CLV3-LD_E33_171106_sam01_t05,E33,1,5,49.944992057600004,6.0102934246599995,-39.1350294266,-0.00163337542591,-0.000633078136035
287,qDII-DR5-CLV3-LD_E33_171106_sam01_t05,E33,1,5,-44.9001836308,-2.33690187477,-18.9687366768,0.000228821578753,-0.00023969794697199998
288,qDII-DR5-CLV3-LD_E33_171106_sam01_t05,E33,1,5,46.017049185699996,4.04005914323,-21.3501501559,0.00929587575713,-0.000181184271513
289,qDII-DR5-CLV3-LD_E33_171106_sam01_t05,E33,1,5,49.33214776689999,4.77471886914,-27.4138913678,0.008495516669310001,-0.0005378385144939999
290,qDII-DR5-CLV3-LD_E33_171106_sam01_t05,E33,1,5,51.36260900640001,5.21855292076,-31.0548186521,0.00565051610556,-0.0006418033607030001
291,qDII-DR5-CLV3-LD_E33_171106_sam01_t05,E33,1,5,-37.2296784332,-2.47323077638,-13.6332466858,0.0033746740444399997,-8.69955913796e-05
292,qDII-DR5-CLV3-LD_E33_171106_sam01_t05,E33,1,5,13.8530410475,-0.723986499913,-0.6153777772969999,0.0172459769782,0.00028472454336000004
293,qDII-DR5-CLV3-LD_E33_171106_sam01_t05,E33,1,5,-29.2137460934,-3.51379838708,-7.21620158925,0.011581203692700002,0.000123032500984
294,qDII-DR5-CLV3-LD_E33_171106_sam01_t05,E33,1,5,22.978056506799998,-0.5908414504070001,-4.78183409687,0.014500350240799998,0.00019950518198299995
295,qDII-DR5-CLV3-LD_E33_171106_sam01_t05,E33,1,5,33.427778151700004,0.361274517492,-10.154521388,0.0151896099379,0.00021183078729599997
296,qDII-DR5-CLV3-LD_E33_171106_sam01_t05,E33,1,5,-69.2918005618,-5.5284403762,-28.0975356387,0.0371474395694,0.00116160842204
297,qDII-DR5-CLV3-LD_E33_171106_sam01_t05,E33,1,5,-73.0691759685,-5.63162619235,-34.904451513299996,0.0370636391926,0.0011807807987400001
298,qDII-DR5-CLV3-LD_E33_171106_sam01_t05,E33,1,5,43.769262724700006,0.6706928639199999,-17.9256274299,0.00885395536453,-7.32380647239e-05
299,qDII-DR5-CLV3-LD_E33_171106_sam01_t05,E33,1,5,-21.3060508254,-5.19706361925,-3.19757524338,0.0142582196282,0.000194382700037
300,qDII-DR5-CLV3-LD_E33_171106_sam01_t05,E33,1,5,2.92529072964,-4.1181060942,1.06489189441,0.0166791148425,0.00027008491173099997
301,qDII-DR5-CLV3-LD_E33_171106_sam01_t05,E33,1,5,-39.6534446551,-5.77977856216,-16.079194976700002,0.000253657293186,-0.000176781808688
302,qDII-DR5-CLV3-LD_E33_171106_sam01_t05,E33,1,5,-33.032041421799995,-5.78526643208,-10.6592674767,0.00776532730489,2.80630024243e-05
303,qDII-DR5-CLV3-LD_E33_171106_sam01_t05,E33,1,5,46.380686483699996,0.631954912438,-22.8233760272,0.00714047716628,-0.000340679942141
304,qDII-DR5-CLV3-LD_E33_171106_sam01_t05,E33,1,5,-42.066896110100004,-6.1759852005800004,-18.2953259237,-0.00120298197574,-0.000229171428154
305,qDII-DR5-CLV3-LD_E33_171106_sam01_t05,E33,1,5,37.8332766953,-1.2954330731200001,-11.7743879078,0.0134857185788,0.000144140801796
306,qDII-DR5-CLV3-LD_E33_171106_sam01_t05,E33,1,5,55.6479010181,1.97740959786,-36.3244340399,0.00323542157527,-0.0006630508926109999
307,qDII-DR5-CLV3-LD_E33_171106_sam01_t05,E33,1,5,-64.5433806468,-7.7609206241,-25.0769268831,0.030184368139,0.000821767418398
308,qDII-DR5-CLV3-LD_E33_171106_sam01_t05,E33,1,5,29.6627502815,-3.22898170153,-7.817944956980001,0.0145462420064,0.00019181681001599997
309,qDII-DR5-CLV3-LD_E33_171106_sam01_t05,E33,1,5,26.4468506218,-3.7710794762,-6.456251753049999,0.0145448262796,0.00019391082713099997
310,qDII-DR5-CLV3-LD_E33_171106_sam01_t05,E33,1,5,-30.2570329008,-7.64862948028,-8.64765870285,0.0103425827861,8.97978489817e-05
311,qDII-DR5-CLV3-LD_E33_171106_sam01_t05,E33,1,5,49.3796864607,-0.9314110482089999,-26.691690260900003,0.00556978779376,-0.0005782881293790001
312,qDII-DR5-CLV3-LD_E33_171106_sam01_t05,E33,1,5,-17.1079882752,-7.68903078257,-2.5138125058700003,0.0150317138629,0.00021814398877100001
313,qDII-DR5-CLV3-LD_E33_171106_sam01_t05,E33,1,5,-1.6673534196000002,-6.94905814218,1.16490299654,0.0149778117773,0.00021001221552800002
314,qDII-DR5-CLV3-LD_E33_171106_sam01_t05,E33,1,5,18.7444636529,-5.35289713321,-1.32742499824,0.0169630890072,0.000273704366579
315,qDII-DR5-CLV3-LD_E33_171106_sam01_t05,E33,1,5,-37.0292478208,-8.485518424139999,-14.1236677399,0.00330693330038,-0.00010508411708700002
316,qDII-DR5-CLV3-LD_E33_171106_sam01_t05,E33,1,5,53.0261624921,-0.8941935980239999,-31.656502786500003,0.0045755646698,-0.0007438973090969999
317,qDII-DR5-CLV3-LD_E33_171106_sam01_t05,E33,1,5,-25.5929111376,-8.64033112803,-5.52280846326,0.0131601587158,0.00016301189471899997
318,qDII-DR5-CLV3-LD_E33_171106_sam01_t05,E33,1,5,-9.44902699875,-7.94702930262,-0.719869103871,0.014746432477500002,0.000203021943932
319,qDII-DR5-CLV3-LD_E33_171106_sam01_t05,E33,1,5,-74.4446913039,-10.709151994600001,-32.85440437,0.038963814187800004,0.0014535439766
320,qDII-DR5-CLV3-LD_E33_171106_sam01_t05,E33,1,5,-61.2841027571,-10.6278836784,-23.179011584,0.0230621258132,0.000499035915842
321,qDII-DR5-CLV3-LD_E33_171106_sam01_t05,E33,1,5,23.4536658016,-6.473385640449999,-4.10383214193,0.0157958930214,0.00023119157577200004
322,qDII-DR5-CLV3-LD_E33_171106_sam01_t05,E33,1,5,-21.7002068856,-9.699914338169998,-4.704017875330001,0.01462800543,0.000206576110271
323,qDII-DR5-CLV3-LD_E33_171106_sam01_t05,E33,1,5,-71.60359478689999,-11.309428121199998,-28.3922561034,0.038047578382800006,0.00137340646455
324,qDII-DR5-CLV3-LD_E33_171106_sam01_t05,E33,1,5,45.929906116800005,-3.86377856542,-21.9701078648,0.00223469806433,-0.000480064931756
325,qDII-DR5-CLV3-LD_E33_171106_sam01_t05,E33,1,5,58.773348222799996,-1.44712426302,-40.3491104997,0.0055583579254499995,-0.0005122997726590001
326,qDII-DR5-CLV3-LD_E33_171106_sam01_t05,E33,1,5,8.42369500643,-8.49464705314,0.329979897156,0.0167028594785,0.000268619127891
327,qDII-DR5-CLV3-LD_E33_171106_sam01_t05,E33,1,5,-45.662476598999994,-10.6076616352,-20.747665404,0.000262365783869,-0.00026617011338299996
328,qDII-DR5-CLV3-LD_E33_171106_sam01_t05,E33,1,5,36.0582156818,-5.790068977000001,-12.0051052454,0.011640213134999999,7.54078536938e-05
329,qDII-DR5-CLV3-LD_E33_171106_sam01_t05,E33,1,5,-67.256800782,-11.810483926600002,-26.3837081307,0.0331059418123,0.0010435868859400002
330,qDII-DR5-CLV3-LD_E33_171106_sam01_t05,E33,1,5,13.3518770697,-8.658206369239998,-1.20850991482,0.0165820714763,0.000260210792176
331,qDII-DR5-CLV3-LD_E33_171106_sam01_t05,E33,1,5,32.3175522705,-6.67678048202,-9.45608505118,0.013216311591100002,0.00014745192329
332,qDII-DR5-CLV3-LD_E33_171106_sam01_t05,E33,1,5,42.3958276212,-5.55536748248,-17.1442839846,0.00469980867529,-0.000242402214406
333,qDII-DR5-CLV3-LD_E33_171106_sam01_t05,E33,1,5,-11.5434960024,-10.80248482,-0.798185010402,0.015457915002999999,0.000223604604913
334,qDII-DR5-CLV3-LD_E33_171106_sam01_t05,E33,1,5,58.358476236099996,-3.11764340844,-35.7418519852,0.00631477541739,-0.000607691432545
335,qDII-DR5-CLV3-LD_E33_171106_sam01_t05,E33,1,5,-34.583962057,-11.6200422332,-12.1894748788,0.00667171328571,-3.29959757199e-05
336,qDII-DR5-CLV3-LD_E33_171106_sam01_t05,E33,1,5,-4.11964456435,-10.6620815536,1.04391833862,0.0148114295282,0.00020095532315700002
337,qDII-DR5-CLV3-LD_E33_171106_sam01_t05,E33,1,5,-57.5422101917,-12.5298437023,-22.416302533099998,0.0180684469254,0.000265015140468
338,qDII-DR5-CLV3-LD_E33_171106_sam01_t05,E33,1,5,-53.9408145458,-12.3638393927,-21.479857675500003,0.0105819884968,-1.90134552442e-05
339,qDII-DR5-CLV3-LD_E33_171106_sam01_t05,E33,1,5,-42.2945360986,-12.0118585756,-18.7415478257,0.000508153204483,-0.00027946981894800003
340,qDII-DR5-CLV3-LD_E33_171106_sam01_t05,E33,1,5,-29.340958006199997,-11.9457813398,-9.052742254129999,0.0114407719856,0.000109970959535
341,qDII-DR5-CLV3-LD_E33_171106_sam01_t05,E33,1,5,-48.8622463348,-12.5050903874,-20.6720494788,0.00410212822843,-0.00022945782448900002
342,qDII-DR5-CLV3-LD_E33_171106_sam01_t05,E33,1,5,49.578036841199996,-5.79516415179,-25.9134076169,0.0009761237700810001,-0.000679033145009
343,qDII-DR5-CLV3-LD_E33_171106_sam01_t05,E33,1,5,21.387296181900002,-9.74243402451,-4.21689520982,0.0161182007507,0.00023249438201299998
344,qDII-DR5-CLV3-LD_E33_171106_sam01_t05,E33,1,5,16.8326406447,-10.8967062842,-1.63159745361,0.0162288026729,0.00024070782836999998
345,qDII-DR5-CLV3-LD_E33_171106_sam01_t05,E33,1,5,61.981438886199996,-4.14383368751,-45.499541217200004,0.00935766958243,-0.00027100056947900006
346,qDII-DR5-CLV3-LD_E33_171106_sam01_t05,E33,1,5,27.0753518351,-9.95978139665,-6.99087195911,0.0141751152078,0.000174677164251
347,qDII-DR5-CLV3-LD_E33_171106_sam01_t05,E33,1,5,-24.895816157600002,-13.8944121787,-7.1658093462600005,0.0142812290952,0.00019335154764800003
348,qDII-DR5-CLV3-LD_E33_171106_sam01_t05,E33,1,5,-17.1005184253,-13.923305944,-3.00819435494,0.016271360319100002,0.000252469561977
349,qDII-DR5-CLV3-LD_E33_171106_sam01_t05,E33,1,5,-7.62061213454,-13.424195440999998,-1.28284528189,0.0154594754351,0.000220382556426
350,qDII-DR5-CLV3-LD_E33_171106_sam01_t05,E33,1,5,57.7667734108,-6.365481045090001,-32.424631544499995,0.0066845344398700005,-0.0006062409648999999
351,qDII-DR5-CLV3-LD_E33_171106_sam01_t05,E33,1,5,-39.145575512600004,-14.3729847073,-17.973347579200002,0.0030506249790300003,-0.000252414540761
352,qDII-DR5-CLV3-LD_E33_171106_sam01_t05,E33,1,5,44.1548451033,-8.3584144693,-22.200825202399997,-0.00222518547452,-0.000637230749799
353,qDII-DR5-CLV3-LD_E33_171106_sam01_t05,E33,1,5,51.4853602392,-7.427368273039999,-27.3549471279,0.0015371767945,-0.00069520952389
354,qDII-DR5-CLV3-LD_E33_171106_sam01_t05,E33,1,5,54.8401021254,-6.98463179541,-29.9118889122,0.00431194778163,-0.000673240499005
355,qDII-DR5-CLV3-LD_E33_171106_sam01_t05,E33,1,5,-20.4668042327,-14.4877120401,-3.9927991596499997,0.0156929591332,0.00023826966276099996
356,qDII-DR5-CLV3-LD_E33_171106_sam01_t05,E33,1,5,37.830857316999996,-9.61998088956,-14.7888035723,0.00615935861864,-0.000147495159692
357,qDII-DR5-CLV3-LD_E33_171106_sam01_t05,E33,1,5,-63.76033282189999,-16.224383311500002,-25.8026564767,0.0284802505187,0.0007422721794680001
358,qDII-DR5-CLV3-LD_E33_171106_sam01_t05,E33,1,5,-59.8697088018,-16.1354319775,-23.715162190700003,0.0239917825618,0.00048083982497300006
359,qDII-DR5-CLV3-LD_E33_171106_sam01_t05,E33,1,5,6.815575603409999,-13.502237120799998,-1.1307331821700002,0.0139537228025,0.000189879590578
360,qDII-DR5-CLV3-LD_E33_171106_sam01_t05,E33,1,5,-50.77572403600001,-16.0802965018,-21.9977347077,0.0112813914345,-0.00013681858194299998
361,qDII-DR5-CLV3-LD_E33_171106_sam01_t05,E33,1,5,-12.9867540268,-15.1744945072,-2.22019013335,0.0162938251604,0.000248144479147
362,qDII-DR5-CLV3-LD_E33_171106_sam01_t05,E33,1,5,-36.7023699807,-16.3589739721,-14.7704510201,0.00623095839723,-0.000131060986126
363,qDII-DR5-CLV3-LD_E33_171106_sam01_t05,E33,1,5,62.3111141809,-8.12154993275,-35.239746644499995,0.013362716277700002,-0.00018009863857700002
364,qDII-DR5-CLV3-LD_E33_171106_sam01_t05,E33,1,5,-73.9529520853,-17.9470271622,-33.4624796938,0.034930340829,0.0012634914373699999
365,qDII-DR5-CLV3-LD_E33_171106_sam01_t05,E33,1,5,-44.6059047849,-16.9727778283,-21.3264847621,0.00527007327227,-0.00035532867724700004
366,qDII-DR5-CLV3-LD_E33_171106_sam01_t05,E33,1,5,24.0701975548,-13.603825671700001,-5.88978246538,0.014848657438,0.00018469443619799998
367,qDII-DR5-CLV3-LD_E33_171106_sam01_t05,E33,1,5,64.5766852589,-8.07611766752,-38.9288338758,0.0157354211819,2.45795923118e-05
368,qDII-DR5-CLV3-LD_E33_171106_sam01_t05,E33,1,5,-2.86968644879,-15.9851417407,-1.8211566960299999,0.014065422901399999,0.00018726625046599997
369,qDII-DR5-CLV3-LD_E33_171106_sam01_t05,E33,1,5,13.2771289997,-14.800237474700001,-2.86735397787,0.014521678504299999,0.000183426971651
370,qDII-DR5-CLV3-LD_E33_171106_sam01_t05,E33,1,5,40.11213278,-11.7499480942,-17.4737516107,-0.000686487545828,-0.00047038331401299995
371,qDII-DR5-CLV3-LD_E33_171106_sam01_t05,E33,1,5,30.6829881766,-13.2393807195,-9.860538195619998,0.0095554892433,4.87960526041e-05
372,qDII-DR5-CLV3-LD_E33_171106_sam01_t05,E33,1,5,34.6587614263,-12.7510710009,-12.457718336900001,0.00619354056847,-9.38853486804e-05
373,qDII-DR5-CLV3-LD_E33_171106_sam01_t05,E33,1,5,-33.5554896267,-17.5715655596,-12.733547075499999,0.00894969992125,-2.24961450714e-05
374,qDII-DR5-CLV3-LD_E33_171106_sam01_t05,E33,1,5,47.927342823400004,-11.0024334117,-25.0317834826,-0.0013845762829799999,-0.00070087243527
375,qDII-DR5-CLV3-LD_E33_171106_sam01_t05,E33,1,5,51.820472614399996,-11.2419481295,-26.5032093662,0.00324358201456,-0.0005806639557050001
376,qDII-DR5-CLV3-LD_E33_171106_sam01_t05,E33,1,5,19.075501956700002,-15.5234217695,-4.51161567454,0.0153951674648,0.00019324995121100001
377,qDII-DR5-CLV3-LD_E33_171106_sam01_t05,E33,1,5,-28.4632972626,-18.73968148,-9.6528959879,0.013805045096200001,0.000165575154088
378,qDII-DR5-CLV3-LD_E33_171106_sam01_t05,E33,1,5,-20.5572566877,-18.4543436756,-6.655782415549999,0.0153951652527,0.000231233044896
379,qDII-DR5-CLV3-LD_E33_171106_sam01_t05,E33,1,5,-6.55164532143,-18.0275050309,-2.90055099417,0.0145336969376,0.000196202616757
380,qDII-DR5-CLV3-LD_E33_171106_sam01_t05,E33,1,5,61.277291062799996,-10.986176863299999,-31.8609534711,0.013799612870799999,-0.000150696532805
381,qDII-DR5-CLV3-LD_E33_171106_sam01_t05,E33,1,5,-67.0947843205,-20.319519855,-27.0691993673,0.0316438534441,0.0009433280647989998
382,qDII-DR5-CLV3-LD_E33_171106_sam01_t05,E33,1,5,-48.0387041271,-19.6203393383,-22.471412587899998,0.011526422577200001,-0.00024809814367099994
383,qDII-DR5-CLV3-LD_E33_171106_sam01_t05,E33,1,5,56.25199031,-12.1637140427,-26.8891193492,0.00835923622676,-0.00037459026901899995
384,qDII-DR5-CLV3-LD_E33_171106_sam01_t05,E33,1,5,-52.9929053424,-20.1917216997,-22.166879312600003,0.017801025491500002,4.21047562754e-05
385,qDII-DR5-CLV3-LD_E33_171106_sam01_t05,E33,1,5,-56.373240841800005,-20.5493313624,-23.1341105367,0.0215784576663,0.00025785093376199997
386,qDII-DR5-CLV3-LD_E33_171106_sam01_t05,E33,1,5,4.76533590754,-18.1266164824,-2.5298735288,0.012005886886200001,0.000139562871185
387,qDII-DR5-CLV3-LD_E33_171106_sam01_t05,E33,1,5,-61.0778569878,-20.905843451099997,-25.185327260700003,0.0262856593372,0.0005714309447690001
388,qDII-DR5-CLV3-LD_E33_171106_sam01_t05,E33,1,5,43.374341979300006,-14.125308708,-21.4249729528,-0.00339496314418,-0.0006743342230009999
389,qDII-DR5-CLV3-LD_E33_171106_sam01_t05,E33,1,5,-39.2484229665,-20.101422946,-19.5974444809,0.0048021479787299995,-0.0003897116905249999
390,qDII-DR5-CLV3-LD_E33_171106_sam01_t05,E33,1,5,-15.1192116426,-19.7066298128,-4.78379269396,0.015553992967999999,0.000226779302793
391,qDII-DR5-CLV3-LD_E33_171106_sam01_t05,E33,1,5,10.328599026200001,-18.451398990799998,-4.12597527845,0.0122000985742,0.000127951471012
392,qDII-DR5-CLV3-LD_E33_171106_sam01_t05,E33,1,5,15.296849933399999,-18.0868130628,-4.4478821344,0.0145390574318,0.00016654826638299997
393,qDII-DR5-CLV3-LD_E33_171106_sam01_t05,E33,1,5,27.470823441900002,-16.8986160749,-8.74603591622,0.009931621833639999,6.25910755678e-05
394,qDII-DR5-CLV3-LD_E33_171106_sam01_t05,E33,1,5,36.2929863738,-15.661553124000001,-16.336384555,-0.0020205368200899997,-0.000452871336285
395,qDII-DR5-CLV3-LD_E33_171106_sam01_t05,E33,1,5,-34.5020832835,-21.1853686498,-15.3081320274,0.00784358608199,-0.000103644054857
396,qDII-DR5-CLV3-LD_E33_171106_sam01_t05,E33,1,5,-9.584473446739999,-20.437887946900002,-4.05493081066,0.0147815886381,0.000197172340131
397,qDII-DR5-CLV3-LD_E33_171106_sam01_t05,E33,1,5,-41.9915971787,-21.7687903453,-21.8909913407,0.00649073735379,-0.00045248545854300004
398,qDII-DR5-CLV3-LD_E33_171106_sam01_t05,E33,1,5,66.8988331811,-13.2866796494,-34.7952532415,0.021208886775,0.00032124829437700004
399,qDII-DR5-CLV3-LD_E33_171106_sam01_t05,E33,1,5,69.01444365020001,-12.4434872132,-43.120854953,0.020405320136900003,0.00033613838757899997
400,qDII-DR5-CLV3-LD_E33_171106_sam01_t05,E33,1,5,-31.576263075900002,-22.2063548842,-13.240441716400001,0.011148164954600002,5.54761887057e-05
401,qDII-DR5-CLV3-LD_E33_171106_sam01_t05,E33,1,5,62.162760802600005,-14.5412698044,-28.6723696914,0.0180661252491,0.000153638332508
402,qDII-DR5-CLV3-LD_E33_171106_sam01_t05,E33,1,5,-45.8400721229,-22.4781309794,-24.0306063687,0.0102906488758,-0.000331454402882
403,qDII-DR5-CLV3-LD_E33_171106_sam01_t05,E33,1,5,39.7060072598,-17.194536924,-20.2315243601,-0.0037779558647800006,-0.000611891247842
404,qDII-DR5-CLV3-LD_E33_171106_sam01_t05,E33,1,5,-49.5381609194,-23.1651632921,-23.8239233881,0.0148816629966,-0.000119492893782
405,qDII-DR5-CLV3-LD_E33_171106_sam01_t05,E33,1,5,6.1359260939,-21.0451724448,-4.035416166969999,0.011093295996299999,0.00010809043774700002
406,qDII-DR5-CLV3-LD_E33_171106_sam01_t05,E33,1,5,-25.6700785859,-23.106910049899998,-10.1960681908,0.014976625727299998,0.000210621751842
407,qDII-DR5-CLV3-LD_E33_171106_sam01_t05,E33,1,5,-21.3654336568,-22.9875765552,-8.135399476169999,0.0151921143777,0.000222002646098
408,qDII-DR5-CLV3-LD_E33_171106_sam01_t05,E33,1,5,0.160722298249,-21.8993066412,-3.6811925440499995,0.011332469939700001,0.00011718586938200002
409,qDII-DR5-CLV3-LD_E33_171106_sam01_t05,E33,1,5,47.8641386747,-17.0227948988,-23.1490809566,0.000861749106626,-0.000602212895975
410,qDII-DR5-CLV3-LD_E33_171106_sam01_t05,E33,1,5,21.8712264042,-20.2191163912,-8.61370804713,0.0111662106656,9.442629212699999e-05
411,qDII-DR5-CLV3-LD_E33_171106_sam01_t05,E33,1,5,-64.3015656438,-24.6867484249,-27.6123715702,0.0275769589249,0.00069836926601
412,qDII-DR5-CLV3-LD_E33_171106_sam01_t05,E33,1,5,30.7470823332,-19.480773122000002,-12.714630839000002,0.000935573116291,-0.000228353132681
413,qDII-DR5-CLV3-LD_E33_171106_sam01_t05,E33,1,5,69.8015655464,-14.5510051207,-39.8106561085,0.0228938513522,0.000446873183867
414,qDII-DR5-CLV3-LD_E33_171106_sam01_t05,E33,1,5,-12.4363102696,-23.56802146,-6.45667994952,0.0140395316551,0.00017586913952800001
415,qDII-DR5-CLV3-LD_E33_171106_sam01_t05,E33,1,5,-68.0793665894,-25.6100027335,-32.129070973299996,0.027716714146500003,0.000756843364034
416,qDII-DR5-CLV3-LD_E33_171106_sam01_t05,E33,1,5,-38.0972382336,-24.796976591999996,-20.0506879792,0.0053273458173,-0.00039958693395
417,qDII-DR5-CLV3-LD_E33_171106_sam01_t05,E33,1,5,56.8098175246,-18.1385022887,-25.046655180300004,0.0167025860587,0.00010416642526799998
418,qDII-DR5-CLV3-LD_E33_171106_sam01_t05,E33,1,5,18.1466929168,-22.461158873800002,-7.350765131639999,0.0127390879319,0.00012486605598600002
419,qDII-DR5-CLV3-LD_E33_171106_sam01_t05,E33,1,5,-7.5085537452199995,-24.5516492685,-5.70495328991,0.0134952588399,0.000156955798012
420,qDII-DR5-CLV3-LD_E33_171106_sam01_t05,E33,1,5,-52.1970369798,-26.0733092915,-26.221711732,0.0152105775116,1.37990687048e-05
421,qDII-DR5-CLV3-LD_E33_171106_sam01_t05,E33,1,5,9.14855022404,-23.6354033312,-5.630887509780001,0.011862660552,0.00011239913793899999
422,qDII-DR5-CLV3-LD_E33_171106_sam01_t05,E33,1,5,-42.2890600881,-25.7506130612,-24.5405618109,0.00537375578953,-0.00040015372731800003
423,qDII-DR5-CLV3-LD_E33_171106_sam01_t05,E33,1,5,52.4762221338,-19.4843799014,-22.492143790500002,0.00914941923909,-0.000269941196911
424,qDII-DR5-CLV3-LD_E33_171106_sam01_t05,E33,1,5,-32.5088070407,-26.0269544077,-15.832400249,0.00934061492069,-4.07752573742e-05
425,qDII-DR5-CLV3-LD_E33_171106_sam01_t05,E33,1,5,3.79437779179,-24.4439642865,-5.3169022438599995,0.011215320267299999,0.00010392344064899998
426,qDII-DR5-CLV3-LD_E33_171106_sam01_t05,E33,1,5,42.6359879312,-20.5125922468,-20.7012414453,-0.00120071759358,-0.0006069580949430001
427,qDII-DR5-CLV3-LD_E33_171106_sam01_t05,E33,1,5,-58.9436582866,-26.995325050300004,-28.1735477607,0.0202976531554,0.00032637965430199996
428,qDII-DR5-CLV3-LD_E33_171106_sam01_t05,E33,1,5,-27.569081056199998,-26.0688441054,-13.829343472,0.013068800605500001,0.00014656942351
429,qDII-DR5-CLV3-LD_E33_171106_sam01_t05,E33,1,5,25.008643069,-22.701912141300003,-11.387054389600001,0.00462548525572,-8.20066458494e-05
430,qDII-DR5-CLV3-LD_E33_171106_sam01_t05,E33,1,5,-15.344345860299999,-25.8709692397,-8.78893476566,0.0133538004688,0.000159993898996
431,qDII-DR5-CLV3-LD_E33_171106_sam01_t05,E33,1,5,60.855413695100005,-19.5042432292,-25.440486753400002,0.0224803928702,0.00041195247272800007
432,qDII-DR5-CLV3-LD_E33_171106_sam01_t05,E33,1,5,36.7711014393,-21.872563365799998,-19.2173027697,-0.00291451300744,-0.000569861756347
433,qDII-DR5-CLV3-LD_E33_171106_sam01_t05,E33,1,5,-46.22017849109999,-27.1877781317,-25.554422581399997,0.00713918514931,-0.00029596277703200003
434,qDII-DR5-CLV3-LD_E33_171106_sam01_t05,E33,1,5,-34.9623273396,-26.9513062902,-19.265114152,0.00577557345603,-0.000268782507087
435,qDII-DR5-CLV3-LD_E33_171106_sam01_t05,E33,1,5,-0.56481121209,-25.7047150844,-6.28656386228,0.0114775199149,0.000108396981067
436,qDII-DR5-CLV3-LD_E33_171106_sam01_t05,E33,1,5,64.5841076463,-19.559269835,-29.240837065,0.023763883054,0.000503376563367
437,qDII-DR5-CLV3-LD_E33_171106_sam01_t05,E33,1,5,-23.1801379754,-27.1902892108,-11.8729162414,0.014732482334200003,0.00019314208587099997
438,qDII-DR5-CLV3-LD_E33_171106_sam01_t05,E33,1,5,32.312713514,-23.325876114899998,-15.4849163802,-0.00213323155275,-0.000407933063578
439,qDII-DR5-CLV3-LD_E33_171106_sam01_t05,E33,1,5,-67.4661442222,-28.8032366916,-35.9580468438,0.0243148952598,0.0005749651580959999
440,qDII-DR5-CLV3-LD_E33_171106_sam01_t05,E33,1,5,-62.361982398,-29.029614501199998,-31.6260656388,0.022095038358200002,0.000448203392303
441,qDII-DR5-CLV3-LD_E33_171106_sam01_t05,E33,1,5,71.1994040389,-19.523290934600002,-36.7705129649,0.0265414398129,0.000650808466357
442,qDII-DR5-CLV3-LD_E33_171106_sam01_t05,E33,1,5,12.1611743542,-26.2256342175,-7.22635885258,0.013078478672899999,0.000131984945963
443,qDII-DR5-CLV3-LD_E33_171106_sam01_t05,E33,1,5,-39.7330314816,-28.5709053005,-23.7668703688,0.0024675184654,-0.00035051829111
444,qDII-DR5-CLV3-LD_E33_171106_sam01_t05,E33,1,5,72.8865183682,-19.3237527181,-42.761699052800004,0.0252584880033,0.0005839469126919999
445,qDII-DR5-CLV3-LD_E33_171106_sam01_t05,E33,1,5,-9.09022845735,-28.0042291663,-8.22192630411,0.0133892898731,0.00015065056965200003
446,qDII-DR5-CLV3-LD_E33_171106_sam01_t05,E33,1,5,27.3180179159,-25.2454722127,-14.106749589400001,0.000931201765416,-0.000249815962874
447,qDII-DR5-CLV3-LD_E33_171106_sam01_t05,E33,1,5,-30.503135799000002,-29.1067335625,-17.3955548248,0.00857962483018,-3.07237149684e-05
448,qDII-DR5-CLV3-LD_E33_171106_sam01_t05,E33,1,5,-48.9071539354,-29.682331264299997,-27.9174637638,0.004265099310900001,-0.000249525999488
449,qDII-DR5-CLV3-LD_E33_171106_sam01_t05,E33,1,5,22.417509697699998,-26.315574255700003,-10.312790467200001,0.00673895996871,-2.65646808931e-05
450,qDII-DR5-CLV3-LD_E33_171106_sam01_t05,E33,1,5,49.706177692,-23.5268259629,-21.439214243800002,0.0118925035711,-0.00015082257268000002
451,qDII-DR5-CLV3-LD_E33_171106_sam01_t05,E33,1,5,-18.3891434457,-29.2230902664,-11.194644699500001,0.0145107908352,0.00017024283361400001
452,qDII-DR5-CLV3-LD_E33_171106_sam01_t05,E33,1,5,16.9385447308,-27.231570347399998,-8.82093020161,0.0121008672334,0.00010615797230099999
453,qDII-DR5-CLV3-LD_E33_171106_sam01_t05,E33,1,5,-12.814336405899999,-29.4262031565,-9.24919986021,0.0131574079106,0.00014622807045299997
454,qDII-DR5-CLV3-LD_E33_171106_sam01_t05,E33,1,5,-2.50638829722,-28.8663283321,-7.57750192982,0.012981964946000001,0.000136527646011
455,qDII-DR5-CLV3-LD_E33_171106_sam01_t05,E33,1,5,39.4118537364,-25.113565713000003,-20.8380692832,0.0025313537663699997,-0.00048543330738599997
456,qDII-DR5-CLV3-LD_E33_171106_sam01_t05,E33,1,5,68.2458625238,-22.5175203471,-30.9112939262,0.0281095683062,0.000752191391698
457,qDII-DR5-CLV3-LD_E33_171106_sam01_t05,E33,1,5,-64.0535488751,-31.156288984,-37.5629701772,0.0186131811805,0.00036998180510800004
458,qDII-DR5-CLV3-LD_E33_171106_sam01_t05,E33,1,5,-35.9911389162,-30.4728653244,-23.0041613179,0.0015400698502900001,-0.000266647405105
459,qDII-DR5-CLV3-LD_E33_171106_sam01_t05,E33,1,5,3.5390639582300003,-29.0461763025,-8.01859345613,0.0123524446799,0.000124681101283
460,qDII-DR5-CLV3-LD_E33_171106_sam01_t05,E33,1,5,-44.2545760933,-30.7957025305,-28.334160113200003,-0.0056645022162199994,-0.00041140005363999996
461,qDII-DR5-CLV3-LD_E33_171106_sam01_t05,E33,1,5,64.3944562699,-23.7184634218,-27.201772313000003,0.027722176266,0.0007086856204660001
462,qDII-DR5-CLV3-LD_E33_171106_sam01_t05,E33,1,5,-25.850983495799998,-31.040173320999997,-15.5220347026,0.011098495855000001,9.97430785379e-05
463,qDII-DR5-CLV3-LD_E33_171106_sam01_t05,E33,1,5,7.30740121454,-29.393126156599998,-8.31214434013,0.0128533553873,0.00013322027318200003
464,qDII-DR5-CLV3-LD_E33_171106_sam01_t05,E33,1,5,34.3890587544,-26.6195689441,-19.425155331,0.00117822527845,-0.000455040151716
465,qDII-DR5-CLV3-LD_E33_171106_sam01_t05,E33,1,5,-53.9675119906,-32.0449457913,-31.2800529373,0.0045113581236,-0.000152516433007
466,qDII-DR5-CLV3-LD_E33_171106_sam01_t05,E33,1,5,58.50104485520001,-25.4849101666,-23.392870004499997,0.0257733912092,0.000537688079663
467,qDII-DR5-CLV3-LD_E33_171106_sam01_t05,E33,1,5,-31.7811069059,-32.0230943769,-21.069068463,0.0033910214166799997,-0.00014156877974799998
468,qDII-DR5-CLV3-LD_E33_171106_sam01_t05,E33,1,5,-48.5290414066,-32.4771634361,-31.6982796873,-0.0123601557912,-0.000563785342968
469,qDII-DR5-CLV3-LD_E33_171106_sam01_t05,E33,1,5,-39.298720185,-32.192923205700005,-27.617180615,-0.008444482254649999,-0.000393770027116
470,qDII-DR5-CLV3-LD_E33_171106_sam01_t05,E33,1,5,24.2446954077,-29.0040688652,-14.1874958903,0.00389518694258,-0.00018319790234200002
471,qDII-DR5-CLV3-LD_E33_171106_sam01_t05,E33,1,5,29.2695706216,-28.646600178200003,-16.8691135406,0.0012984470269800001,-0.000370473673052
472,qDII-DR5-CLV3-LD_E33_171106_sam01_t05,E33,1,5,54.2781923072,-26.5165562096,-21.9988600336,0.0234642537366,0.00039729313254599995
473,qDII-DR5-CLV3-LD_E33_171106_sam01_t05,E33,1,5,-57.7312632442,-33.1749965332,-35.814125921,0.00482998670295,-9.93454087081e-05
474,qDII-DR5-CLV3-LD_E33_171106_sam01_t05,E33,1,5,-60.6124286052,-33.102865650700004,-41.4928571436,0.000788077722013,-0.000192214759194
475,qDII-DR5-CLV3-LD_E33_171106_sam01_t05,E33,1,5,-27.420263209,-32.7309466157,-19.077894071,0.00678367238779,2.4114798896799997e-07
476,qDII-DR5-CLV3-LD_E33_171106_sam01_t05,E33,1,5,11.9058605206,-30.8278462335,-9.92805006486,0.0135244996031,0.00014349820372100002
477,qDII-DR5-CLV3-LD_E33_171106_sam01_t05,E33,1,5,36.2963821524,-28.251773065300004,-20.8666948421,0.00445833012784,-0.000430859897578
478,qDII-DR5-CLV3-LD_E33_171106_sam01_t05,E33,1,5,71.7010324857,-24.670893447199997,-34.858554473299996,0.029614363110700002,0.000844991115033
479,qDII-DR5-CLV3-LD_E33_171106_sam01_t05,E33,1,5,18.7938298248,-30.333657823600003,-12.730382786099998,0.00908837385589,5.94627756836e-06
480,qDII-DR5-CLV3-LD_E33_171106_sam01_t05,E33,1,5,-7.6072407353100004,-32.5771565956,-9.86645758772,0.0142149740784,0.00016604793915499997
481,qDII-DR5-CLV3-LD_E33_171106_sam01_t05,E33,1,5,73.8873169534,-24.0416146854,-45.5612405597,0.0245612499432,0.000560403251488
482,qDII-DR5-CLV3-LD_E33_171106_sam01_t05,E33,1,5,-35.9448293765,-33.390323712800004,-25.5936894561,-0.006580755145159999,-0.000316673686476
483,qDII-DR5-CLV3-LD_E33_171106_sam01_t05,E33,1,5,-21.9561990119,-33.2482910754,-15.9719478128,0.011684292531700002,0.00011443794030999999
484,qDII-DR5-CLV3-LD_E33_171106_sam01_t05,E33,1,5,-18.272585446199997,-33.1745308217,-13.871040741099998,0.014027406398899999,0.000150394813948
485,qDII-DR5-CLV3-LD_E33_171106_sam01_t05,E33,1,5,43.873125509,-28.4175275294,-20.2372136541,0.00988937989197,-0.000259161215137
486,qDII-DR5-CLV3-LD_E33_171106_sam01_t05,E33,1,5,-42.5521829179,-33.591632276300004,-31.0309905367,-0.0192014472751,-0.0006746852869809999
487,qDII-DR5-CLV3-LD_E33_171106_sam01_t05,E33,1,5,-12.4907679519,-33.3624526313,-11.9390086874,0.0144810671226,0.000162549480218
488,qDII-DR5-CLV3-LD_E33_171106_sam01_t05,E33,1,5,-1.6584816305399999,-33.278032569000004,-9.16442127575,0.015118603344,0.00019191750085599996
489,qDII-DR5-CLV3-LD_E33_171106_sam01_t05,E33,1,5,-55.1863530201,-35.2968898986,-40.8721975394,-0.017215699112099997,-0.000685066625203
490,qDII-DR5-CLV3-LD_E33_171106_sam01_t05,E33,1,5,48.9678236438,-29.9141095016,-20.7154827362,0.0180922322818,0.00010077951031499999
491,qDII-DR5-CLV3-LD_E33_171106_sam01_t05,E33,1,5,61.9016707423,-28.779700569699997,-26.2491234553,0.0303970451127,0.00080402194785
492,qDII-DR5-CLV3-LD_E33_171106_sam01_t05,E33,1,5,-44.314423393599995,-35.504393084600004,-34.5908107001,-0.027476947567500003,-0.000983830352881
493,qDII-DR5-CLV3-LD_E33_171106_sam01_t05,E33,1,5,67.4653593998,-28.2844145858,-30.1354416766,0.0327689958966,0.00100220417732
494,qDII-DR5-CLV3-LD_E33_171106_sam01_t05,E33,1,5,-49.515278368500006,-35.799043278,-37.779664066799995,-0.0238174429505,-0.00090498793309
495,qDII-DR5-CLV3-LD_E33_171106_sam01_t05,E33,1,5,3.62917726684,-34.5526270276,-9.638729562810001,0.015514153055399998,0.000206829936552
496,qDII-DR5-CLV3-LD_E33_171106_sam01_t05,E33,1,5,-38.8503591965,-36.021737544299995,-31.4848644418,-0.0269212571878,-0.000926225600482
497,qDII-DR5-CLV3-LD_E33_171106_sam01_t05,E33,1,5,25.3963056795,-32.8795540187,-16.9309558602,0.0052703466467900004,-0.000336903803225
498,qDII-DR5-CLV3-LD_E33_171106_sam01_t05,E33,1,5,-30.6013972502,-36.3121723972,-23.8472755942,-0.009859902895319999,-0.000320577011853
499,qDII-DR5-CLV3-LD_E33_171106_sam01_t05,E33,1,5,15.9275177711,-34.0770633957,-12.8245418727,0.0114801454393,7.48878661145e-05
500,qDII-DR5-CLV3-LD_E33_171106_sam01_t05,E33,1,5,31.9950466094,-32.3083126331,-20.8843380097,0.005939843879299999,-0.000473861922549
501,qDII-DR5-CLV3-LD_E33_171106_sam01_t05,E33,1,5,-7.450613891830001,-36.0004519067,-11.3262706733,0.015380659302100001,0.00020156002954400002
502,qDII-DR5-CLV3-LD_E33_171106_sam01_t05,E33,1,5,36.7703367541,-32.1657142188,-21.210205660699998,0.009676556137040002,-0.000389824244208
503,qDII-DR5-CLV3-LD_E33_171106_sam01_t05,E33,1,5,-16.763578572100002,-37.0125165735,-14.281615488,0.013759569917299999,0.00014446976942500002
504,qDII-DR5-CLV3-LD_E33_171106_sam01_t05,E33,1,5,74.5001137817,-28.054917135900002,-47.099999958699996,0.025079379654599995,0.000605248677484
505,qDII-DR5-CLV3-LD_E33_171106_sam01_t05,E33,1,5,7.385545063089999,-35.8413149925,-11.1836105642,0.0154077865527,0.000204755919924
506,qDII-DR5-CLV3-LD_E33_171106_sam01_t05,E33,1,5,12.6855989594,-35.3541028478,-12.696805205499999,0.013731333025,0.000150283822
507,qDII-DR5-CLV3-LD_E33_171106_sam01_t05,E33,1,5,21.0085917529,-34.546780442199996,-15.5756538457,0.007622338171890001,-0.000141219528443
508,qDII-DR5-CLV3-LD_E33_171106_sam01_t05,E33,1,5,-26.130236249499998,-37.5258615586,-20.7263861497,0.0009046542307589999,-7.13080006969e-05
509,qDII-DR5-CLV3-LD_E33_171106_sam01_t05,E33,1,5,-33.3160465395,-37.5730641708,-28.465786086999998,-0.028722982438599998,-0.0008788678914969999
510,qDII-DR5-CLV3-LD_E33_171106_sam01_t05,E33,1,5,-18.9419201887,-37.8071249983,-16.545906382000002,0.0110374499468,9.97845801131e-05
511,qDII-DR5-CLV3-LD_E33_171106_sam01_t05,E33,1,5,-1.76298377748,-37.0378677712,-11.810030951,0.017424936839700002,0.000269727166204
512,qDII-DR5-CLV3-LD_E33_171106_sam01_t05,E33,1,5,-42.0476231615,-38.2476323483,-34.968168686300004,-0.0334763696147,-0.00128845003803
513,qDII-DR5-CLV3-LD_E33_171106_sam01_t05,E33,1,5,27.1953920057,-35.1544557614,-20.770914122,0.006031841487930001,-0.000525043733209
514,qDII-DR5-CLV3-LD_E33_171106_sam01_t05,E33,1,5,-12.7039327096,-38.5850539474,-14.692820641800001,0.014848817318,0.000172815571106
515,qDII-DR5-CLV3-LD_E33_171106_sam01_t05,E33,1,5,45.7155900651,-34.1014901011,-20.8175634128,0.0187106883783,5.18002622171e-05
516,qDII-DR5-CLV3-LD_E33_171106_sam01_t05,E33,1,5,-48.6669461629,-39.3906790225,-41.6567998843,-0.0346954325466,-0.00121963575679
517,qDII-DR5-CLV3-LD_E33_171106_sam01_t05,E33,1,5,-33.3399854596,-39.4565403924,-30.9684463217,-0.037220565906300004,-0.00128302428989
518,qDII-DR5-CLV3-LD_E33_171106_sam01_t05,E33,1,5,40.9283304603,-35.1858266262,-21.7430258792,0.0167329559879,-0.00016229148316100001
519,qDII-DR5-CLV3-LD_E33_171106_sam01_t05,E33,1,5,62.956587863500005,-33.1762137263,-27.8494555869,0.0334853802267,0.00095645919396
520,qDII-DR5-CLV3-LD_E33_171106_sam01_t05,E33,1,5,68.31326606649999,-32.6961188227,-31.7223610225,0.037329231665599996,0.0012423355406800001
521,qDII-DR5-CLV3-LD_E33_171106_sam01_t05,E33,1,5,10.1089408189,-38.354492903200004,-13.9301313353,0.015587312315499998,0.00021156591418
522,qDII-DR5-CLV3-LD_E33_171106_sam01_t05,E33,1,5,-6.256854544119999,-40.4963263603,-14.1218513852,0.017621526076200003,0.00027302810277499997
523,qDII-DR5-CLV3-LD_E33_171106_sam01_t05,E33,1,5,18.0881611632,-38.611534825,-16.8690223076,0.010100846787,-7.51014612931e-05
524,qDII-DR5-CLV3-LD_E33_171106_sam01_t05,E33,1,5,23.113036377199997,-38.2540661381,-19.5506399579,0.00718800505269,-0.000373968576094
525,qDII-DR5-CLV3-LD_E33_171106_sam01_t05,E33,1,5,32.3888635231,-37.2785442748,-23.6610147404,0.009495971929540001,-0.000613297314449
526,qDII-DR5-CLV3-LD_E33_171106_sam01_t05,E33,1,5,37.0253114413,-37.0365845635,-22.791633811,0.013976099258,-0.00040762158571699996
527,qDII-DR5-CLV3-LD_E33_171106_sam01_t05,E33,1,5,-38.096639909699995,-41.282935836,-35.4875761191,-0.0380820668939,-0.00161586465101
528,qDII-DR5-CLV3-LD_E33_171106_sam01_t05,E33,1,5,-15.459076381800001,-41.1941594574,-18.2376976189,0.00848464674993,-3.4750914695699997e-06
529,qDII-DR5-CLV3-LD_E33_171106_sam01_t05,E33,1,5,-43.283445192600006,-41.784382462800004,-38.6938030665,-0.0340771299305,-0.0014129017414300001
530,qDII-DR5-CLV3-LD_E33_171106_sam01_t05,E33,1,5,-19.6108293923,-41.6196506825,-21.5109884946,-0.0035696835299600005,-0.000301152466598
531,qDII-DR5-CLV3-LD_E33_171106_sam01_t05,E33,1,5,74.3807108651,-33.2480928895,-45.14780311,0.035440617716599995,0.0012746993465499999
532,qDII-DR5-CLV3-LD_E33_171106_sam01_t05,E33,1,5,13.907457691,-40.263570168200005,-15.527133078699999,0.014342866654199999,0.00014691771763799999
533,qDII-DR5-CLV3-LD_E33_171106_sam01_t05,E33,1,5,51.0474782703,-37.1450084039,-22.61269614,0.0285646000838,0.0005798996560770001
534,qDII-DR5-CLV3-LD_E33_171106_sam01_t05,E33,1,5,-49.159450066800005,-42.445954708,-43.0416274515,-0.0339842959213,-0.0011983292960799999
535,qDII-DR5-CLV3-LD_E33_171106_sam01_t05,E33,1,5,4.89526530626,-41.2310181922,-13.789881876199999,0.020168768849,0.00038336985181999995
536,qDII-DR5-CLV3-LD_E33_171106_sam01_t05,E33,1,5,-25.926448788600002,-42.226478273400005,-29.356160316599997,-0.035557977984599996,-0.00114833655843
537,qDII-DR5-CLV3-LD_E33_171106_sam01_t05,E33,1,5,71.6176243417,-35.6918687366,-35.7257031066,0.0411688662481,0.00146781191541
538,qDII-DR5-CLV3-LD_E33_171106_sam01_t05,E33,1,5,-3.67230101487,-42.910142974,-15.673123575999998,0.0194675808685,0.00034006217597000004
539,qDII-DR5-CLV3-LD_E33_171106_sam01_t05,E33,1,5,58.9725800787,-37.7233991365,-26.750796487600002,0.0333987291733,0.0008711591580839999
540,qDII-DR5-CLV3-LD_E33_171106_sam01_t05,E33,1,5,25.4083615321,-40.5908297761,-22.252961576999997,0.00699244097346,-0.000504905585182
541,qDII-DR5-CLV3-LD_E33_171106_sam01_t05,E33,1,5,27.935061600500003,-40.2088576198,-24.7562522186,0.00720519889398,-0.0006172937953400001
542,qDII-DR5-CLV3-LD_E33_171106_sam01_t05,E33,1,5,44.8673442521,-39.1628682248,-23.5137634295,0.0252164929222,0.00023901417598799998
543,qDII-DR5-CLV3-LD_E33_171106_sam01_t05,E33,1,5,21.1574096001,-41.2088829525,-20.8242044447,0.00815542258635,-0.00031620202140599993
544,qDII-DR5-CLV3-LD_E33_171106_sam01_t05,E33,1,5,63.597484075699995,-37.6031090436,-29.422962147199996,0.037610436847599994,0.0010744461217200001
545,qDII-DR5-CLV3-LD_E33_171106_sam01_t05,E33,1,5,8.87269324894,-42.7113115101,-15.3655492439,0.0195531481168,0.00036817441652499996
546,qDII-DR5-CLV3-LD_E33_171106_sam01_t05,E33,1,5,-12.3361349478,-44.2902272665,-18.703453909100002,0.00657063463461,-0.000159816061939
547,qDII-DR5-CLV3-LD_E33_171106_sam01_t05,E33,1,5,34.8366550577,-40.7415341356,-25.285742048899998,0.012017079908,-0.000532757893274
548,qDII-DR5-CLV3-LD_E33_171106_sam01_t05,E33,1,5,72.97501591380001,-36.7634912809,-41.7943051073,0.04480947607559999,0.00183421564671
549,qDII-DR5-CLV3-LD_E33_171106_sam01_t05,E33,1,5,39.9152232687,-40.8827851303,-24.4779338522,0.0190722303154,-0.000180586958845
550,qDII-DR5-CLV3-LD_E33_171106_sam01_t05,E33,1,5,11.097769944100001,-44.0140929813,-17.9810029596,0.0185764740933,0.00032149920007200003
551,qDII-DR5-CLV3-LD_E33_171106_sam01_t05,E33,1,5,15.776792477,-43.5724540777,-19.4539592439,0.013420066591100002,5.05878889098e-05
552,qDII-DR5-CLV3-LD_E33_171106_sam01_t05,E33,1,5,-17.892306293,-45.7709114058,-25.493896196799998,-0.0252347363267,-0.00130477373189
553,qDII-DR5-CLV3-LD_E33_171106_sam01_t05,E33,1,5,53.772954258,-40.8067208588,-26.6279206092,0.0336494921019,0.000821151374668
554,qDII-DR5-CLV3-LD_E33_171106_sam01_t05,E33,1,5,-41.3893678712,-46.818530171999996,-34.5160232802,-0.025015871388300002,-0.00143531802253
555,qDII-DR5-CLV3-LD_E33_171106_sam01_t05,E33,1,5,0.8716142164,-45.486280354099996,-16.1980222045,0.0227570635799,0.00047914879259500004
556,qDII-DR5-CLV3-LD_E33_171106_sam01_t05,E33,1,5,31.4724494822,-42.4544747759,-27.5390505517,0.008919320894129999,-0.0005733790624380001
557,qDII-DR5-CLV3-LD_E33_171106_sam01_t05,E33,1,5,47.0378768724,-41.6070669992,-25.038210048899998,0.029456474833100002,0.000510499888741
558,qDII-DR5-CLV3-LD_E33_171106_sam01_t05,E33,1,5,-48.0392960274,-47.219517927700004,-37.6109871472,-0.013073662087,-0.0007657209121610001
559,qDII-DR5-CLV3-LD_E33_171106_sam01_t05,E33,1,5,-34.1584771957,-46.9001144194,-32.6778807262,-0.0351550146357,-0.00164470933046
560,qDII-DR5-CLV3-LD_E33_171106_sam01_t05,E33,1,5,65.9068589225,-40.146669115,-32.142657347,0.0413399088691,0.00117687663675
561,qDII-DR5-CLV3-LD_E33_171106_sam01_t05,E33,1,5,21.9583369667,-42.4985256418,-42.179255863200005,0.006196998877,-0.00036185017337999996
562,qDII-DR5-CLV3-LD_E33_171106_sam01_t05,E33,1,5,5.27503252807,-45.9944534005,-16.549185026099998,0.022990957574200003,0.0005036099350819999
563,qDII-DR5-CLV3-LD_E33_171106_sam01_t05,E33,1,5,21.645839432600003,-44.5095520469,-23.4753053156,0.00846643524081,-0.000302702856815
564,qDII-DR5-CLV3-LD_E33_171106_sam01_t05,E33,1,5,59.917179896099995,-41.6140753704,-29.4808436718,0.0381073053344,0.000963580365685
565,qDII-DR5-CLV3-LD_E33_171106_sam01_t05,E33,1,5,-4.3697351412900005,-47.129144283900004,-18.3132420556,0.0168996208383,0.000166234443262
566,qDII-DR5-CLV3-LD_E33_171106_sam01_t05,E33,1,5,17.4229868846,-45.54119809,-22.0812953447,0.0125991830359,-7.924353082560001e-06
567,qDII-DR5-CLV3-LD_E33_171106_sam01_t05,E33,1,5,31.1617879585,-44.5893640737,-34.751680384400004,0.00790631413509,-0.000420944802804
568,qDII-DR5-CLV3-LD_E33_171106_sam01_t05,E33,1,5,70.286763853,-41.7182498907,-37.286696875,0.0459922620106,0.0015598697756199998
569,qDII-DR5-CLV3-LD_E33_171106_sam01_t05,E33,1,5,35.3953333501,-45.076185396899994,-28.023710823200002,0.012663577494000001,-0.000421616404292
570,qDII-DR5-CLV3-LD_E33_171106_sam01_t05,E33,1,5,-53.3752583038,-50.531944404799994,-39.8517828581,0.00271851899134,-0.000166075155028
571,qDII-DR5-CLV3-LD_E33_171106_sam01_t05,E33,1,5,55.9174677263,-43.9858613106,-29.386323765300002,0.037246631898300006,0.0009254155146310001
572,qDII-DR5-CLV3-LD_E33_171106_sam01_t05,E33,1,5,-46.24356654979999,-50.8060906034,-33.3115922962,0.00037395267880400003,-0.000441327207398
573,qDII-DR5-CLV3-LD_E33_171106_sam01_t05,E33,1,5,-9.23713243403,-49.2697712972,-21.671870434000002,-0.00422957890708,-0.000988716398332
574,qDII-DR5-CLV3-LD_E33_171106_sam01_t05,E33,1,5,8.191389046389999,-48.2856437975,-19.2917450023,0.0223710009609,0.000472962861675
575,qDII-DR5-CLV3-LD_E33_171106_sam01_t05,E33,1,5,-15.5949009062,-49.256209588100006,-29.464921514,-0.034444875493900004,-0.00219249990147
576,qDII-DR5-CLV3-LD_E33_171106_sam01_t05,E33,1,5,49.942263930699994,-44.839995507,-29.032100142399997,0.0334447082426,0.0007747116295760001
577,qDII-DR5-CLV3-LD_E33_171106_sam01_t05,E33,1,5,12.4844900543,-48.2879799213,-20.7726228766,0.0188403771153,0.00031829613823100003
578,qDII-DR5-CLV3-LD_E33_171106_sam01_t05,E33,1,5,-1.57817115758,-49.5277698173,-19.877927032,0.0173437714293,0.000117262166864
579,qDII-DR5-CLV3-LD_E33_171106_sam01_t05,E33,1,5,-28.1803895528,-50.803254788500006,-28.698862330500003,-0.0303916843271,-0.00135466203136
580,qDII-DR5-CLV3-LD_E33_171106_sam01_t05,E33,1,5,19.967897108699997,-47.6630914554,-27.1393669631,0.0108924326248,-0.00010320636165899999
581,qDII-DR5-CLV3-LD_E33_171106_sam01_t05,E33,1,5,43.9129415991,-46.015478514099996,-29.8770858948,0.0266377479787,0.00037491609047300006
582,qDII-DR5-CLV3-LD_E33_171106_sam01_t05,E33,1,5,69.31292189,-43.27832312939999,-44.4069676087,0.048562590522,0.00174264473811
583,qDII-DR5-CLV3-LD_E33_171106_sam01_t05,E33,1,5,-34.2663361911,-51.9716205545,-27.184137288600002,-0.00449367808949,-0.0007197798476939999
584,qDII-DR5-CLV3-LD_E33_171106_sam01_t05,E33,1,5,23.5858482172,-48.0323496309,-29.779215855700002,0.0084284683025,-0.000234940773811
585,qDII-DR5-CLV3-LD_E33_171106_sam01_t05,E33,1,5,59.5374990668,-45.5036540303,-33.294876355999996,0.041343531637400004,0.000974252496031
586,qDII-DR5-CLV3-LD_E33_171106_sam01_t05,E33,1,5,66.1221903046,-44.7256162113,-37.230884924899996,0.04401537198969999,0.00115363310505
587,qDII-DR5-CLV3-LD_E33_171106_sam01_t05,E33,1,5,-10.942748603,-51.1896493466,-27.591401391799998,-0.026023969128799996,-0.0024148252121100004
588,qDII-DR5-CLV3-LD_E33_171106_sam01_t05,E33,1,5,14.573230293599998,-49.8198661473,-25.7517481816,0.0160880475298,0.000180171453041
589,qDII-DR5-CLV3-LD_E33_171106_sam01_t05,E33,1,5,4.27640056727,-51.078139845600006,-21.5916830514,0.0200549483585,0.000253976367845
590,qDII-DR5-CLV3-LD_E33_171106_sam01_t05,E33,1,5,14.068378853299999,-49.38807142979999,-36.2800680544,0.0208175924997,0.000318663408389
591,qDII-DR5-CLV3-LD_E33_171106_sam01_t05,E33,1,5,-21.0701309481,-53.289343260500004,-28.2202521729,-0.0309664765619,-0.0017865588266300003
592,qDII-DR5-CLV3-LD_E33_171106_sam01_t05,E33,1,5,-1.94588252683,-52.475610366400005,-22.4406295989,0.00786411294799,-0.000589107482533
593,qDII-DR5-CLV3-LD_E33_171106_sam01_t05,E33,1,5,8.985602716,-52.1986283528,-24.368090195100002,0.019595873798400002,0.000279042550872
594,qDII-DR5-CLV3-LD_E33_171106_sam01_t05,E33,1,5,-52.419965643000005,-55.941088005,-34.4598505102,0.0185598198626,0.00036813248009099996
595,qDII-DR5-CLV3-LD_E33_171106_sam01_t05,E33,1,5,17.3792695081,-51.6052196216,-29.624023210300003,0.0158948118469,0.000164364107398
596,qDII-DR5-CLV3-LD_E33_171106_sam01_t05,E33,1,5,11.0921750347,-51.805571586800006,-39.7941586652,0.010495407671900001,-0.000292830030629
597,qDII-DR5-CLV3-LD_E33_171106_sam01_t05,E33,1,5,-28.3564167762,-55.989313301,-24.3869546875,0.004633424812100001,-0.000228361543969
598,qDII-DR5-CLV3-LD_E33_171106_sam01_t05,E33,1,5,-3.39036970542,-54.0589485247,-27.1743639669,-0.0106256010767,-0.0021946546100100003
599,qDII-DR5-CLV3-LD_E33_171106_sam01_t05,E33,1,5,9.36163501286,-53.8449259804,-26.8802024205,0.0163874820313,2.0973968335999998e-05
600,qDII-DR5-CLV3-LD_E33_171106_sam01_t05,E33,1,5,-48.3773007821,-57.7984313862,-29.004545441999998,0.024857553943599998,0.0006384546525119999
601,qDII-DR5-CLV3-LD_E33_171106_sam01_t05,E33,1,5,-57.0518275585,-57.6600483124,-40.1568553073,0.0166125455293,0.00028386203045099997
602,qDII-DR5-CLV3-LD_E33_171106_sam01_t05,E33,1,5,3.6074913636400003,-54.890665529799996,-26.556765164,0.0077629279082,-0.000769421570372
603,qDII-DR5-CLV3-LD_E33_171106_sam01_t05,E33,1,5,-20.5424833493,-57.7020040956,-25.0743371446,-0.00887965888215,-0.00111689360197
604,qDII-DR5-CLV3-LD_E33_171106_sam01_t05,E33,1,5,12.250317686099999,-54.902455018400005,-31.8782317069,0.014225107425200001,-0.000108097952543
605,qDII-DR5-CLV3-LD_E33_171106_sam01_t05,E33,1,5,-13.3227110561,-57.085189469,-29.0679576512,-0.0214307486648,-0.00245188521734
606,qDII-DR5-CLV3-LD_E33_171106_sam01_t05,E33,1,5,6.7994521032,-56.2320439768,-30.4211186027,0.00680720993511,-0.000810741177229
607,qDII-DR5-CLV3-LD_E33_171106_sam01_t05,E33,1,5,-45.2709148109,-60.3592367101,-25.8940079819,0.027804581027,0.000779691889605
608,qDII-DR5-CLV3-LD_E33_171106_sam01_t05,E33,1,5,8.06435845089,-54.8728866064,-48.066378821,-0.015588031722899999,-0.00158801110096
609,qDII-DR5-CLV3-LD_E33_171106_sam01_t05,E33,1,5,2.31589610357,-56.7801614185,-32.503121693000004,-0.00660174660768,-0.00202645460302
610,qDII-DR5-CLV3-LD_E33_171106_sam01_t05,E33,1,5,-52.278239569300005,-60.797723867600006,-31.321857071900002,0.025914471800099998,0.000678020506432
611,qDII-DR5-CLV3-LD_E33_171106_sam01_t05,E33,1,5,-56.0419908229,-61.9277746095,-35.8559300556,0.0222895102379,0.000494871459745
612,qDII-DR5-CLV3-LD_E33_171106_sam01_t05,E33,1,5,7.88166499296,-57.4334099788,-37.6581436123,-0.00468323432388,-0.00129446551489
613,qDII-DR5-CLV3-LD_E33_171106_sam01_t05,E33,1,5,-30.2004970953,-62.238638566999995,-21.219074876700002,0.029538800166799998,0.000881735152506
614,qDII-DR5-CLV3-LD_E33_171106_sam01_t05,E33,1,5,-4.89720995507,-60.0225111853,-34.6058287523,-0.0116924582597,-0.0025792297162199997
615,qDII-DR5-CLV3-LD_E33_171106_sam01_t05,E33,1,5,-8.55565544647,-61.001466746300004,-30.892346344,-0.0130025850149,-0.0026057671128
616,qDII-DR5-CLV3-LD_E33_171106_sam01_t05,E33,1,5,-17.6248976768,-62.781866021599996,-24.505167875599998,0.00838241994163,-0.0006590439573840001
617,qDII-DR5-CLV3-LD_E33_171106_sam01_t05,E33,1,5,-49.2805162088,-64.8212953053,-28.3195218908,0.0309823330358,0.0009241978718150002
618,qDII-DR5-CLV3-LD_E33_171106_sam01_t05,E33,1,5,-35.1245186948,-64.3721483392,-22.217992460799998,0.0314127328035,0.000979558605312
619,qDII-DR5-CLV3-LD_E33_171106_sam01_t05,E33,1,5,-59.333442167799994,-65.0031634683,-41.7550266314,0.0288367159546,0.000724903962793
620,qDII-DR5-CLV3-LD_E33_171106_sam01_t05,E33,1,5,-55.4436692254,-66.554349119,-35.087099402199996,0.0270712455737,0.0006738400762069999
621,qDII-DR5-CLV3-LD_E33_171106_sam01_t05,E33,1,5,-0.17187788247900002,-62.49833067,-38.668313174699996,-0.0049881473277299995,-0.0016290357284400002
622,qDII-DR5-CLV3-LD_E33_171106_sam01_t05,E33,1,5,-42.3797738293,-66.9941088059,-24.268578778000002,0.0312503162007,0.0009457784432580001
623,qDII-DR5-CLV3-LD_E33_171106_sam01_t05,E33,1,5,3.26758769439,-62.476304300200006,-43.6197129146,-0.00812498675851,-0.00125619531641
624,qDII-DR5-CLV3-LD_E33_171106_sam01_t05,E33,1,5,-12.9561899109,-65.2505682653,-26.2079415037,0.0103463816314,-0.000673431064556
625,qDII-DR5-CLV3-LD_E33_171106_sam01_t05,E33,1,5,6.996281645589999,-62.531330906,-47.4200632262,-0.00776168924893,-0.0010433079232899998
626,qDII-DR5-CLV3-LD_E33_171106_sam01_t05,E33,1,5,-47.000091823599995,-68.5913994948,-26.424036986100003,0.0327466360245,0.00100049135549
627,qDII-DR5-CLV3-LD_E33_171106_sam01_t05,E33,1,5,-57.4951380755,-68.3900569517,-39.797968994,0.0313611322826,0.0008223322331660001
628,qDII-DR5-CLV3-LD_E33_171106_sam01_t05,E33,1,5,-52.255065334399994,-69.2073984989,-30.812099728099998,0.0315364020844,0.00087332052363
629,qDII-DR5-CLV3-LD_E33_171106_sam01_t05,E33,1,5,-20.6705463399,-67.77412403310001,-22.330444866300002,0.026800789884,0.000598764492771
630,qDII-DR5-CLV3-LD_E33_171106_sam01_t05,E33,1,5,-39.6712788432,-70.940627268,-22.4172930253,0.0324227627379,0.0009891608741
631,qDII-DR5-CLV3-LD_E33_171106_sam01_t05,E33,1,5,-2.4721281864400004,-68.1576487966,-35.421487050399996,0.00907913006893,-0.000686448849868
632,qDII-DR5-CLV3-LD_E33_171106_sam01_t05,E33,1,5,3.96468267444,-67.73038535090001,-45.2627137976,0.00442706218173,-0.00039586647643999995
633,qDII-DR5-CLV3-LD_E33_171106_sam01_t05,E33,1,5,-44.110605535,-73.25766855399999,-25.8201205557,0.032210999402,0.000932873852164
634,qDII-DR5-CLV3-LD_E33_171106_sam01_t05,E33,1,5,0.747931937038,-69.9126201103,-39.3205876505,0.010331404264399999,-0.00033483328026299997
635,qDII-DR5-CLV3-LD_E33_171106_sam01_t05,E33,1,5,-7.065623413410001,-72.6287378294,-30.741043005100003,0.0230205729514,0.000349604851852
636,qDII-DR5-CLV3-LD_E33_171106_sam01_t05,E33,1,5,-38.5882623381,-75.7507332913,-24.052372318200003,0.030969429811700002,0.0008711432444310001
637,qDII-DR5-CLV3-LD_E33_171106_sam01_t05,E33,1,5,-11.5380610307,-73.8752541451,-26.991283034899997,0.0283648486235,0.000718605356031
638,qDII-DR5-CLV3-LD_E33_171106_sam01_t05,E33,1,5,-23.048854099899998,-75.6382671921,-22.785488352199998,0.032096984013400005,0.0009821121733180002
639,qDII-DR5-CLV3-LD_E33_171106_sam01_t05,E33,1,5,-28.5819376027,-76.8756120945,-22.4928374619,0.0309404307072,0.000907148341278
640,qDII-DR5-CLV3-LD_E33_171106_sam01_t05,E33,1,5,0.906639012414,-74.4844499656,-42.0491044341,0.018250445138599997,0.000272359109323
641,qDII-DR5-CLV3-LD_E33_171106_sam01_t05,E33,1,5,-42.2941601309,-79.6765728032,-27.634426851100002,0.0293650833029,0.0007549411111839999
642,qDII-DR5-CLV3-LD_E33_171106_sam01_t05,E33,1,5,-34.759991389,-80.0420064596,-24.6626084495,0.029261483628700003,0.000792324474097
643,qDII-DR5-CLV3-LD_E33_171106_sam01_t05,E33,1,5,-49.6448317995,-80.3593557958,-35.4125347448,0.0271799509919,0.0006083197878380001
644,qDII-DR5-CLV3-LD_E33_171106_sam01_t05,E33,1,5,-3.5240750678800006,-77.1714240738,-36.0612487344,0.0261242751738,0.000652494755521
645,qDII-DR5-CLV3-LD_E33_171106_sam01_t05,E33,1,5,-7.58249177625,-78.3875582288,-32.3383143355,0.030106940479900004,0.000878900910262
646,qDII-DR5-CLV3-LD_E33_171106_sam01_t05,E33,1,5,-50.8141402957,-81.8129504964,-38.977846103800005,0.024804407727500002,0.000488758990062
647,qDII-DR5-CLV3-LD_E33_171106_sam01_t05,E33,1,5,-12.4268012266,-80.28484600520001,-28.613849536,0.032657319920799996,0.00103188294641
648,qDII-DR5-CLV3-LD_E33_171106_sam01_t05,E33,1,5,-54.30228732810001,-81.9931892882,-44.6337125501,0.024535251450200003,0.000476394882164
649,qDII-DR5-CLV3-LD_E33_171106_sam01_t05,E33,1,5,-40.7425786421,-83.3148793627,-30.3873388117,0.028018933462299996,0.000696644123877
650,qDII-DR5-CLV3-LD_E33_171106_sam01_t05,E33,1,5,-24.2387921302,-82.9125441874,-26.8104343989,0.0289138646595,0.00082276822422
651,qDII-DR5-CLV3-LD_E33_171106_sam01_t05,E33,1,5,0.33607765251000005,-79.7445506834,-47.135801611400005,0.0221908270266,0.000447042429452
652,qDII-DR5-CLV3-LD_E33_171106_sam01_t05,E33,1,5,-45.7463123906,-85.6846111308,-36.1096387794,0.026866306433700003,0.0005778858481669999
653,qDII-DR5-CLV3-LD_E33_171106_sam01_t05,E33,1,5,-35.0813932186,-85.90730539709999,-29.8148391545,0.025338385137099996,0.0006048290595009999
654,qDII-DR5-CLV3-LD_E33_171106_sam01_t05,E33,1,5,-6.910990409339999,-83.5565124646,-37.5054882268,0.0270438390438,0.000708085110945
655,qDII-DR5-CLV3-LD_E33_171106_sam01_t05,E33,1,5,-10.762396663199999,-84.7574555392,-33.7959666136,0.029740295766400002,0.0008722607758210001
656,qDII-DR5-CLV3-LD_E33_171106_sam01_t05,E33,1,5,-46.7486792763,-87.6511599952,-40.9049458802,0.0241391954398,0.00038392384882
657,qDII-DR5-CLV3-LD_E33_171106_sam01_t05,E33,1,5,-5.33253869078,-84.8197403619,-43.6048765938,0.0247424520503,0.0005489577434219999
658,qDII-DR5-CLV3-LD_E33_171106_sam01_t05,E33,1,5,-28.384729983899998,-87.6037075374,-31.599619897199997,0.024063059550299998,0.0005682884206230001
659,qDII-DR5-CLV3-LD_E33_171106_sam01_t05,E33,1,5,-39.850017128699996,-88.6754389515,-35.5852990693,0.026511948208900002,0.000595898626676
660,qDII-DR5-CLV3-LD_E33_171106_sam01_t05,E33,1,5,-22.5462881829,-87.7987465882,-32.0272986379,0.0258308930376,0.0006746615090049999
661,qDII-DR5-CLV3-LD_E33_171106_sam01_t05,E33,1,5,-32.3959860748,-90.0971630961,-35.046646579699996,0.022251724808099997,0.00046377494273000004
662,qDII-DR5-CLV3-LD_E33_171106_sam01_t05,E33,1,5,-11.3205630242,-88.2557496538,-39.9215501451,0.027664717478,0.0007111154745689999
663,qDII-DR5-CLV3-LD_E33_171106_sam01_t05,E33,1,5,-6.74684625355,-87.9652059311,-49.642061821300004,0.026239290671099997,0.000590938894844
664,qDII-DR5-CLV3-LD_E33_171106_sam01_t05,E33,1,5,-41.0287893142,-91.39923781469999,-43.9608607154,0.0246994254713,0.000414068950142
665,qDII-DR5-CLV3-LD_E33_171106_sam01_t05,E33,1,5,-26.6376819618,-91.348492635,-37.9074912324,0.0204379014748,0.000403401493328
666,qDII-DR5-CLV3-LD_E33_171106_sam01_t05,E33,1,5,-9.810279533560001,-89.63352992850001,-47.2027743068,0.027377695284199997,0.000640118401846
667,qDII-DR5-CLV3-LD_E33_171106_sam01_t05,E33,1,5,-33.659481951,-92.4002518515,-41.0277502701,0.019354603043099997,0.000336525680151
668,qDII-DR5-CLV3-LD_E33_171106_sam01_t05,E33,1,5,-21.9544989651,-93.2039228197,-41.9178549128,0.0180849055408,0.00032075402148799994
669,qDII-DR5-CLV3-LD_E33_171106_sam01_t05,E33,1,5,-29.032923261,-94.24856479520001,-42.6784031562,0.0154338526887,0.000223030282929
670,qDII-DR5-CLV3-LD_E33_171106_sam01_t05,E33,1,5,-17.1907527416,-93.1829940239,-45.7852691527,0.0207527794967,0.000404317189125
671,qDII-DR5-CLV3-LD_E33_171106_sam01_t05,E33,1,5,-23.8530758966,-95.34578838280001,-47.841346665500005,0.0122415311475,0.00013381943364499998
672,qDII-DR5-CLV3-LD_E33_171106_sam01_t05,E33,1,5,-19.9332273788,88.86915048659999,-33.5253378311,0.026425477368799997,0.000644547503515
673,qDII-DR5-CLV3-LD_E33_171106_sam01_t05,E33,1,5,-10.8594940706,78.6747951538,-24.3753828475,0.035498480143499996,0.00123901259694
674,qDII-DR5-CLV3-LD_E33_171106_sam01_t05,E33,1,5,-22.4239801369,77.4105017884,-23.659014011700002,0.0341394161561,0.00114842249618
675,qDII-DR5-CLV3-LD_E33_171106_sam01_t05,E33,1,5,-16.6359219469,73.7769763462,-25.533093052199998,0.0335296188607,0.00109928732121
676,qDII-DR5-CLV3-LD_E33_171106_sam01_t05,E33,1,5,-37.2348371626,72.9420327047,-34.742999134899996,0.0207309131727,0.00035141578189499997
677,qDII-DR5-CLV3-LD_E33_171106_sam01_t05,E33,1,5,2.04009934073,75.01538671670001,-32.641501145300005,0.024004741190299998,0.000581902850799
678,qDII-DR5-CLV3-LD_E33_171106_sam01_t05,E33,1,5,-30.970452455100002,68.4702369194,-23.7637946696,0.029269143927299998,0.000885233678223
679,qDII-DR5-CLV3-LD_E33_171106_sam01_t05,E33,1,5,-20.6748993453,67.2683051406,-21.053210385,0.027655203095900003,0.0007803873592260001
680,qDII-DR5-CLV3-LD_E33_171106_sam01_t05,E33,1,5,-39.1760361713,65.3516109433,-28.1417750142,0.0234732268334,0.0005209320236869999
681,qDII-DR5-CLV3-LD_E33_171106_sam01_t05,E33,1,5,-34.4817347923,62.7977818847,-26.320375634,0.0219973031537,0.00046195988027599995
682,qDII-DR5-CLV3-LD_E33_171106_sam01_t05,E33,1,5,-2.61451980313,63.3754016528,-27.347058272199998,0.000936944917184,-0.00072818293081
683,qDII-DR5-CLV3-LD_E33_171106_sam01_t05,E33,1,5,-17.1180721537,59.730150933900006,-23.0790604498,0.00386393780401,-0.0005398752665440001
684,qDII-DR5-CLV3-LD_E33_171106_sam01_t05,E33,1,5,-8.09183007695,60.4908025245,-24.8336852331,-0.0010350922556399999,-0.000975522023339
685,qDII-DR5-CLV3-LD_E33_171106_sam01_t05,E33,1,5,-23.256057096,57.0919018129,-24.0322484814,-0.0008189251494189999,-0.0007108500788220001
686,qDII-DR5-CLV3-LD_E33_171106_sam01_t05,E33,1,5,-11.9911141711,55.5229070066,-26.129484089400002,-0.00916410493233,-0.00119346489732
687,qDII-DR5-CLV3-LD_E33_171106_sam01_t05,E33,1,5,28.068099311300003,46.344126802299996,-21.441986448199998,0.0182811315561,0.00029170512165599996
688,qDII-DR5-CLV3-LD_E33_171106_sam01_t05,E33,1,5,47.0850955934,44.7511621975,-39.396930061999996,0.033889767138,0.00101939679509
689,qDII-DR5-CLV3-LD_E33_171106_sam01_t05,E33,1,5,-3.55327406595,29.947747007100002,-8.73244139925,0.011713982597399999,0.000121521390711
690,qDII-DR5-CLV3-LD_E33_171106_sam01_t05,E33,1,5,16.714350092,22.827119056100003,-7.194799836989999,0.0124265661968,0.00013113102297799997
691,qDII-DR5-CLV3-LD_E33_171106_sam01_t05,E33,1,5,5.10193872309,12.5469962414,-1.30137281078,0.0158034502859,0.000245347831627
692,qDII-DR5-CLV3-LD_E33_171106_sam01_t05,E33,1,5,13.8406071185,11.416097771199999,-3.1855342488,0.015499153977000002,0.000235617497287
693,qDII-DR5-CLV3-LD_E33_171106_sam01_t05,E33,1,5,7.826563633069999,7.24514680178,-0.736164336794,0.0168225057192,0.00027609373223299997
694,qDII-DR5-CLV3-LD_E33_171106_sam01_t05,E33,1,5,-15.8949149401,5.07746245568,-1.5881519410299998,0.0136411104431,0.000175286383866
695,qDII-DR5-CLV3-LD_E33_171106_sam01_t05,E33,1,5,-7.88844628959,2.7666906823699997,0.0186428685023,0.0149993438821,0.00021661715996900002
696,qDII-DR5-CLV3-LD_E33_171106_sam01_t05,E33,1,5,-3.40281005806,2.16627357995,0.831942260806,0.0153928324654,0.00022904022551199999
697,qDII-DR5-CLV3-LD_E33_171106_sam01_t05,E33,1,5,-53.457009646,-0.28561701688,-22.912377504299997,0.0159212115439,3.92381879436e-05
698,qDII-DR5-CLV3-LD_E33_171106_sam01_t05,E33,1,5,6.85309974655,1.2562650494,0.0357271177974,0.0174293470008,0.00029512864813599997
699,qDII-DR5-CLV3-LD_E33_171106_sam01_t05,E33,1,5,-6.77775593947,-3.2770767000300003,0.639032885767,0.0146515328306,0.000202956908508
700,qDII-DR5-CLV3-LD_E33_171106_sam01_t05,E33,1,5,-56.624945073,-5.71377621653,-23.118699665,0.0160460318234,0.000181953577972
701,qDII-DR5-CLV3-LD_E33_171106_sam01_t05,E33,1,5,-50.2080465233,-6.0629212185800005,-21.244279549,0.00211584345663,-0.000191598189905
702,qDII-DR5-CLV3-LD_E33_171106_sam01_t05,E33,1,5,11.5796609733,-4.0082259643,-0.715028059523,0.017833407162500002,0.00030352136092
703,qDII-DR5-CLV3-LD_E33_171106_sam01_t05,E33,1,5,1.3188260196600001,-11.0942991984,0.625691588617,0.0150011618472,0.000215688868118
704,qDII-DR5-CLV3-LD_E33_171106_sam01_t05,E33,1,5,-71.00111272560001,-18.2330717191,-30.1608328461,0.0352626554967,0.0012440024720299999
705,qDII-DR5-CLV3-LD_E33_171106_sam01_t05,E33,1,5,65.5766802288,-9.18523961354,-47.330321099399995,0.014455075649600002,6.04635066496e-05
706,qDII-DR5-CLV3-LD_E33_171106_sam01_t05,E33,1,5,73.8476261859,-28.998568443200003,-38.8856613275,0.029680545723099996,0.0008724173336510001
707,qDII-DR5-CLV3-LD_E33_171106_sam01_t05,E33,1,5,42.0511241255,-43.69199276,-36.627020238600004,0.0193993130898,0.000107333319624
708,qDII-DR5-CLV3-LD_E33_171106_sam01_t05,E33,1,5,62.094000674499995,-42.255000771199995,-44.9937800453,0.0396344332468,0.000612384256107
709,qDII-DR5-CLV3-LD_E33_171106_sam01_t05,E33,1,5,-40.7799278915,-52.143503555500004,-27.915429566300002,0.00507946098256,-0.00039281274459400004
710,qDII-DR5-CLV3-LD_E33_171106_sam01_t05,E33,1,5,-36.8157460254,-57.025740461400005,-23.871777636599997,0.0183488698184,0.00025984309314599997
711,qDII-DR5-CLV3-LD_E33_171106_sam01_t05,E33,1,5,-24.8582941231,-62.3718157224,-22.78439026,0.0214899504582,0.00042005710816000005
712,qDII-DR5-CLV3-LD_E33_171106_sam01_t05,E33,1,5,-8.094095843669999,-66.6772145029,-30.196970808400003,0.0077179152038,-0.0009161394426099999
713,qDII-DR5-CLV3-LD_E33_171106_sam01_t05,E33,1,5,-33.4171614402,-73.0738871947,-21.850284563699997,0.0325507145153,0.000991737262285
714,qDII-DR5-CLV3-LD_E33_171106_sam01_t05,E33,1,5,-17.117454073199998,-72.1951406591,-24.1091040066,0.0303664095462,0.000833178743437
715,qDII-DR5-CLV3-LD_E33_171106_sam01_t05,E33,1,5,-54.0676894211,-74.5586456987,-35.8183201914,0.0321195993662,0.000838216419623
716,qDII-DR5-CLV3-LD_E33_171106_sam01_t05,E33,1,5,-47.764039484899996,-74.8935562186,-29.2244784868,0.032164368002999995,0.0008864188035199999
717,qDII-DR5-CLV3-LD_E33_171106_sam01_t05,E33,1,5,-56.2154258829,-76.095313042,-41.676278416399995,0.0316487374563,0.0007917385049730001
718,qDII-DR5-CLV3-LD_E33_171106_sam01_t05,E33,1,5,-17.7008359709,-80.0371164724,-25.8666983581,0.0327388257445,0.0010386256222200002
719,qDII-DR5-CLV3-LD_E33_171106_sam01_t05,E33,1,5,-29.8561737848,-82.9091104897,-26.4135420246,0.0278231240441,0.000750104269013
720,qDII-DR5-CLV3-LD_E33_171106_sam01_t05,E33,1,5,-1.95801834824,-80.19645857430001,-41.1217507472,0.0243063976711,0.0005556486944809999
721,qDII-DR5-CLV3-LD_E33_171106_sam01_t05,E33,1,5,-16.034351175599998,-85.6582605506,-32.317519133699996,0.0296325896466,0.0008799110239039999
722,qDII-DR5-CLV3-LD_E33_171106_sam01_t05,E33,1,5,-35.6601416512,-89.97740480030001,-46.5824360336,0.019078011046400004,0.00029486940333
723,qDII-DR5-CLV3-LD_E33_171106_sam01_t05,E33,1,5,-18.9382263025,-90.2582774186,-37.1871813459,0.026012826863099997,0.000672556244185
724,qDII-DR5-CLV3-LD_E33_171106_sam01_t05,E33,1,5,-4.827240429380001,80.3418806015,-29.3795337364,0.027273173416,0.0007677949927999999
725,qDII-DR5-CLV3-LD_E33_171106_sam01_t05,E33,1,5,3.05617677207,67.3020567871,-32.1466869878,0.00372899726586,-0.000198003416202
726,qDII-DR5-CLV3-LD_E33_171106_sam01_t05,E33,1,5,55.405012581099996,-33.9156545696,-22.664547295100004,0.0292499525372,0.0006709358634739999
727,qDII-DR5-CLV3-LD_E33_171106_sam01_t05,E33,1,5,44.625788426599996,-48.1960820287,-40.698326244899995,0.018726115997799997,0.00015877644709299998
